/store/mc/Run3Summer22NanoAODv12/DYto2L-2Jets_MLL-50_PTLL-100to200_1J_TuneCP5_13p6TeV_amcatnloFXFX-pythia8/NANOAODSIM/130X_mcRun3_2022_realistic_v5-v1/2550000/668ef337-9a67-4f0b-81d7-2e7868dc9d4a.root
/store/mc/Run3Summer22NanoAODv12/DYto2L-2Jets_MLL-50_PTLL-100to200_1J_TuneCP5_13p6TeV_amcatnloFXFX-pythia8/NANOAODSIM/130X_mcRun3_2022_realistic_v5-v1/2550000/48e3be74-86b8-4353-942d-e48963791015.root
/store/mc/Run3Summer22NanoAODv12/DYto2L-2Jets_MLL-50_PTLL-100to200_1J_TuneCP5_13p6TeV_amcatnloFXFX-pythia8/NANOAODSIM/130X_mcRun3_2022_realistic_v5-v1/2550000/f305fd31-d902-4980-9c1c-462189f8cbdd.root
/store/mc/Run3Summer22NanoAODv12/DYto2L-2Jets_MLL-50_PTLL-100to200_1J_TuneCP5_13p6TeV_amcatnloFXFX-pythia8/NANOAODSIM/130X_mcRun3_2022_realistic_v5-v1/2550000/f26a7294-71a4-43a2-b341-7fe2bd9835e5.root
/store/mc/Run3Summer22NanoAODv12/DYto2L-2Jets_MLL-50_PTLL-100to200_1J_TuneCP5_13p6TeV_amcatnloFXFX-pythia8/NANOAODSIM/130X_mcRun3_2022_realistic_v5-v1/2550000/74366a72-931b-400b-9195-654fa3c6bd38.root
/store/mc/Run3Summer22NanoAODv12/DYto2L-2Jets_MLL-50_PTLL-100to200_1J_TuneCP5_13p6TeV_amcatnloFXFX-pythia8/NANOAODSIM/130X_mcRun3_2022_realistic_v5-v1/2550000/6364d6d0-8926-4158-84d7-dba6bf2d14fd.root
/store/mc/Run3Summer22NanoAODv12/DYto2L-2Jets_MLL-50_PTLL-100to200_1J_TuneCP5_13p6TeV_amcatnloFXFX-pythia8/NANOAODSIM/130X_mcRun3_2022_realistic_v5-v1/2550000/3b2902df-00cc-4b28-a00e-8caed9df35fa.root
/store/mc/Run3Summer22NanoAODv12/DYto2L-2Jets_MLL-50_PTLL-100to200_1J_TuneCP5_13p6TeV_amcatnloFXFX-pythia8/NANOAODSIM/130X_mcRun3_2022_realistic_v5-v1/2550000/cbf24cbe-7d27-426d-a0b3-9b7ac891255b.root
/store/mc/Run3Summer22NanoAODv12/DYto2L-2Jets_MLL-50_PTLL-100to200_1J_TuneCP5_13p6TeV_amcatnloFXFX-pythia8/NANOAODSIM/130X_mcRun3_2022_realistic_v5-v1/2550000/d1dd917f-2ac7-4434-bf04-6570f89babec.root
/store/mc/Run3Summer22NanoAODv12/DYto2L-2Jets_MLL-50_PTLL-100to200_1J_TuneCP5_13p6TeV_amcatnloFXFX-pythia8/NANOAODSIM/130X_mcRun3_2022_realistic_v5-v1/2550000/3fb50e0b-1753-4ba8-a8cd-a96bd344283e.root
/store/mc/Run3Summer22NanoAODv12/DYto2L-2Jets_MLL-50_PTLL-100to200_1J_TuneCP5_13p6TeV_amcatnloFXFX-pythia8/NANOAODSIM/130X_mcRun3_2022_realistic_v5-v1/2550000/c15d911a-ed4b-42cb-a30c-c8e961aa3a45.root
/store/mc/Run3Summer22NanoAODv12/DYto2L-2Jets_MLL-50_PTLL-100to200_1J_TuneCP5_13p6TeV_amcatnloFXFX-pythia8/NANOAODSIM/130X_mcRun3_2022_realistic_v5-v1/2550000/dff5849f-e710-49b0-91a6-ff8b9a365e55.root
/store/mc/Run3Summer22NanoAODv12/DYto2L-2Jets_MLL-50_PTLL-100to200_1J_TuneCP5_13p6TeV_amcatnloFXFX-pythia8/NANOAODSIM/130X_mcRun3_2022_realistic_v5-v1/2550000/fe0e0576-1f92-4879-883d-15125329e1cb.root
/store/mc/Run3Summer22NanoAODv12/DYto2L-2Jets_MLL-50_PTLL-100to200_1J_TuneCP5_13p6TeV_amcatnloFXFX-pythia8/NANOAODSIM/130X_mcRun3_2022_realistic_v5-v1/2550000/9d8712a4-cff2-436f-9358-01b3a03fc3a4.root
/store/mc/Run3Summer22NanoAODv12/DYto2L-2Jets_MLL-50_PTLL-100to200_1J_TuneCP5_13p6TeV_amcatnloFXFX-pythia8/NANOAODSIM/130X_mcRun3_2022_realistic_v5-v1/2550000/210b8b79-3f6b-4421-b2e0-fc0b75225c33.root
/store/mc/Run3Summer22NanoAODv12/DYto2L-2Jets_MLL-50_PTLL-100to200_1J_TuneCP5_13p6TeV_amcatnloFXFX-pythia8/NANOAODSIM/130X_mcRun3_2022_realistic_v5-v1/2550000/f15a2628-6a29-406c-a96e-95416ebee267.root
/store/mc/Run3Summer22NanoAODv12/DYto2L-2Jets_MLL-50_PTLL-100to200_1J_TuneCP5_13p6TeV_amcatnloFXFX-pythia8/NANOAODSIM/130X_mcRun3_2022_realistic_v5-v1/2560000/9ca2ce4d-b8a5-4193-95fc-d7aaa1c7498e.root
/store/mc/Run3Summer22NanoAODv12/DYto2L-2Jets_MLL-50_PTLL-100to200_1J_TuneCP5_13p6TeV_amcatnloFXFX-pythia8/NANOAODSIM/130X_mcRun3_2022_realistic_v5-v1/2560000/a0801824-d606-4e87-8d3f-15902c0a29ac.root
/store/mc/Run3Summer22NanoAODv12/DYto2L-2Jets_MLL-50_PTLL-100to200_1J_TuneCP5_13p6TeV_amcatnloFXFX-pythia8/NANOAODSIM/130X_mcRun3_2022_realistic_v5-v1/2560000/9c10344e-6527-4ff6-953a-4fa8bb179d1a.root
/store/mc/Run3Summer22NanoAODv12/DYto2L-2Jets_MLL-50_PTLL-100to200_1J_TuneCP5_13p6TeV_amcatnloFXFX-pythia8/NANOAODSIM/130X_mcRun3_2022_realistic_v5-v1/2560000/1184f6b6-c170-4fa3-8890-8fcbca4cd832.root
/store/mc/Run3Summer22NanoAODv12/DYto2L-2Jets_MLL-50_PTLL-100to200_1J_TuneCP5_13p6TeV_amcatnloFXFX-pythia8/NANOAODSIM/130X_mcRun3_2022_realistic_v5-v1/70000/e2d2cad4-1fcb-4396-8186-b4e6bfffd8d5.root
/store/mc/Run3Summer22NanoAODv12/DYto2L-2Jets_MLL-50_PTLL-100to200_1J_TuneCP5_13p6TeV_amcatnloFXFX-pythia8/NANOAODSIM/130X_mcRun3_2022_realistic_v5-v1/70000/a3211724-7482-492a-ad0c-a58398c2f2e8.root
/store/mc/Run3Summer22NanoAODv12/DYto2L-2Jets_MLL-50_PTLL-100to200_1J_TuneCP5_13p6TeV_amcatnloFXFX-pythia8/NANOAODSIM/130X_mcRun3_2022_realistic_v5-v1/70000/2c8dfe1b-6028-4023-8d44-e26b642f8db3.root
/store/mc/Run3Summer22NanoAODv12/DYto2L-2Jets_MLL-50_PTLL-100to200_1J_TuneCP5_13p6TeV_amcatnloFXFX-pythia8/NANOAODSIM/130X_mcRun3_2022_realistic_v5-v1/70000/001717f3-b294-4aa7-a497-747850af45f0.root
/store/mc/Run3Summer22NanoAODv12/DYto2L-2Jets_MLL-50_PTLL-100to200_1J_TuneCP5_13p6TeV_amcatnloFXFX-pythia8/NANOAODSIM/130X_mcRun3_2022_realistic_v5-v1/2560000/af6b8f8a-f62a-48fc-8d38-d68aed5ef76b.root
/store/mc/Run3Summer22NanoAODv12/DYto2L-2Jets_MLL-50_PTLL-100to200_1J_TuneCP5_13p6TeV_amcatnloFXFX-pythia8/NANOAODSIM/130X_mcRun3_2022_realistic_v5-v1/2560000/e7cd0167-5bf6-41cf-8d05-9249c2f8b59f.root
/store/mc/Run3Summer22NanoAODv12/DYto2L-2Jets_MLL-50_PTLL-100to200_1J_TuneCP5_13p6TeV_amcatnloFXFX-pythia8/NANOAODSIM/130X_mcRun3_2022_realistic_v5-v1/70000/df50b68e-2a39-4d67-aefe-a93c766723d9.root
/store/mc/Run3Summer22NanoAODv12/DYto2L-2Jets_MLL-50_PTLL-100to200_1J_TuneCP5_13p6TeV_amcatnloFXFX-pythia8/NANOAODSIM/130X_mcRun3_2022_realistic_v5-v1/70000/aaf14307-0996-416b-9231-7c162da4f672.root
/store/mc/Run3Summer22NanoAODv12/DYto2L-2Jets_MLL-50_PTLL-100to200_1J_TuneCP5_13p6TeV_amcatnloFXFX-pythia8/NANOAODSIM/130X_mcRun3_2022_realistic_v5-v1/70000/39f60dd1-bd2d-4147-9afe-21fcd2064f1f.root
/store/mc/Run3Summer22NanoAODv12/DYto2L-2Jets_MLL-50_PTLL-100to200_1J_TuneCP5_13p6TeV_amcatnloFXFX-pythia8/NANOAODSIM/130X_mcRun3_2022_realistic_v5-v1/70000/20dd4c48-2414-4d44-b383-6bc54fa75878.root
/store/mc/Run3Summer22NanoAODv12/DYto2L-2Jets_MLL-50_PTLL-100to200_1J_TuneCP5_13p6TeV_amcatnloFXFX-pythia8/NANOAODSIM/130X_mcRun3_2022_realistic_v5-v1/2560000/280cd6d8-c1a9-423a-9bcd-c0ec232ff3b6.root
/store/mc/Run3Summer22NanoAODv12/DYto2L-2Jets_MLL-50_PTLL-100to200_1J_TuneCP5_13p6TeV_amcatnloFXFX-pythia8/NANOAODSIM/130X_mcRun3_2022_realistic_v5-v1/2560000/2e91a907-1e6a-4df4-954e-ff182df9e372.root
/store/mc/Run3Summer22NanoAODv12/DYto2L-2Jets_MLL-50_PTLL-100to200_1J_TuneCP5_13p6TeV_amcatnloFXFX-pythia8/NANOAODSIM/130X_mcRun3_2022_realistic_v5-v1/2560000/fdd23311-7ca9-4ea2-b51d-57eb11194f22.root
/store/mc/Run3Summer22NanoAODv12/DYto2L-2Jets_MLL-50_PTLL-100to200_1J_TuneCP5_13p6TeV_amcatnloFXFX-pythia8/NANOAODSIM/130X_mcRun3_2022_realistic_v5-v1/2560000/8686447f-482b-4625-bef7-2999bd4144fd.root
/store/mc/Run3Summer22NanoAODv12/DYto2L-2Jets_MLL-50_PTLL-100to200_1J_TuneCP5_13p6TeV_amcatnloFXFX-pythia8/NANOAODSIM/130X_mcRun3_2022_realistic_v5-v1/70000/226c793d-1747-4f0d-8fd3-6350c0c2510c.root
/store/mc/Run3Summer22NanoAODv12/DYto2L-2Jets_MLL-50_PTLL-100to200_1J_TuneCP5_13p6TeV_amcatnloFXFX-pythia8/NANOAODSIM/130X_mcRun3_2022_realistic_v5-v1/2560000/c60f80d1-d165-4905-9c8d-449f780fc403.root
/store/mc/Run3Summer22NanoAODv12/DYto2L-2Jets_MLL-50_PTLL-100to200_1J_TuneCP5_13p6TeV_amcatnloFXFX-pythia8/NANOAODSIM/130X_mcRun3_2022_realistic_v5-v1/70000/482efdc6-a654-46a8-8108-81b466c590f6.root
/store/mc/Run3Summer22NanoAODv12/DYto2L-2Jets_MLL-50_PTLL-100to200_1J_TuneCP5_13p6TeV_amcatnloFXFX-pythia8/NANOAODSIM/130X_mcRun3_2022_realistic_v5-v1/70000/23989597-7e22-4e6f-9d10-5efac7ad6a60.root
/store/mc/Run3Summer22NanoAODv12/DYto2L-2Jets_MLL-50_PTLL-100to200_1J_TuneCP5_13p6TeV_amcatnloFXFX-pythia8/NANOAODSIM/130X_mcRun3_2022_realistic_v5-v1/70000/551d7189-5ab6-4c5b-8078-b28085f9a814.root
/store/mc/Run3Summer22NanoAODv12/DYto2L-2Jets_MLL-50_PTLL-100to200_1J_TuneCP5_13p6TeV_amcatnloFXFX-pythia8/NANOAODSIM/130X_mcRun3_2022_realistic_v5-v1/70000/d9e2927f-9740-48c0-818a-11642f13f5aa.root
/store/mc/Run3Summer22NanoAODv12/DYto2L-2Jets_MLL-50_PTLL-100to200_1J_TuneCP5_13p6TeV_amcatnloFXFX-pythia8/NANOAODSIM/130X_mcRun3_2022_realistic_v5-v1/70000/721dabe5-1d94-4701-ad89-54f89996aee6.root
/store/mc/Run3Summer22NanoAODv12/DYto2L-2Jets_MLL-50_PTLL-100to200_1J_TuneCP5_13p6TeV_amcatnloFXFX-pythia8/NANOAODSIM/130X_mcRun3_2022_realistic_v5-v1/70000/bb68fc46-d4e1-4432-a303-f4b956c37b97.root
/store/mc/Run3Summer22NanoAODv12/DYto2L-2Jets_MLL-50_PTLL-100to200_1J_TuneCP5_13p6TeV_amcatnloFXFX-pythia8/NANOAODSIM/130X_mcRun3_2022_realistic_v5-v1/70000/b3c90cca-5041-4fbf-b117-21285d2871ed.root
/store/mc/Run3Summer22NanoAODv12/DYto2L-2Jets_MLL-50_PTLL-100to200_1J_TuneCP5_13p6TeV_amcatnloFXFX-pythia8/NANOAODSIM/130X_mcRun3_2022_realistic_v5-v1/70000/4792e05a-f4fe-41ef-a156-d0f3dbaae021.root
/store/mc/Run3Summer22NanoAODv12/DYto2L-2Jets_MLL-50_PTLL-100to200_1J_TuneCP5_13p6TeV_amcatnloFXFX-pythia8/NANOAODSIM/130X_mcRun3_2022_realistic_v5-v1/70000/173758e9-b44c-49fb-8a2f-fc4efce32970.root
/store/mc/Run3Summer22NanoAODv12/DYto2L-2Jets_MLL-50_PTLL-100to200_1J_TuneCP5_13p6TeV_amcatnloFXFX-pythia8/NANOAODSIM/130X_mcRun3_2022_realistic_v5-v1/70000/ced68fc9-ca23-4797-9222-4befff25f9cf.root
/store/mc/Run3Summer22NanoAODv12/DYto2L-2Jets_MLL-50_PTLL-100to200_1J_TuneCP5_13p6TeV_amcatnloFXFX-pythia8/NANOAODSIM/130X_mcRun3_2022_realistic_v5-v1/2560000/45668d9a-86f4-47fe-970b-425c8e541c88.root
/store/mc/Run3Summer22NanoAODv12/DYto2L-2Jets_MLL-50_PTLL-100to200_1J_TuneCP5_13p6TeV_amcatnloFXFX-pythia8/NANOAODSIM/130X_mcRun3_2022_realistic_v5-v1/2560000/defc96d2-cf8f-4e09-b5c1-258bc31448f5.root
/store/mc/Run3Summer22NanoAODv12/DYto2L-2Jets_MLL-50_PTLL-100to200_1J_TuneCP5_13p6TeV_amcatnloFXFX-pythia8/NANOAODSIM/130X_mcRun3_2022_realistic_v5-v1/70000/5a94a892-ea84-4ee9-b21e-78412be067f6.root
/store/mc/Run3Summer22NanoAODv12/DYto2L-2Jets_MLL-50_PTLL-100to200_1J_TuneCP5_13p6TeV_amcatnloFXFX-pythia8/NANOAODSIM/130X_mcRun3_2022_realistic_v5-v1/70000/e73e94fb-d043-4a9b-8a9e-8f47200a87d7.root
/store/mc/Run3Summer22NanoAODv12/DYto2L-2Jets_MLL-50_PTLL-100to200_1J_TuneCP5_13p6TeV_amcatnloFXFX-pythia8/NANOAODSIM/130X_mcRun3_2022_realistic_v5-v1/70000/de8d5854-c7d7-4440-987c-b3691f8bf1e8.root
/store/mc/Run3Summer22NanoAODv12/DYto2L-2Jets_MLL-50_PTLL-100to200_1J_TuneCP5_13p6TeV_amcatnloFXFX-pythia8/NANOAODSIM/130X_mcRun3_2022_realistic_v5-v1/2560000/3ae4312a-e18e-45fd-abbc-0ad8a4f542de.root
/store/mc/Run3Summer22NanoAODv12/DYto2L-2Jets_MLL-50_PTLL-100to200_1J_TuneCP5_13p6TeV_amcatnloFXFX-pythia8/NANOAODSIM/130X_mcRun3_2022_realistic_v5-v1/2560000/13c0dcfd-2448-450f-b5bb-cc70d3705059.root
/store/mc/Run3Summer22NanoAODv12/DYto2L-2Jets_MLL-50_PTLL-100to200_1J_TuneCP5_13p6TeV_amcatnloFXFX-pythia8/NANOAODSIM/130X_mcRun3_2022_realistic_v5-v1/70000/57c5b843-b24a-4cd7-988d-975583ed8226.root
/store/mc/Run3Summer22NanoAODv12/DYto2L-2Jets_MLL-50_PTLL-100to200_1J_TuneCP5_13p6TeV_amcatnloFXFX-pythia8/NANOAODSIM/130X_mcRun3_2022_realistic_v5-v1/70000/c7867b84-3794-4d92-aa6a-fd0b7bc20aa1.root
/store/mc/Run3Summer22NanoAODv12/DYto2L-2Jets_MLL-50_PTLL-100to200_1J_TuneCP5_13p6TeV_amcatnloFXFX-pythia8/NANOAODSIM/130X_mcRun3_2022_realistic_v5-v1/70000/3144c636-3d56-4586-80d4-fb3d5e27bbcc.root
/store/mc/Run3Summer22NanoAODv12/DYto2L-2Jets_MLL-50_PTLL-100to200_1J_TuneCP5_13p6TeV_amcatnloFXFX-pythia8/NANOAODSIM/130X_mcRun3_2022_realistic_v5-v1/70000/943a094c-a010-4b48-a79c-e367d2e27b3c.root
/store/mc/Run3Summer22NanoAODv12/DYto2L-2Jets_MLL-50_PTLL-100to200_1J_TuneCP5_13p6TeV_amcatnloFXFX-pythia8/NANOAODSIM/130X_mcRun3_2022_realistic_v5-v1/70000/8eb6e6cf-028a-440d-b7b0-902356f038d8.root
/store/mc/Run3Summer22NanoAODv12/DYto2L-2Jets_MLL-50_PTLL-100to200_1J_TuneCP5_13p6TeV_amcatnloFXFX-pythia8/NANOAODSIM/130X_mcRun3_2022_realistic_v5-v1/2560000/5b61c7d2-acd4-4207-9cc0-2201ce635ec0.root
/store/mc/Run3Summer22NanoAODv12/DYto2L-2Jets_MLL-50_PTLL-100to200_1J_TuneCP5_13p6TeV_amcatnloFXFX-pythia8/NANOAODSIM/130X_mcRun3_2022_realistic_v5-v1/70000/8787e951-2abc-4860-b5be-b0e3f053e0c9.root
/store/mc/Run3Summer22NanoAODv12/DYto2L-2Jets_MLL-50_PTLL-100to200_1J_TuneCP5_13p6TeV_amcatnloFXFX-pythia8/NANOAODSIM/130X_mcRun3_2022_realistic_v5-v1/70000/88d54955-ed71-4535-a6c7-e2cc8f09b2bf.root
/store/mc/Run3Summer22NanoAODv12/DYto2L-2Jets_MLL-50_PTLL-100to200_1J_TuneCP5_13p6TeV_amcatnloFXFX-pythia8/NANOAODSIM/130X_mcRun3_2022_realistic_v5-v1/2560000/5b076d0d-7a08-4472-abe4-a1f4cbe9a0f5.root
/store/mc/Run3Summer22NanoAODv12/DYto2L-2Jets_MLL-50_PTLL-100to200_1J_TuneCP5_13p6TeV_amcatnloFXFX-pythia8/NANOAODSIM/130X_mcRun3_2022_realistic_v5-v1/2560000/163a6578-3972-4285-9bc9-b75bcf8e887c.root
/store/mc/Run3Summer22NanoAODv12/DYto2L-2Jets_MLL-50_PTLL-100to200_1J_TuneCP5_13p6TeV_amcatnloFXFX-pythia8/NANOAODSIM/130X_mcRun3_2022_realistic_v5-v1/2560000/2f9ab20e-69d0-47b5-9189-715a6527a363.root
/store/mc/Run3Summer22NanoAODv12/DYto2L-2Jets_MLL-50_PTLL-100to200_1J_TuneCP5_13p6TeV_amcatnloFXFX-pythia8/NANOAODSIM/130X_mcRun3_2022_realistic_v5-v1/2560000/f68350d5-bbe4-44a2-bfc5-ec9681c52e0a.root
/store/mc/Run3Summer22NanoAODv12/DYto2L-2Jets_MLL-50_PTLL-100to200_1J_TuneCP5_13p6TeV_amcatnloFXFX-pythia8/NANOAODSIM/130X_mcRun3_2022_realistic_v5-v1/70000/cf0c17c8-4fbb-4669-a76e-f7f0dde40300.root
/store/mc/Run3Summer22NanoAODv12/DYto2L-2Jets_MLL-50_PTLL-100to200_1J_TuneCP5_13p6TeV_amcatnloFXFX-pythia8/NANOAODSIM/130X_mcRun3_2022_realistic_v5-v1/70000/31fe121b-5476-4041-88a3-3b81bcb4430b.root
/store/mc/Run3Summer22NanoAODv12/DYto2L-2Jets_MLL-50_PTLL-100to200_1J_TuneCP5_13p6TeV_amcatnloFXFX-pythia8/NANOAODSIM/130X_mcRun3_2022_realistic_v5-v1/70000/e59eec62-21df-48d4-923f-69cc3ee550d6.root
/store/mc/Run3Summer22NanoAODv12/DYto2L-2Jets_MLL-50_PTLL-100to200_1J_TuneCP5_13p6TeV_amcatnloFXFX-pythia8/NANOAODSIM/130X_mcRun3_2022_realistic_v5-v1/70000/2ce1bf9a-4489-442b-803b-9f59228e0ba0.root
/store/mc/Run3Summer22NanoAODv12/DYto2L-2Jets_MLL-50_PTLL-100to200_1J_TuneCP5_13p6TeV_amcatnloFXFX-pythia8/NANOAODSIM/130X_mcRun3_2022_realistic_v5-v1/70000/a0c44836-7706-4b97-a632-f1e526403955.root
/store/mc/Run3Summer22NanoAODv12/DYto2L-2Jets_MLL-50_PTLL-100to200_1J_TuneCP5_13p6TeV_amcatnloFXFX-pythia8/NANOAODSIM/130X_mcRun3_2022_realistic_v5-v1/70000/ef36655e-1d0a-4826-b6ac-c59b3f382d30.root
/store/mc/Run3Summer22NanoAODv12/DYto2L-2Jets_MLL-50_PTLL-100to200_1J_TuneCP5_13p6TeV_amcatnloFXFX-pythia8/NANOAODSIM/130X_mcRun3_2022_realistic_v5-v1/70000/794694fe-e42d-40d9-af89-98dfbf13d256.root
/store/mc/Run3Summer22NanoAODv12/DYto2L-2Jets_MLL-50_PTLL-100to200_1J_TuneCP5_13p6TeV_amcatnloFXFX-pythia8/NANOAODSIM/130X_mcRun3_2022_realistic_v5-v1/2560000/5ab46c4e-eacd-4c18-be6e-53da89a9a8d4.root
/store/mc/Run3Summer22NanoAODv12/DYto2L-2Jets_MLL-50_PTLL-100to200_1J_TuneCP5_13p6TeV_amcatnloFXFX-pythia8/NANOAODSIM/130X_mcRun3_2022_realistic_v5-v1/2560000/9734c229-1002-4774-9b8f-6261feabb870.root
/store/mc/Run3Summer22NanoAODv12/DYto2L-2Jets_MLL-50_PTLL-100to200_1J_TuneCP5_13p6TeV_amcatnloFXFX-pythia8/NANOAODSIM/130X_mcRun3_2022_realistic_v5-v1/2560000/8f9bc34a-c41f-458b-a2a6-ad0c518347ed.root
/store/mc/Run3Summer22NanoAODv12/DYto2L-2Jets_MLL-50_PTLL-100to200_1J_TuneCP5_13p6TeV_amcatnloFXFX-pythia8/NANOAODSIM/130X_mcRun3_2022_realistic_v5-v1/70000/ba0ebe2d-da75-4df5-b607-741b4a33381f.root
/store/mc/Run3Summer22NanoAODv12/DYto2L-2Jets_MLL-50_PTLL-100to200_1J_TuneCP5_13p6TeV_amcatnloFXFX-pythia8/NANOAODSIM/130X_mcRun3_2022_realistic_v5-v1/2560000/207c9872-b907-49a7-ad56-c4a8fcb29e7a.root
/store/mc/Run3Summer22NanoAODv12/DYto2L-2Jets_MLL-50_PTLL-100to200_1J_TuneCP5_13p6TeV_amcatnloFXFX-pythia8/NANOAODSIM/130X_mcRun3_2022_realistic_v5-v1/2550000/a043eb28-0b10-4a25-a7c6-8283ef152f0e.root
/store/mc/Run3Summer22NanoAODv12/DYto2L-2Jets_MLL-50_PTLL-100to200_1J_TuneCP5_13p6TeV_amcatnloFXFX-pythia8/NANOAODSIM/130X_mcRun3_2022_realistic_v5-v1/2550000/072accce-f795-4242-9ac7-985a67c54293.root
/store/mc/Run3Summer22NanoAODv12/DYto2L-2Jets_MLL-50_PTLL-100to200_1J_TuneCP5_13p6TeV_amcatnloFXFX-pythia8/NANOAODSIM/130X_mcRun3_2022_realistic_v5-v1/2550000/059fe5b0-d2dc-489f-af2f-b18fbeda5810.root
/store/mc/Run3Summer22NanoAODv12/DYto2L-2Jets_MLL-50_PTLL-100to200_1J_TuneCP5_13p6TeV_amcatnloFXFX-pythia8/NANOAODSIM/130X_mcRun3_2022_realistic_v5-v1/2550000/80ca7e45-6eda-4343-a01b-a6075d9fb728.root
/store/mc/Run3Summer22NanoAODv12/DYto2L-2Jets_MLL-50_PTLL-100to200_1J_TuneCP5_13p6TeV_amcatnloFXFX-pythia8/NANOAODSIM/130X_mcRun3_2022_realistic_v5-v1/2550000/02f1981a-c061-433f-a591-6d152a40d80d.root
/store/mc/Run3Summer22NanoAODv12/DYto2L-2Jets_MLL-50_PTLL-100to200_1J_TuneCP5_13p6TeV_amcatnloFXFX-pythia8/NANOAODSIM/130X_mcRun3_2022_realistic_v5-v1/2550000/02bd2b68-fee5-487f-8b5a-aefc407c2a48.root
/store/mc/Run3Summer22NanoAODv12/DYto2L-2Jets_MLL-50_PTLL-100to200_1J_TuneCP5_13p6TeV_amcatnloFXFX-pythia8/NANOAODSIM/130X_mcRun3_2022_realistic_v5-v1/2550000/a815b2b8-33ff-44d4-b1c2-769491861b28.root
/store/mc/Run3Summer22NanoAODv12/DYto2L-2Jets_MLL-50_PTLL-100to200_1J_TuneCP5_13p6TeV_amcatnloFXFX-pythia8/NANOAODSIM/130X_mcRun3_2022_realistic_v5-v1/2550000/4f2e7c78-30ce-4b65-97bd-018b199a8dde.root
/store/mc/Run3Summer22NanoAODv12/DYto2L-2Jets_MLL-50_PTLL-100to200_1J_TuneCP5_13p6TeV_amcatnloFXFX-pythia8/NANOAODSIM/130X_mcRun3_2022_realistic_v5-v1/2550000/bc1632b1-be1b-4352-a430-7c3352710a27.root
/store/mc/Run3Summer22NanoAODv12/DYto2L-2Jets_MLL-50_PTLL-100to200_1J_TuneCP5_13p6TeV_amcatnloFXFX-pythia8/NANOAODSIM/130X_mcRun3_2022_realistic_v5-v1/2550000/c789a304-6bd2-44e2-a545-128b27da1f18.root
/store/mc/Run3Summer22NanoAODv12/DYto2L-2Jets_MLL-50_PTLL-100to200_1J_TuneCP5_13p6TeV_amcatnloFXFX-pythia8/NANOAODSIM/130X_mcRun3_2022_realistic_v5-v1/2550000/24f1f393-938e-424e-aab3-5546b667e48d.root
/store/mc/Run3Summer22NanoAODv12/DYto2L-2Jets_MLL-50_PTLL-100to200_1J_TuneCP5_13p6TeV_amcatnloFXFX-pythia8/NANOAODSIM/130X_mcRun3_2022_realistic_v5-v1/2550000/8608ba8a-29f9-442f-995b-6edc5fb0a65e.root
/store/mc/Run3Summer22NanoAODv12/DYto2L-2Jets_MLL-50_PTLL-100to200_1J_TuneCP5_13p6TeV_amcatnloFXFX-pythia8/NANOAODSIM/130X_mcRun3_2022_realistic_v5-v1/2550000/ca00b483-c5c7-48ef-83a6-58d57a72e16d.root
/store/mc/Run3Summer22NanoAODv12/DYto2L-2Jets_MLL-50_PTLL-100to200_1J_TuneCP5_13p6TeV_amcatnloFXFX-pythia8/NANOAODSIM/130X_mcRun3_2022_realistic_v5-v1/2550000/40f7a188-2641-4a30-bc64-145b0cda986b.root
/store/mc/Run3Summer22NanoAODv12/DYto2L-2Jets_MLL-50_PTLL-100to200_1J_TuneCP5_13p6TeV_amcatnloFXFX-pythia8/NANOAODSIM/130X_mcRun3_2022_realistic_v5-v1/2550000/e4074943-7350-42bf-a08b-ada4af492b9b.root
/store/mc/Run3Summer22NanoAODv12/DYto2L-2Jets_MLL-50_PTLL-100to200_1J_TuneCP5_13p6TeV_amcatnloFXFX-pythia8/NANOAODSIM/130X_mcRun3_2022_realistic_v5-v1/2550000/309a97a2-3450-4726-8b0b-ee8fe6006949.root
/store/mc/Run3Summer22NanoAODv12/DYto2L-2Jets_MLL-50_PTLL-100to200_1J_TuneCP5_13p6TeV_amcatnloFXFX-pythia8/NANOAODSIM/130X_mcRun3_2022_realistic_v5-v1/2550000/06a21ef6-0cab-42bb-b0b1-c46b226d465f.root
/store/mc/Run3Summer22NanoAODv12/DYto2L-2Jets_MLL-50_PTLL-100to200_1J_TuneCP5_13p6TeV_amcatnloFXFX-pythia8/NANOAODSIM/130X_mcRun3_2022_realistic_v5-v1/2550000/61f22e3e-6c9a-4540-afc5-ff92cca7b62a.root
/store/mc/Run3Summer22NanoAODv12/DYto2L-2Jets_MLL-50_PTLL-100to200_1J_TuneCP5_13p6TeV_amcatnloFXFX-pythia8/NANOAODSIM/130X_mcRun3_2022_realistic_v5-v1/2550000/f604fa86-95c8-48fb-b0bd-4cd3a560d0e1.root
/store/mc/Run3Summer22NanoAODv12/DYto2L-2Jets_MLL-50_PTLL-100to200_1J_TuneCP5_13p6TeV_amcatnloFXFX-pythia8/NANOAODSIM/130X_mcRun3_2022_realistic_v5-v1/2550000/5a1a1146-e936-476b-8ae0-f85d215fccb6.root
/store/mc/Run3Summer22NanoAODv12/DYto2L-2Jets_MLL-50_PTLL-100to200_1J_TuneCP5_13p6TeV_amcatnloFXFX-pythia8/NANOAODSIM/130X_mcRun3_2022_realistic_v5-v1/2550000/f2e69c43-107a-4e09-9a4f-76e426aa65fa.root
/store/mc/Run3Summer22NanoAODv12/DYto2L-2Jets_MLL-50_PTLL-100to200_1J_TuneCP5_13p6TeV_amcatnloFXFX-pythia8/NANOAODSIM/130X_mcRun3_2022_realistic_v5-v1/2550000/b37b689c-f260-4531-aa1b-e75b45433ff8.root
/store/mc/Run3Summer22NanoAODv12/DYto2L-2Jets_MLL-50_PTLL-100to200_1J_TuneCP5_13p6TeV_amcatnloFXFX-pythia8/NANOAODSIM/130X_mcRun3_2022_realistic_v5-v1/2550000/c2e0fd0a-c5f8-45ca-8900-48c6aebb8f67.root
/store/mc/Run3Summer22NanoAODv12/DYto2L-2Jets_MLL-50_PTLL-100to200_1J_TuneCP5_13p6TeV_amcatnloFXFX-pythia8/NANOAODSIM/130X_mcRun3_2022_realistic_v5-v1/2550000/7a752da8-abd3-4597-a0dd-04ab1c4d1135.root
/store/mc/Run3Summer22NanoAODv12/DYto2L-2Jets_MLL-50_PTLL-100to200_1J_TuneCP5_13p6TeV_amcatnloFXFX-pythia8/NANOAODSIM/130X_mcRun3_2022_realistic_v5-v1/2550000/3b81440a-26f2-45a6-846c-9df6c8aba307.root
/store/mc/Run3Summer22NanoAODv12/DYto2L-2Jets_MLL-50_PTLL-100to200_1J_TuneCP5_13p6TeV_amcatnloFXFX-pythia8/NANOAODSIM/130X_mcRun3_2022_realistic_v5-v1/2550000/ec85d68c-7fca-47fe-880f-90982e7d54d3.root
/store/mc/Run3Summer22NanoAODv12/DYto2L-2Jets_MLL-50_PTLL-100to200_1J_TuneCP5_13p6TeV_amcatnloFXFX-pythia8/NANOAODSIM/130X_mcRun3_2022_realistic_v5-v1/2550000/95c264e5-a8cb-43d7-8346-7bc1d67a49b1.root
/store/mc/Run3Summer22NanoAODv12/DYto2L-2Jets_MLL-50_PTLL-100to200_1J_TuneCP5_13p6TeV_amcatnloFXFX-pythia8/NANOAODSIM/130X_mcRun3_2022_realistic_v5-v1/2550000/ddc9b194-e3fd-4992-a1fe-70d0bb52e256.root
/store/mc/Run3Summer22NanoAODv12/DYto2L-2Jets_MLL-50_PTLL-100to200_1J_TuneCP5_13p6TeV_amcatnloFXFX-pythia8/NANOAODSIM/130X_mcRun3_2022_realistic_v5-v1/2550000/b3709c0e-d651-4db5-9fe7-28ebe6ee6d39.root
/store/mc/Run3Summer22NanoAODv12/DYto2L-2Jets_MLL-50_PTLL-100to200_1J_TuneCP5_13p6TeV_amcatnloFXFX-pythia8/NANOAODSIM/130X_mcRun3_2022_realistic_v5-v1/2550000/cab9775f-2f0a-425d-ad6a-6adfe17080fb.root
/store/mc/Run3Summer22NanoAODv12/DYto2L-2Jets_MLL-50_PTLL-100to200_1J_TuneCP5_13p6TeV_amcatnloFXFX-pythia8/NANOAODSIM/130X_mcRun3_2022_realistic_v5-v1/2550000/afa4cabc-1cbe-4baa-92f2-8b38a81795c1.root
/store/mc/Run3Summer22NanoAODv12/DYto2L-2Jets_MLL-50_PTLL-100to200_1J_TuneCP5_13p6TeV_amcatnloFXFX-pythia8/NANOAODSIM/130X_mcRun3_2022_realistic_v5-v1/2550000/4f14bc87-7869-4556-8b52-18f06fbf63f7.root
/store/mc/Run3Summer22NanoAODv12/DYto2L-2Jets_MLL-50_PTLL-100to200_1J_TuneCP5_13p6TeV_amcatnloFXFX-pythia8/NANOAODSIM/130X_mcRun3_2022_realistic_v5-v1/2550000/6b462aa8-98c7-4c01-8e85-749889c46202.root
/store/mc/Run3Summer22NanoAODv12/DYto2L-2Jets_MLL-50_PTLL-100to200_1J_TuneCP5_13p6TeV_amcatnloFXFX-pythia8/NANOAODSIM/130X_mcRun3_2022_realistic_v5-v1/2550000/a505e43d-9df7-4565-83a2-97bd7b187d94.root
/store/mc/Run3Summer22NanoAODv12/DYto2L-2Jets_MLL-50_PTLL-100to200_1J_TuneCP5_13p6TeV_amcatnloFXFX-pythia8/NANOAODSIM/130X_mcRun3_2022_realistic_v5-v1/2550000/ecd9db9f-43f6-4caa-a946-8703a1a83b0c.root
/store/mc/Run3Summer22NanoAODv12/DYto2L-2Jets_MLL-50_PTLL-100to200_1J_TuneCP5_13p6TeV_amcatnloFXFX-pythia8/NANOAODSIM/130X_mcRun3_2022_realistic_v5-v1/2550000/6d280ebb-6515-43cb-b602-2ef5e8aee51f.root
/store/mc/Run3Summer22NanoAODv12/DYto2L-2Jets_MLL-50_PTLL-100to200_1J_TuneCP5_13p6TeV_amcatnloFXFX-pythia8/NANOAODSIM/130X_mcRun3_2022_realistic_v5-v1/2550000/d40864ad-e001-4ad7-911d-afb26be43032.root
/store/mc/Run3Summer22NanoAODv12/DYto2L-2Jets_MLL-50_PTLL-100to200_1J_TuneCP5_13p6TeV_amcatnloFXFX-pythia8/NANOAODSIM/130X_mcRun3_2022_realistic_v5-v1/2550000/19f415d8-2518-4a36-bb83-ea4d61519914.root
/store/mc/Run3Summer22NanoAODv12/DYto2L-2Jets_MLL-50_PTLL-100to200_1J_TuneCP5_13p6TeV_amcatnloFXFX-pythia8/NANOAODSIM/130X_mcRun3_2022_realistic_v5-v1/2550000/44a1a599-614e-4f94-9e84-e0c09aafce7f.root
/store/mc/Run3Summer22NanoAODv12/DYto2L-2Jets_MLL-50_PTLL-100to200_1J_TuneCP5_13p6TeV_amcatnloFXFX-pythia8/NANOAODSIM/130X_mcRun3_2022_realistic_v5-v1/2550000/7041f7c1-87c8-48d4-8d4c-60512fcbe7e1.root
/store/mc/Run3Summer22NanoAODv12/DYto2L-2Jets_MLL-50_PTLL-100to200_1J_TuneCP5_13p6TeV_amcatnloFXFX-pythia8/NANOAODSIM/130X_mcRun3_2022_realistic_v5-v1/2550000/be610013-d479-4cf3-be4a-f2880ba68acb.root
/store/mc/Run3Summer22NanoAODv12/DYto2L-2Jets_MLL-50_PTLL-100to200_1J_TuneCP5_13p6TeV_amcatnloFXFX-pythia8/NANOAODSIM/130X_mcRun3_2022_realistic_v5-v1/2550000/5db2946e-1f0d-4ca8-a0ef-a7c01018b0e8.root
/store/mc/Run3Summer22NanoAODv12/DYto2L-2Jets_MLL-50_PTLL-100to200_1J_TuneCP5_13p6TeV_amcatnloFXFX-pythia8/NANOAODSIM/130X_mcRun3_2022_realistic_v5-v1/2550000/b69e5ea2-cf84-4a54-9978-078b89dc8d86.root
/store/mc/Run3Summer22NanoAODv12/DYto2L-2Jets_MLL-50_PTLL-100to200_1J_TuneCP5_13p6TeV_amcatnloFXFX-pythia8/NANOAODSIM/130X_mcRun3_2022_realistic_v5-v1/2550000/2bc6f2d4-2d8e-4cfc-9135-2123b94d60e8.root
/store/mc/Run3Summer22NanoAODv12/DYto2L-2Jets_MLL-50_PTLL-100to200_1J_TuneCP5_13p6TeV_amcatnloFXFX-pythia8/NANOAODSIM/130X_mcRun3_2022_realistic_v5-v1/2550000/6371921a-014c-440a-ae22-4e630d7b1a9e.root
/store/mc/Run3Summer22NanoAODv12/DYto2L-2Jets_MLL-50_PTLL-100to200_1J_TuneCP5_13p6TeV_amcatnloFXFX-pythia8/NANOAODSIM/130X_mcRun3_2022_realistic_v5-v1/2550000/d74a9013-506c-40c6-b3f1-f60001340644.root
/store/mc/Run3Summer22NanoAODv12/DYto2L-2Jets_MLL-50_PTLL-100to200_1J_TuneCP5_13p6TeV_amcatnloFXFX-pythia8/NANOAODSIM/130X_mcRun3_2022_realistic_v5-v1/2550000/b1d3c120-f756-4b08-8e72-53140798dc1e.root
/store/mc/Run3Summer22NanoAODv12/DYto2L-2Jets_MLL-50_PTLL-100to200_1J_TuneCP5_13p6TeV_amcatnloFXFX-pythia8/NANOAODSIM/130X_mcRun3_2022_realistic_v5-v1/2550000/df7e7143-4b18-4065-b11d-851266721822.root
/store/mc/Run3Summer22NanoAODv12/DYto2L-2Jets_MLL-50_PTLL-100to200_1J_TuneCP5_13p6TeV_amcatnloFXFX-pythia8/NANOAODSIM/130X_mcRun3_2022_realistic_v5-v1/2550000/61fc7c59-cb9c-4a54-bc71-0fde91fcb3fa.root
/store/mc/Run3Summer22NanoAODv12/DYto2L-2Jets_MLL-50_PTLL-100to200_1J_TuneCP5_13p6TeV_amcatnloFXFX-pythia8/NANOAODSIM/130X_mcRun3_2022_realistic_v5-v1/2550000/f71a6095-16db-4f76-88b4-56d3b52a1f81.root
/store/mc/Run3Summer22NanoAODv12/DYto2L-2Jets_MLL-50_PTLL-100to200_1J_TuneCP5_13p6TeV_amcatnloFXFX-pythia8/NANOAODSIM/130X_mcRun3_2022_realistic_v5-v1/2550000/14863e27-fb94-4284-af66-2f237283f026.root
/store/mc/Run3Summer22NanoAODv12/DYto2L-2Jets_MLL-50_PTLL-100to200_1J_TuneCP5_13p6TeV_amcatnloFXFX-pythia8/NANOAODSIM/130X_mcRun3_2022_realistic_v5-v1/2550000/78455a60-5fac-4708-b872-fb5f04cac5b1.root
/store/mc/Run3Summer22NanoAODv12/DYto2L-2Jets_MLL-50_PTLL-100to200_1J_TuneCP5_13p6TeV_amcatnloFXFX-pythia8/NANOAODSIM/130X_mcRun3_2022_realistic_v5-v1/2550000/5bbbf847-f032-4d89-8bc4-0bff94efe2bd.root
/store/mc/Run3Summer22NanoAODv12/DYto2L-2Jets_MLL-50_PTLL-100to200_1J_TuneCP5_13p6TeV_amcatnloFXFX-pythia8/NANOAODSIM/130X_mcRun3_2022_realistic_v5-v1/2550000/c59d11af-71c8-41c3-902b-226210fcb97c.root
/store/mc/Run3Summer22NanoAODv12/DYto2L-2Jets_MLL-50_PTLL-100to200_1J_TuneCP5_13p6TeV_amcatnloFXFX-pythia8/NANOAODSIM/130X_mcRun3_2022_realistic_v5-v1/2550000/dad4568f-f076-4f22-b3da-f2234abc188f.root
/store/mc/Run3Summer22NanoAODv12/DYto2L-2Jets_MLL-50_PTLL-100to200_1J_TuneCP5_13p6TeV_amcatnloFXFX-pythia8/NANOAODSIM/130X_mcRun3_2022_realistic_v5-v1/2550000/c5cbc5d8-f194-48e6-9d13-08105a579fb1.root
/store/mc/Run3Summer22NanoAODv12/DYto2L-2Jets_MLL-50_PTLL-100to200_1J_TuneCP5_13p6TeV_amcatnloFXFX-pythia8/NANOAODSIM/130X_mcRun3_2022_realistic_v5-v1/2550000/1c096ce1-207a-457d-891b-39e149c798fb.root
/store/mc/Run3Summer22NanoAODv12/DYto2L-2Jets_MLL-50_PTLL-100to200_1J_TuneCP5_13p6TeV_amcatnloFXFX-pythia8/NANOAODSIM/130X_mcRun3_2022_realistic_v5-v1/2550000/0abf489b-28d2-4c04-a4b6-a47b772d5b05.root
/store/mc/Run3Summer22NanoAODv12/DYto2L-2Jets_MLL-50_PTLL-100to200_1J_TuneCP5_13p6TeV_amcatnloFXFX-pythia8/NANOAODSIM/130X_mcRun3_2022_realistic_v5-v1/2550000/49ec7da4-1bc2-4229-8ef0-87854749323b.root
/store/mc/Run3Summer22NanoAODv12/DYto2L-2Jets_MLL-50_PTLL-100to200_1J_TuneCP5_13p6TeV_amcatnloFXFX-pythia8/NANOAODSIM/130X_mcRun3_2022_realistic_v5-v1/2550000/3774bcd8-6bb2-40e1-acda-324cc05e687c.root
/store/mc/Run3Summer22NanoAODv12/DYto2L-2Jets_MLL-50_PTLL-100to200_1J_TuneCP5_13p6TeV_amcatnloFXFX-pythia8/NANOAODSIM/130X_mcRun3_2022_realistic_v5-v1/2550000/272bea31-3d9e-497c-b0c2-c562df90a222.root
/store/mc/Run3Summer22NanoAODv12/DYto2L-2Jets_MLL-50_PTLL-100to200_1J_TuneCP5_13p6TeV_amcatnloFXFX-pythia8/NANOAODSIM/130X_mcRun3_2022_realistic_v5-v1/80000/12c5347c-3869-442d-be47-7689e2134a49.root
/store/mc/Run3Summer22NanoAODv12/DYto2L-2Jets_MLL-50_PTLL-100to200_1J_TuneCP5_13p6TeV_amcatnloFXFX-pythia8/NANOAODSIM/130X_mcRun3_2022_realistic_v5-v1/50000/232deb0b-cc29-463f-9250-481462a36a97.root
/store/mc/Run3Summer22NanoAODv12/DYto2L-2Jets_MLL-50_PTLL-100to200_1J_TuneCP5_13p6TeV_amcatnloFXFX-pythia8/NANOAODSIM/130X_mcRun3_2022_realistic_v5-v1/50000/99590348-03e9-43ae-beb6-8e1a3e79600e.root
/store/mc/Run3Summer22NanoAODv12/DYto2L-2Jets_MLL-50_PTLL-100to200_1J_TuneCP5_13p6TeV_amcatnloFXFX-pythia8/NANOAODSIM/130X_mcRun3_2022_realistic_v5-v1/80000/1bcbe67f-a8d8-419f-a342-b088db5c3bc8.root
/store/mc/Run3Summer22NanoAODv12/DYto2L-2Jets_MLL-50_PTLL-100to200_1J_TuneCP5_13p6TeV_amcatnloFXFX-pythia8/NANOAODSIM/130X_mcRun3_2022_realistic_v5-v1/80000/9d49eb61-4502-4b4a-a2cc-edb514ca5aa9.root
/store/mc/Run3Summer22NanoAODv12/DYto2L-2Jets_MLL-50_PTLL-100to200_1J_TuneCP5_13p6TeV_amcatnloFXFX-pythia8/NANOAODSIM/130X_mcRun3_2022_realistic_v5-v1/50000/ac278450-eda2-4f60-a092-2cbb16d6dc3c.root
/store/mc/Run3Summer22NanoAODv12/DYto2L-2Jets_MLL-50_PTLL-100to200_1J_TuneCP5_13p6TeV_amcatnloFXFX-pythia8/NANOAODSIM/130X_mcRun3_2022_realistic_v5-v1/80000/4f53a57e-776d-42bd-9f82-9d7012f87104.root
/store/mc/Run3Summer22NanoAODv12/DYto2L-2Jets_MLL-50_PTLL-100to200_1J_TuneCP5_13p6TeV_amcatnloFXFX-pythia8/NANOAODSIM/130X_mcRun3_2022_realistic_v5-v1/2550000/897047e7-38f0-405c-9fd7-4b7ae96f1281.root
/store/mc/Run3Summer22NanoAODv12/DYto2L-2Jets_MLL-50_PTLL-100to200_1J_TuneCP5_13p6TeV_amcatnloFXFX-pythia8/NANOAODSIM/130X_mcRun3_2022_realistic_v5-v1/2550000/350d3ec7-97f2-4cc6-acdd-624e2a1e7f32.root
/store/mc/Run3Summer22NanoAODv12/DYto2L-2Jets_MLL-50_PTLL-100to200_1J_TuneCP5_13p6TeV_amcatnloFXFX-pythia8/NANOAODSIM/130X_mcRun3_2022_realistic_v5-v1/2550000/9bb00dd2-0b8e-4326-ad52-5df67fab9f9a.root
/store/mc/Run3Summer22NanoAODv12/DYto2L-2Jets_MLL-50_PTLL-100to200_1J_TuneCP5_13p6TeV_amcatnloFXFX-pythia8/NANOAODSIM/130X_mcRun3_2022_realistic_v5-v1/2550000/8910c263-3c19-4196-acf1-6857e82ff00f.root
/store/mc/Run3Summer22NanoAODv12/DYto2L-2Jets_MLL-50_PTLL-100to200_1J_TuneCP5_13p6TeV_amcatnloFXFX-pythia8/NANOAODSIM/130X_mcRun3_2022_realistic_v5-v1/2550000/c72fc920-2903-4d56-98f7-712d7128a813.root
/store/mc/Run3Summer22NanoAODv12/DYto2L-2Jets_MLL-50_PTLL-100to200_1J_TuneCP5_13p6TeV_amcatnloFXFX-pythia8/NANOAODSIM/130X_mcRun3_2022_realistic_v5-v1/50000/ba988557-e91c-43a8-a3c9-4ec0429b81e8.root
/store/mc/Run3Summer22NanoAODv12/DYto2L-2Jets_MLL-50_PTLL-100to200_1J_TuneCP5_13p6TeV_amcatnloFXFX-pythia8/NANOAODSIM/130X_mcRun3_2022_realistic_v5-v1/80000/0426741c-1ea8-46ae-add0-2f237b8e0ebe.root
/store/mc/Run3Summer22NanoAODv12/DYto2L-2Jets_MLL-50_PTLL-100to200_1J_TuneCP5_13p6TeV_amcatnloFXFX-pythia8/NANOAODSIM/130X_mcRun3_2022_realistic_v5-v1/80000/528ed8f6-adf4-4dbf-9533-4e683adc0aae.root
/store/mc/Run3Summer22NanoAODv12/DYto2L-2Jets_MLL-50_PTLL-100to200_1J_TuneCP5_13p6TeV_amcatnloFXFX-pythia8/NANOAODSIM/130X_mcRun3_2022_realistic_v5-v1/2550000/0b8c7bf5-72bd-435b-b148-f90d3d9acabe.root
/store/mc/Run3Summer22NanoAODv12/DYto2L-2Jets_MLL-50_PTLL-100to200_1J_TuneCP5_13p6TeV_amcatnloFXFX-pythia8/NANOAODSIM/130X_mcRun3_2022_realistic_v5-v1/2550000/ad7d3293-0365-4091-9810-2903815ecf7e.root
/store/mc/Run3Summer22NanoAODv12/DYto2L-2Jets_MLL-50_PTLL-100to200_1J_TuneCP5_13p6TeV_amcatnloFXFX-pythia8/NANOAODSIM/130X_mcRun3_2022_realistic_v5-v1/50000/68ea4be8-b122-438e-b93f-980180edf1ba.root
/store/mc/Run3Summer22NanoAODv12/DYto2L-2Jets_MLL-50_PTLL-100to200_1J_TuneCP5_13p6TeV_amcatnloFXFX-pythia8/NANOAODSIM/130X_mcRun3_2022_realistic_v5-v1/2550000/84c82178-f379-43b6-88e0-cf1228256915.root
/store/mc/Run3Summer22NanoAODv12/DYto2L-2Jets_MLL-50_PTLL-100to200_1J_TuneCP5_13p6TeV_amcatnloFXFX-pythia8/NANOAODSIM/130X_mcRun3_2022_realistic_v5-v1/2550000/3851279e-d508-4b1b-a159-ec331f470efe.root
/store/mc/Run3Summer22NanoAODv12/DYto2L-2Jets_MLL-50_PTLL-100to200_1J_TuneCP5_13p6TeV_amcatnloFXFX-pythia8/NANOAODSIM/130X_mcRun3_2022_realistic_v5-v1/2550000/a2b05118-5bb6-4960-8c6d-1ca46ea6766a.root
/store/mc/Run3Summer22NanoAODv12/DYto2L-2Jets_MLL-50_PTLL-100to200_1J_TuneCP5_13p6TeV_amcatnloFXFX-pythia8/NANOAODSIM/130X_mcRun3_2022_realistic_v5-v1/2550000/af1f423d-ceb6-4884-ae26-01a270aefabc.root
/store/mc/Run3Summer22NanoAODv12/DYto2L-2Jets_MLL-50_PTLL-100to200_1J_TuneCP5_13p6TeV_amcatnloFXFX-pythia8/NANOAODSIM/130X_mcRun3_2022_realistic_v5-v1/2550000/9f3476ef-62cb-49d3-bf21-46cfc5b95d4a.root
/store/mc/Run3Summer22NanoAODv12/DYto2L-2Jets_MLL-50_PTLL-100to200_1J_TuneCP5_13p6TeV_amcatnloFXFX-pythia8/NANOAODSIM/130X_mcRun3_2022_realistic_v5-v1/2550000/d23c4cd1-f310-41e2-baac-6792d6ce623a.root
/store/mc/Run3Summer22NanoAODv12/DYto2L-2Jets_MLL-50_PTLL-100to200_1J_TuneCP5_13p6TeV_amcatnloFXFX-pythia8/NANOAODSIM/130X_mcRun3_2022_realistic_v5-v1/2550000/4dd6783e-985b-4d2c-9336-3be02c507196.root
/store/mc/Run3Summer22NanoAODv12/DYto2L-2Jets_MLL-50_PTLL-100to200_1J_TuneCP5_13p6TeV_amcatnloFXFX-pythia8/NANOAODSIM/130X_mcRun3_2022_realistic_v5-v1/50000/4da60810-afc2-4413-b72b-63b63931c57f.root
/store/mc/Run3Summer22NanoAODv12/DYto2L-2Jets_MLL-50_PTLL-100to200_1J_TuneCP5_13p6TeV_amcatnloFXFX-pythia8/NANOAODSIM/130X_mcRun3_2022_realistic_v5-v1/50000/4b5e1d85-7d4b-4814-b52f-899b90e9f679.root
/store/mc/Run3Summer22NanoAODv12/DYto2L-2Jets_MLL-50_PTLL-100to200_1J_TuneCP5_13p6TeV_amcatnloFXFX-pythia8/NANOAODSIM/130X_mcRun3_2022_realistic_v5-v1/50000/19c49881-ca78-404f-8e88-0a33639d55d3.root
/store/mc/Run3Summer22NanoAODv12/DYto2L-2Jets_MLL-50_PTLL-100to200_1J_TuneCP5_13p6TeV_amcatnloFXFX-pythia8/NANOAODSIM/130X_mcRun3_2022_realistic_v5-v1/50000/fbd69fe4-985a-447b-ae33-360cc1ceb804.root
/store/mc/Run3Summer22NanoAODv12/DYto2L-2Jets_MLL-50_PTLL-100to200_1J_TuneCP5_13p6TeV_amcatnloFXFX-pythia8/NANOAODSIM/130X_mcRun3_2022_realistic_v5-v1/50000/945e507e-72ac-4ae8-8898-5ab539a3b965.root