/store/mc/Run3Summer22NanoAODv12/DYto2L-2Jets_MLL-50_PTLL-100to200_2J_TuneCP5_13p6TeV_amcatnloFXFX-pythia8/NANOAODSIM/130X_mcRun3_2022_realistic_v5-v1/60000/4a3cd612-a4ff-4fb6-a97a-9554d3417c0b.root
/store/mc/Run3Summer22NanoAODv12/DYto2L-2Jets_MLL-50_PTLL-100to200_2J_TuneCP5_13p6TeV_amcatnloFXFX-pythia8/NANOAODSIM/130X_mcRun3_2022_realistic_v5-v1/60000/c8d7f454-3667-4eb8-851f-d2890f6a677c.root
/store/mc/Run3Summer22NanoAODv12/DYto2L-2Jets_MLL-50_PTLL-100to200_2J_TuneCP5_13p6TeV_amcatnloFXFX-pythia8/NANOAODSIM/130X_mcRun3_2022_realistic_v5-v1/60000/8534f639-33c2-4e23-a23b-6541846b91e7.root
/store/mc/Run3Summer22NanoAODv12/DYto2L-2Jets_MLL-50_PTLL-100to200_2J_TuneCP5_13p6TeV_amcatnloFXFX-pythia8/NANOAODSIM/130X_mcRun3_2022_realistic_v5-v1/60000/2a8ce685-a289-450c-bef4-83a8194e648e.root
/store/mc/Run3Summer22NanoAODv12/DYto2L-2Jets_MLL-50_PTLL-100to200_2J_TuneCP5_13p6TeV_amcatnloFXFX-pythia8/NANOAODSIM/130X_mcRun3_2022_realistic_v5-v1/60000/c259f213-c9bb-4eed-af85-497ab386c1ae.root
/store/mc/Run3Summer22NanoAODv12/DYto2L-2Jets_MLL-50_PTLL-100to200_2J_TuneCP5_13p6TeV_amcatnloFXFX-pythia8/NANOAODSIM/130X_mcRun3_2022_realistic_v5-v1/60000/fc35df4b-e273-4aaa-b8cb-9b90e60061d5.root
/store/mc/Run3Summer22NanoAODv12/DYto2L-2Jets_MLL-50_PTLL-100to200_2J_TuneCP5_13p6TeV_amcatnloFXFX-pythia8/NANOAODSIM/130X_mcRun3_2022_realistic_v5-v1/60000/5507aab8-a197-4707-a3d2-d8d1f2ca920c.root
/store/mc/Run3Summer22NanoAODv12/DYto2L-2Jets_MLL-50_PTLL-100to200_2J_TuneCP5_13p6TeV_amcatnloFXFX-pythia8/NANOAODSIM/130X_mcRun3_2022_realistic_v5-v1/60000/29d33b83-d92d-47fc-9648-0fbc148eedd4.root
/store/mc/Run3Summer22NanoAODv12/DYto2L-2Jets_MLL-50_PTLL-100to200_2J_TuneCP5_13p6TeV_amcatnloFXFX-pythia8/NANOAODSIM/130X_mcRun3_2022_realistic_v5-v1/60000/ba7a710e-2d77-4189-8635-614c78f35ba2.root
/store/mc/Run3Summer22NanoAODv12/DYto2L-2Jets_MLL-50_PTLL-100to200_2J_TuneCP5_13p6TeV_amcatnloFXFX-pythia8/NANOAODSIM/130X_mcRun3_2022_realistic_v5-v1/60000/c626d40c-cef4-4ee0-93e8-a3d077bf686b.root
/store/mc/Run3Summer22NanoAODv12/DYto2L-2Jets_MLL-50_PTLL-100to200_2J_TuneCP5_13p6TeV_amcatnloFXFX-pythia8/NANOAODSIM/130X_mcRun3_2022_realistic_v5-v1/2560000/24db1442-574b-4f1d-bb29-57c6e4cf3a8f.root
/store/mc/Run3Summer22NanoAODv12/DYto2L-2Jets_MLL-50_PTLL-100to200_2J_TuneCP5_13p6TeV_amcatnloFXFX-pythia8/NANOAODSIM/130X_mcRun3_2022_realistic_v5-v1/2560000/e6ed262c-ed78-42aa-b0f7-625d643ba89a.root
/store/mc/Run3Summer22NanoAODv12/DYto2L-2Jets_MLL-50_PTLL-100to200_2J_TuneCP5_13p6TeV_amcatnloFXFX-pythia8/NANOAODSIM/130X_mcRun3_2022_realistic_v5-v1/2560000/4e645d63-60de-4923-8a54-f0eeb8dc36e9.root
/store/mc/Run3Summer22NanoAODv12/DYto2L-2Jets_MLL-50_PTLL-100to200_2J_TuneCP5_13p6TeV_amcatnloFXFX-pythia8/NANOAODSIM/130X_mcRun3_2022_realistic_v5-v1/2560000/0fd65770-ac25-4bd2-a94d-fe5c0e2ac4ee.root
/store/mc/Run3Summer22NanoAODv12/DYto2L-2Jets_MLL-50_PTLL-100to200_2J_TuneCP5_13p6TeV_amcatnloFXFX-pythia8/NANOAODSIM/130X_mcRun3_2022_realistic_v5-v1/2560000/a7264af9-dd76-4678-b6a7-975a655123bc.root
/store/mc/Run3Summer22NanoAODv12/DYto2L-2Jets_MLL-50_PTLL-100to200_2J_TuneCP5_13p6TeV_amcatnloFXFX-pythia8/NANOAODSIM/130X_mcRun3_2022_realistic_v5-v1/2560000/b5aa53c3-2319-4a1f-a1b6-0e3ee61b08f5.root
/store/mc/Run3Summer22NanoAODv12/DYto2L-2Jets_MLL-50_PTLL-100to200_2J_TuneCP5_13p6TeV_amcatnloFXFX-pythia8/NANOAODSIM/130X_mcRun3_2022_realistic_v5-v1/2560000/71b4d26c-f134-4b73-92c7-f67ed088cfcb.root
/store/mc/Run3Summer22NanoAODv12/DYto2L-2Jets_MLL-50_PTLL-100to200_2J_TuneCP5_13p6TeV_amcatnloFXFX-pythia8/NANOAODSIM/130X_mcRun3_2022_realistic_v5-v1/2560000/928b2cb7-5d27-4b61-b8d0-b1bf2a576738.root
/store/mc/Run3Summer22NanoAODv12/DYto2L-2Jets_MLL-50_PTLL-100to200_2J_TuneCP5_13p6TeV_amcatnloFXFX-pythia8/NANOAODSIM/130X_mcRun3_2022_realistic_v5-v1/2560000/9230cf2f-2ca5-40dc-81f6-13637db984aa.root
/store/mc/Run3Summer22NanoAODv12/DYto2L-2Jets_MLL-50_PTLL-100to200_2J_TuneCP5_13p6TeV_amcatnloFXFX-pythia8/NANOAODSIM/130X_mcRun3_2022_realistic_v5-v1/2560000/697c5a4b-49b6-4649-a760-5d03df453124.root
/store/mc/Run3Summer22NanoAODv12/DYto2L-2Jets_MLL-50_PTLL-100to200_2J_TuneCP5_13p6TeV_amcatnloFXFX-pythia8/NANOAODSIM/130X_mcRun3_2022_realistic_v5-v1/2560000/a551478f-7dfb-4f51-97b4-10c0e12507b6.root
/store/mc/Run3Summer22NanoAODv12/DYto2L-2Jets_MLL-50_PTLL-100to200_2J_TuneCP5_13p6TeV_amcatnloFXFX-pythia8/NANOAODSIM/130X_mcRun3_2022_realistic_v5-v1/60000/8fd69702-cd9d-4717-a80b-1dfacc449433.root
/store/mc/Run3Summer22NanoAODv12/DYto2L-2Jets_MLL-50_PTLL-100to200_2J_TuneCP5_13p6TeV_amcatnloFXFX-pythia8/NANOAODSIM/130X_mcRun3_2022_realistic_v5-v1/60000/4575a15e-8599-42e5-9f21-898edc9918b6.root
/store/mc/Run3Summer22NanoAODv12/DYto2L-2Jets_MLL-50_PTLL-100to200_2J_TuneCP5_13p6TeV_amcatnloFXFX-pythia8/NANOAODSIM/130X_mcRun3_2022_realistic_v5-v1/60000/6937adaa-6bbf-44c5-a152-370b87f366a4.root
/store/mc/Run3Summer22NanoAODv12/DYto2L-2Jets_MLL-50_PTLL-100to200_2J_TuneCP5_13p6TeV_amcatnloFXFX-pythia8/NANOAODSIM/130X_mcRun3_2022_realistic_v5-v1/2560000/e0ecf1f2-72af-444c-9c6c-121f2849b76d.root
/store/mc/Run3Summer22NanoAODv12/DYto2L-2Jets_MLL-50_PTLL-100to200_2J_TuneCP5_13p6TeV_amcatnloFXFX-pythia8/NANOAODSIM/130X_mcRun3_2022_realistic_v5-v1/2560000/51a5a5f9-c012-4907-98a7-efc54ea1ade4.root
/store/mc/Run3Summer22NanoAODv12/DYto2L-2Jets_MLL-50_PTLL-100to200_2J_TuneCP5_13p6TeV_amcatnloFXFX-pythia8/NANOAODSIM/130X_mcRun3_2022_realistic_v5-v1/2560000/3606cf6e-320c-4d46-b840-18b9129babb8.root
/store/mc/Run3Summer22NanoAODv12/DYto2L-2Jets_MLL-50_PTLL-100to200_2J_TuneCP5_13p6TeV_amcatnloFXFX-pythia8/NANOAODSIM/130X_mcRun3_2022_realistic_v5-v1/2560000/ced869b9-0274-4e42-8bdc-96c048919c18.root
/store/mc/Run3Summer22NanoAODv12/DYto2L-2Jets_MLL-50_PTLL-100to200_2J_TuneCP5_13p6TeV_amcatnloFXFX-pythia8/NANOAODSIM/130X_mcRun3_2022_realistic_v5-v1/2560000/9fb97072-5e6e-4e98-84a1-c48ca0b29522.root
/store/mc/Run3Summer22NanoAODv12/DYto2L-2Jets_MLL-50_PTLL-100to200_2J_TuneCP5_13p6TeV_amcatnloFXFX-pythia8/NANOAODSIM/130X_mcRun3_2022_realistic_v5-v1/60000/182a6e99-6aab-468d-8e33-f976a567d3ae.root
/store/mc/Run3Summer22NanoAODv12/DYto2L-2Jets_MLL-50_PTLL-100to200_2J_TuneCP5_13p6TeV_amcatnloFXFX-pythia8/NANOAODSIM/130X_mcRun3_2022_realistic_v5-v1/60000/dce9e37d-4f8d-4e6b-937a-36c7f0bf8d9e.root
/store/mc/Run3Summer22NanoAODv12/DYto2L-2Jets_MLL-50_PTLL-100to200_2J_TuneCP5_13p6TeV_amcatnloFXFX-pythia8/NANOAODSIM/130X_mcRun3_2022_realistic_v5-v1/60000/b09d0edc-53a2-406c-9dd4-274bc56ecbc9.root
/store/mc/Run3Summer22NanoAODv12/DYto2L-2Jets_MLL-50_PTLL-100to200_2J_TuneCP5_13p6TeV_amcatnloFXFX-pythia8/NANOAODSIM/130X_mcRun3_2022_realistic_v5-v1/2560000/d209be1d-f26e-483d-8202-3f3262071022.root
/store/mc/Run3Summer22NanoAODv12/DYto2L-2Jets_MLL-50_PTLL-100to200_2J_TuneCP5_13p6TeV_amcatnloFXFX-pythia8/NANOAODSIM/130X_mcRun3_2022_realistic_v5-v1/2560000/739aea19-e26f-4777-8030-46e94fed31d3.root
/store/mc/Run3Summer22NanoAODv12/DYto2L-2Jets_MLL-50_PTLL-100to200_2J_TuneCP5_13p6TeV_amcatnloFXFX-pythia8/NANOAODSIM/130X_mcRun3_2022_realistic_v5-v1/2560000/6e891d95-5efe-441f-886a-68c532e7622f.root
/store/mc/Run3Summer22NanoAODv12/DYto2L-2Jets_MLL-50_PTLL-100to200_2J_TuneCP5_13p6TeV_amcatnloFXFX-pythia8/NANOAODSIM/130X_mcRun3_2022_realistic_v5-v1/70000/b38eff43-9f76-4cff-9a69-3baaa13f22ea.root
/store/mc/Run3Summer22NanoAODv12/DYto2L-2Jets_MLL-50_PTLL-100to200_2J_TuneCP5_13p6TeV_amcatnloFXFX-pythia8/NANOAODSIM/130X_mcRun3_2022_realistic_v5-v1/60000/473ec00d-2c6a-4d19-a616-81bfe83b47fa.root
/store/mc/Run3Summer22NanoAODv12/DYto2L-2Jets_MLL-50_PTLL-100to200_2J_TuneCP5_13p6TeV_amcatnloFXFX-pythia8/NANOAODSIM/130X_mcRun3_2022_realistic_v5-v1/60000/55092ddd-15e9-440e-a312-77040c46503d.root
/store/mc/Run3Summer22NanoAODv12/DYto2L-2Jets_MLL-50_PTLL-100to200_2J_TuneCP5_13p6TeV_amcatnloFXFX-pythia8/NANOAODSIM/130X_mcRun3_2022_realistic_v5-v1/2560000/0b9e7aa0-772e-438e-bcfc-17c32bac14d9.root
/store/mc/Run3Summer22NanoAODv12/DYto2L-2Jets_MLL-50_PTLL-100to200_2J_TuneCP5_13p6TeV_amcatnloFXFX-pythia8/NANOAODSIM/130X_mcRun3_2022_realistic_v5-v1/2560000/7c35d9c3-0d92-483c-8234-3fccf5da84eb.root
/store/mc/Run3Summer22NanoAODv12/DYto2L-2Jets_MLL-50_PTLL-100to200_2J_TuneCP5_13p6TeV_amcatnloFXFX-pythia8/NANOAODSIM/130X_mcRun3_2022_realistic_v5-v1/2560000/f6595029-a6ca-4826-996f-f556d896c172.root
/store/mc/Run3Summer22NanoAODv12/DYto2L-2Jets_MLL-50_PTLL-100to200_2J_TuneCP5_13p6TeV_amcatnloFXFX-pythia8/NANOAODSIM/130X_mcRun3_2022_realistic_v5-v1/70000/8674e4dc-02fa-4932-92d6-1207e0e0caac.root
/store/mc/Run3Summer22NanoAODv12/DYto2L-2Jets_MLL-50_PTLL-100to200_2J_TuneCP5_13p6TeV_amcatnloFXFX-pythia8/NANOAODSIM/130X_mcRun3_2022_realistic_v5-v1/70000/a3bd0c27-b0ad-4938-b3e2-f342ca6c60a1.root
/store/mc/Run3Summer22NanoAODv12/DYto2L-2Jets_MLL-50_PTLL-100to200_2J_TuneCP5_13p6TeV_amcatnloFXFX-pythia8/NANOAODSIM/130X_mcRun3_2022_realistic_v5-v1/70000/b75ca6c7-2197-47fd-86bb-7e96a22e2b38.root
/store/mc/Run3Summer22NanoAODv12/DYto2L-2Jets_MLL-50_PTLL-100to200_2J_TuneCP5_13p6TeV_amcatnloFXFX-pythia8/NANOAODSIM/130X_mcRun3_2022_realistic_v5-v1/70000/c67c7d35-7e64-46a7-913d-f553352033f0.root
/store/mc/Run3Summer22NanoAODv12/DYto2L-2Jets_MLL-50_PTLL-100to200_2J_TuneCP5_13p6TeV_amcatnloFXFX-pythia8/NANOAODSIM/130X_mcRun3_2022_realistic_v5-v1/70000/25e17bbd-aa12-4d22-89be-8f3bcab62feb.root
/store/mc/Run3Summer22NanoAODv12/DYto2L-2Jets_MLL-50_PTLL-100to200_2J_TuneCP5_13p6TeV_amcatnloFXFX-pythia8/NANOAODSIM/130X_mcRun3_2022_realistic_v5-v1/70000/662a371b-e449-4789-ae49-6a3da79d4900.root
/store/mc/Run3Summer22NanoAODv12/DYto2L-2Jets_MLL-50_PTLL-100to200_2J_TuneCP5_13p6TeV_amcatnloFXFX-pythia8/NANOAODSIM/130X_mcRun3_2022_realistic_v5-v1/70000/6b00d1b3-b675-4939-866f-8775335b2d39.root
/store/mc/Run3Summer22NanoAODv12/DYto2L-2Jets_MLL-50_PTLL-100to200_2J_TuneCP5_13p6TeV_amcatnloFXFX-pythia8/NANOAODSIM/130X_mcRun3_2022_realistic_v5-v1/70000/ff9bfa36-e57b-48cc-8cba-fde7dc615576.root
/store/mc/Run3Summer22NanoAODv12/DYto2L-2Jets_MLL-50_PTLL-100to200_2J_TuneCP5_13p6TeV_amcatnloFXFX-pythia8/NANOAODSIM/130X_mcRun3_2022_realistic_v5-v1/60000/a808a59a-c350-44cf-a09c-c262dc96ec12.root
/store/mc/Run3Summer22NanoAODv12/DYto2L-2Jets_MLL-50_PTLL-100to200_2J_TuneCP5_13p6TeV_amcatnloFXFX-pythia8/NANOAODSIM/130X_mcRun3_2022_realistic_v5-v1/60000/d52e623e-6107-4bb7-90b4-af8e2d75685e.root
/store/mc/Run3Summer22NanoAODv12/DYto2L-2Jets_MLL-50_PTLL-100to200_2J_TuneCP5_13p6TeV_amcatnloFXFX-pythia8/NANOAODSIM/130X_mcRun3_2022_realistic_v5-v1/60000/85a548b5-f66a-48ba-89c0-bb94c7cf8bae.root
/store/mc/Run3Summer22NanoAODv12/DYto2L-2Jets_MLL-50_PTLL-100to200_2J_TuneCP5_13p6TeV_amcatnloFXFX-pythia8/NANOAODSIM/130X_mcRun3_2022_realistic_v5-v1/60000/47e4facd-9bb9-4bd1-9686-d78f95097aa0.root
/store/mc/Run3Summer22NanoAODv12/DYto2L-2Jets_MLL-50_PTLL-100to200_2J_TuneCP5_13p6TeV_amcatnloFXFX-pythia8/NANOAODSIM/130X_mcRun3_2022_realistic_v5-v1/60000/850e6187-4ef9-45d8-8ee9-321fdbc6ca41.root
/store/mc/Run3Summer22NanoAODv12/DYto2L-2Jets_MLL-50_PTLL-100to200_2J_TuneCP5_13p6TeV_amcatnloFXFX-pythia8/NANOAODSIM/130X_mcRun3_2022_realistic_v5-v1/60000/d6847178-b2d9-4a0b-b7dd-188249c4e1c4.root
/store/mc/Run3Summer22NanoAODv12/DYto2L-2Jets_MLL-50_PTLL-100to200_2J_TuneCP5_13p6TeV_amcatnloFXFX-pythia8/NANOAODSIM/130X_mcRun3_2022_realistic_v5-v1/60000/7c5238c0-3284-433e-bd5f-cddf346ec5b6.root
/store/mc/Run3Summer22NanoAODv12/DYto2L-2Jets_MLL-50_PTLL-100to200_2J_TuneCP5_13p6TeV_amcatnloFXFX-pythia8/NANOAODSIM/130X_mcRun3_2022_realistic_v5-v1/60000/e564f967-cc97-4c02-b238-4f3134625406.root
/store/mc/Run3Summer22NanoAODv12/DYto2L-2Jets_MLL-50_PTLL-100to200_2J_TuneCP5_13p6TeV_amcatnloFXFX-pythia8/NANOAODSIM/130X_mcRun3_2022_realistic_v5-v1/60000/d86d9ae1-1947-4e6c-82a5-8205a7b9c663.root
/store/mc/Run3Summer22NanoAODv12/DYto2L-2Jets_MLL-50_PTLL-100to200_2J_TuneCP5_13p6TeV_amcatnloFXFX-pythia8/NANOAODSIM/130X_mcRun3_2022_realistic_v5-v1/60000/1a5ae23d-d5c7-4146-ae25-3580de439c51.root
/store/mc/Run3Summer22NanoAODv12/DYto2L-2Jets_MLL-50_PTLL-100to200_2J_TuneCP5_13p6TeV_amcatnloFXFX-pythia8/NANOAODSIM/130X_mcRun3_2022_realistic_v5-v1/60000/5c9851a5-a77b-40c1-a84b-65666f908de3.root
/store/mc/Run3Summer22NanoAODv12/DYto2L-2Jets_MLL-50_PTLL-100to200_2J_TuneCP5_13p6TeV_amcatnloFXFX-pythia8/NANOAODSIM/130X_mcRun3_2022_realistic_v5-v1/70000/d98fba7b-7d9c-44d8-99ba-6af2d1bf58d2.root
/store/mc/Run3Summer22NanoAODv12/DYto2L-2Jets_MLL-50_PTLL-100to200_2J_TuneCP5_13p6TeV_amcatnloFXFX-pythia8/NANOAODSIM/130X_mcRun3_2022_realistic_v5-v1/70000/d34e479e-3133-43a4-9fcf-8fad5ddfa883.root
/store/mc/Run3Summer22NanoAODv12/DYto2L-2Jets_MLL-50_PTLL-100to200_2J_TuneCP5_13p6TeV_amcatnloFXFX-pythia8/NANOAODSIM/130X_mcRun3_2022_realistic_v5-v1/70000/b7019779-185c-4be3-aefb-cdfaef583107.root
/store/mc/Run3Summer22NanoAODv12/DYto2L-2Jets_MLL-50_PTLL-100to200_2J_TuneCP5_13p6TeV_amcatnloFXFX-pythia8/NANOAODSIM/130X_mcRun3_2022_realistic_v5-v1/60000/111e0159-bd07-42c8-8a9a-314364e058c1.root
/store/mc/Run3Summer22NanoAODv12/DYto2L-2Jets_MLL-50_PTLL-100to200_2J_TuneCP5_13p6TeV_amcatnloFXFX-pythia8/NANOAODSIM/130X_mcRun3_2022_realistic_v5-v1/60000/c0c88eb5-7e20-4abb-ab3c-d32e3139bd28.root
/store/mc/Run3Summer22NanoAODv12/DYto2L-2Jets_MLL-50_PTLL-100to200_2J_TuneCP5_13p6TeV_amcatnloFXFX-pythia8/NANOAODSIM/130X_mcRun3_2022_realistic_v5-v1/60000/cdcd2c2e-e98e-414d-a723-9ce3aad3a17f.root
/store/mc/Run3Summer22NanoAODv12/DYto2L-2Jets_MLL-50_PTLL-100to200_2J_TuneCP5_13p6TeV_amcatnloFXFX-pythia8/NANOAODSIM/130X_mcRun3_2022_realistic_v5-v1/60000/e038320d-c420-4d24-a210-3be4bc379b50.root
/store/mc/Run3Summer22NanoAODv12/DYto2L-2Jets_MLL-50_PTLL-100to200_2J_TuneCP5_13p6TeV_amcatnloFXFX-pythia8/NANOAODSIM/130X_mcRun3_2022_realistic_v5-v1/60000/2185fed6-6d65-4da8-a7b3-2c77d3210106.root
/store/mc/Run3Summer22NanoAODv12/DYto2L-2Jets_MLL-50_PTLL-100to200_2J_TuneCP5_13p6TeV_amcatnloFXFX-pythia8/NANOAODSIM/130X_mcRun3_2022_realistic_v5-v1/2560000/ad6cc9fb-46d1-4f14-80a6-991f179eafb4.root
/store/mc/Run3Summer22NanoAODv12/DYto2L-2Jets_MLL-50_PTLL-100to200_2J_TuneCP5_13p6TeV_amcatnloFXFX-pythia8/NANOAODSIM/130X_mcRun3_2022_realistic_v5-v1/2560000/7b71b7a5-3d58-4b9c-b5ec-3a255f8ae45f.root
/store/mc/Run3Summer22NanoAODv12/DYto2L-2Jets_MLL-50_PTLL-100to200_2J_TuneCP5_13p6TeV_amcatnloFXFX-pythia8/NANOAODSIM/130X_mcRun3_2022_realistic_v5-v1/2560000/4470e65a-42e8-42af-a83f-7fdb79bb105b.root
/store/mc/Run3Summer22NanoAODv12/DYto2L-2Jets_MLL-50_PTLL-100to200_2J_TuneCP5_13p6TeV_amcatnloFXFX-pythia8/NANOAODSIM/130X_mcRun3_2022_realistic_v5-v1/2560000/fef9b9e3-f13e-4242-bd07-429d25bf1971.root
/store/mc/Run3Summer22NanoAODv12/DYto2L-2Jets_MLL-50_PTLL-100to200_2J_TuneCP5_13p6TeV_amcatnloFXFX-pythia8/NANOAODSIM/130X_mcRun3_2022_realistic_v5-v1/70000/c69d4a71-80c2-4fb8-8706-d7e9b9c3b442.root
/store/mc/Run3Summer22NanoAODv12/DYto2L-2Jets_MLL-50_PTLL-100to200_2J_TuneCP5_13p6TeV_amcatnloFXFX-pythia8/NANOAODSIM/130X_mcRun3_2022_realistic_v5-v1/70000/2793f91c-90c0-4ad6-9ed6-0b4acb2b1820.root
/store/mc/Run3Summer22NanoAODv12/DYto2L-2Jets_MLL-50_PTLL-100to200_2J_TuneCP5_13p6TeV_amcatnloFXFX-pythia8/NANOAODSIM/130X_mcRun3_2022_realistic_v5-v1/70000/02d68c73-ad4d-4abf-a455-39947f611634.root
/store/mc/Run3Summer22NanoAODv12/DYto2L-2Jets_MLL-50_PTLL-100to200_2J_TuneCP5_13p6TeV_amcatnloFXFX-pythia8/NANOAODSIM/130X_mcRun3_2022_realistic_v5-v1/70000/b986f30a-40a1-42aa-b0a0-f5acd55d6718.root
/store/mc/Run3Summer22NanoAODv12/DYto2L-2Jets_MLL-50_PTLL-100to200_2J_TuneCP5_13p6TeV_amcatnloFXFX-pythia8/NANOAODSIM/130X_mcRun3_2022_realistic_v5-v1/70000/d34d7d65-8e09-4c56-8686-7a1070f2a870.root
/store/mc/Run3Summer22NanoAODv12/DYto2L-2Jets_MLL-50_PTLL-100to200_2J_TuneCP5_13p6TeV_amcatnloFXFX-pythia8/NANOAODSIM/130X_mcRun3_2022_realistic_v5-v1/70000/e05f3cb7-aed9-4eb5-b9b1-1cef4345b71d.root
/store/mc/Run3Summer22NanoAODv12/DYto2L-2Jets_MLL-50_PTLL-100to200_2J_TuneCP5_13p6TeV_amcatnloFXFX-pythia8/NANOAODSIM/130X_mcRun3_2022_realistic_v5-v1/70000/98216940-4356-463d-9e1d-5dc49e35cbbd.root
/store/mc/Run3Summer22NanoAODv12/DYto2L-2Jets_MLL-50_PTLL-100to200_2J_TuneCP5_13p6TeV_amcatnloFXFX-pythia8/NANOAODSIM/130X_mcRun3_2022_realistic_v5-v1/70000/b25beb55-a22e-4142-97f8-17b8d3b13a65.root
/store/mc/Run3Summer22NanoAODv12/DYto2L-2Jets_MLL-50_PTLL-100to200_2J_TuneCP5_13p6TeV_amcatnloFXFX-pythia8/NANOAODSIM/130X_mcRun3_2022_realistic_v5-v1/70000/f1fc1f0d-1598-41a2-8341-70a56fae5dfe.root
/store/mc/Run3Summer22NanoAODv12/DYto2L-2Jets_MLL-50_PTLL-100to200_2J_TuneCP5_13p6TeV_amcatnloFXFX-pythia8/NANOAODSIM/130X_mcRun3_2022_realistic_v5-v1/70000/2354270e-e3c2-4c04-bca3-e0047ed6981b.root
/store/mc/Run3Summer22NanoAODv12/DYto2L-2Jets_MLL-50_PTLL-100to200_2J_TuneCP5_13p6TeV_amcatnloFXFX-pythia8/NANOAODSIM/130X_mcRun3_2022_realistic_v5-v1/70000/a2186e0e-67ef-4020-8592-fc13326e71a7.root
/store/mc/Run3Summer22NanoAODv12/DYto2L-2Jets_MLL-50_PTLL-100to200_2J_TuneCP5_13p6TeV_amcatnloFXFX-pythia8/NANOAODSIM/130X_mcRun3_2022_realistic_v5-v1/70000/fa308fbc-66ab-4992-9602-2f330b275a89.root
/store/mc/Run3Summer22NanoAODv12/DYto2L-2Jets_MLL-50_PTLL-100to200_2J_TuneCP5_13p6TeV_amcatnloFXFX-pythia8/NANOAODSIM/130X_mcRun3_2022_realistic_v5-v1/70000/d4327738-6569-407f-a234-f5b21822df6c.root
/store/mc/Run3Summer22NanoAODv12/DYto2L-2Jets_MLL-50_PTLL-100to200_2J_TuneCP5_13p6TeV_amcatnloFXFX-pythia8/NANOAODSIM/130X_mcRun3_2022_realistic_v5-v1/70000/30817b67-8aa4-4aea-8da2-65ad2c846486.root
/store/mc/Run3Summer22NanoAODv12/DYto2L-2Jets_MLL-50_PTLL-100to200_2J_TuneCP5_13p6TeV_amcatnloFXFX-pythia8/NANOAODSIM/130X_mcRun3_2022_realistic_v5-v1/70000/e844e498-3580-4938-8d99-7264e9720cec.root
/store/mc/Run3Summer22NanoAODv12/DYto2L-2Jets_MLL-50_PTLL-100to200_2J_TuneCP5_13p6TeV_amcatnloFXFX-pythia8/NANOAODSIM/130X_mcRun3_2022_realistic_v5-v1/70000/be55c599-7e4d-4beb-8259-f85f7c959f10.root
/store/mc/Run3Summer22NanoAODv12/DYto2L-2Jets_MLL-50_PTLL-100to200_2J_TuneCP5_13p6TeV_amcatnloFXFX-pythia8/NANOAODSIM/130X_mcRun3_2022_realistic_v5-v1/70000/c0de54bc-0d3f-4b22-a26d-08b7352342f3.root
/store/mc/Run3Summer22NanoAODv12/DYto2L-2Jets_MLL-50_PTLL-100to200_2J_TuneCP5_13p6TeV_amcatnloFXFX-pythia8/NANOAODSIM/130X_mcRun3_2022_realistic_v5-v1/70000/cb4ac746-6f30-4c48-a6d6-fbab0948ecfe.root
/store/mc/Run3Summer22NanoAODv12/DYto2L-2Jets_MLL-50_PTLL-100to200_2J_TuneCP5_13p6TeV_amcatnloFXFX-pythia8/NANOAODSIM/130X_mcRun3_2022_realistic_v5-v1/70000/a2d6f2c2-7634-4158-8bef-65976b46fb70.root
/store/mc/Run3Summer22NanoAODv12/DYto2L-2Jets_MLL-50_PTLL-100to200_2J_TuneCP5_13p6TeV_amcatnloFXFX-pythia8/NANOAODSIM/130X_mcRun3_2022_realistic_v5-v1/70000/2a49c02d-886f-4301-b69f-b14594f8a2ad.root
/store/mc/Run3Summer22NanoAODv12/DYto2L-2Jets_MLL-50_PTLL-100to200_2J_TuneCP5_13p6TeV_amcatnloFXFX-pythia8/NANOAODSIM/130X_mcRun3_2022_realistic_v5-v1/70000/8a16fcb5-91d6-4eb5-aa31-a2924760ca69.root
/store/mc/Run3Summer22NanoAODv12/DYto2L-2Jets_MLL-50_PTLL-100to200_2J_TuneCP5_13p6TeV_amcatnloFXFX-pythia8/NANOAODSIM/130X_mcRun3_2022_realistic_v5-v1/2550000/b769e27a-f9c9-47b4-9189-24bf6de70b22.root
/store/mc/Run3Summer22NanoAODv12/DYto2L-2Jets_MLL-50_PTLL-100to200_2J_TuneCP5_13p6TeV_amcatnloFXFX-pythia8/NANOAODSIM/130X_mcRun3_2022_realistic_v5-v1/2550000/40153ec6-fed0-4b15-b667-e6dea3db1b39.root
/store/mc/Run3Summer22NanoAODv12/DYto2L-2Jets_MLL-50_PTLL-100to200_2J_TuneCP5_13p6TeV_amcatnloFXFX-pythia8/NANOAODSIM/130X_mcRun3_2022_realistic_v5-v1/2550000/27c6dd70-8d37-4cf0-a46a-49473a3490b3.root
/store/mc/Run3Summer22NanoAODv12/DYto2L-2Jets_MLL-50_PTLL-100to200_2J_TuneCP5_13p6TeV_amcatnloFXFX-pythia8/NANOAODSIM/130X_mcRun3_2022_realistic_v5-v1/2550000/aafc6b7e-a9eb-47e4-b2dd-1bf36cfcdef9.root
/store/mc/Run3Summer22NanoAODv12/DYto2L-2Jets_MLL-50_PTLL-100to200_2J_TuneCP5_13p6TeV_amcatnloFXFX-pythia8/NANOAODSIM/130X_mcRun3_2022_realistic_v5-v1/2550000/ee4d6d6b-b119-4544-a98d-d34000d3c9be.root
/store/mc/Run3Summer22NanoAODv12/DYto2L-2Jets_MLL-50_PTLL-100to200_2J_TuneCP5_13p6TeV_amcatnloFXFX-pythia8/NANOAODSIM/130X_mcRun3_2022_realistic_v5-v1/2550000/b1ca7233-256e-457d-bdf7-6e57974476a8.root
/store/mc/Run3Summer22NanoAODv12/DYto2L-2Jets_MLL-50_PTLL-100to200_2J_TuneCP5_13p6TeV_amcatnloFXFX-pythia8/NANOAODSIM/130X_mcRun3_2022_realistic_v5-v1/2550000/e5cf7b65-9af1-4319-873d-b0d2b2074419.root
/store/mc/Run3Summer22NanoAODv12/DYto2L-2Jets_MLL-50_PTLL-100to200_2J_TuneCP5_13p6TeV_amcatnloFXFX-pythia8/NANOAODSIM/130X_mcRun3_2022_realistic_v5-v1/2550000/17a7ad1c-6250-440c-8dc9-31a81c55f27e.root
/store/mc/Run3Summer22NanoAODv12/DYto2L-2Jets_MLL-50_PTLL-100to200_2J_TuneCP5_13p6TeV_amcatnloFXFX-pythia8/NANOAODSIM/130X_mcRun3_2022_realistic_v5-v1/2550000/1cb2de2e-ac19-4ab7-a6ba-774bd7124e03.root
/store/mc/Run3Summer22NanoAODv12/DYto2L-2Jets_MLL-50_PTLL-100to200_2J_TuneCP5_13p6TeV_amcatnloFXFX-pythia8/NANOAODSIM/130X_mcRun3_2022_realistic_v5-v1/2550000/c663cbb4-340d-4e73-bcbf-d7b0af9a5f7f.root
/store/mc/Run3Summer22NanoAODv12/DYto2L-2Jets_MLL-50_PTLL-100to200_2J_TuneCP5_13p6TeV_amcatnloFXFX-pythia8/NANOAODSIM/130X_mcRun3_2022_realistic_v5-v1/2550000/81bd4246-3489-46b4-a51c-55d3b926a604.root
/store/mc/Run3Summer22NanoAODv12/DYto2L-2Jets_MLL-50_PTLL-100to200_2J_TuneCP5_13p6TeV_amcatnloFXFX-pythia8/NANOAODSIM/130X_mcRun3_2022_realistic_v5-v1/2550000/38329d03-529f-4cc8-b9ca-efd2b206c82a.root
/store/mc/Run3Summer22NanoAODv12/DYto2L-2Jets_MLL-50_PTLL-100to200_2J_TuneCP5_13p6TeV_amcatnloFXFX-pythia8/NANOAODSIM/130X_mcRun3_2022_realistic_v5-v1/2550000/da8de73d-c77c-424a-bf18-f8ef1a0eba43.root
/store/mc/Run3Summer22NanoAODv12/DYto2L-2Jets_MLL-50_PTLL-100to200_2J_TuneCP5_13p6TeV_amcatnloFXFX-pythia8/NANOAODSIM/130X_mcRun3_2022_realistic_v5-v1/2550000/20c8a087-ae74-4484-ba7b-84a49a8438ae.root
/store/mc/Run3Summer22NanoAODv12/DYto2L-2Jets_MLL-50_PTLL-100to200_2J_TuneCP5_13p6TeV_amcatnloFXFX-pythia8/NANOAODSIM/130X_mcRun3_2022_realistic_v5-v1/2550000/f2b1a0c9-8474-42fe-ab38-af4cf2fec914.root
/store/mc/Run3Summer22NanoAODv12/DYto2L-2Jets_MLL-50_PTLL-100to200_2J_TuneCP5_13p6TeV_amcatnloFXFX-pythia8/NANOAODSIM/130X_mcRun3_2022_realistic_v5-v1/2550000/0d337478-a7b9-4206-b7a7-1cadbcb6cb83.root
/store/mc/Run3Summer22NanoAODv12/DYto2L-2Jets_MLL-50_PTLL-100to200_2J_TuneCP5_13p6TeV_amcatnloFXFX-pythia8/NANOAODSIM/130X_mcRun3_2022_realistic_v5-v1/2550000/d084d380-95b6-4259-b545-444506c81004.root
/store/mc/Run3Summer22NanoAODv12/DYto2L-2Jets_MLL-50_PTLL-100to200_2J_TuneCP5_13p6TeV_amcatnloFXFX-pythia8/NANOAODSIM/130X_mcRun3_2022_realistic_v5-v1/2550000/f1d7100d-fc51-4b8b-b22d-e154bf8ac7e0.root
/store/mc/Run3Summer22NanoAODv12/DYto2L-2Jets_MLL-50_PTLL-100to200_2J_TuneCP5_13p6TeV_amcatnloFXFX-pythia8/NANOAODSIM/130X_mcRun3_2022_realistic_v5-v1/2550000/e6ac256e-2023-42e7-8b90-c72cde2ce0bd.root
/store/mc/Run3Summer22NanoAODv12/DYto2L-2Jets_MLL-50_PTLL-100to200_2J_TuneCP5_13p6TeV_amcatnloFXFX-pythia8/NANOAODSIM/130X_mcRun3_2022_realistic_v5-v1/2550000/f03aea51-4655-4788-8b86-059c0d7e5317.root
/store/mc/Run3Summer22NanoAODv12/DYto2L-2Jets_MLL-50_PTLL-100to200_2J_TuneCP5_13p6TeV_amcatnloFXFX-pythia8/NANOAODSIM/130X_mcRun3_2022_realistic_v5-v1/2550000/632a0c58-10b5-49b3-a0d4-18eba05b9318.root
/store/mc/Run3Summer22NanoAODv12/DYto2L-2Jets_MLL-50_PTLL-100to200_2J_TuneCP5_13p6TeV_amcatnloFXFX-pythia8/NANOAODSIM/130X_mcRun3_2022_realistic_v5-v1/2550000/a38a337e-28df-4eb7-872f-82750067aaff.root
/store/mc/Run3Summer22NanoAODv12/DYto2L-2Jets_MLL-50_PTLL-100to200_2J_TuneCP5_13p6TeV_amcatnloFXFX-pythia8/NANOAODSIM/130X_mcRun3_2022_realistic_v5-v1/2550000/327fe5e4-db20-4bb9-b821-c6d8dfc7b3d4.root
/store/mc/Run3Summer22NanoAODv12/DYto2L-2Jets_MLL-50_PTLL-100to200_2J_TuneCP5_13p6TeV_amcatnloFXFX-pythia8/NANOAODSIM/130X_mcRun3_2022_realistic_v5-v1/2550000/09982b89-903f-4ae7-9809-354bca926991.root
/store/mc/Run3Summer22NanoAODv12/DYto2L-2Jets_MLL-50_PTLL-100to200_2J_TuneCP5_13p6TeV_amcatnloFXFX-pythia8/NANOAODSIM/130X_mcRun3_2022_realistic_v5-v1/2550000/8411ad7c-5b4f-4a96-8a37-8c5ee9022b84.root
/store/mc/Run3Summer22NanoAODv12/DYto2L-2Jets_MLL-50_PTLL-100to200_2J_TuneCP5_13p6TeV_amcatnloFXFX-pythia8/NANOAODSIM/130X_mcRun3_2022_realistic_v5-v1/2550000/a5080261-6614-4b23-a243-460bb4bb58ca.root
/store/mc/Run3Summer22NanoAODv12/DYto2L-2Jets_MLL-50_PTLL-100to200_2J_TuneCP5_13p6TeV_amcatnloFXFX-pythia8/NANOAODSIM/130X_mcRun3_2022_realistic_v5-v1/2550000/54a3928d-a70e-4a27-b6e4-d3bbc11d58f3.root
/store/mc/Run3Summer22NanoAODv12/DYto2L-2Jets_MLL-50_PTLL-100to200_2J_TuneCP5_13p6TeV_amcatnloFXFX-pythia8/NANOAODSIM/130X_mcRun3_2022_realistic_v5-v1/2550000/2ae3adb4-1e23-452d-8a6e-4ef4d9538e40.root
/store/mc/Run3Summer22NanoAODv12/DYto2L-2Jets_MLL-50_PTLL-100to200_2J_TuneCP5_13p6TeV_amcatnloFXFX-pythia8/NANOAODSIM/130X_mcRun3_2022_realistic_v5-v1/2550000/98a59c0e-4c17-467f-abb2-3e6f2e2738dd.root
/store/mc/Run3Summer22NanoAODv12/DYto2L-2Jets_MLL-50_PTLL-100to200_2J_TuneCP5_13p6TeV_amcatnloFXFX-pythia8/NANOAODSIM/130X_mcRun3_2022_realistic_v5-v1/2550000/a81b72d1-7b46-4978-9445-42d3963b3565.root
/store/mc/Run3Summer22NanoAODv12/DYto2L-2Jets_MLL-50_PTLL-100to200_2J_TuneCP5_13p6TeV_amcatnloFXFX-pythia8/NANOAODSIM/130X_mcRun3_2022_realistic_v5-v1/2550000/b205e0ef-0164-4b3a-bfe9-e30790532c5e.root
/store/mc/Run3Summer22NanoAODv12/DYto2L-2Jets_MLL-50_PTLL-100to200_2J_TuneCP5_13p6TeV_amcatnloFXFX-pythia8/NANOAODSIM/130X_mcRun3_2022_realistic_v5-v1/2550000/1474c6f4-2abd-406d-b7a7-f0a068f2fad3.root
/store/mc/Run3Summer22NanoAODv12/DYto2L-2Jets_MLL-50_PTLL-100to200_2J_TuneCP5_13p6TeV_amcatnloFXFX-pythia8/NANOAODSIM/130X_mcRun3_2022_realistic_v5-v1/2550000/516787a3-de6b-4766-bb19-8afdb7954d9d.root
/store/mc/Run3Summer22NanoAODv12/DYto2L-2Jets_MLL-50_PTLL-100to200_2J_TuneCP5_13p6TeV_amcatnloFXFX-pythia8/NANOAODSIM/130X_mcRun3_2022_realistic_v5-v1/2550000/7a538515-c751-4b06-9172-9460eb4eb2b3.root
/store/mc/Run3Summer22NanoAODv12/DYto2L-2Jets_MLL-50_PTLL-100to200_2J_TuneCP5_13p6TeV_amcatnloFXFX-pythia8/NANOAODSIM/130X_mcRun3_2022_realistic_v5-v1/2550000/f07ac683-5020-4648-b7d7-1bc2d2f600e5.root
/store/mc/Run3Summer22NanoAODv12/DYto2L-2Jets_MLL-50_PTLL-100to200_2J_TuneCP5_13p6TeV_amcatnloFXFX-pythia8/NANOAODSIM/130X_mcRun3_2022_realistic_v5-v1/2550000/052a66f3-61f8-409c-8dac-3f5cddb0ac0a.root
/store/mc/Run3Summer22NanoAODv12/DYto2L-2Jets_MLL-50_PTLL-100to200_2J_TuneCP5_13p6TeV_amcatnloFXFX-pythia8/NANOAODSIM/130X_mcRun3_2022_realistic_v5-v1/2550000/c2213d91-92d4-4ba1-8508-149c51c3335a.root
/store/mc/Run3Summer22NanoAODv12/DYto2L-2Jets_MLL-50_PTLL-100to200_2J_TuneCP5_13p6TeV_amcatnloFXFX-pythia8/NANOAODSIM/130X_mcRun3_2022_realistic_v5-v1/2550000/84bbbd02-650c-4706-a2e4-391cd4c052cf.root
/store/mc/Run3Summer22NanoAODv12/DYto2L-2Jets_MLL-50_PTLL-100to200_2J_TuneCP5_13p6TeV_amcatnloFXFX-pythia8/NANOAODSIM/130X_mcRun3_2022_realistic_v5-v1/2550000/ecd03cc7-418a-48ec-931b-4cdbe267a4dc.root
/store/mc/Run3Summer22NanoAODv12/DYto2L-2Jets_MLL-50_PTLL-100to200_2J_TuneCP5_13p6TeV_amcatnloFXFX-pythia8/NANOAODSIM/130X_mcRun3_2022_realistic_v5-v1/2550000/ed57ca5b-9889-4f61-baa2-c09e5c86ea62.root
/store/mc/Run3Summer22NanoAODv12/DYto2L-2Jets_MLL-50_PTLL-100to200_2J_TuneCP5_13p6TeV_amcatnloFXFX-pythia8/NANOAODSIM/130X_mcRun3_2022_realistic_v5-v1/2550000/7a22b37e-ecfd-4a2e-9cd0-a331dd4059b2.root
/store/mc/Run3Summer22NanoAODv12/DYto2L-2Jets_MLL-50_PTLL-100to200_2J_TuneCP5_13p6TeV_amcatnloFXFX-pythia8/NANOAODSIM/130X_mcRun3_2022_realistic_v5-v1/2550000/48174f2b-4a2d-4526-b5d7-016a5215ebdb.root
/store/mc/Run3Summer22NanoAODv12/DYto2L-2Jets_MLL-50_PTLL-100to200_2J_TuneCP5_13p6TeV_amcatnloFXFX-pythia8/NANOAODSIM/130X_mcRun3_2022_realistic_v5-v1/2550000/3e43712f-90cc-4a21-9de1-e1cb391a2281.root
/store/mc/Run3Summer22NanoAODv12/DYto2L-2Jets_MLL-50_PTLL-100to200_2J_TuneCP5_13p6TeV_amcatnloFXFX-pythia8/NANOAODSIM/130X_mcRun3_2022_realistic_v5-v1/2550000/04406b1a-c0aa-47b8-8178-14bceab85949.root
/store/mc/Run3Summer22NanoAODv12/DYto2L-2Jets_MLL-50_PTLL-100to200_2J_TuneCP5_13p6TeV_amcatnloFXFX-pythia8/NANOAODSIM/130X_mcRun3_2022_realistic_v5-v1/2550000/57f86057-9152-4379-8bcb-6cbda9bc96d9.root
/store/mc/Run3Summer22NanoAODv12/DYto2L-2Jets_MLL-50_PTLL-100to200_2J_TuneCP5_13p6TeV_amcatnloFXFX-pythia8/NANOAODSIM/130X_mcRun3_2022_realistic_v5-v1/2550000/df70bb19-7b1f-4773-a1de-8595cabcb8b8.root
/store/mc/Run3Summer22NanoAODv12/DYto2L-2Jets_MLL-50_PTLL-100to200_2J_TuneCP5_13p6TeV_amcatnloFXFX-pythia8/NANOAODSIM/130X_mcRun3_2022_realistic_v5-v1/2550000/d46ab4b9-e463-48e8-b22e-eac0abc7dab9.root
/store/mc/Run3Summer22NanoAODv12/DYto2L-2Jets_MLL-50_PTLL-100to200_2J_TuneCP5_13p6TeV_amcatnloFXFX-pythia8/NANOAODSIM/130X_mcRun3_2022_realistic_v5-v1/2550000/8dbee749-09fe-4b6b-a36d-a9f242d8bf52.root
/store/mc/Run3Summer22NanoAODv12/DYto2L-2Jets_MLL-50_PTLL-100to200_2J_TuneCP5_13p6TeV_amcatnloFXFX-pythia8/NANOAODSIM/130X_mcRun3_2022_realistic_v5-v1/2550000/36b4ad11-6d14-4bdb-b009-bdf268128869.root
/store/mc/Run3Summer22NanoAODv12/DYto2L-2Jets_MLL-50_PTLL-100to200_2J_TuneCP5_13p6TeV_amcatnloFXFX-pythia8/NANOAODSIM/130X_mcRun3_2022_realistic_v5-v1/2550000/1e2e8f14-b790-4d0e-a5ab-f69a226edeb7.root
/store/mc/Run3Summer22NanoAODv12/DYto2L-2Jets_MLL-50_PTLL-100to200_2J_TuneCP5_13p6TeV_amcatnloFXFX-pythia8/NANOAODSIM/130X_mcRun3_2022_realistic_v5-v1/2550000/d507cdda-5d75-4989-a980-541897415925.root
/store/mc/Run3Summer22NanoAODv12/DYto2L-2Jets_MLL-50_PTLL-100to200_2J_TuneCP5_13p6TeV_amcatnloFXFX-pythia8/NANOAODSIM/130X_mcRun3_2022_realistic_v5-v1/2550000/e654eafa-fe34-4675-9d2b-8b864626f032.root
/store/mc/Run3Summer22NanoAODv12/DYto2L-2Jets_MLL-50_PTLL-100to200_2J_TuneCP5_13p6TeV_amcatnloFXFX-pythia8/NANOAODSIM/130X_mcRun3_2022_realistic_v5-v1/2550000/60bd408b-0251-4e90-8a3c-3f20d0812c53.root
/store/mc/Run3Summer22NanoAODv12/DYto2L-2Jets_MLL-50_PTLL-100to200_2J_TuneCP5_13p6TeV_amcatnloFXFX-pythia8/NANOAODSIM/130X_mcRun3_2022_realistic_v5-v1/2560000/207130bf-da12-439f-82d7-218be13e889d.root
/store/mc/Run3Summer22NanoAODv12/DYto2L-2Jets_MLL-50_PTLL-100to200_2J_TuneCP5_13p6TeV_amcatnloFXFX-pythia8/NANOAODSIM/130X_mcRun3_2022_realistic_v5-v1/2560000/e82975de-e156-4f86-8ff4-7d3b9f2cdcf0.root
/store/mc/Run3Summer22NanoAODv12/DYto2L-2Jets_MLL-50_PTLL-100to200_2J_TuneCP5_13p6TeV_amcatnloFXFX-pythia8/NANOAODSIM/130X_mcRun3_2022_realistic_v5-v1/2560000/c2e13b40-8c95-48b4-9d34-a5953a388f2a.root
/store/mc/Run3Summer22NanoAODv12/DYto2L-2Jets_MLL-50_PTLL-100to200_2J_TuneCP5_13p6TeV_amcatnloFXFX-pythia8/NANOAODSIM/130X_mcRun3_2022_realistic_v5-v1/2560000/17b25623-5481-4d91-9dc9-0d6460750334.root
/store/mc/Run3Summer22NanoAODv12/DYto2L-2Jets_MLL-50_PTLL-100to200_2J_TuneCP5_13p6TeV_amcatnloFXFX-pythia8/NANOAODSIM/130X_mcRun3_2022_realistic_v5-v1/2560000/1f8aa9be-d15d-493c-b5ff-7d7fe086a27f.root
/store/mc/Run3Summer22NanoAODv12/DYto2L-2Jets_MLL-50_PTLL-100to200_2J_TuneCP5_13p6TeV_amcatnloFXFX-pythia8/NANOAODSIM/130X_mcRun3_2022_realistic_v5-v1/2560000/bbd18494-f537-47c9-84bb-b5b9828da6e5.root
/store/mc/Run3Summer22NanoAODv12/DYto2L-2Jets_MLL-50_PTLL-100to200_2J_TuneCP5_13p6TeV_amcatnloFXFX-pythia8/NANOAODSIM/130X_mcRun3_2022_realistic_v5-v1/2560000/07d20b48-e7d8-41fa-996a-8c7660d67515.root
/store/mc/Run3Summer22NanoAODv12/DYto2L-2Jets_MLL-50_PTLL-100to200_2J_TuneCP5_13p6TeV_amcatnloFXFX-pythia8/NANOAODSIM/130X_mcRun3_2022_realistic_v5-v1/2560000/fcab2851-73ed-42d4-8917-898da83956bb.root
/store/mc/Run3Summer22NanoAODv12/DYto2L-2Jets_MLL-50_PTLL-100to200_2J_TuneCP5_13p6TeV_amcatnloFXFX-pythia8/NANOAODSIM/130X_mcRun3_2022_realistic_v5-v1/2560000/049c1f67-8b1e-4e35-beed-3f8fecccc532.root
/store/mc/Run3Summer22NanoAODv12/DYto2L-2Jets_MLL-50_PTLL-100to200_2J_TuneCP5_13p6TeV_amcatnloFXFX-pythia8/NANOAODSIM/130X_mcRun3_2022_realistic_v5-v1/2560000/2b7400bf-0dd3-4371-93a2-b82e506ad2fb.root
/store/mc/Run3Summer22NanoAODv12/DYto2L-2Jets_MLL-50_PTLL-100to200_2J_TuneCP5_13p6TeV_amcatnloFXFX-pythia8/NANOAODSIM/130X_mcRun3_2022_realistic_v5-v1/2560000/5608ecea-eafa-4bce-88e5-0b690993d75b.root
/store/mc/Run3Summer22NanoAODv12/DYto2L-2Jets_MLL-50_PTLL-100to200_2J_TuneCP5_13p6TeV_amcatnloFXFX-pythia8/NANOAODSIM/130X_mcRun3_2022_realistic_v5-v1/2560000/25c6384a-ffbb-474f-9f4f-c28420e262f3.root
/store/mc/Run3Summer22NanoAODv12/DYto2L-2Jets_MLL-50_PTLL-100to200_2J_TuneCP5_13p6TeV_amcatnloFXFX-pythia8/NANOAODSIM/130X_mcRun3_2022_realistic_v5-v1/2560000/b1581ce9-4033-47ad-9b9b-0c2178ebc878.root
/store/mc/Run3Summer22NanoAODv12/DYto2L-2Jets_MLL-50_PTLL-100to200_2J_TuneCP5_13p6TeV_amcatnloFXFX-pythia8/NANOAODSIM/130X_mcRun3_2022_realistic_v5-v1/2560000/6e582765-6116-41a3-9486-6329f3ba52c7.root
/store/mc/Run3Summer22NanoAODv12/DYto2L-2Jets_MLL-50_PTLL-100to200_2J_TuneCP5_13p6TeV_amcatnloFXFX-pythia8/NANOAODSIM/130X_mcRun3_2022_realistic_v5-v1/2560000/e1b5e99a-561a-4581-8530-81a737d81ad0.root
/store/mc/Run3Summer22NanoAODv12/DYto2L-2Jets_MLL-50_PTLL-100to200_2J_TuneCP5_13p6TeV_amcatnloFXFX-pythia8/NANOAODSIM/130X_mcRun3_2022_realistic_v5-v1/2560000/02ad9121-2c24-4589-a4e2-8257bd10d94b.root
/store/mc/Run3Summer22NanoAODv12/DYto2L-2Jets_MLL-50_PTLL-100to200_2J_TuneCP5_13p6TeV_amcatnloFXFX-pythia8/NANOAODSIM/130X_mcRun3_2022_realistic_v5-v1/2560000/887a48cf-5f15-44bf-b89a-cc1075b82f70.root
/store/mc/Run3Summer22NanoAODv12/DYto2L-2Jets_MLL-50_PTLL-100to200_2J_TuneCP5_13p6TeV_amcatnloFXFX-pythia8/NANOAODSIM/130X_mcRun3_2022_realistic_v5-v1/2560000/2394ed79-68cb-44a9-ba3d-4d675ccf6f36.root
/store/mc/Run3Summer22NanoAODv12/DYto2L-2Jets_MLL-50_PTLL-100to200_2J_TuneCP5_13p6TeV_amcatnloFXFX-pythia8/NANOAODSIM/130X_mcRun3_2022_realistic_v5-v1/2560000/815360d4-143c-48d2-a8ae-34e183d859bc.root
/store/mc/Run3Summer22NanoAODv12/DYto2L-2Jets_MLL-50_PTLL-100to200_2J_TuneCP5_13p6TeV_amcatnloFXFX-pythia8/NANOAODSIM/130X_mcRun3_2022_realistic_v5-v1/2560000/db823f79-cda6-40e3-b128-0d04234f9d37.root
/store/mc/Run3Summer22NanoAODv12/DYto2L-2Jets_MLL-50_PTLL-100to200_2J_TuneCP5_13p6TeV_amcatnloFXFX-pythia8/NANOAODSIM/130X_mcRun3_2022_realistic_v5-v1/2560000/292c3cc7-783f-4ea2-95f5-8efce5091b2c.root
/store/mc/Run3Summer22NanoAODv12/DYto2L-2Jets_MLL-50_PTLL-100to200_2J_TuneCP5_13p6TeV_amcatnloFXFX-pythia8/NANOAODSIM/130X_mcRun3_2022_realistic_v5-v1/2560000/2ca5b7b0-81bd-4182-b12a-22f0b67536db.root
/store/mc/Run3Summer22NanoAODv12/DYto2L-2Jets_MLL-50_PTLL-100to200_2J_TuneCP5_13p6TeV_amcatnloFXFX-pythia8/NANOAODSIM/130X_mcRun3_2022_realistic_v5-v1/2560000/37b5dcc0-9033-4ab9-b8c7-76b77871ee6b.root
/store/mc/Run3Summer22NanoAODv12/DYto2L-2Jets_MLL-50_PTLL-100to200_2J_TuneCP5_13p6TeV_amcatnloFXFX-pythia8/NANOAODSIM/130X_mcRun3_2022_realistic_v5-v1/2560000/f42846da-578c-4e79-9966-b2062a89a47e.root
/store/mc/Run3Summer22NanoAODv12/DYto2L-2Jets_MLL-50_PTLL-100to200_2J_TuneCP5_13p6TeV_amcatnloFXFX-pythia8/NANOAODSIM/130X_mcRun3_2022_realistic_v5-v1/2560000/5b1b3e4f-7982-4b93-8617-b720874bfcf2.root
/store/mc/Run3Summer22NanoAODv12/DYto2L-2Jets_MLL-50_PTLL-100to200_2J_TuneCP5_13p6TeV_amcatnloFXFX-pythia8/NANOAODSIM/130X_mcRun3_2022_realistic_v5-v1/2560000/49ed55a4-73ac-4b65-80e1-c80c6c936e0e.root
/store/mc/Run3Summer22NanoAODv12/DYto2L-2Jets_MLL-50_PTLL-100to200_2J_TuneCP5_13p6TeV_amcatnloFXFX-pythia8/NANOAODSIM/130X_mcRun3_2022_realistic_v5-v1/2560000/d9ec835b-1f3f-4652-8c6a-bf4d62411271.root
/store/mc/Run3Summer22NanoAODv12/DYto2L-2Jets_MLL-50_PTLL-100to200_2J_TuneCP5_13p6TeV_amcatnloFXFX-pythia8/NANOAODSIM/130X_mcRun3_2022_realistic_v5-v1/2560000/ebc7b924-28e8-4431-b45d-e5f27d0dbbab.root