/store/mc/Run3Summer22NanoAODv12/WtoLNu-2Jets_PTLNu-600_2J_TuneCP5_13p6TeV_amcatnloFXFX-pythia8/NANOAODSIM/130X_mcRun3_2022_realistic_v5-v1/2550000/4185de69-e842-47f8-8310-a0487e79c97a.root
/store/mc/Run3Summer22NanoAODv12/WtoLNu-2Jets_PTLNu-600_2J_TuneCP5_13p6TeV_amcatnloFXFX-pythia8/NANOAODSIM/130X_mcRun3_2022_realistic_v5-v1/2550000/0eb8ffe6-e8be-42e6-b09e-32c0dedb84cc.root
/store/mc/Run3Summer22NanoAODv12/WtoLNu-2Jets_PTLNu-600_2J_TuneCP5_13p6TeV_amcatnloFXFX-pythia8/NANOAODSIM/130X_mcRun3_2022_realistic_v5-v1/2550000/71b57b65-8c88-4257-8dd4-5fc0337bc65d.root
/store/mc/Run3Summer22NanoAODv12/WtoLNu-2Jets_PTLNu-600_2J_TuneCP5_13p6TeV_amcatnloFXFX-pythia8/NANOAODSIM/130X_mcRun3_2022_realistic_v5-v1/2550000/00b38742-36e3-4199-9fdd-5492543ef2c3.root
/store/mc/Run3Summer22NanoAODv12/WtoLNu-2Jets_PTLNu-600_2J_TuneCP5_13p6TeV_amcatnloFXFX-pythia8/NANOAODSIM/130X_mcRun3_2022_realistic_v5-v1/2550000/320f02fc-01e6-4293-8195-1105aacea8ab.root
/store/mc/Run3Summer22NanoAODv12/WtoLNu-2Jets_PTLNu-600_2J_TuneCP5_13p6TeV_amcatnloFXFX-pythia8/NANOAODSIM/130X_mcRun3_2022_realistic_v5-v1/2550000/9353872b-f676-43d0-a2e4-3b5dff7d12c7.root
/store/mc/Run3Summer22NanoAODv12/WtoLNu-2Jets_PTLNu-600_2J_TuneCP5_13p6TeV_amcatnloFXFX-pythia8/NANOAODSIM/130X_mcRun3_2022_realistic_v5-v1/2550000/ba52a5fb-ba2c-43f3-8070-076956860878.root
/store/mc/Run3Summer22NanoAODv12/WtoLNu-2Jets_PTLNu-600_2J_TuneCP5_13p6TeV_amcatnloFXFX-pythia8/NANOAODSIM/130X_mcRun3_2022_realistic_v5-v1/2550000/e36a7ad1-9af6-4128-bb56-9e920d763177.root
/store/mc/Run3Summer22NanoAODv12/WtoLNu-2Jets_PTLNu-600_2J_TuneCP5_13p6TeV_amcatnloFXFX-pythia8/NANOAODSIM/130X_mcRun3_2022_realistic_v5-v1/2550000/ab55da91-4bec-499c-a57a-b90f416eaadc.root
/store/mc/Run3Summer22NanoAODv12/WtoLNu-2Jets_PTLNu-600_2J_TuneCP5_13p6TeV_amcatnloFXFX-pythia8/NANOAODSIM/130X_mcRun3_2022_realistic_v5-v1/2550000/60bc135b-e4f9-4550-8245-55527ead4e00.root
/store/mc/Run3Summer22NanoAODv12/WtoLNu-2Jets_PTLNu-600_2J_TuneCP5_13p6TeV_amcatnloFXFX-pythia8/NANOAODSIM/130X_mcRun3_2022_realistic_v5-v1/2550000/f44e4e7a-3f5c-4f94-a5fa-d0377f6df8ad.root
/store/mc/Run3Summer22NanoAODv12/WtoLNu-2Jets_PTLNu-600_2J_TuneCP5_13p6TeV_amcatnloFXFX-pythia8/NANOAODSIM/130X_mcRun3_2022_realistic_v5-v1/2550000/c57028a3-2b46-482b-aae5-f07eb9d48481.root
/store/mc/Run3Summer22NanoAODv12/WtoLNu-2Jets_PTLNu-600_2J_TuneCP5_13p6TeV_amcatnloFXFX-pythia8/NANOAODSIM/130X_mcRun3_2022_realistic_v5-v1/50000/b664ab3c-77b8-4030-83ec-0d2896307aa7.root
/store/mc/Run3Summer22NanoAODv12/WtoLNu-2Jets_PTLNu-600_2J_TuneCP5_13p6TeV_amcatnloFXFX-pythia8/NANOAODSIM/130X_mcRun3_2022_realistic_v5-v1/50000/c6b7ded4-1b1c-4cfa-ac3a-ca0fcc37d4d8.root
/store/mc/Run3Summer22NanoAODv12/WtoLNu-2Jets_PTLNu-600_2J_TuneCP5_13p6TeV_amcatnloFXFX-pythia8/NANOAODSIM/130X_mcRun3_2022_realistic_v5-v1/50000/7121c1de-23c4-4796-8685-f152b9810770.root
/store/mc/Run3Summer22NanoAODv12/WtoLNu-2Jets_PTLNu-600_2J_TuneCP5_13p6TeV_amcatnloFXFX-pythia8/NANOAODSIM/130X_mcRun3_2022_realistic_v5-v1/50000/6d9eff2f-f2ba-4100-9c61-9bb680498061.root
/store/mc/Run3Summer22NanoAODv12/WtoLNu-2Jets_PTLNu-600_2J_TuneCP5_13p6TeV_amcatnloFXFX-pythia8/NANOAODSIM/130X_mcRun3_2022_realistic_v5-v1/50000/c5e257c4-cfde-4a1c-b435-3936807a6f70.root
/store/mc/Run3Summer22NanoAODv12/WtoLNu-2Jets_PTLNu-600_2J_TuneCP5_13p6TeV_amcatnloFXFX-pythia8/NANOAODSIM/130X_mcRun3_2022_realistic_v5-v1/50000/57910097-3851-40e3-aa9f-7f5887d154c2.root