/store/mc/Run3Summer22NanoAODv12/WtoLNu-2Jets_PTLNu-100to200_2J_TuneCP5_13p6TeV_amcatnloFXFX-pythia8/NANOAODSIM/130X_mcRun3_2022_realistic_v5-v1/2560000/ea9042a5-7fba-4b08-84f6-ef0ac9386267.root
/store/mc/Run3Summer22NanoAODv12/WtoLNu-2Jets_PTLNu-100to200_2J_TuneCP5_13p6TeV_amcatnloFXFX-pythia8/NANOAODSIM/130X_mcRun3_2022_realistic_v5-v1/2560000/0b2c5d69-1518-4a9c-8f15-29c4e9632691.root
/store/mc/Run3Summer22NanoAODv12/WtoLNu-2Jets_PTLNu-100to200_2J_TuneCP5_13p6TeV_amcatnloFXFX-pythia8/NANOAODSIM/130X_mcRun3_2022_realistic_v5-v1/2560000/b56a1b5c-7d29-4be5-86d6-984aa4b6c2e9.root
/store/mc/Run3Summer22NanoAODv12/WtoLNu-2Jets_PTLNu-100to200_2J_TuneCP5_13p6TeV_amcatnloFXFX-pythia8/NANOAODSIM/130X_mcRun3_2022_realistic_v5-v1/2560000/d42c07d3-1e18-4405-bae3-e23dcad7d2b4.root
/store/mc/Run3Summer22NanoAODv12/WtoLNu-2Jets_PTLNu-100to200_2J_TuneCP5_13p6TeV_amcatnloFXFX-pythia8/NANOAODSIM/130X_mcRun3_2022_realistic_v5-v1/2560000/68637bef-f59f-4bab-b9af-ea3f2e0ea184.root
/store/mc/Run3Summer22NanoAODv12/WtoLNu-2Jets_PTLNu-100to200_2J_TuneCP5_13p6TeV_amcatnloFXFX-pythia8/NANOAODSIM/130X_mcRun3_2022_realistic_v5-v1/2560000/726d54e0-01f7-48e8-8c3b-1abcdf9c6692.root
/store/mc/Run3Summer22NanoAODv12/WtoLNu-2Jets_PTLNu-100to200_2J_TuneCP5_13p6TeV_amcatnloFXFX-pythia8/NANOAODSIM/130X_mcRun3_2022_realistic_v5-v1/2560000/14ac1f40-1c78-4d99-b2c3-55573638ee1c.root
/store/mc/Run3Summer22NanoAODv12/WtoLNu-2Jets_PTLNu-100to200_2J_TuneCP5_13p6TeV_amcatnloFXFX-pythia8/NANOAODSIM/130X_mcRun3_2022_realistic_v5-v1/2560000/ec06e57d-8ad8-4cb1-8086-46ade80d247c.root
/store/mc/Run3Summer22NanoAODv12/WtoLNu-2Jets_PTLNu-100to200_2J_TuneCP5_13p6TeV_amcatnloFXFX-pythia8/NANOAODSIM/130X_mcRun3_2022_realistic_v5-v1/2560000/f17fdad5-bd5b-49a5-a053-a50f996ad946.root
/store/mc/Run3Summer22NanoAODv12/WtoLNu-2Jets_PTLNu-100to200_2J_TuneCP5_13p6TeV_amcatnloFXFX-pythia8/NANOAODSIM/130X_mcRun3_2022_realistic_v5-v1/2560000/da83f504-319d-406a-96c5-2abca88f6c69.root
/store/mc/Run3Summer22NanoAODv12/WtoLNu-2Jets_PTLNu-100to200_2J_TuneCP5_13p6TeV_amcatnloFXFX-pythia8/NANOAODSIM/130X_mcRun3_2022_realistic_v5-v1/2560000/801a813e-68df-4a61-9431-ead1b3fed6c2.root
/store/mc/Run3Summer22NanoAODv12/WtoLNu-2Jets_PTLNu-100to200_2J_TuneCP5_13p6TeV_amcatnloFXFX-pythia8/NANOAODSIM/130X_mcRun3_2022_realistic_v5-v1/2560000/a5a7e7c6-5bc5-41b2-8037-a28e51d05584.root
/store/mc/Run3Summer22NanoAODv12/WtoLNu-2Jets_PTLNu-100to200_2J_TuneCP5_13p6TeV_amcatnloFXFX-pythia8/NANOAODSIM/130X_mcRun3_2022_realistic_v5-v1/2550000/6ac6ef87-cebc-4bf2-8410-eb7447626807.root
/store/mc/Run3Summer22NanoAODv12/WtoLNu-2Jets_PTLNu-100to200_2J_TuneCP5_13p6TeV_amcatnloFXFX-pythia8/NANOAODSIM/130X_mcRun3_2022_realistic_v5-v1/2550000/1a254c2d-fc36-4a76-9636-cd237181be02.root
/store/mc/Run3Summer22NanoAODv12/WtoLNu-2Jets_PTLNu-100to200_2J_TuneCP5_13p6TeV_amcatnloFXFX-pythia8/NANOAODSIM/130X_mcRun3_2022_realistic_v5-v1/2550000/a5f9c0e5-c77b-41e0-851b-4206647e31be.root
/store/mc/Run3Summer22NanoAODv12/WtoLNu-2Jets_PTLNu-100to200_2J_TuneCP5_13p6TeV_amcatnloFXFX-pythia8/NANOAODSIM/130X_mcRun3_2022_realistic_v5-v1/2550000/a18172f3-c8bb-4ec7-9b66-e868edc7d9f2.root
/store/mc/Run3Summer22NanoAODv12/WtoLNu-2Jets_PTLNu-100to200_2J_TuneCP5_13p6TeV_amcatnloFXFX-pythia8/NANOAODSIM/130X_mcRun3_2022_realistic_v5-v1/2550000/ecc1616c-5240-498b-9ab0-27ce1489cccd.root
/store/mc/Run3Summer22NanoAODv12/WtoLNu-2Jets_PTLNu-100to200_2J_TuneCP5_13p6TeV_amcatnloFXFX-pythia8/NANOAODSIM/130X_mcRun3_2022_realistic_v5-v1/2550000/7da11a75-16a8-454b-b0b1-41a4909caf14.root
/store/mc/Run3Summer22NanoAODv12/WtoLNu-2Jets_PTLNu-100to200_2J_TuneCP5_13p6TeV_amcatnloFXFX-pythia8/NANOAODSIM/130X_mcRun3_2022_realistic_v5-v1/2550000/7ae77fb1-ab39-4b76-b108-397053e63f18.root
/store/mc/Run3Summer22NanoAODv12/WtoLNu-2Jets_PTLNu-100to200_2J_TuneCP5_13p6TeV_amcatnloFXFX-pythia8/NANOAODSIM/130X_mcRun3_2022_realistic_v5-v1/2550000/809d4681-3c51-48ef-8ee1-7adf2d58b96f.root
/store/mc/Run3Summer22NanoAODv12/WtoLNu-2Jets_PTLNu-100to200_2J_TuneCP5_13p6TeV_amcatnloFXFX-pythia8/NANOAODSIM/130X_mcRun3_2022_realistic_v5-v1/2550000/1729adf5-b8df-4c66-94a6-54defed2f91d.root
/store/mc/Run3Summer22NanoAODv12/WtoLNu-2Jets_PTLNu-100to200_2J_TuneCP5_13p6TeV_amcatnloFXFX-pythia8/NANOAODSIM/130X_mcRun3_2022_realistic_v5-v1/2550000/d2a19085-db79-4ac8-beeb-577db4643b9e.root
/store/mc/Run3Summer22NanoAODv12/WtoLNu-2Jets_PTLNu-100to200_2J_TuneCP5_13p6TeV_amcatnloFXFX-pythia8/NANOAODSIM/130X_mcRun3_2022_realistic_v5-v1/2550000/2402918b-2062-48d6-af1f-a88d779a9827.root
/store/mc/Run3Summer22NanoAODv12/WtoLNu-2Jets_PTLNu-100to200_2J_TuneCP5_13p6TeV_amcatnloFXFX-pythia8/NANOAODSIM/130X_mcRun3_2022_realistic_v5-v1/2550000/4f36ec1b-d907-42c2-89d9-0048ba3b0536.root
/store/mc/Run3Summer22NanoAODv12/WtoLNu-2Jets_PTLNu-100to200_2J_TuneCP5_13p6TeV_amcatnloFXFX-pythia8/NANOAODSIM/130X_mcRun3_2022_realistic_v5-v1/2550000/5c2c7aaa-bdc6-4c5d-9eaa-91178d0dbb51.root
/store/mc/Run3Summer22NanoAODv12/WtoLNu-2Jets_PTLNu-100to200_2J_TuneCP5_13p6TeV_amcatnloFXFX-pythia8/NANOAODSIM/130X_mcRun3_2022_realistic_v5-v1/2550000/1a3f2f8d-015c-457f-9e97-199a3b6a0ee3.root
/store/mc/Run3Summer22NanoAODv12/WtoLNu-2Jets_PTLNu-100to200_2J_TuneCP5_13p6TeV_amcatnloFXFX-pythia8/NANOAODSIM/130X_mcRun3_2022_realistic_v5-v1/2550000/dda7392e-1c56-4ee0-bb74-9dbd0ea1e714.root
/store/mc/Run3Summer22NanoAODv12/WtoLNu-2Jets_PTLNu-100to200_2J_TuneCP5_13p6TeV_amcatnloFXFX-pythia8/NANOAODSIM/130X_mcRun3_2022_realistic_v5-v1/2550000/ee66fe9e-6d86-4343-86b5-a34fb809f9a9.root
/store/mc/Run3Summer22NanoAODv12/WtoLNu-2Jets_PTLNu-100to200_2J_TuneCP5_13p6TeV_amcatnloFXFX-pythia8/NANOAODSIM/130X_mcRun3_2022_realistic_v5-v1/2550000/148472de-af98-4173-9fbc-584a405a757d.root
/store/mc/Run3Summer22NanoAODv12/WtoLNu-2Jets_PTLNu-100to200_2J_TuneCP5_13p6TeV_amcatnloFXFX-pythia8/NANOAODSIM/130X_mcRun3_2022_realistic_v5-v1/2550000/cdd452e7-56e6-46c3-b34a-bf82d40a3e1f.root
/store/mc/Run3Summer22NanoAODv12/WtoLNu-2Jets_PTLNu-100to200_2J_TuneCP5_13p6TeV_amcatnloFXFX-pythia8/NANOAODSIM/130X_mcRun3_2022_realistic_v5-v1/2550000/12abd350-e4ae-43c5-a7cc-06581e1cc748.root
/store/mc/Run3Summer22NanoAODv12/WtoLNu-2Jets_PTLNu-100to200_2J_TuneCP5_13p6TeV_amcatnloFXFX-pythia8/NANOAODSIM/130X_mcRun3_2022_realistic_v5-v1/2550000/2edec849-60d5-4a18-9045-2ecd14397581.root
/store/mc/Run3Summer22NanoAODv12/WtoLNu-2Jets_PTLNu-100to200_2J_TuneCP5_13p6TeV_amcatnloFXFX-pythia8/NANOAODSIM/130X_mcRun3_2022_realistic_v5-v1/2550000/abe00c03-5c83-4780-8cf3-a05f913a3d44.root
/store/mc/Run3Summer22NanoAODv12/WtoLNu-2Jets_PTLNu-100to200_2J_TuneCP5_13p6TeV_amcatnloFXFX-pythia8/NANOAODSIM/130X_mcRun3_2022_realistic_v5-v1/2550000/c08e7369-e48e-4f48-ac24-51dace1aa4a4.root
/store/mc/Run3Summer22NanoAODv12/WtoLNu-2Jets_PTLNu-100to200_2J_TuneCP5_13p6TeV_amcatnloFXFX-pythia8/NANOAODSIM/130X_mcRun3_2022_realistic_v5-v1/2550000/56c1f25d-ad03-47a7-a6a4-e69ceb8e333e.root
/store/mc/Run3Summer22NanoAODv12/WtoLNu-2Jets_PTLNu-100to200_2J_TuneCP5_13p6TeV_amcatnloFXFX-pythia8/NANOAODSIM/130X_mcRun3_2022_realistic_v5-v1/2550000/1fcf02a2-40a1-4876-aec6-aef769e3cf36.root
/store/mc/Run3Summer22NanoAODv12/WtoLNu-2Jets_PTLNu-100to200_2J_TuneCP5_13p6TeV_amcatnloFXFX-pythia8/NANOAODSIM/130X_mcRun3_2022_realistic_v5-v1/2550000/d8e1d94e-14f1-480c-8a59-c4244b920ef7.root
/store/mc/Run3Summer22NanoAODv12/WtoLNu-2Jets_PTLNu-100to200_2J_TuneCP5_13p6TeV_amcatnloFXFX-pythia8/NANOAODSIM/130X_mcRun3_2022_realistic_v5-v1/2550000/4baaf17a-a012-4d31-bdd2-4195c3ef485d.root
/store/mc/Run3Summer22NanoAODv12/WtoLNu-2Jets_PTLNu-100to200_2J_TuneCP5_13p6TeV_amcatnloFXFX-pythia8/NANOAODSIM/130X_mcRun3_2022_realistic_v5-v1/2550000/9d871f94-b1e6-478f-a872-089b3163c7e0.root
/store/mc/Run3Summer22NanoAODv12/WtoLNu-2Jets_PTLNu-100to200_2J_TuneCP5_13p6TeV_amcatnloFXFX-pythia8/NANOAODSIM/130X_mcRun3_2022_realistic_v5-v1/2550000/d769fa6d-b4ae-4f0f-9a7b-427d13affe2f.root
/store/mc/Run3Summer22NanoAODv12/WtoLNu-2Jets_PTLNu-100to200_2J_TuneCP5_13p6TeV_amcatnloFXFX-pythia8/NANOAODSIM/130X_mcRun3_2022_realistic_v5-v1/2550000/de034429-87f7-41b8-96de-96187f1626d8.root
/store/mc/Run3Summer22NanoAODv12/WtoLNu-2Jets_PTLNu-100to200_2J_TuneCP5_13p6TeV_amcatnloFXFX-pythia8/NANOAODSIM/130X_mcRun3_2022_realistic_v5-v1/2550000/ddf699a5-22e5-473a-a043-be52fc2dcebf.root
/store/mc/Run3Summer22NanoAODv12/WtoLNu-2Jets_PTLNu-100to200_2J_TuneCP5_13p6TeV_amcatnloFXFX-pythia8/NANOAODSIM/130X_mcRun3_2022_realistic_v5-v1/2550000/dea0ec4c-166c-416f-b2f9-b50b8e613f58.root
/store/mc/Run3Summer22NanoAODv12/WtoLNu-2Jets_PTLNu-100to200_2J_TuneCP5_13p6TeV_amcatnloFXFX-pythia8/NANOAODSIM/130X_mcRun3_2022_realistic_v5-v1/2550000/4fb85e4c-ef75-4e77-bde1-553150b9d825.root
/store/mc/Run3Summer22NanoAODv12/WtoLNu-2Jets_PTLNu-100to200_2J_TuneCP5_13p6TeV_amcatnloFXFX-pythia8/NANOAODSIM/130X_mcRun3_2022_realistic_v5-v1/2550000/fb6d9427-569d-466d-adfd-264707d35cf5.root
/store/mc/Run3Summer22NanoAODv12/WtoLNu-2Jets_PTLNu-100to200_2J_TuneCP5_13p6TeV_amcatnloFXFX-pythia8/NANOAODSIM/130X_mcRun3_2022_realistic_v5-v1/70000/69f65049-23d7-4092-a87e-0470afb674c2.root
/store/mc/Run3Summer22NanoAODv12/WtoLNu-2Jets_PTLNu-100to200_2J_TuneCP5_13p6TeV_amcatnloFXFX-pythia8/NANOAODSIM/130X_mcRun3_2022_realistic_v5-v1/2550000/203078bb-4445-415a-a900-1d7c5465a0da.root
/store/mc/Run3Summer22NanoAODv12/WtoLNu-2Jets_PTLNu-100to200_2J_TuneCP5_13p6TeV_amcatnloFXFX-pythia8/NANOAODSIM/130X_mcRun3_2022_realistic_v5-v1/2550000/c5c081a4-0522-482b-8ab2-2655f90a8170.root
/store/mc/Run3Summer22NanoAODv12/WtoLNu-2Jets_PTLNu-100to200_2J_TuneCP5_13p6TeV_amcatnloFXFX-pythia8/NANOAODSIM/130X_mcRun3_2022_realistic_v5-v1/2550000/61d467d2-caa1-4c8e-a278-ec8b5f0c2117.root
/store/mc/Run3Summer22NanoAODv12/WtoLNu-2Jets_PTLNu-100to200_2J_TuneCP5_13p6TeV_amcatnloFXFX-pythia8/NANOAODSIM/130X_mcRun3_2022_realistic_v5-v1/2550000/1651cfc2-4efb-4da6-9a85-f5678d262c90.root
/store/mc/Run3Summer22NanoAODv12/WtoLNu-2Jets_PTLNu-100to200_2J_TuneCP5_13p6TeV_amcatnloFXFX-pythia8/NANOAODSIM/130X_mcRun3_2022_realistic_v5-v1/2550000/9ea9a99a-a160-4c46-b8f5-72754e9f87cd.root
/store/mc/Run3Summer22NanoAODv12/WtoLNu-2Jets_PTLNu-100to200_2J_TuneCP5_13p6TeV_amcatnloFXFX-pythia8/NANOAODSIM/130X_mcRun3_2022_realistic_v5-v1/2550000/3178db93-cacd-414f-936b-3d249aad61f8.root
/store/mc/Run3Summer22NanoAODv12/WtoLNu-2Jets_PTLNu-100to200_2J_TuneCP5_13p6TeV_amcatnloFXFX-pythia8/NANOAODSIM/130X_mcRun3_2022_realistic_v5-v1/2550000/fda94274-4586-4cf5-852c-9b62a7949ef0.root
/store/mc/Run3Summer22NanoAODv12/WtoLNu-2Jets_PTLNu-100to200_2J_TuneCP5_13p6TeV_amcatnloFXFX-pythia8/NANOAODSIM/130X_mcRun3_2022_realistic_v5-v1/2560000/73526474-bee8-41f6-a127-b08b26c557ba.root
/store/mc/Run3Summer22NanoAODv12/WtoLNu-2Jets_PTLNu-100to200_2J_TuneCP5_13p6TeV_amcatnloFXFX-pythia8/NANOAODSIM/130X_mcRun3_2022_realistic_v5-v1/70000/dd7a8e0b-75b0-4f89-95a2-7816bcb949e0.root
/store/mc/Run3Summer22NanoAODv12/WtoLNu-2Jets_PTLNu-100to200_2J_TuneCP5_13p6TeV_amcatnloFXFX-pythia8/NANOAODSIM/130X_mcRun3_2022_realistic_v5-v1/70000/6c449f61-db7a-4ebc-b3ff-eeee91ca5245.root
/store/mc/Run3Summer22NanoAODv12/WtoLNu-2Jets_PTLNu-100to200_2J_TuneCP5_13p6TeV_amcatnloFXFX-pythia8/NANOAODSIM/130X_mcRun3_2022_realistic_v5-v1/2550000/ec476e4a-3619-4e4e-9489-a3e299088ff5.root
/store/mc/Run3Summer22NanoAODv12/WtoLNu-2Jets_PTLNu-100to200_2J_TuneCP5_13p6TeV_amcatnloFXFX-pythia8/NANOAODSIM/130X_mcRun3_2022_realistic_v5-v1/2550000/97399611-6e82-4ad2-a908-9f64d95c28ad.root
/store/mc/Run3Summer22NanoAODv12/WtoLNu-2Jets_PTLNu-100to200_2J_TuneCP5_13p6TeV_amcatnloFXFX-pythia8/NANOAODSIM/130X_mcRun3_2022_realistic_v5-v1/2560000/3c75c98f-ef43-4c48-9441-533b8cc5b48f.root
/store/mc/Run3Summer22NanoAODv12/WtoLNu-2Jets_PTLNu-100to200_2J_TuneCP5_13p6TeV_amcatnloFXFX-pythia8/NANOAODSIM/130X_mcRun3_2022_realistic_v5-v1/2560000/72894ed6-f6ab-445e-b6fd-66bcb44433ef.root
/store/mc/Run3Summer22NanoAODv12/WtoLNu-2Jets_PTLNu-100to200_2J_TuneCP5_13p6TeV_amcatnloFXFX-pythia8/NANOAODSIM/130X_mcRun3_2022_realistic_v5-v1/2560000/08fd6db1-3ac9-4ac0-b37c-f640af12f397.root
/store/mc/Run3Summer22NanoAODv12/WtoLNu-2Jets_PTLNu-100to200_2J_TuneCP5_13p6TeV_amcatnloFXFX-pythia8/NANOAODSIM/130X_mcRun3_2022_realistic_v5-v1/2560000/9496436d-457f-423a-90e7-094be875f474.root
/store/mc/Run3Summer22NanoAODv12/WtoLNu-2Jets_PTLNu-100to200_2J_TuneCP5_13p6TeV_amcatnloFXFX-pythia8/NANOAODSIM/130X_mcRun3_2022_realistic_v5-v1/2560000/cc5c180a-0445-472e-ac27-52a05bd2326b.root
/store/mc/Run3Summer22NanoAODv12/WtoLNu-2Jets_PTLNu-100to200_2J_TuneCP5_13p6TeV_amcatnloFXFX-pythia8/NANOAODSIM/130X_mcRun3_2022_realistic_v5-v1/2560000/b50d503a-8a03-4c30-b27e-e1af65a2e586.root
/store/mc/Run3Summer22NanoAODv12/WtoLNu-2Jets_PTLNu-100to200_2J_TuneCP5_13p6TeV_amcatnloFXFX-pythia8/NANOAODSIM/130X_mcRun3_2022_realistic_v5-v1/2560000/92cdd12c-0d77-4cf5-bb07-b50e9fd9886a.root
/store/mc/Run3Summer22NanoAODv12/WtoLNu-2Jets_PTLNu-100to200_2J_TuneCP5_13p6TeV_amcatnloFXFX-pythia8/NANOAODSIM/130X_mcRun3_2022_realistic_v5-v1/2550000/a30f9314-b0bf-4ac7-88dd-9e6a7bea37a3.root
/store/mc/Run3Summer22NanoAODv12/WtoLNu-2Jets_PTLNu-100to200_2J_TuneCP5_13p6TeV_amcatnloFXFX-pythia8/NANOAODSIM/130X_mcRun3_2022_realistic_v5-v1/2550000/bf7ffa48-2528-48f0-beb1-fe5bb3099889.root
/store/mc/Run3Summer22NanoAODv12/WtoLNu-2Jets_PTLNu-100to200_2J_TuneCP5_13p6TeV_amcatnloFXFX-pythia8/NANOAODSIM/130X_mcRun3_2022_realistic_v5-v1/2550000/76b526f0-f616-429e-838f-a0bad618326e.root
/store/mc/Run3Summer22NanoAODv12/WtoLNu-2Jets_PTLNu-100to200_2J_TuneCP5_13p6TeV_amcatnloFXFX-pythia8/NANOAODSIM/130X_mcRun3_2022_realistic_v5-v1/2550000/60064cb9-a872-4246-a466-064700db4364.root
/store/mc/Run3Summer22NanoAODv12/WtoLNu-2Jets_PTLNu-100to200_2J_TuneCP5_13p6TeV_amcatnloFXFX-pythia8/NANOAODSIM/130X_mcRun3_2022_realistic_v5-v1/2550000/e802feeb-15ec-4d54-80fe-3cf0d7b245ee.root
/store/mc/Run3Summer22NanoAODv12/WtoLNu-2Jets_PTLNu-100to200_2J_TuneCP5_13p6TeV_amcatnloFXFX-pythia8/NANOAODSIM/130X_mcRun3_2022_realistic_v5-v1/2550000/50109c43-a4ad-4217-a887-00cd572cf35d.root
/store/mc/Run3Summer22NanoAODv12/WtoLNu-2Jets_PTLNu-100to200_2J_TuneCP5_13p6TeV_amcatnloFXFX-pythia8/NANOAODSIM/130X_mcRun3_2022_realistic_v5-v1/2550000/56b18d54-e1b6-4888-8bbb-be7152645a9c.root
/store/mc/Run3Summer22NanoAODv12/WtoLNu-2Jets_PTLNu-100to200_2J_TuneCP5_13p6TeV_amcatnloFXFX-pythia8/NANOAODSIM/130X_mcRun3_2022_realistic_v5-v1/2550000/cd2104c0-eb96-435a-b8e3-ee4f7ed30ac5.root
/store/mc/Run3Summer22NanoAODv12/WtoLNu-2Jets_PTLNu-100to200_2J_TuneCP5_13p6TeV_amcatnloFXFX-pythia8/NANOAODSIM/130X_mcRun3_2022_realistic_v5-v1/2550000/81584a57-4df5-4dd5-9013-b725870eb87c.root
/store/mc/Run3Summer22NanoAODv12/WtoLNu-2Jets_PTLNu-100to200_2J_TuneCP5_13p6TeV_amcatnloFXFX-pythia8/NANOAODSIM/130X_mcRun3_2022_realistic_v5-v1/70000/81164a22-7442-472c-9634-f7b6bdac5937.root
/store/mc/Run3Summer22NanoAODv12/WtoLNu-2Jets_PTLNu-100to200_2J_TuneCP5_13p6TeV_amcatnloFXFX-pythia8/NANOAODSIM/130X_mcRun3_2022_realistic_v5-v1/70000/593f512e-8dc2-4f09-b82f-77a3a068d099.root
/store/mc/Run3Summer22NanoAODv12/WtoLNu-2Jets_PTLNu-100to200_2J_TuneCP5_13p6TeV_amcatnloFXFX-pythia8/NANOAODSIM/130X_mcRun3_2022_realistic_v5-v1/70000/292abfb2-ed11-4351-9abc-1880c021c707.root
/store/mc/Run3Summer22NanoAODv12/WtoLNu-2Jets_PTLNu-100to200_2J_TuneCP5_13p6TeV_amcatnloFXFX-pythia8/NANOAODSIM/130X_mcRun3_2022_realistic_v5-v1/70000/9398734f-a3f1-4b56-99aa-7289893f9444.root
/store/mc/Run3Summer22NanoAODv12/WtoLNu-2Jets_PTLNu-100to200_2J_TuneCP5_13p6TeV_amcatnloFXFX-pythia8/NANOAODSIM/130X_mcRun3_2022_realistic_v5-v1/70000/55228bd7-a596-4bba-8679-59411294b603.root
/store/mc/Run3Summer22NanoAODv12/WtoLNu-2Jets_PTLNu-100to200_2J_TuneCP5_13p6TeV_amcatnloFXFX-pythia8/NANOAODSIM/130X_mcRun3_2022_realistic_v5-v1/70000/2aa5a3ea-8cb8-466a-820c-b31e249eefc4.root
/store/mc/Run3Summer22NanoAODv12/WtoLNu-2Jets_PTLNu-100to200_2J_TuneCP5_13p6TeV_amcatnloFXFX-pythia8/NANOAODSIM/130X_mcRun3_2022_realistic_v5-v1/70000/99e30250-b1ab-4363-bf36-095bb2bddbdc.root
/store/mc/Run3Summer22NanoAODv12/WtoLNu-2Jets_PTLNu-100to200_2J_TuneCP5_13p6TeV_amcatnloFXFX-pythia8/NANOAODSIM/130X_mcRun3_2022_realistic_v5-v1/2560000/f3187cbe-6da8-4942-b832-5cffa37b2193.root
/store/mc/Run3Summer22NanoAODv12/WtoLNu-2Jets_PTLNu-100to200_2J_TuneCP5_13p6TeV_amcatnloFXFX-pythia8/NANOAODSIM/130X_mcRun3_2022_realistic_v5-v1/2560000/029c04d6-4ea0-4bf5-b329-174308f84ddc.root
/store/mc/Run3Summer22NanoAODv12/WtoLNu-2Jets_PTLNu-100to200_2J_TuneCP5_13p6TeV_amcatnloFXFX-pythia8/NANOAODSIM/130X_mcRun3_2022_realistic_v5-v1/2560000/810c1cfc-9924-4377-a5ff-3dfd38025fa6.root
/store/mc/Run3Summer22NanoAODv12/WtoLNu-2Jets_PTLNu-100to200_2J_TuneCP5_13p6TeV_amcatnloFXFX-pythia8/NANOAODSIM/130X_mcRun3_2022_realistic_v5-v1/2560000/e1c0a584-a581-4c7c-a11a-598407757d70.root
/store/mc/Run3Summer22NanoAODv12/WtoLNu-2Jets_PTLNu-100to200_2J_TuneCP5_13p6TeV_amcatnloFXFX-pythia8/NANOAODSIM/130X_mcRun3_2022_realistic_v5-v1/2560000/f2d21e03-b772-400c-a419-e52e39c161b5.root
/store/mc/Run3Summer22NanoAODv12/WtoLNu-2Jets_PTLNu-100to200_2J_TuneCP5_13p6TeV_amcatnloFXFX-pythia8/NANOAODSIM/130X_mcRun3_2022_realistic_v5-v1/2560000/585cf1c0-7abd-4b7f-9209-bbc4d961b21e.root
/store/mc/Run3Summer22NanoAODv12/WtoLNu-2Jets_PTLNu-100to200_2J_TuneCP5_13p6TeV_amcatnloFXFX-pythia8/NANOAODSIM/130X_mcRun3_2022_realistic_v5-v1/2560000/beec01b4-ed9f-4739-a088-840aa64eccd2.root
/store/mc/Run3Summer22NanoAODv12/WtoLNu-2Jets_PTLNu-100to200_2J_TuneCP5_13p6TeV_amcatnloFXFX-pythia8/NANOAODSIM/130X_mcRun3_2022_realistic_v5-v1/2550000/62dbfbc2-bacc-41b7-87e4-b4bbce785fe7.root
/store/mc/Run3Summer22NanoAODv12/WtoLNu-2Jets_PTLNu-100to200_2J_TuneCP5_13p6TeV_amcatnloFXFX-pythia8/NANOAODSIM/130X_mcRun3_2022_realistic_v5-v1/2560000/8305a221-78f6-480a-82f4-ea3cd7b2a531.root
/store/mc/Run3Summer22NanoAODv12/WtoLNu-2Jets_PTLNu-100to200_2J_TuneCP5_13p6TeV_amcatnloFXFX-pythia8/NANOAODSIM/130X_mcRun3_2022_realistic_v5-v1/2560000/f0cc7dc0-c8b7-473c-94c5-2b5c7d2fe173.root
/store/mc/Run3Summer22NanoAODv12/WtoLNu-2Jets_PTLNu-100to200_2J_TuneCP5_13p6TeV_amcatnloFXFX-pythia8/NANOAODSIM/130X_mcRun3_2022_realistic_v5-v1/2560000/283ea325-7d5b-4816-8c52-3f8ac5c77b8a.root
/store/mc/Run3Summer22NanoAODv12/WtoLNu-2Jets_PTLNu-100to200_2J_TuneCP5_13p6TeV_amcatnloFXFX-pythia8/NANOAODSIM/130X_mcRun3_2022_realistic_v5-v1/2560000/b961a91d-b0c1-46c9-ac0e-5e7cc3e470d5.root
/store/mc/Run3Summer22NanoAODv12/WtoLNu-2Jets_PTLNu-100to200_2J_TuneCP5_13p6TeV_amcatnloFXFX-pythia8/NANOAODSIM/130X_mcRun3_2022_realistic_v5-v1/2560000/43d902e9-1b8e-4f4f-9c4d-54572da7ea89.root
/store/mc/Run3Summer22NanoAODv12/WtoLNu-2Jets_PTLNu-100to200_2J_TuneCP5_13p6TeV_amcatnloFXFX-pythia8/NANOAODSIM/130X_mcRun3_2022_realistic_v5-v1/2560000/d03db6e0-ff4f-4bca-a78e-e76c6e7cb683.root
/store/mc/Run3Summer22NanoAODv12/WtoLNu-2Jets_PTLNu-100to200_2J_TuneCP5_13p6TeV_amcatnloFXFX-pythia8/NANOAODSIM/130X_mcRun3_2022_realistic_v5-v1/2560000/d0321e9f-e98c-405a-a40f-e02d21aab355.root
/store/mc/Run3Summer22NanoAODv12/WtoLNu-2Jets_PTLNu-100to200_2J_TuneCP5_13p6TeV_amcatnloFXFX-pythia8/NANOAODSIM/130X_mcRun3_2022_realistic_v5-v1/2560000/6203b761-773c-44a5-b58d-0400e66a85d1.root
/store/mc/Run3Summer22NanoAODv12/WtoLNu-2Jets_PTLNu-100to200_2J_TuneCP5_13p6TeV_amcatnloFXFX-pythia8/NANOAODSIM/130X_mcRun3_2022_realistic_v5-v1/70000/4c9f7e84-7bc4-4070-990d-1b660a0399fd.root
/store/mc/Run3Summer22NanoAODv12/WtoLNu-2Jets_PTLNu-100to200_2J_TuneCP5_13p6TeV_amcatnloFXFX-pythia8/NANOAODSIM/130X_mcRun3_2022_realistic_v5-v1/70000/8f1978ba-7572-4d25-8805-b605d74ffbbe.root
/store/mc/Run3Summer22NanoAODv12/WtoLNu-2Jets_PTLNu-100to200_2J_TuneCP5_13p6TeV_amcatnloFXFX-pythia8/NANOAODSIM/130X_mcRun3_2022_realistic_v5-v1/70000/285bc5ff-abdd-45c1-b420-5495d35a9259.root
/store/mc/Run3Summer22NanoAODv12/WtoLNu-2Jets_PTLNu-100to200_2J_TuneCP5_13p6TeV_amcatnloFXFX-pythia8/NANOAODSIM/130X_mcRun3_2022_realistic_v5-v1/70000/ff3b5ac3-e52b-4e64-a9a7-2d0ae6a12c8b.root
/store/mc/Run3Summer22NanoAODv12/WtoLNu-2Jets_PTLNu-100to200_2J_TuneCP5_13p6TeV_amcatnloFXFX-pythia8/NANOAODSIM/130X_mcRun3_2022_realistic_v5-v1/2560000/401edd19-2003-46c0-9dd9-c7ad88c9773c.root
/store/mc/Run3Summer22NanoAODv12/WtoLNu-2Jets_PTLNu-100to200_2J_TuneCP5_13p6TeV_amcatnloFXFX-pythia8/NANOAODSIM/130X_mcRun3_2022_realistic_v5-v1/2550000/5b65191a-31f1-4b07-bf53-747fa2e36c95.root
/store/mc/Run3Summer22NanoAODv12/WtoLNu-2Jets_PTLNu-100to200_2J_TuneCP5_13p6TeV_amcatnloFXFX-pythia8/NANOAODSIM/130X_mcRun3_2022_realistic_v5-v1/2550000/e743608b-dece-4dc1-8d50-6faddb82320c.root
/store/mc/Run3Summer22NanoAODv12/WtoLNu-2Jets_PTLNu-100to200_2J_TuneCP5_13p6TeV_amcatnloFXFX-pythia8/NANOAODSIM/130X_mcRun3_2022_realistic_v5-v1/2550000/eca5404d-1542-4bae-8700-63f412e6e877.root
/store/mc/Run3Summer22NanoAODv12/WtoLNu-2Jets_PTLNu-100to200_2J_TuneCP5_13p6TeV_amcatnloFXFX-pythia8/NANOAODSIM/130X_mcRun3_2022_realistic_v5-v1/2550000/38d6aeee-f1b7-40a9-baaf-5427d4e3bb80.root
/store/mc/Run3Summer22NanoAODv12/WtoLNu-2Jets_PTLNu-100to200_2J_TuneCP5_13p6TeV_amcatnloFXFX-pythia8/NANOAODSIM/130X_mcRun3_2022_realistic_v5-v1/2550000/11f3562b-9107-4ab3-915c-a4293d602e0f.root
/store/mc/Run3Summer22NanoAODv12/WtoLNu-2Jets_PTLNu-100to200_2J_TuneCP5_13p6TeV_amcatnloFXFX-pythia8/NANOAODSIM/130X_mcRun3_2022_realistic_v5-v1/2550000/f99fcf15-816d-4f93-9427-6549f33c990d.root
/store/mc/Run3Summer22NanoAODv12/WtoLNu-2Jets_PTLNu-100to200_2J_TuneCP5_13p6TeV_amcatnloFXFX-pythia8/NANOAODSIM/130X_mcRun3_2022_realistic_v5-v1/2550000/b1e56777-2275-455f-88a7-51d58c97219f.root
/store/mc/Run3Summer22NanoAODv12/WtoLNu-2Jets_PTLNu-100to200_2J_TuneCP5_13p6TeV_amcatnloFXFX-pythia8/NANOAODSIM/130X_mcRun3_2022_realistic_v5-v1/2550000/4cf3bc48-c35b-42e8-95bc-5fd5c7484588.root
/store/mc/Run3Summer22NanoAODv12/WtoLNu-2Jets_PTLNu-100to200_2J_TuneCP5_13p6TeV_amcatnloFXFX-pythia8/NANOAODSIM/130X_mcRun3_2022_realistic_v5-v1/2550000/1847b756-3c02-4a54-88bf-c31742ad273e.root
/store/mc/Run3Summer22NanoAODv12/WtoLNu-2Jets_PTLNu-100to200_2J_TuneCP5_13p6TeV_amcatnloFXFX-pythia8/NANOAODSIM/130X_mcRun3_2022_realistic_v5-v1/2550000/c9acd33c-80e6-4c44-8237-1f080a24bb85.root
/store/mc/Run3Summer22NanoAODv12/WtoLNu-2Jets_PTLNu-100to200_2J_TuneCP5_13p6TeV_amcatnloFXFX-pythia8/NANOAODSIM/130X_mcRun3_2022_realistic_v5-v1/2550000/faf5cc38-1e73-4831-9e05-ac28512a577b.root
/store/mc/Run3Summer22NanoAODv12/WtoLNu-2Jets_PTLNu-100to200_2J_TuneCP5_13p6TeV_amcatnloFXFX-pythia8/NANOAODSIM/130X_mcRun3_2022_realistic_v5-v1/2550000/72f4232f-e448-4a9f-b490-3d46f7d49151.root
/store/mc/Run3Summer22NanoAODv12/WtoLNu-2Jets_PTLNu-100to200_2J_TuneCP5_13p6TeV_amcatnloFXFX-pythia8/NANOAODSIM/130X_mcRun3_2022_realistic_v5-v1/2550000/ae3e6a8c-895c-4846-a0a1-2e2a9ad57330.root
/store/mc/Run3Summer22NanoAODv12/WtoLNu-2Jets_PTLNu-100to200_2J_TuneCP5_13p6TeV_amcatnloFXFX-pythia8/NANOAODSIM/130X_mcRun3_2022_realistic_v5-v1/2550000/4b8571cb-bf73-42a2-98bb-437683fb43dc.root
/store/mc/Run3Summer22NanoAODv12/WtoLNu-2Jets_PTLNu-100to200_2J_TuneCP5_13p6TeV_amcatnloFXFX-pythia8/NANOAODSIM/130X_mcRun3_2022_realistic_v5-v1/2550000/f98f8863-de8b-40bc-a944-6de5ac3374dd.root
/store/mc/Run3Summer22NanoAODv12/WtoLNu-2Jets_PTLNu-100to200_2J_TuneCP5_13p6TeV_amcatnloFXFX-pythia8/NANOAODSIM/130X_mcRun3_2022_realistic_v5-v1/2550000/8bdafb72-6cbd-4fb3-afd6-94ba6ea2875a.root
/store/mc/Run3Summer22NanoAODv12/WtoLNu-2Jets_PTLNu-100to200_2J_TuneCP5_13p6TeV_amcatnloFXFX-pythia8/NANOAODSIM/130X_mcRun3_2022_realistic_v5-v1/2550000/35e20be3-8574-4679-a112-ca9e9e054746.root
/store/mc/Run3Summer22NanoAODv12/WtoLNu-2Jets_PTLNu-100to200_2J_TuneCP5_13p6TeV_amcatnloFXFX-pythia8/NANOAODSIM/130X_mcRun3_2022_realistic_v5-v1/2550000/17a38608-98f5-4be7-9b15-a0149d26e007.root
/store/mc/Run3Summer22NanoAODv12/WtoLNu-2Jets_PTLNu-100to200_2J_TuneCP5_13p6TeV_amcatnloFXFX-pythia8/NANOAODSIM/130X_mcRun3_2022_realistic_v5-v1/2550000/e155c566-83a3-4ddf-a5d7-b76c7a431c8c.root
/store/mc/Run3Summer22NanoAODv12/WtoLNu-2Jets_PTLNu-100to200_2J_TuneCP5_13p6TeV_amcatnloFXFX-pythia8/NANOAODSIM/130X_mcRun3_2022_realistic_v5-v1/2550000/9de7cef6-4cdb-4233-82e6-5c011b21d4ab.root
/store/mc/Run3Summer22NanoAODv12/WtoLNu-2Jets_PTLNu-100to200_2J_TuneCP5_13p6TeV_amcatnloFXFX-pythia8/NANOAODSIM/130X_mcRun3_2022_realistic_v5-v1/2550000/d2434ea3-793d-4190-814d-b836805feec5.root
/store/mc/Run3Summer22NanoAODv12/WtoLNu-2Jets_PTLNu-100to200_2J_TuneCP5_13p6TeV_amcatnloFXFX-pythia8/NANOAODSIM/130X_mcRun3_2022_realistic_v5-v1/2550000/f33b916c-a81c-4651-9b53-53e736546fe0.root
/store/mc/Run3Summer22NanoAODv12/WtoLNu-2Jets_PTLNu-100to200_2J_TuneCP5_13p6TeV_amcatnloFXFX-pythia8/NANOAODSIM/130X_mcRun3_2022_realistic_v5-v1/2550000/f35b8d57-89b1-416d-b64d-20274d4a61d1.root
/store/mc/Run3Summer22NanoAODv12/WtoLNu-2Jets_PTLNu-100to200_2J_TuneCP5_13p6TeV_amcatnloFXFX-pythia8/NANOAODSIM/130X_mcRun3_2022_realistic_v5-v1/2550000/2d1160e6-c1df-4415-81ab-d17600e0b2cb.root
/store/mc/Run3Summer22NanoAODv12/WtoLNu-2Jets_PTLNu-100to200_2J_TuneCP5_13p6TeV_amcatnloFXFX-pythia8/NANOAODSIM/130X_mcRun3_2022_realistic_v5-v1/80000/c8aa1abb-4756-4da1-b257-0e023f5e1ce5.root
/store/mc/Run3Summer22NanoAODv12/WtoLNu-2Jets_PTLNu-100to200_2J_TuneCP5_13p6TeV_amcatnloFXFX-pythia8/NANOAODSIM/130X_mcRun3_2022_realistic_v5-v1/80000/61be2236-676a-4a62-9d12-9183ae1ec9e0.root
/store/mc/Run3Summer22NanoAODv12/WtoLNu-2Jets_PTLNu-100to200_2J_TuneCP5_13p6TeV_amcatnloFXFX-pythia8/NANOAODSIM/130X_mcRun3_2022_realistic_v5-v1/2550000/079ecb8f-05a8-4fed-aab1-854cb8bc8097.root
/store/mc/Run3Summer22NanoAODv12/WtoLNu-2Jets_PTLNu-100to200_2J_TuneCP5_13p6TeV_amcatnloFXFX-pythia8/NANOAODSIM/130X_mcRun3_2022_realistic_v5-v1/2550000/6a4c3a8d-68bf-44e0-bfb8-6b2297a0df5a.root
/store/mc/Run3Summer22NanoAODv12/WtoLNu-2Jets_PTLNu-100to200_2J_TuneCP5_13p6TeV_amcatnloFXFX-pythia8/NANOAODSIM/130X_mcRun3_2022_realistic_v5-v1/2550000/2faec2f9-ca7c-4abe-8cc0-24388400919f.root
/store/mc/Run3Summer22NanoAODv12/WtoLNu-2Jets_PTLNu-100to200_2J_TuneCP5_13p6TeV_amcatnloFXFX-pythia8/NANOAODSIM/130X_mcRun3_2022_realistic_v5-v1/2550000/1c9550b9-cd7d-48f8-a171-113400bf3ffc.root
/store/mc/Run3Summer22NanoAODv12/WtoLNu-2Jets_PTLNu-100to200_2J_TuneCP5_13p6TeV_amcatnloFXFX-pythia8/NANOAODSIM/130X_mcRun3_2022_realistic_v5-v1/2550000/cbdee8bf-5d36-4599-a1f1-6b541cb75f49.root
/store/mc/Run3Summer22NanoAODv12/WtoLNu-2Jets_PTLNu-100to200_2J_TuneCP5_13p6TeV_amcatnloFXFX-pythia8/NANOAODSIM/130X_mcRun3_2022_realistic_v5-v1/2550000/b5258baf-58b1-4a95-b6b0-e946449d75f8.root
/store/mc/Run3Summer22NanoAODv12/WtoLNu-2Jets_PTLNu-100to200_2J_TuneCP5_13p6TeV_amcatnloFXFX-pythia8/NANOAODSIM/130X_mcRun3_2022_realistic_v5-v1/50000/5f168d7b-d79e-49fc-9851-b169f8c41e5c.root
/store/mc/Run3Summer22NanoAODv12/WtoLNu-2Jets_PTLNu-100to200_2J_TuneCP5_13p6TeV_amcatnloFXFX-pythia8/NANOAODSIM/130X_mcRun3_2022_realistic_v5-v1/50000/514c3233-1e8f-4626-90e9-36309806fcf6.root
/store/mc/Run3Summer22NanoAODv12/WtoLNu-2Jets_PTLNu-100to200_2J_TuneCP5_13p6TeV_amcatnloFXFX-pythia8/NANOAODSIM/130X_mcRun3_2022_realistic_v5-v1/50000/20311635-c173-4868-93ba-464ebdc1d4d1.root
/store/mc/Run3Summer22NanoAODv12/WtoLNu-2Jets_PTLNu-100to200_2J_TuneCP5_13p6TeV_amcatnloFXFX-pythia8/NANOAODSIM/130X_mcRun3_2022_realistic_v5-v1/50000/dab0380b-d17b-43aa-b243-e39d06402d7c.root
/store/mc/Run3Summer22NanoAODv12/WtoLNu-2Jets_PTLNu-100to200_2J_TuneCP5_13p6TeV_amcatnloFXFX-pythia8/NANOAODSIM/130X_mcRun3_2022_realistic_v5-v1/50000/07f27f84-f84f-4fc7-a1f2-4b68a93680e5.root
/store/mc/Run3Summer22NanoAODv12/WtoLNu-2Jets_PTLNu-100to200_2J_TuneCP5_13p6TeV_amcatnloFXFX-pythia8/NANOAODSIM/130X_mcRun3_2022_realistic_v5-v1/50000/2e3e656c-d914-48fb-9a9e-1172d6af61da.root
/store/mc/Run3Summer22NanoAODv12/WtoLNu-2Jets_PTLNu-100to200_2J_TuneCP5_13p6TeV_amcatnloFXFX-pythia8/NANOAODSIM/130X_mcRun3_2022_realistic_v5-v1/50000/ac49e6b1-3fbe-4241-b1f7-e217ff8097aa.root
/store/mc/Run3Summer22NanoAODv12/WtoLNu-2Jets_PTLNu-100to200_2J_TuneCP5_13p6TeV_amcatnloFXFX-pythia8/NANOAODSIM/130X_mcRun3_2022_realistic_v5-v1/50000/13f5cd06-dfa4-41ed-8b62-13a1bb0adaaa.root
/store/mc/Run3Summer22NanoAODv12/WtoLNu-2Jets_PTLNu-100to200_2J_TuneCP5_13p6TeV_amcatnloFXFX-pythia8/NANOAODSIM/130X_mcRun3_2022_realistic_v5-v1/50000/207a8cee-0cb3-440c-8688-c916b6b425ba.root
/store/mc/Run3Summer22NanoAODv12/WtoLNu-2Jets_PTLNu-100to200_2J_TuneCP5_13p6TeV_amcatnloFXFX-pythia8/NANOAODSIM/130X_mcRun3_2022_realistic_v5-v1/50000/092620d1-d276-4170-9d26-6fd16dd89a09.root
/store/mc/Run3Summer22NanoAODv12/WtoLNu-2Jets_PTLNu-100to200_2J_TuneCP5_13p6TeV_amcatnloFXFX-pythia8/NANOAODSIM/130X_mcRun3_2022_realistic_v5-v1/50000/0d5270ad-4869-4f4f-8ead-5f967e26349f.root
/store/mc/Run3Summer22NanoAODv12/WtoLNu-2Jets_PTLNu-100to200_2J_TuneCP5_13p6TeV_amcatnloFXFX-pythia8/NANOAODSIM/130X_mcRun3_2022_realistic_v5-v1/50000/477ad23a-0f57-46e6-9011-c53300994297.root
/store/mc/Run3Summer22NanoAODv12/WtoLNu-2Jets_PTLNu-100to200_2J_TuneCP5_13p6TeV_amcatnloFXFX-pythia8/NANOAODSIM/130X_mcRun3_2022_realistic_v5-v1/50000/304f64a6-1817-48ad-94ce-000ffb82f683.root
/store/mc/Run3Summer22NanoAODv12/WtoLNu-2Jets_PTLNu-100to200_2J_TuneCP5_13p6TeV_amcatnloFXFX-pythia8/NANOAODSIM/130X_mcRun3_2022_realistic_v5-v1/50000/a217668e-1987-48de-a68c-5787868ac60a.root
/store/mc/Run3Summer22NanoAODv12/WtoLNu-2Jets_PTLNu-100to200_2J_TuneCP5_13p6TeV_amcatnloFXFX-pythia8/NANOAODSIM/130X_mcRun3_2022_realistic_v5-v1/50000/c25eda01-d1d8-4b6b-b77e-65dd45e783f5.root
/store/mc/Run3Summer22NanoAODv12/WtoLNu-2Jets_PTLNu-100to200_2J_TuneCP5_13p6TeV_amcatnloFXFX-pythia8/NANOAODSIM/130X_mcRun3_2022_realistic_v5-v1/50000/82ddafaf-c313-43fe-a3a6-d7d3ed5ef21a.root
/store/mc/Run3Summer22NanoAODv12/WtoLNu-2Jets_PTLNu-100to200_2J_TuneCP5_13p6TeV_amcatnloFXFX-pythia8/NANOAODSIM/130X_mcRun3_2022_realistic_v5-v1/50000/eb961aae-999a-4b9f-af5b-ef9e5b951c01.root
/store/mc/Run3Summer22NanoAODv12/WtoLNu-2Jets_PTLNu-100to200_2J_TuneCP5_13p6TeV_amcatnloFXFX-pythia8/NANOAODSIM/130X_mcRun3_2022_realistic_v5-v1/50000/842d86eb-615a-4af1-86d7-045289f9f874.root
/store/mc/Run3Summer22NanoAODv12/WtoLNu-2Jets_PTLNu-100to200_2J_TuneCP5_13p6TeV_amcatnloFXFX-pythia8/NANOAODSIM/130X_mcRun3_2022_realistic_v5-v1/50000/932d314d-7858-4a6e-8740-f6abc1b4f760.root
/store/mc/Run3Summer22NanoAODv12/WtoLNu-2Jets_PTLNu-100to200_2J_TuneCP5_13p6TeV_amcatnloFXFX-pythia8/NANOAODSIM/130X_mcRun3_2022_realistic_v5-v1/50000/ab74d302-ce9e-4c04-b27d-f2d1117795b2.root
/store/mc/Run3Summer22NanoAODv12/WtoLNu-2Jets_PTLNu-100to200_2J_TuneCP5_13p6TeV_amcatnloFXFX-pythia8/NANOAODSIM/130X_mcRun3_2022_realistic_v5-v1/50000/b3dfccf1-e0de-46ab-bf16-0cf6fbabf61c.root
/store/mc/Run3Summer22NanoAODv12/WtoLNu-2Jets_PTLNu-100to200_2J_TuneCP5_13p6TeV_amcatnloFXFX-pythia8/NANOAODSIM/130X_mcRun3_2022_realistic_v5-v1/50000/b99fe231-7b14-4d3a-b4b9-fb65ffe05480.root
/store/mc/Run3Summer22NanoAODv12/WtoLNu-2Jets_PTLNu-100to200_2J_TuneCP5_13p6TeV_amcatnloFXFX-pythia8/NANOAODSIM/130X_mcRun3_2022_realistic_v5-v1/50000/0031bb27-2cd9-48f3-9cc0-7c55c1dd6a14.root
/store/mc/Run3Summer22NanoAODv12/WtoLNu-2Jets_PTLNu-100to200_2J_TuneCP5_13p6TeV_amcatnloFXFX-pythia8/NANOAODSIM/130X_mcRun3_2022_realistic_v5-v1/50000/1b8fe12e-e544-4387-9369-fccd1dc30325.root
/store/mc/Run3Summer22NanoAODv12/WtoLNu-2Jets_PTLNu-100to200_2J_TuneCP5_13p6TeV_amcatnloFXFX-pythia8/NANOAODSIM/130X_mcRun3_2022_realistic_v5-v1/50000/1c6efbd6-f800-45d9-a352-23598ad20858.root
/store/mc/Run3Summer22NanoAODv12/WtoLNu-2Jets_PTLNu-100to200_2J_TuneCP5_13p6TeV_amcatnloFXFX-pythia8/NANOAODSIM/130X_mcRun3_2022_realistic_v5-v1/50000/f6c405d8-1f80-44f9-b9e8-4a77434906f6.root
/store/mc/Run3Summer22NanoAODv12/WtoLNu-2Jets_PTLNu-100to200_2J_TuneCP5_13p6TeV_amcatnloFXFX-pythia8/NANOAODSIM/130X_mcRun3_2022_realistic_v5-v1/50000/0f3cbdb5-589b-4093-b92b-64243733b502.root
/store/mc/Run3Summer22NanoAODv12/WtoLNu-2Jets_PTLNu-100to200_2J_TuneCP5_13p6TeV_amcatnloFXFX-pythia8/NANOAODSIM/130X_mcRun3_2022_realistic_v5-v1/50000/628cadba-7752-4f79-8e5f-557789f44e4b.root
/store/mc/Run3Summer22NanoAODv12/WtoLNu-2Jets_PTLNu-100to200_2J_TuneCP5_13p6TeV_amcatnloFXFX-pythia8/NANOAODSIM/130X_mcRun3_2022_realistic_v5-v1/50000/4711a912-1dd1-4d4b-b422-a01ba691823c.root
/store/mc/Run3Summer22NanoAODv12/WtoLNu-2Jets_PTLNu-100to200_2J_TuneCP5_13p6TeV_amcatnloFXFX-pythia8/NANOAODSIM/130X_mcRun3_2022_realistic_v5-v1/50000/f62b810c-66c3-45de-8b87-4c03886a6ea7.root
/store/mc/Run3Summer22NanoAODv12/WtoLNu-2Jets_PTLNu-100to200_2J_TuneCP5_13p6TeV_amcatnloFXFX-pythia8/NANOAODSIM/130X_mcRun3_2022_realistic_v5-v1/50000/48165a78-99c1-4d50-812e-763646b5d294.root
/store/mc/Run3Summer22NanoAODv12/WtoLNu-2Jets_PTLNu-100to200_2J_TuneCP5_13p6TeV_amcatnloFXFX-pythia8/NANOAODSIM/130X_mcRun3_2022_realistic_v5-v1/50000/9286460b-f383-40ba-98c9-8d5f710f1faf.root
/store/mc/Run3Summer22NanoAODv12/WtoLNu-2Jets_PTLNu-100to200_2J_TuneCP5_13p6TeV_amcatnloFXFX-pythia8/NANOAODSIM/130X_mcRun3_2022_realistic_v5-v1/50000/68ae1660-1ea2-4c03-bb0d-04e655a9f196.root
/store/mc/Run3Summer22NanoAODv12/WtoLNu-2Jets_PTLNu-100to200_2J_TuneCP5_13p6TeV_amcatnloFXFX-pythia8/NANOAODSIM/130X_mcRun3_2022_realistic_v5-v1/50000/8512d6fb-7dbe-4fd0-b06f-96677ccbe3bf.root