/store/mc/Run3Summer22EENanoAODv12/DYto2L-2Jets_MLL-50_PTLL-100to200_2J_TuneCP5_13p6TeV_amcatnloFXFX-pythia8/NANOAODSIM/130X_mcRun3_2022_realistic_postEE_v6-v3/2560000/1a819ca3-c5ea-42e9-918f-809318518179.root
/store/mc/Run3Summer22EENanoAODv12/DYto2L-2Jets_MLL-50_PTLL-100to200_2J_TuneCP5_13p6TeV_amcatnloFXFX-pythia8/NANOAODSIM/130X_mcRun3_2022_realistic_postEE_v6-v3/2560000/d0722804-3e11-45f5-b017-75c9d6124d96.root
/store/mc/Run3Summer22EENanoAODv12/DYto2L-2Jets_MLL-50_PTLL-100to200_2J_TuneCP5_13p6TeV_amcatnloFXFX-pythia8/NANOAODSIM/130X_mcRun3_2022_realistic_postEE_v6-v3/2560000/eb6d95ea-afe4-4ed4-9c67-c559f67d0b1b.root
/store/mc/Run3Summer22EENanoAODv12/DYto2L-2Jets_MLL-50_PTLL-100to200_2J_TuneCP5_13p6TeV_amcatnloFXFX-pythia8/NANOAODSIM/130X_mcRun3_2022_realistic_postEE_v6-v3/2560000/119a58f5-04e7-4a9b-ad9a-b7fc49c4bafc.root
/store/mc/Run3Summer22EENanoAODv12/DYto2L-2Jets_MLL-50_PTLL-100to200_2J_TuneCP5_13p6TeV_amcatnloFXFX-pythia8/NANOAODSIM/130X_mcRun3_2022_realistic_postEE_v6-v3/2560000/67f5ec57-0886-4a72-b462-6447b1c12679.root
/store/mc/Run3Summer22EENanoAODv12/DYto2L-2Jets_MLL-50_PTLL-100to200_2J_TuneCP5_13p6TeV_amcatnloFXFX-pythia8/NANOAODSIM/130X_mcRun3_2022_realistic_postEE_v6-v3/2560000/f5faca2c-fa1c-4e17-b9a4-6ce251bffb63.root
/store/mc/Run3Summer22EENanoAODv12/DYto2L-2Jets_MLL-50_PTLL-100to200_2J_TuneCP5_13p6TeV_amcatnloFXFX-pythia8/NANOAODSIM/130X_mcRun3_2022_realistic_postEE_v6-v3/2560000/c216217b-8cb3-4e31-806c-3790f59c7d2f.root
/store/mc/Run3Summer22EENanoAODv12/DYto2L-2Jets_MLL-50_PTLL-100to200_2J_TuneCP5_13p6TeV_amcatnloFXFX-pythia8/NANOAODSIM/130X_mcRun3_2022_realistic_postEE_v6-v3/2560000/fd7387b1-685e-4347-99c3-70d43f1c2c2a.root
/store/mc/Run3Summer22EENanoAODv12/DYto2L-2Jets_MLL-50_PTLL-100to200_2J_TuneCP5_13p6TeV_amcatnloFXFX-pythia8/NANOAODSIM/130X_mcRun3_2022_realistic_postEE_v6-v3/2560000/123b7c09-e058-481d-918d-a4c7c74c027c.root
/store/mc/Run3Summer22EENanoAODv12/DYto2L-2Jets_MLL-50_PTLL-100to200_2J_TuneCP5_13p6TeV_amcatnloFXFX-pythia8/NANOAODSIM/130X_mcRun3_2022_realistic_postEE_v6-v3/2560000/c8391ad7-f241-45b8-b49c-f207f5e441b5.root
/store/mc/Run3Summer22EENanoAODv12/DYto2L-2Jets_MLL-50_PTLL-100to200_2J_TuneCP5_13p6TeV_amcatnloFXFX-pythia8/NANOAODSIM/130X_mcRun3_2022_realistic_postEE_v6-v3/2560000/e87a1fb3-e944-4abf-89dd-df24a3de42bd.root
/store/mc/Run3Summer22EENanoAODv12/DYto2L-2Jets_MLL-50_PTLL-100to200_2J_TuneCP5_13p6TeV_amcatnloFXFX-pythia8/NANOAODSIM/130X_mcRun3_2022_realistic_postEE_v6-v3/2560000/d2c045e6-d7f4-4ce9-a7d3-63d3b66cbd9e.root
/store/mc/Run3Summer22EENanoAODv12/DYto2L-2Jets_MLL-50_PTLL-100to200_2J_TuneCP5_13p6TeV_amcatnloFXFX-pythia8/NANOAODSIM/130X_mcRun3_2022_realistic_postEE_v6-v3/2560000/f2f3c9ce-5e7f-4327-a56d-9bb6975fd653.root
/store/mc/Run3Summer22EENanoAODv12/DYto2L-2Jets_MLL-50_PTLL-100to200_2J_TuneCP5_13p6TeV_amcatnloFXFX-pythia8/NANOAODSIM/130X_mcRun3_2022_realistic_postEE_v6-v3/2560000/8ffa5124-38f2-486e-936b-b82d110717f6.root
/store/mc/Run3Summer22EENanoAODv12/DYto2L-2Jets_MLL-50_PTLL-100to200_2J_TuneCP5_13p6TeV_amcatnloFXFX-pythia8/NANOAODSIM/130X_mcRun3_2022_realistic_postEE_v6-v3/2560000/fd1bbbf6-4090-454d-90ae-055494c712b5.root
/store/mc/Run3Summer22EENanoAODv12/DYto2L-2Jets_MLL-50_PTLL-100to200_2J_TuneCP5_13p6TeV_amcatnloFXFX-pythia8/NANOAODSIM/130X_mcRun3_2022_realistic_postEE_v6-v3/2560000/a85885a2-ded6-4224-948b-2afcb00ab931.root
/store/mc/Run3Summer22EENanoAODv12/DYto2L-2Jets_MLL-50_PTLL-100to200_2J_TuneCP5_13p6TeV_amcatnloFXFX-pythia8/NANOAODSIM/130X_mcRun3_2022_realistic_postEE_v6-v3/2560000/45182b44-7a61-4598-806b-d3e9058e2301.root
/store/mc/Run3Summer22EENanoAODv12/DYto2L-2Jets_MLL-50_PTLL-100to200_2J_TuneCP5_13p6TeV_amcatnloFXFX-pythia8/NANOAODSIM/130X_mcRun3_2022_realistic_postEE_v6-v3/2560000/3d166ad6-ee0f-4e80-a458-9306ae8ab72e.root
/store/mc/Run3Summer22EENanoAODv12/DYto2L-2Jets_MLL-50_PTLL-100to200_2J_TuneCP5_13p6TeV_amcatnloFXFX-pythia8/NANOAODSIM/130X_mcRun3_2022_realistic_postEE_v6-v3/2560000/bb8c59be-d982-4bb0-a236-3ae87fd7527b.root
/store/mc/Run3Summer22EENanoAODv12/DYto2L-2Jets_MLL-50_PTLL-100to200_2J_TuneCP5_13p6TeV_amcatnloFXFX-pythia8/NANOAODSIM/130X_mcRun3_2022_realistic_postEE_v6-v3/2560000/d5d22e71-e60d-403b-8abc-4ef3bcf2fdb9.root
/store/mc/Run3Summer22EENanoAODv12/DYto2L-2Jets_MLL-50_PTLL-100to200_2J_TuneCP5_13p6TeV_amcatnloFXFX-pythia8/NANOAODSIM/130X_mcRun3_2022_realistic_postEE_v6-v3/2560000/8abebea2-28b5-4f57-b618-e3da8c1ebfd4.root
/store/mc/Run3Summer22EENanoAODv12/DYto2L-2Jets_MLL-50_PTLL-100to200_2J_TuneCP5_13p6TeV_amcatnloFXFX-pythia8/NANOAODSIM/130X_mcRun3_2022_realistic_postEE_v6-v3/2560000/c5750f64-c153-450c-befc-339273228179.root
/store/mc/Run3Summer22EENanoAODv12/DYto2L-2Jets_MLL-50_PTLL-100to200_2J_TuneCP5_13p6TeV_amcatnloFXFX-pythia8/NANOAODSIM/130X_mcRun3_2022_realistic_postEE_v6-v3/2560000/488877c4-ed33-46e2-95c4-010fd9aae2e1.root
/store/mc/Run3Summer22EENanoAODv12/DYto2L-2Jets_MLL-50_PTLL-100to200_2J_TuneCP5_13p6TeV_amcatnloFXFX-pythia8/NANOAODSIM/130X_mcRun3_2022_realistic_postEE_v6-v3/2560000/6e631acd-6baa-46a3-ab6f-641a57015f63.root
/store/mc/Run3Summer22EENanoAODv12/DYto2L-2Jets_MLL-50_PTLL-100to200_2J_TuneCP5_13p6TeV_amcatnloFXFX-pythia8/NANOAODSIM/130X_mcRun3_2022_realistic_postEE_v6-v3/2560000/b274bd5b-2ccb-42ba-ae0d-33f71e5b8831.root
/store/mc/Run3Summer22EENanoAODv12/DYto2L-2Jets_MLL-50_PTLL-100to200_2J_TuneCP5_13p6TeV_amcatnloFXFX-pythia8/NANOAODSIM/130X_mcRun3_2022_realistic_postEE_v6-v3/2560000/4457c658-bfb5-4898-a38e-c8e02290c531.root
/store/mc/Run3Summer22EENanoAODv12/DYto2L-2Jets_MLL-50_PTLL-100to200_2J_TuneCP5_13p6TeV_amcatnloFXFX-pythia8/NANOAODSIM/130X_mcRun3_2022_realistic_postEE_v6-v3/2560000/e6372391-afe9-4851-b734-6b2a10f03332.root
/store/mc/Run3Summer22EENanoAODv12/DYto2L-2Jets_MLL-50_PTLL-100to200_2J_TuneCP5_13p6TeV_amcatnloFXFX-pythia8/NANOAODSIM/130X_mcRun3_2022_realistic_postEE_v6-v3/2560000/70c27318-a811-4b11-a67c-925e00a5e6b1.root
/store/mc/Run3Summer22EENanoAODv12/DYto2L-2Jets_MLL-50_PTLL-100to200_2J_TuneCP5_13p6TeV_amcatnloFXFX-pythia8/NANOAODSIM/130X_mcRun3_2022_realistic_postEE_v6-v3/2560000/a0d644b0-a3cd-4949-8b42-1112a18f8bc9.root
/store/mc/Run3Summer22EENanoAODv12/DYto2L-2Jets_MLL-50_PTLL-100to200_2J_TuneCP5_13p6TeV_amcatnloFXFX-pythia8/NANOAODSIM/130X_mcRun3_2022_realistic_postEE_v6-v3/2560000/6637da93-91c8-4994-a789-a7de18d96a8a.root
/store/mc/Run3Summer22EENanoAODv12/DYto2L-2Jets_MLL-50_PTLL-100to200_2J_TuneCP5_13p6TeV_amcatnloFXFX-pythia8/NANOAODSIM/130X_mcRun3_2022_realistic_postEE_v6-v3/2560000/071a0706-96a8-425c-8cb3-275f031f9841.root
/store/mc/Run3Summer22EENanoAODv12/DYto2L-2Jets_MLL-50_PTLL-100to200_2J_TuneCP5_13p6TeV_amcatnloFXFX-pythia8/NANOAODSIM/130X_mcRun3_2022_realistic_postEE_v6-v3/2560000/5b8c3f3e-ebc2-43c4-aa58-69915ba28c83.root
/store/mc/Run3Summer22EENanoAODv12/DYto2L-2Jets_MLL-50_PTLL-100to200_2J_TuneCP5_13p6TeV_amcatnloFXFX-pythia8/NANOAODSIM/130X_mcRun3_2022_realistic_postEE_v6-v3/2560000/f697354d-7a3a-40cd-abea-21087e7251c2.root
/store/mc/Run3Summer22EENanoAODv12/DYto2L-2Jets_MLL-50_PTLL-100to200_2J_TuneCP5_13p6TeV_amcatnloFXFX-pythia8/NANOAODSIM/130X_mcRun3_2022_realistic_postEE_v6-v3/2560000/13d25051-ee0c-4456-a18f-caa808857c9b.root
/store/mc/Run3Summer22EENanoAODv12/DYto2L-2Jets_MLL-50_PTLL-100to200_2J_TuneCP5_13p6TeV_amcatnloFXFX-pythia8/NANOAODSIM/130X_mcRun3_2022_realistic_postEE_v6-v3/2560000/7c7fa683-f921-4e44-93a0-1faa9ec46f0a.root
/store/mc/Run3Summer22EENanoAODv12/DYto2L-2Jets_MLL-50_PTLL-100to200_2J_TuneCP5_13p6TeV_amcatnloFXFX-pythia8/NANOAODSIM/130X_mcRun3_2022_realistic_postEE_v6-v3/2560000/af21e0df-2d4e-4c30-b429-fcec2a4ed13d.root
/store/mc/Run3Summer22EENanoAODv12/DYto2L-2Jets_MLL-50_PTLL-100to200_2J_TuneCP5_13p6TeV_amcatnloFXFX-pythia8/NANOAODSIM/130X_mcRun3_2022_realistic_postEE_v6-v3/2560000/642014ff-d285-476d-a650-5304fd3b9f19.root
/store/mc/Run3Summer22EENanoAODv12/DYto2L-2Jets_MLL-50_PTLL-100to200_2J_TuneCP5_13p6TeV_amcatnloFXFX-pythia8/NANOAODSIM/130X_mcRun3_2022_realistic_postEE_v6-v3/2560000/8ed32106-3bd4-40fc-829b-83c311bf6485.root
/store/mc/Run3Summer22EENanoAODv12/DYto2L-2Jets_MLL-50_PTLL-100to200_2J_TuneCP5_13p6TeV_amcatnloFXFX-pythia8/NANOAODSIM/130X_mcRun3_2022_realistic_postEE_v6-v3/2560000/db47edac-400e-4fc2-91c5-069ecc44f566.root
/store/mc/Run3Summer22EENanoAODv12/DYto2L-2Jets_MLL-50_PTLL-100to200_2J_TuneCP5_13p6TeV_amcatnloFXFX-pythia8/NANOAODSIM/130X_mcRun3_2022_realistic_postEE_v6-v3/2560000/4ad6e5d9-641c-4622-9fc3-5ccc9d18ee12.root
/store/mc/Run3Summer22EENanoAODv12/DYto2L-2Jets_MLL-50_PTLL-100to200_2J_TuneCP5_13p6TeV_amcatnloFXFX-pythia8/NANOAODSIM/130X_mcRun3_2022_realistic_postEE_v6-v3/2560000/587c9517-5331-46b0-a159-89b3a4d5292b.root
/store/mc/Run3Summer22EENanoAODv12/DYto2L-2Jets_MLL-50_PTLL-100to200_2J_TuneCP5_13p6TeV_amcatnloFXFX-pythia8/NANOAODSIM/130X_mcRun3_2022_realistic_postEE_v6-v3/50000/9f4dffc6-c4a8-4724-825b-a997ff5a9049.root
/store/mc/Run3Summer22EENanoAODv12/DYto2L-2Jets_MLL-50_PTLL-100to200_2J_TuneCP5_13p6TeV_amcatnloFXFX-pythia8/NANOAODSIM/130X_mcRun3_2022_realistic_postEE_v6-v3/50000/1617fe3b-b5e4-4a7d-b683-16e9adccc442.root
/store/mc/Run3Summer22EENanoAODv12/DYto2L-2Jets_MLL-50_PTLL-100to200_2J_TuneCP5_13p6TeV_amcatnloFXFX-pythia8/NANOAODSIM/130X_mcRun3_2022_realistic_postEE_v6-v3/50000/6208b8ba-c96c-49eb-a200-9dbb96e07bbd.root
/store/mc/Run3Summer22EENanoAODv12/DYto2L-2Jets_MLL-50_PTLL-100to200_2J_TuneCP5_13p6TeV_amcatnloFXFX-pythia8/NANOAODSIM/130X_mcRun3_2022_realistic_postEE_v6-v3/50000/9a13be4b-ceff-4c8a-8a8d-9b641874f49c.root
/store/mc/Run3Summer22EENanoAODv12/DYto2L-2Jets_MLL-50_PTLL-100to200_2J_TuneCP5_13p6TeV_amcatnloFXFX-pythia8/NANOAODSIM/130X_mcRun3_2022_realistic_postEE_v6-v3/50000/7cecaaf2-0633-41da-964a-2775616add3b.root
/store/mc/Run3Summer22EENanoAODv12/DYto2L-2Jets_MLL-50_PTLL-100to200_2J_TuneCP5_13p6TeV_amcatnloFXFX-pythia8/NANOAODSIM/130X_mcRun3_2022_realistic_postEE_v6-v3/50000/c13231be-c44d-4da6-8d9b-7836f02e8c45.root
/store/mc/Run3Summer22EENanoAODv12/DYto2L-2Jets_MLL-50_PTLL-100to200_2J_TuneCP5_13p6TeV_amcatnloFXFX-pythia8/NANOAODSIM/130X_mcRun3_2022_realistic_postEE_v6-v3/50000/1b0ce6f6-c909-4d61-92b2-268fe5b2fc77.root
/store/mc/Run3Summer22EENanoAODv12/DYto2L-2Jets_MLL-50_PTLL-100to200_2J_TuneCP5_13p6TeV_amcatnloFXFX-pythia8/NANOAODSIM/130X_mcRun3_2022_realistic_postEE_v6-v3/50000/5923172f-d2f7-4a95-ab13-5bca85044872.root
/store/mc/Run3Summer22EENanoAODv12/DYto2L-2Jets_MLL-50_PTLL-100to200_2J_TuneCP5_13p6TeV_amcatnloFXFX-pythia8/NANOAODSIM/130X_mcRun3_2022_realistic_postEE_v6-v3/50000/223514d6-886a-48af-b203-b4a61dc94850.root
/store/mc/Run3Summer22EENanoAODv12/DYto2L-2Jets_MLL-50_PTLL-100to200_2J_TuneCP5_13p6TeV_amcatnloFXFX-pythia8/NANOAODSIM/130X_mcRun3_2022_realistic_postEE_v6-v3/50000/45e0c12c-48cd-4e8c-9ed4-20f9762d4d8f.root
/store/mc/Run3Summer22EENanoAODv12/DYto2L-2Jets_MLL-50_PTLL-100to200_2J_TuneCP5_13p6TeV_amcatnloFXFX-pythia8/NANOAODSIM/130X_mcRun3_2022_realistic_postEE_v6-v3/50000/201e17cc-4a6d-44b8-9df6-f050c7596663.root
/store/mc/Run3Summer22EENanoAODv12/DYto2L-2Jets_MLL-50_PTLL-100to200_2J_TuneCP5_13p6TeV_amcatnloFXFX-pythia8/NANOAODSIM/130X_mcRun3_2022_realistic_postEE_v6-v3/50000/8a9c5148-ec46-48e9-a481-e8b007c79033.root
/store/mc/Run3Summer22EENanoAODv12/DYto2L-2Jets_MLL-50_PTLL-100to200_2J_TuneCP5_13p6TeV_amcatnloFXFX-pythia8/NANOAODSIM/130X_mcRun3_2022_realistic_postEE_v6-v3/50000/a23fb1c0-34c1-4147-83cb-e04f9379aed0.root
/store/mc/Run3Summer22EENanoAODv12/DYto2L-2Jets_MLL-50_PTLL-100to200_2J_TuneCP5_13p6TeV_amcatnloFXFX-pythia8/NANOAODSIM/130X_mcRun3_2022_realistic_postEE_v6-v3/50000/53f4122f-ddb7-41fc-beb1-faea8f173e98.root
/store/mc/Run3Summer22EENanoAODv12/DYto2L-2Jets_MLL-50_PTLL-100to200_2J_TuneCP5_13p6TeV_amcatnloFXFX-pythia8/NANOAODSIM/130X_mcRun3_2022_realistic_postEE_v6-v3/50000/b446ecb7-dad4-4d87-92e7-334e39972d4a.root
/store/mc/Run3Summer22EENanoAODv12/DYto2L-2Jets_MLL-50_PTLL-100to200_2J_TuneCP5_13p6TeV_amcatnloFXFX-pythia8/NANOAODSIM/130X_mcRun3_2022_realistic_postEE_v6-v3/50000/ba00d90c-6860-4413-b377-cbca8794b9b1.root
/store/mc/Run3Summer22EENanoAODv12/DYto2L-2Jets_MLL-50_PTLL-100to200_2J_TuneCP5_13p6TeV_amcatnloFXFX-pythia8/NANOAODSIM/130X_mcRun3_2022_realistic_postEE_v6-v3/80000/6319cd2f-3654-4079-b170-a3c18412370b.root
/store/mc/Run3Summer22EENanoAODv12/DYto2L-2Jets_MLL-50_PTLL-100to200_2J_TuneCP5_13p6TeV_amcatnloFXFX-pythia8/NANOAODSIM/130X_mcRun3_2022_realistic_postEE_v6-v3/80000/64c22bfb-a80e-4e2e-876c-22982aa5f19e.root
/store/mc/Run3Summer22EENanoAODv12/DYto2L-2Jets_MLL-50_PTLL-100to200_2J_TuneCP5_13p6TeV_amcatnloFXFX-pythia8/NANOAODSIM/130X_mcRun3_2022_realistic_postEE_v6-v3/80000/9ca216e4-c24e-4308-b1aa-81359272f217.root
/store/mc/Run3Summer22EENanoAODv12/DYto2L-2Jets_MLL-50_PTLL-100to200_2J_TuneCP5_13p6TeV_amcatnloFXFX-pythia8/NANOAODSIM/130X_mcRun3_2022_realistic_postEE_v6-v3/80000/b68e1e6b-5994-4c1e-80d9-453f7e4f36ba.root
/store/mc/Run3Summer22EENanoAODv12/DYto2L-2Jets_MLL-50_PTLL-100to200_2J_TuneCP5_13p6TeV_amcatnloFXFX-pythia8/NANOAODSIM/130X_mcRun3_2022_realistic_postEE_v6-v3/80000/84196a4c-30f8-4503-ace5-61f5db69b98b.root
/store/mc/Run3Summer22EENanoAODv12/DYto2L-2Jets_MLL-50_PTLL-100to200_2J_TuneCP5_13p6TeV_amcatnloFXFX-pythia8/NANOAODSIM/130X_mcRun3_2022_realistic_postEE_v6-v3/80000/8e92c654-11d5-4f0d-a877-9897e5b2efff.root
/store/mc/Run3Summer22EENanoAODv12/DYto2L-2Jets_MLL-50_PTLL-100to200_2J_TuneCP5_13p6TeV_amcatnloFXFX-pythia8/NANOAODSIM/130X_mcRun3_2022_realistic_postEE_v6-v3/80000/f2095f4a-3fca-4a2f-ae8b-923235db20cd.root
/store/mc/Run3Summer22EENanoAODv12/DYto2L-2Jets_MLL-50_PTLL-100to200_2J_TuneCP5_13p6TeV_amcatnloFXFX-pythia8/NANOAODSIM/130X_mcRun3_2022_realistic_postEE_v6-v3/80000/08c2f7f6-1683-4e20-9b0d-2061e690c9fa.root
/store/mc/Run3Summer22EENanoAODv12/DYto2L-2Jets_MLL-50_PTLL-100to200_2J_TuneCP5_13p6TeV_amcatnloFXFX-pythia8/NANOAODSIM/130X_mcRun3_2022_realistic_postEE_v6-v3/50000/b733570e-946d-4ef4-8307-4890cd8c9395.root
/store/mc/Run3Summer22EENanoAODv12/DYto2L-2Jets_MLL-50_PTLL-100to200_2J_TuneCP5_13p6TeV_amcatnloFXFX-pythia8/NANOAODSIM/130X_mcRun3_2022_realistic_postEE_v6-v3/50000/4e44ceb5-01f2-4856-bfaf-22a436b416de.root
/store/mc/Run3Summer22EENanoAODv12/DYto2L-2Jets_MLL-50_PTLL-100to200_2J_TuneCP5_13p6TeV_amcatnloFXFX-pythia8/NANOAODSIM/130X_mcRun3_2022_realistic_postEE_v6-v3/50000/cf5c63a8-9be7-4f56-96a4-06d41e5f24d8.root
/store/mc/Run3Summer22EENanoAODv12/DYto2L-2Jets_MLL-50_PTLL-100to200_2J_TuneCP5_13p6TeV_amcatnloFXFX-pythia8/NANOAODSIM/130X_mcRun3_2022_realistic_postEE_v6-v3/50000/1fe4dd39-1fd2-49fd-ad8c-6a1d5a91d08c.root
/store/mc/Run3Summer22EENanoAODv12/DYto2L-2Jets_MLL-50_PTLL-100to200_2J_TuneCP5_13p6TeV_amcatnloFXFX-pythia8/NANOAODSIM/130X_mcRun3_2022_realistic_postEE_v6-v3/50000/4f2f631f-1544-47ef-91a6-ca50ef46cd1d.root
/store/mc/Run3Summer22EENanoAODv12/DYto2L-2Jets_MLL-50_PTLL-100to200_2J_TuneCP5_13p6TeV_amcatnloFXFX-pythia8/NANOAODSIM/130X_mcRun3_2022_realistic_postEE_v6-v3/50000/18832b5a-361d-4763-95f2-9ab995a56b48.root
/store/mc/Run3Summer22EENanoAODv12/DYto2L-2Jets_MLL-50_PTLL-100to200_2J_TuneCP5_13p6TeV_amcatnloFXFX-pythia8/NANOAODSIM/130X_mcRun3_2022_realistic_postEE_v6-v3/50000/078040de-ce7f-4f6a-992d-c4891ee660bd.root
/store/mc/Run3Summer22EENanoAODv12/DYto2L-2Jets_MLL-50_PTLL-100to200_2J_TuneCP5_13p6TeV_amcatnloFXFX-pythia8/NANOAODSIM/130X_mcRun3_2022_realistic_postEE_v6-v3/50000/17138687-c028-4085-a210-8f1932dfb279.root
/store/mc/Run3Summer22EENanoAODv12/DYto2L-2Jets_MLL-50_PTLL-100to200_2J_TuneCP5_13p6TeV_amcatnloFXFX-pythia8/NANOAODSIM/130X_mcRun3_2022_realistic_postEE_v6-v3/50000/e75addbc-c358-4ff5-90e1-f82272e399f7.root
/store/mc/Run3Summer22EENanoAODv12/DYto2L-2Jets_MLL-50_PTLL-100to200_2J_TuneCP5_13p6TeV_amcatnloFXFX-pythia8/NANOAODSIM/130X_mcRun3_2022_realistic_postEE_v6-v3/50000/3f3e23ef-4333-44c6-a73a-7fbe47496665.root
/store/mc/Run3Summer22EENanoAODv12/DYto2L-2Jets_MLL-50_PTLL-100to200_2J_TuneCP5_13p6TeV_amcatnloFXFX-pythia8/NANOAODSIM/130X_mcRun3_2022_realistic_postEE_v6-v3/50000/177783a5-a90f-4cf8-9c85-784c87ef4c03.root
/store/mc/Run3Summer22EENanoAODv12/DYto2L-2Jets_MLL-50_PTLL-100to200_2J_TuneCP5_13p6TeV_amcatnloFXFX-pythia8/NANOAODSIM/130X_mcRun3_2022_realistic_postEE_v6-v3/50000/706e17f3-a7d5-43d8-9a69-9deca8f7b469.root
/store/mc/Run3Summer22EENanoAODv12/DYto2L-2Jets_MLL-50_PTLL-100to200_2J_TuneCP5_13p6TeV_amcatnloFXFX-pythia8/NANOAODSIM/130X_mcRun3_2022_realistic_postEE_v6-v3/50000/08fc1288-e18a-4ba5-abf4-c7d3a2efe7bb.root
/store/mc/Run3Summer22EENanoAODv12/DYto2L-2Jets_MLL-50_PTLL-100to200_2J_TuneCP5_13p6TeV_amcatnloFXFX-pythia8/NANOAODSIM/130X_mcRun3_2022_realistic_postEE_v6-v3/50000/af202c10-5dda-4cc7-af13-eb2749a8533c.root
/store/mc/Run3Summer22EENanoAODv12/DYto2L-2Jets_MLL-50_PTLL-100to200_2J_TuneCP5_13p6TeV_amcatnloFXFX-pythia8/NANOAODSIM/130X_mcRun3_2022_realistic_postEE_v6-v3/50000/1d25defc-beb8-4406-ad42-f81d821390b3.root
/store/mc/Run3Summer22EENanoAODv12/DYto2L-2Jets_MLL-50_PTLL-100to200_2J_TuneCP5_13p6TeV_amcatnloFXFX-pythia8/NANOAODSIM/130X_mcRun3_2022_realistic_postEE_v6-v3/50000/b179641e-9e4c-452c-ae8c-603cc5214cc2.root
/store/mc/Run3Summer22EENanoAODv12/DYto2L-2Jets_MLL-50_PTLL-100to200_2J_TuneCP5_13p6TeV_amcatnloFXFX-pythia8/NANOAODSIM/130X_mcRun3_2022_realistic_postEE_v6-v3/50000/a5f28f27-35c3-4fd8-973f-e72f3fca083e.root
/store/mc/Run3Summer22EENanoAODv12/DYto2L-2Jets_MLL-50_PTLL-100to200_2J_TuneCP5_13p6TeV_amcatnloFXFX-pythia8/NANOAODSIM/130X_mcRun3_2022_realistic_postEE_v6-v3/50000/8333815b-792b-426c-88ea-7e90f18f1429.root
/store/mc/Run3Summer22EENanoAODv12/DYto2L-2Jets_MLL-50_PTLL-100to200_2J_TuneCP5_13p6TeV_amcatnloFXFX-pythia8/NANOAODSIM/130X_mcRun3_2022_realistic_postEE_v6-v3/50000/8a6d42a6-80a7-4a72-88c6-be91a488683f.root
/store/mc/Run3Summer22EENanoAODv12/DYto2L-2Jets_MLL-50_PTLL-100to200_2J_TuneCP5_13p6TeV_amcatnloFXFX-pythia8/NANOAODSIM/130X_mcRun3_2022_realistic_postEE_v6-v3/50000/3c52ad28-b180-4316-b6c3-b28218e73bdc.root
/store/mc/Run3Summer22EENanoAODv12/DYto2L-2Jets_MLL-50_PTLL-100to200_2J_TuneCP5_13p6TeV_amcatnloFXFX-pythia8/NANOAODSIM/130X_mcRun3_2022_realistic_postEE_v6-v3/50000/e9348563-18e0-4218-af3e-02ce63618982.root
/store/mc/Run3Summer22EENanoAODv12/DYto2L-2Jets_MLL-50_PTLL-100to200_2J_TuneCP5_13p6TeV_amcatnloFXFX-pythia8/NANOAODSIM/130X_mcRun3_2022_realistic_postEE_v6-v3/50000/28fbc0d9-b2f5-4643-826b-737f26964627.root
/store/mc/Run3Summer22EENanoAODv12/DYto2L-2Jets_MLL-50_PTLL-100to200_2J_TuneCP5_13p6TeV_amcatnloFXFX-pythia8/NANOAODSIM/130X_mcRun3_2022_realistic_postEE_v6-v3/80000/3e9283a2-7567-48a8-9ca4-d13c0e00cecc.root
/store/mc/Run3Summer22EENanoAODv12/DYto2L-2Jets_MLL-50_PTLL-100to200_2J_TuneCP5_13p6TeV_amcatnloFXFX-pythia8/NANOAODSIM/130X_mcRun3_2022_realistic_postEE_v6-v3/80000/c7182d2d-9255-4543-943b-0d5f6b2de995.root
/store/mc/Run3Summer22EENanoAODv12/DYto2L-2Jets_MLL-50_PTLL-100to200_2J_TuneCP5_13p6TeV_amcatnloFXFX-pythia8/NANOAODSIM/130X_mcRun3_2022_realistic_postEE_v6-v3/80000/b3d9531b-c677-42de-9152-ed4bc8213b59.root
/store/mc/Run3Summer22EENanoAODv12/DYto2L-2Jets_MLL-50_PTLL-100to200_2J_TuneCP5_13p6TeV_amcatnloFXFX-pythia8/NANOAODSIM/130X_mcRun3_2022_realistic_postEE_v6-v3/80000/0352784e-6784-40c5-bae1-c7d114d08862.root
/store/mc/Run3Summer22EENanoAODv12/DYto2L-2Jets_MLL-50_PTLL-100to200_2J_TuneCP5_13p6TeV_amcatnloFXFX-pythia8/NANOAODSIM/130X_mcRun3_2022_realistic_postEE_v6-v3/80000/75d5f36a-e2ef-4993-bb26-2e1ef4c22341.root
/store/mc/Run3Summer22EENanoAODv12/DYto2L-2Jets_MLL-50_PTLL-100to200_2J_TuneCP5_13p6TeV_amcatnloFXFX-pythia8/NANOAODSIM/130X_mcRun3_2022_realistic_postEE_v6-v3/80000/699a18c8-c6d0-4632-ae9a-dfb591adf8de.root
/store/mc/Run3Summer22EENanoAODv12/DYto2L-2Jets_MLL-50_PTLL-100to200_2J_TuneCP5_13p6TeV_amcatnloFXFX-pythia8/NANOAODSIM/130X_mcRun3_2022_realistic_postEE_v6-v3/80000/be03a16c-a6a1-4fe7-9027-54f008fcf949.root
/store/mc/Run3Summer22EENanoAODv12/DYto2L-2Jets_MLL-50_PTLL-100to200_2J_TuneCP5_13p6TeV_amcatnloFXFX-pythia8/NANOAODSIM/130X_mcRun3_2022_realistic_postEE_v6-v3/80000/22b63538-d675-4530-ab76-6ac88d6ed47f.root
/store/mc/Run3Summer22EENanoAODv12/DYto2L-2Jets_MLL-50_PTLL-100to200_2J_TuneCP5_13p6TeV_amcatnloFXFX-pythia8/NANOAODSIM/130X_mcRun3_2022_realistic_postEE_v6-v3/80000/bc047c0c-6f96-4f40-be6a-51e3458ebed1.root
/store/mc/Run3Summer22EENanoAODv12/DYto2L-2Jets_MLL-50_PTLL-100to200_2J_TuneCP5_13p6TeV_amcatnloFXFX-pythia8/NANOAODSIM/130X_mcRun3_2022_realistic_postEE_v6-v3/80000/539cbe35-e245-4d73-93b6-48b28afd7899.root
/store/mc/Run3Summer22EENanoAODv12/DYto2L-2Jets_MLL-50_PTLL-100to200_2J_TuneCP5_13p6TeV_amcatnloFXFX-pythia8/NANOAODSIM/130X_mcRun3_2022_realistic_postEE_v6-v3/80000/31004f2d-d62a-46e0-86fe-b024d5d8b296.root
/store/mc/Run3Summer22EENanoAODv12/DYto2L-2Jets_MLL-50_PTLL-100to200_2J_TuneCP5_13p6TeV_amcatnloFXFX-pythia8/NANOAODSIM/130X_mcRun3_2022_realistic_postEE_v6-v3/80000/a20f0779-2c37-4199-9b6f-73c3aea61699.root
/store/mc/Run3Summer22EENanoAODv12/DYto2L-2Jets_MLL-50_PTLL-100to200_2J_TuneCP5_13p6TeV_amcatnloFXFX-pythia8/NANOAODSIM/130X_mcRun3_2022_realistic_postEE_v6-v3/80000/af68a700-b1a8-40d2-a3a6-26bbf527ba5d.root
/store/mc/Run3Summer22EENanoAODv12/DYto2L-2Jets_MLL-50_PTLL-100to200_2J_TuneCP5_13p6TeV_amcatnloFXFX-pythia8/NANOAODSIM/130X_mcRun3_2022_realistic_postEE_v6-v3/80000/3f4c69b1-efea-406d-8318-75d38a88c198.root
/store/mc/Run3Summer22EENanoAODv12/DYto2L-2Jets_MLL-50_PTLL-100to200_2J_TuneCP5_13p6TeV_amcatnloFXFX-pythia8/NANOAODSIM/130X_mcRun3_2022_realistic_postEE_v6-v3/80000/9794b561-3f6d-4edc-a19e-7a43c8e69473.root
/store/mc/Run3Summer22EENanoAODv12/DYto2L-2Jets_MLL-50_PTLL-100to200_2J_TuneCP5_13p6TeV_amcatnloFXFX-pythia8/NANOAODSIM/130X_mcRun3_2022_realistic_postEE_v6-v3/80000/6ee33caf-129e-4c09-bc1c-9567a1844da7.root
/store/mc/Run3Summer22EENanoAODv12/DYto2L-2Jets_MLL-50_PTLL-100to200_2J_TuneCP5_13p6TeV_amcatnloFXFX-pythia8/NANOAODSIM/130X_mcRun3_2022_realistic_postEE_v6-v3/80000/0177c80e-13e1-4d33-a01f-dab8ca9eb0c5.root
/store/mc/Run3Summer22EENanoAODv12/DYto2L-2Jets_MLL-50_PTLL-100to200_2J_TuneCP5_13p6TeV_amcatnloFXFX-pythia8/NANOAODSIM/130X_mcRun3_2022_realistic_postEE_v6-v3/80000/e6dc3e6c-dd29-4e14-b9ef-0b10834271a4.root
/store/mc/Run3Summer22EENanoAODv12/DYto2L-2Jets_MLL-50_PTLL-100to200_2J_TuneCP5_13p6TeV_amcatnloFXFX-pythia8/NANOAODSIM/130X_mcRun3_2022_realistic_postEE_v6-v3/50000/7385c43f-331e-4b90-80dd-c809fad9dc1a.root
/store/mc/Run3Summer22EENanoAODv12/DYto2L-2Jets_MLL-50_PTLL-100to200_2J_TuneCP5_13p6TeV_amcatnloFXFX-pythia8/NANOAODSIM/130X_mcRun3_2022_realistic_postEE_v6-v3/50000/bf78c5f9-bf6f-41a2-bb9c-ce883d4e17fa.root
/store/mc/Run3Summer22EENanoAODv12/DYto2L-2Jets_MLL-50_PTLL-100to200_2J_TuneCP5_13p6TeV_amcatnloFXFX-pythia8/NANOAODSIM/130X_mcRun3_2022_realistic_postEE_v6-v3/50000/d766e8e1-2972-403f-af7c-5549df1a6eaf.root
/store/mc/Run3Summer22EENanoAODv12/DYto2L-2Jets_MLL-50_PTLL-100to200_2J_TuneCP5_13p6TeV_amcatnloFXFX-pythia8/NANOAODSIM/130X_mcRun3_2022_realistic_postEE_v6-v3/80000/c3ac87c9-0d49-4e37-b9e5-169c0461aa52.root
/store/mc/Run3Summer22EENanoAODv12/DYto2L-2Jets_MLL-50_PTLL-100to200_2J_TuneCP5_13p6TeV_amcatnloFXFX-pythia8/NANOAODSIM/130X_mcRun3_2022_realistic_postEE_v6-v3/80000/edb62fc0-df5c-44b1-bc70-5a0094e8e1fc.root
/store/mc/Run3Summer22EENanoAODv12/DYto2L-2Jets_MLL-50_PTLL-100to200_2J_TuneCP5_13p6TeV_amcatnloFXFX-pythia8/NANOAODSIM/130X_mcRun3_2022_realistic_postEE_v6-v3/80000/c0a9af3b-9f2e-4ed9-a3fc-beac407eacbe.root
/store/mc/Run3Summer22EENanoAODv12/DYto2L-2Jets_MLL-50_PTLL-100to200_2J_TuneCP5_13p6TeV_amcatnloFXFX-pythia8/NANOAODSIM/130X_mcRun3_2022_realistic_postEE_v6-v3/80000/486f8b28-41bf-49e9-aab7-687fe5ea14dc.root
/store/mc/Run3Summer22EENanoAODv12/DYto2L-2Jets_MLL-50_PTLL-100to200_2J_TuneCP5_13p6TeV_amcatnloFXFX-pythia8/NANOAODSIM/130X_mcRun3_2022_realistic_postEE_v6-v3/80000/91d30728-87b4-469a-92e3-d27afb7c6e61.root
/store/mc/Run3Summer22EENanoAODv12/DYto2L-2Jets_MLL-50_PTLL-100to200_2J_TuneCP5_13p6TeV_amcatnloFXFX-pythia8/NANOAODSIM/130X_mcRun3_2022_realistic_postEE_v6-v3/80000/bf697c2a-ad55-47d8-a89b-2ba46f665777.root
/store/mc/Run3Summer22EENanoAODv12/DYto2L-2Jets_MLL-50_PTLL-100to200_2J_TuneCP5_13p6TeV_amcatnloFXFX-pythia8/NANOAODSIM/130X_mcRun3_2022_realistic_postEE_v6-v3/80000/69b62245-4775-4ed1-890e-ba1eea640818.root
/store/mc/Run3Summer22EENanoAODv12/DYto2L-2Jets_MLL-50_PTLL-100to200_2J_TuneCP5_13p6TeV_amcatnloFXFX-pythia8/NANOAODSIM/130X_mcRun3_2022_realistic_postEE_v6-v3/80000/21b3d306-ceed-42dd-8bea-818a57ed4d3d.root
/store/mc/Run3Summer22EENanoAODv12/DYto2L-2Jets_MLL-50_PTLL-100to200_2J_TuneCP5_13p6TeV_amcatnloFXFX-pythia8/NANOAODSIM/130X_mcRun3_2022_realistic_postEE_v6-v3/80000/8e8e6762-9716-4951-8126-7a365437924c.root
/store/mc/Run3Summer22EENanoAODv12/DYto2L-2Jets_MLL-50_PTLL-100to200_2J_TuneCP5_13p6TeV_amcatnloFXFX-pythia8/NANOAODSIM/130X_mcRun3_2022_realistic_postEE_v6-v3/80000/e72f2442-b2cd-4043-a486-ba5aa2cff496.root
/store/mc/Run3Summer22EENanoAODv12/DYto2L-2Jets_MLL-50_PTLL-100to200_2J_TuneCP5_13p6TeV_amcatnloFXFX-pythia8/NANOAODSIM/130X_mcRun3_2022_realistic_postEE_v6-v3/80000/0d10feda-da9e-47d1-b67d-919fc3a39dcd.root
/store/mc/Run3Summer22EENanoAODv12/DYto2L-2Jets_MLL-50_PTLL-100to200_2J_TuneCP5_13p6TeV_amcatnloFXFX-pythia8/NANOAODSIM/130X_mcRun3_2022_realistic_postEE_v6-v3/80000/ab5b487a-0934-497a-9c48-7c254fdd5327.root
/store/mc/Run3Summer22EENanoAODv12/DYto2L-2Jets_MLL-50_PTLL-100to200_2J_TuneCP5_13p6TeV_amcatnloFXFX-pythia8/NANOAODSIM/130X_mcRun3_2022_realistic_postEE_v6-v3/80000/5d1713a7-ac6a-4fbd-af78-be8374a101e5.root
/store/mc/Run3Summer22EENanoAODv12/DYto2L-2Jets_MLL-50_PTLL-100to200_2J_TuneCP5_13p6TeV_amcatnloFXFX-pythia8/NANOAODSIM/130X_mcRun3_2022_realistic_postEE_v6-v3/80000/61571f24-bb2c-4d40-a710-0fc2c9cbe5cd.root
/store/mc/Run3Summer22EENanoAODv12/DYto2L-2Jets_MLL-50_PTLL-100to200_2J_TuneCP5_13p6TeV_amcatnloFXFX-pythia8/NANOAODSIM/130X_mcRun3_2022_realistic_postEE_v6-v3/80000/bd95daa9-719b-4e0a-83d7-a734ce19da73.root
/store/mc/Run3Summer22EENanoAODv12/DYto2L-2Jets_MLL-50_PTLL-100to200_2J_TuneCP5_13p6TeV_amcatnloFXFX-pythia8/NANOAODSIM/130X_mcRun3_2022_realistic_postEE_v6-v3/80000/4bd6ed79-6503-426f-829a-472c0e949714.root
/store/mc/Run3Summer22EENanoAODv12/DYto2L-2Jets_MLL-50_PTLL-100to200_2J_TuneCP5_13p6TeV_amcatnloFXFX-pythia8/NANOAODSIM/130X_mcRun3_2022_realistic_postEE_v6-v3/80000/d1fb2dab-673e-499a-a971-e2f99588ab69.root
/store/mc/Run3Summer22EENanoAODv12/DYto2L-2Jets_MLL-50_PTLL-100to200_2J_TuneCP5_13p6TeV_amcatnloFXFX-pythia8/NANOAODSIM/130X_mcRun3_2022_realistic_postEE_v6-v3/80000/cf329aa9-215c-47a0-af83-52b4a39b4bae.root
/store/mc/Run3Summer22EENanoAODv12/DYto2L-2Jets_MLL-50_PTLL-100to200_2J_TuneCP5_13p6TeV_amcatnloFXFX-pythia8/NANOAODSIM/130X_mcRun3_2022_realistic_postEE_v6-v3/80000/d4700bce-d861-4c45-ba52-78b4adfc4b58.root
/store/mc/Run3Summer22EENanoAODv12/DYto2L-2Jets_MLL-50_PTLL-100to200_2J_TuneCP5_13p6TeV_amcatnloFXFX-pythia8/NANOAODSIM/130X_mcRun3_2022_realistic_postEE_v6-v3/80000/c3614bc9-f853-4208-a491-f0d80b98edec.root
/store/mc/Run3Summer22EENanoAODv12/DYto2L-2Jets_MLL-50_PTLL-100to200_2J_TuneCP5_13p6TeV_amcatnloFXFX-pythia8/NANOAODSIM/130X_mcRun3_2022_realistic_postEE_v6-v3/80000/d7705154-22e0-4487-97ac-1edf73405474.root
/store/mc/Run3Summer22EENanoAODv12/DYto2L-2Jets_MLL-50_PTLL-100to200_2J_TuneCP5_13p6TeV_amcatnloFXFX-pythia8/NANOAODSIM/130X_mcRun3_2022_realistic_postEE_v6-v3/80000/a3117cbc-2ee4-48ba-a79c-017bf3d98fe3.root
/store/mc/Run3Summer22EENanoAODv12/DYto2L-2Jets_MLL-50_PTLL-100to200_2J_TuneCP5_13p6TeV_amcatnloFXFX-pythia8/NANOAODSIM/130X_mcRun3_2022_realistic_postEE_v6-v3/80000/c32a7b7c-bc2f-430e-9053-540c300bb328.root
/store/mc/Run3Summer22EENanoAODv12/DYto2L-2Jets_MLL-50_PTLL-100to200_2J_TuneCP5_13p6TeV_amcatnloFXFX-pythia8/NANOAODSIM/130X_mcRun3_2022_realistic_postEE_v6-v3/80000/58a9539c-cdfc-4ba7-9f33-afc49e3868d8.root
/store/mc/Run3Summer22EENanoAODv12/DYto2L-2Jets_MLL-50_PTLL-100to200_2J_TuneCP5_13p6TeV_amcatnloFXFX-pythia8/NANOAODSIM/130X_mcRun3_2022_realistic_postEE_v6-v3/80000/049e7341-a161-4143-9555-ba1b613a4f8e.root
/store/mc/Run3Summer22EENanoAODv12/DYto2L-2Jets_MLL-50_PTLL-100to200_2J_TuneCP5_13p6TeV_amcatnloFXFX-pythia8/NANOAODSIM/130X_mcRun3_2022_realistic_postEE_v6-v3/80000/b04c25c1-8ce5-419f-a475-cad6eb8717fe.root
/store/mc/Run3Summer22EENanoAODv12/DYto2L-2Jets_MLL-50_PTLL-100to200_2J_TuneCP5_13p6TeV_amcatnloFXFX-pythia8/NANOAODSIM/130X_mcRun3_2022_realistic_postEE_v6-v3/80000/61fe20d5-7741-4ded-b6fc-8faec89e7355.root
/store/mc/Run3Summer22EENanoAODv12/DYto2L-2Jets_MLL-50_PTLL-100to200_2J_TuneCP5_13p6TeV_amcatnloFXFX-pythia8/NANOAODSIM/130X_mcRun3_2022_realistic_postEE_v6-v3/80000/bc87268c-2339-4156-b59d-5972705adf19.root
/store/mc/Run3Summer22EENanoAODv12/DYto2L-2Jets_MLL-50_PTLL-100to200_2J_TuneCP5_13p6TeV_amcatnloFXFX-pythia8/NANOAODSIM/130X_mcRun3_2022_realistic_postEE_v6-v3/80000/66b819fa-d02b-4023-9340-cb2e34048a76.root
/store/mc/Run3Summer22EENanoAODv12/DYto2L-2Jets_MLL-50_PTLL-100to200_2J_TuneCP5_13p6TeV_amcatnloFXFX-pythia8/NANOAODSIM/130X_mcRun3_2022_realistic_postEE_v6-v3/80000/875e582f-d73a-49ed-8be2-783f93117fbf.root
/store/mc/Run3Summer22EENanoAODv12/DYto2L-2Jets_MLL-50_PTLL-100to200_2J_TuneCP5_13p6TeV_amcatnloFXFX-pythia8/NANOAODSIM/130X_mcRun3_2022_realistic_postEE_v6-v3/80000/9f6c7ec4-0b41-4f33-992a-ea1c05dd224e.root
/store/mc/Run3Summer22EENanoAODv12/DYto2L-2Jets_MLL-50_PTLL-100to200_2J_TuneCP5_13p6TeV_amcatnloFXFX-pythia8/NANOAODSIM/130X_mcRun3_2022_realistic_postEE_v6-v3/80000/470c4a7d-8f7b-4f4f-8d90-8176a00a26fa.root
/store/mc/Run3Summer22EENanoAODv12/DYto2L-2Jets_MLL-50_PTLL-100to200_2J_TuneCP5_13p6TeV_amcatnloFXFX-pythia8/NANOAODSIM/130X_mcRun3_2022_realistic_postEE_v6-v3/80000/2d8090aa-ebe8-49f7-b4dd-e29d8b10f40f.root
/store/mc/Run3Summer22EENanoAODv12/DYto2L-2Jets_MLL-50_PTLL-100to200_2J_TuneCP5_13p6TeV_amcatnloFXFX-pythia8/NANOAODSIM/130X_mcRun3_2022_realistic_postEE_v6-v3/80000/edbcf341-c7b3-40c9-a112-6ede9988c3a4.root
/store/mc/Run3Summer22EENanoAODv12/DYto2L-2Jets_MLL-50_PTLL-100to200_2J_TuneCP5_13p6TeV_amcatnloFXFX-pythia8/NANOAODSIM/130X_mcRun3_2022_realistic_postEE_v6-v3/80000/6ac015db-e3a4-432e-a99c-435792a7ab65.root
/store/mc/Run3Summer22EENanoAODv12/DYto2L-2Jets_MLL-50_PTLL-100to200_2J_TuneCP5_13p6TeV_amcatnloFXFX-pythia8/NANOAODSIM/130X_mcRun3_2022_realistic_postEE_v6-v3/80000/86e9b80c-e641-448d-8866-4e7ce0fa2e13.root
/store/mc/Run3Summer22EENanoAODv12/DYto2L-2Jets_MLL-50_PTLL-100to200_2J_TuneCP5_13p6TeV_amcatnloFXFX-pythia8/NANOAODSIM/130X_mcRun3_2022_realistic_postEE_v6-v3/80000/5c753d46-73f0-47e7-820f-f55886914486.root
/store/mc/Run3Summer22EENanoAODv12/DYto2L-2Jets_MLL-50_PTLL-100to200_2J_TuneCP5_13p6TeV_amcatnloFXFX-pythia8/NANOAODSIM/130X_mcRun3_2022_realistic_postEE_v6-v3/80000/d41cdb68-87fe-4594-9b1d-d8e1b8e20f3f.root
/store/mc/Run3Summer22EENanoAODv12/DYto2L-2Jets_MLL-50_PTLL-100to200_2J_TuneCP5_13p6TeV_amcatnloFXFX-pythia8/NANOAODSIM/130X_mcRun3_2022_realistic_postEE_v6-v3/80000/2766e9ce-1470-4c35-bf10-4311e0c6c49a.root
/store/mc/Run3Summer22EENanoAODv12/DYto2L-2Jets_MLL-50_PTLL-100to200_2J_TuneCP5_13p6TeV_amcatnloFXFX-pythia8/NANOAODSIM/130X_mcRun3_2022_realistic_postEE_v6-v3/80000/26444f81-ba76-4d5d-8faa-fd1b8bfc7699.root
/store/mc/Run3Summer22EENanoAODv12/DYto2L-2Jets_MLL-50_PTLL-100to200_2J_TuneCP5_13p6TeV_amcatnloFXFX-pythia8/NANOAODSIM/130X_mcRun3_2022_realistic_postEE_v6-v3/80000/1e6845e0-12a1-4287-829e-a22d31ae4df7.root
/store/mc/Run3Summer22EENanoAODv12/DYto2L-2Jets_MLL-50_PTLL-100to200_2J_TuneCP5_13p6TeV_amcatnloFXFX-pythia8/NANOAODSIM/130X_mcRun3_2022_realistic_postEE_v6-v3/80000/ae08e4ce-f31c-4908-bc95-ce03361a590e.root
/store/mc/Run3Summer22EENanoAODv12/DYto2L-2Jets_MLL-50_PTLL-100to200_2J_TuneCP5_13p6TeV_amcatnloFXFX-pythia8/NANOAODSIM/130X_mcRun3_2022_realistic_postEE_v6-v3/80000/99032ce6-f5e6-43bc-a258-00c3c8581474.root
/store/mc/Run3Summer22EENanoAODv12/DYto2L-2Jets_MLL-50_PTLL-100to200_2J_TuneCP5_13p6TeV_amcatnloFXFX-pythia8/NANOAODSIM/130X_mcRun3_2022_realistic_postEE_v6-v3/80000/6a6112db-dda8-4b06-b9a2-35e96ad4f676.root
/store/mc/Run3Summer22EENanoAODv12/DYto2L-2Jets_MLL-50_PTLL-100to200_2J_TuneCP5_13p6TeV_amcatnloFXFX-pythia8/NANOAODSIM/130X_mcRun3_2022_realistic_postEE_v6-v3/80000/c4140320-1979-44c6-87d4-bcb1182ab2a7.root
/store/mc/Run3Summer22EENanoAODv12/DYto2L-2Jets_MLL-50_PTLL-100to200_2J_TuneCP5_13p6TeV_amcatnloFXFX-pythia8/NANOAODSIM/130X_mcRun3_2022_realistic_postEE_v6-v3/80000/7cfef977-24f6-4879-80b8-2f22ccbcee75.root
/store/mc/Run3Summer22EENanoAODv12/DYto2L-2Jets_MLL-50_PTLL-100to200_2J_TuneCP5_13p6TeV_amcatnloFXFX-pythia8/NANOAODSIM/130X_mcRun3_2022_realistic_postEE_v6-v3/80000/88f3f565-9015-4868-be4c-4dcc9319195c.root
/store/mc/Run3Summer22EENanoAODv12/DYto2L-2Jets_MLL-50_PTLL-100to200_2J_TuneCP5_13p6TeV_amcatnloFXFX-pythia8/NANOAODSIM/130X_mcRun3_2022_realistic_postEE_v6-v3/80000/360190bb-9c59-4a8d-bf17-cf7c41cac92b.root
/store/mc/Run3Summer22EENanoAODv12/DYto2L-2Jets_MLL-50_PTLL-100to200_2J_TuneCP5_13p6TeV_amcatnloFXFX-pythia8/NANOAODSIM/130X_mcRun3_2022_realistic_postEE_v6-v3/80000/8056c6cb-636a-448b-a244-38f6665b81a6.root
/store/mc/Run3Summer22EENanoAODv12/DYto2L-2Jets_MLL-50_PTLL-100to200_2J_TuneCP5_13p6TeV_amcatnloFXFX-pythia8/NANOAODSIM/130X_mcRun3_2022_realistic_postEE_v6-v3/80000/f42e7506-b494-4163-9935-63d504ced818.root
/store/mc/Run3Summer22EENanoAODv12/DYto2L-2Jets_MLL-50_PTLL-100to200_2J_TuneCP5_13p6TeV_amcatnloFXFX-pythia8/NANOAODSIM/130X_mcRun3_2022_realistic_postEE_v6-v3/80000/c91d95ef-389d-4437-a61d-74ac5b555bdb.root
/store/mc/Run3Summer22EENanoAODv12/DYto2L-2Jets_MLL-50_PTLL-100to200_2J_TuneCP5_13p6TeV_amcatnloFXFX-pythia8/NANOAODSIM/130X_mcRun3_2022_realistic_postEE_v6-v3/80000/892340ec-b3c6-4937-8f48-9b263ba566af.root
/store/mc/Run3Summer22EENanoAODv12/DYto2L-2Jets_MLL-50_PTLL-100to200_2J_TuneCP5_13p6TeV_amcatnloFXFX-pythia8/NANOAODSIM/130X_mcRun3_2022_realistic_postEE_v6-v3/80000/13c26dd2-80bd-4211-b096-e69bcbfe080a.root
/store/mc/Run3Summer22EENanoAODv12/DYto2L-2Jets_MLL-50_PTLL-100to200_2J_TuneCP5_13p6TeV_amcatnloFXFX-pythia8/NANOAODSIM/130X_mcRun3_2022_realistic_postEE_v6-v3/80000/8a2c029a-7662-4968-983b-198f9a25763b.root
/store/mc/Run3Summer22EENanoAODv12/DYto2L-2Jets_MLL-50_PTLL-100to200_2J_TuneCP5_13p6TeV_amcatnloFXFX-pythia8/NANOAODSIM/130X_mcRun3_2022_realistic_postEE_v6-v3/80000/1613e779-0ac2-4d25-9aed-e556a834d08a.root
/store/mc/Run3Summer22EENanoAODv12/DYto2L-2Jets_MLL-50_PTLL-100to200_2J_TuneCP5_13p6TeV_amcatnloFXFX-pythia8/NANOAODSIM/130X_mcRun3_2022_realistic_postEE_v6-v3/80000/de86a7cc-6157-4d30-9267-decb96e6f23b.root
/store/mc/Run3Summer22EENanoAODv12/DYto2L-2Jets_MLL-50_PTLL-100to200_2J_TuneCP5_13p6TeV_amcatnloFXFX-pythia8/NANOAODSIM/130X_mcRun3_2022_realistic_postEE_v6-v3/80000/689480ec-8bf2-43d4-86e4-5110d75cf1fc.root
/store/mc/Run3Summer22EENanoAODv12/DYto2L-2Jets_MLL-50_PTLL-100to200_2J_TuneCP5_13p6TeV_amcatnloFXFX-pythia8/NANOAODSIM/130X_mcRun3_2022_realistic_postEE_v6-v3/80000/2a424cca-3fab-45b4-975b-d8566aced8d8.root
/store/mc/Run3Summer22EENanoAODv12/DYto2L-2Jets_MLL-50_PTLL-100to200_2J_TuneCP5_13p6TeV_amcatnloFXFX-pythia8/NANOAODSIM/130X_mcRun3_2022_realistic_postEE_v6-v3/80000/76e14230-9057-451e-bae6-80c6823eadca.root
/store/mc/Run3Summer22EENanoAODv12/DYto2L-2Jets_MLL-50_PTLL-100to200_2J_TuneCP5_13p6TeV_amcatnloFXFX-pythia8/NANOAODSIM/130X_mcRun3_2022_realistic_postEE_v6-v3/80000/2382d850-eff1-425c-9e80-7722f2517c9b.root
/store/mc/Run3Summer22EENanoAODv12/DYto2L-2Jets_MLL-50_PTLL-100to200_2J_TuneCP5_13p6TeV_amcatnloFXFX-pythia8/NANOAODSIM/130X_mcRun3_2022_realistic_postEE_v6-v3/80000/b789ebf5-090b-4de4-8527-98fa6b976559.root
/store/mc/Run3Summer22EENanoAODv12/DYto2L-2Jets_MLL-50_PTLL-100to200_2J_TuneCP5_13p6TeV_amcatnloFXFX-pythia8/NANOAODSIM/130X_mcRun3_2022_realistic_postEE_v6-v3/80000/0b76f8d8-0c3e-422a-b185-aa3037018603.root
/store/mc/Run3Summer22EENanoAODv12/DYto2L-2Jets_MLL-50_PTLL-100to200_2J_TuneCP5_13p6TeV_amcatnloFXFX-pythia8/NANOAODSIM/130X_mcRun3_2022_realistic_postEE_v6-v3/80000/fcaf28d5-0dd3-4ad7-88f3-6c1356531225.root
/store/mc/Run3Summer22EENanoAODv12/DYto2L-2Jets_MLL-50_PTLL-100to200_2J_TuneCP5_13p6TeV_amcatnloFXFX-pythia8/NANOAODSIM/130X_mcRun3_2022_realistic_postEE_v6-v3/80000/41084797-afdc-49fd-a5db-a49e9d10deec.root
/store/mc/Run3Summer22EENanoAODv12/DYto2L-2Jets_MLL-50_PTLL-100to200_2J_TuneCP5_13p6TeV_amcatnloFXFX-pythia8/NANOAODSIM/130X_mcRun3_2022_realistic_postEE_v6-v3/80000/828023b2-608b-4ee7-ab87-b195dc2d2df2.root
/store/mc/Run3Summer22EENanoAODv12/DYto2L-2Jets_MLL-50_PTLL-100to200_2J_TuneCP5_13p6TeV_amcatnloFXFX-pythia8/NANOAODSIM/130X_mcRun3_2022_realistic_postEE_v6-v3/80000/e65fb654-244f-4e04-a6dc-b6e83585a191.root
/store/mc/Run3Summer22EENanoAODv12/DYto2L-2Jets_MLL-50_PTLL-100to200_2J_TuneCP5_13p6TeV_amcatnloFXFX-pythia8/NANOAODSIM/130X_mcRun3_2022_realistic_postEE_v6-v3/80000/f769b001-563e-4574-86ed-5a5a7ff29509.root
/store/mc/Run3Summer22EENanoAODv12/DYto2L-2Jets_MLL-50_PTLL-100to200_2J_TuneCP5_13p6TeV_amcatnloFXFX-pythia8/NANOAODSIM/130X_mcRun3_2022_realistic_postEE_v6-v3/80000/113e05cb-6fb5-4f9c-9332-cf27f04c6cfe.root
/store/mc/Run3Summer22EENanoAODv12/DYto2L-2Jets_MLL-50_PTLL-100to200_2J_TuneCP5_13p6TeV_amcatnloFXFX-pythia8/NANOAODSIM/130X_mcRun3_2022_realistic_postEE_v6-v3/80000/ac20fa7c-9288-4fed-acaf-8642530ad0a0.root
/store/mc/Run3Summer22EENanoAODv12/DYto2L-2Jets_MLL-50_PTLL-100to200_2J_TuneCP5_13p6TeV_amcatnloFXFX-pythia8/NANOAODSIM/130X_mcRun3_2022_realistic_postEE_v6-v3/80000/fdf4b1c1-6206-4bbc-8912-c407d314ec4a.root
/store/mc/Run3Summer22EENanoAODv12/DYto2L-2Jets_MLL-50_PTLL-100to200_2J_TuneCP5_13p6TeV_amcatnloFXFX-pythia8/NANOAODSIM/130X_mcRun3_2022_realistic_postEE_v6-v3/80000/00b7577a-bb37-4bb8-a2c5-bd3a36ca37f6.root
/store/mc/Run3Summer22EENanoAODv12/DYto2L-2Jets_MLL-50_PTLL-100to200_2J_TuneCP5_13p6TeV_amcatnloFXFX-pythia8/NANOAODSIM/130X_mcRun3_2022_realistic_postEE_v6-v3/80000/d39289e5-68ee-4a9c-8091-8ba3754a1497.root
/store/mc/Run3Summer22EENanoAODv12/DYto2L-2Jets_MLL-50_PTLL-100to200_2J_TuneCP5_13p6TeV_amcatnloFXFX-pythia8/NANOAODSIM/130X_mcRun3_2022_realistic_postEE_v6-v3/80000/5bc20e36-a6f7-4589-a0a0-ea88e4729d81.root
/store/mc/Run3Summer22EENanoAODv12/DYto2L-2Jets_MLL-50_PTLL-100to200_2J_TuneCP5_13p6TeV_amcatnloFXFX-pythia8/NANOAODSIM/130X_mcRun3_2022_realistic_postEE_v6-v3/80000/2a0debe0-b3c0-499a-b81a-261fd3e2cf87.root
/store/mc/Run3Summer22EENanoAODv12/DYto2L-2Jets_MLL-50_PTLL-100to200_2J_TuneCP5_13p6TeV_amcatnloFXFX-pythia8/NANOAODSIM/130X_mcRun3_2022_realistic_postEE_v6-v3/80000/16ea504a-fdae-43ca-9371-1e8e22f5bc1f.root
/store/mc/Run3Summer22EENanoAODv12/DYto2L-2Jets_MLL-50_PTLL-100to200_2J_TuneCP5_13p6TeV_amcatnloFXFX-pythia8/NANOAODSIM/130X_mcRun3_2022_realistic_postEE_v6-v3/80000/6a8bd837-11aa-4b1e-8ea5-43722e05bd5a.root
/store/mc/Run3Summer22EENanoAODv12/DYto2L-2Jets_MLL-50_PTLL-100to200_2J_TuneCP5_13p6TeV_amcatnloFXFX-pythia8/NANOAODSIM/130X_mcRun3_2022_realistic_postEE_v6-v3/80000/e90b1aff-1544-4bee-9375-77a460d6d243.root
/store/mc/Run3Summer22EENanoAODv12/DYto2L-2Jets_MLL-50_PTLL-100to200_2J_TuneCP5_13p6TeV_amcatnloFXFX-pythia8/NANOAODSIM/130X_mcRun3_2022_realistic_postEE_v6-v3/80000/04966cc6-8377-4579-b3ec-1575684c5475.root
/store/mc/Run3Summer22EENanoAODv12/DYto2L-2Jets_MLL-50_PTLL-100to200_2J_TuneCP5_13p6TeV_amcatnloFXFX-pythia8/NANOAODSIM/130X_mcRun3_2022_realistic_postEE_v6-v3/80000/4718430a-9cc7-4b28-a1ef-2a2fc9854a68.root
/store/mc/Run3Summer22EENanoAODv12/DYto2L-2Jets_MLL-50_PTLL-100to200_2J_TuneCP5_13p6TeV_amcatnloFXFX-pythia8/NANOAODSIM/130X_mcRun3_2022_realistic_postEE_v6-v3/80000/27163e4e-5ffd-4cf0-9425-28400ca5d74d.root
/store/mc/Run3Summer22EENanoAODv12/DYto2L-2Jets_MLL-50_PTLL-100to200_2J_TuneCP5_13p6TeV_amcatnloFXFX-pythia8/NANOAODSIM/130X_mcRun3_2022_realistic_postEE_v6-v3/80000/7ff648d2-3a5d-4c1f-a598-c615b4b816d6.root
/store/mc/Run3Summer22EENanoAODv12/DYto2L-2Jets_MLL-50_PTLL-100to200_2J_TuneCP5_13p6TeV_amcatnloFXFX-pythia8/NANOAODSIM/130X_mcRun3_2022_realistic_postEE_v6-v3/80000/5afb1143-8699-4313-8ff3-4e434ce30e8a.root
/store/mc/Run3Summer22EENanoAODv12/DYto2L-2Jets_MLL-50_PTLL-100to200_2J_TuneCP5_13p6TeV_amcatnloFXFX-pythia8/NANOAODSIM/130X_mcRun3_2022_realistic_postEE_v6-v3/80000/aeca5c4d-27a5-49a4-b75f-1d25376b59a0.root
/store/mc/Run3Summer22EENanoAODv12/DYto2L-2Jets_MLL-50_PTLL-100to200_2J_TuneCP5_13p6TeV_amcatnloFXFX-pythia8/NANOAODSIM/130X_mcRun3_2022_realistic_postEE_v6-v3/80000/d008ed68-9589-4e39-b8ad-6cafcc6e9d66.root
/store/mc/Run3Summer22EENanoAODv12/DYto2L-2Jets_MLL-50_PTLL-100to200_2J_TuneCP5_13p6TeV_amcatnloFXFX-pythia8/NANOAODSIM/130X_mcRun3_2022_realistic_postEE_v6-v3/80000/4982f865-f597-42e5-b8ac-fcdaff4ac107.root
/store/mc/Run3Summer22EENanoAODv12/DYto2L-2Jets_MLL-50_PTLL-100to200_2J_TuneCP5_13p6TeV_amcatnloFXFX-pythia8/NANOAODSIM/130X_mcRun3_2022_realistic_postEE_v6-v3/80000/b1e22646-4a78-42fb-a9ca-44f42a6de2bd.root
/store/mc/Run3Summer22EENanoAODv12/DYto2L-2Jets_MLL-50_PTLL-100to200_2J_TuneCP5_13p6TeV_amcatnloFXFX-pythia8/NANOAODSIM/130X_mcRun3_2022_realistic_postEE_v6-v3/80000/347db0e8-d53a-4ea6-aead-edaf9e111a72.root
/store/mc/Run3Summer22EENanoAODv12/DYto2L-2Jets_MLL-50_PTLL-100to200_2J_TuneCP5_13p6TeV_amcatnloFXFX-pythia8/NANOAODSIM/130X_mcRun3_2022_realistic_postEE_v6-v3/80000/6fefe499-6a8b-4b16-8b6e-6d48f6fddbc3.root
/store/mc/Run3Summer22EENanoAODv12/DYto2L-2Jets_MLL-50_PTLL-100to200_2J_TuneCP5_13p6TeV_amcatnloFXFX-pythia8/NANOAODSIM/130X_mcRun3_2022_realistic_postEE_v6-v3/80000/1064d155-e45f-4a1a-8d6b-39fcce386af0.root
/store/mc/Run3Summer22EENanoAODv12/DYto2L-2Jets_MLL-50_PTLL-100to200_2J_TuneCP5_13p6TeV_amcatnloFXFX-pythia8/NANOAODSIM/130X_mcRun3_2022_realistic_postEE_v6-v3/80000/a2bc6d7f-01bd-4460-95a2-fa593c20777a.root
/store/mc/Run3Summer22EENanoAODv12/DYto2L-2Jets_MLL-50_PTLL-100to200_2J_TuneCP5_13p6TeV_amcatnloFXFX-pythia8/NANOAODSIM/130X_mcRun3_2022_realistic_postEE_v6-v3/80000/8fc01ded-4f77-43bb-9c32-e69e77c33ae2.root
/store/mc/Run3Summer22EENanoAODv12/DYto2L-2Jets_MLL-50_PTLL-100to200_2J_TuneCP5_13p6TeV_amcatnloFXFX-pythia8/NANOAODSIM/130X_mcRun3_2022_realistic_postEE_v6-v3/80000/1c125aef-6191-411c-bef6-19fbaba738c7.root
/store/mc/Run3Summer22EENanoAODv12/DYto2L-2Jets_MLL-50_PTLL-100to200_2J_TuneCP5_13p6TeV_amcatnloFXFX-pythia8/NANOAODSIM/130X_mcRun3_2022_realistic_postEE_v6-v3/80000/638eb4cf-54a2-408e-88f3-e87b4a4c16c6.root
/store/mc/Run3Summer22EENanoAODv12/DYto2L-2Jets_MLL-50_PTLL-100to200_2J_TuneCP5_13p6TeV_amcatnloFXFX-pythia8/NANOAODSIM/130X_mcRun3_2022_realistic_postEE_v6-v3/80000/394d0103-65c0-4b95-a190-3f417dce6d91.root
/store/mc/Run3Summer22EENanoAODv12/DYto2L-2Jets_MLL-50_PTLL-100to200_2J_TuneCP5_13p6TeV_amcatnloFXFX-pythia8/NANOAODSIM/130X_mcRun3_2022_realistic_postEE_v6-v3/80000/53dd183b-a7ea-4e9f-b68a-3ff92aa33f1d.root
/store/mc/Run3Summer22EENanoAODv12/DYto2L-2Jets_MLL-50_PTLL-100to200_2J_TuneCP5_13p6TeV_amcatnloFXFX-pythia8/NANOAODSIM/130X_mcRun3_2022_realistic_postEE_v6-v3/80000/46a6a945-a8d2-4dd7-b2e0-d4732bc76486.root
/store/mc/Run3Summer22EENanoAODv12/DYto2L-2Jets_MLL-50_PTLL-100to200_2J_TuneCP5_13p6TeV_amcatnloFXFX-pythia8/NANOAODSIM/130X_mcRun3_2022_realistic_postEE_v6-v3/80000/8c7ffc02-32a7-49c2-8f40-50a9a2479f03.root
/store/mc/Run3Summer22EENanoAODv12/DYto2L-2Jets_MLL-50_PTLL-100to200_2J_TuneCP5_13p6TeV_amcatnloFXFX-pythia8/NANOAODSIM/130X_mcRun3_2022_realistic_postEE_v6-v3/80000/48154829-183f-4ca8-9ae7-d177717b363f.root
/store/mc/Run3Summer22EENanoAODv12/DYto2L-2Jets_MLL-50_PTLL-100to200_2J_TuneCP5_13p6TeV_amcatnloFXFX-pythia8/NANOAODSIM/130X_mcRun3_2022_realistic_postEE_v6-v3/80000/c9075b29-f026-4eb4-a6bf-267d21a13c7d.root
/store/mc/Run3Summer22EENanoAODv12/DYto2L-2Jets_MLL-50_PTLL-100to200_2J_TuneCP5_13p6TeV_amcatnloFXFX-pythia8/NANOAODSIM/130X_mcRun3_2022_realistic_postEE_v6-v3/80000/535d8c62-354e-47e6-881c-89a84178d9a9.root
/store/mc/Run3Summer22EENanoAODv12/DYto2L-2Jets_MLL-50_PTLL-100to200_2J_TuneCP5_13p6TeV_amcatnloFXFX-pythia8/NANOAODSIM/130X_mcRun3_2022_realistic_postEE_v6-v3/80000/c3cc7ca9-c127-4a4b-a521-f52c087b696d.root
/store/mc/Run3Summer22EENanoAODv12/DYto2L-2Jets_MLL-50_PTLL-100to200_2J_TuneCP5_13p6TeV_amcatnloFXFX-pythia8/NANOAODSIM/130X_mcRun3_2022_realistic_postEE_v6-v3/80000/50ac9eb7-1fb3-4434-af0f-d3d8a66da40d.root
/store/mc/Run3Summer22EENanoAODv12/DYto2L-2Jets_MLL-50_PTLL-100to200_2J_TuneCP5_13p6TeV_amcatnloFXFX-pythia8/NANOAODSIM/130X_mcRun3_2022_realistic_postEE_v6-v3/80000/90adf352-1245-43e4-8bab-d3302b899d91.root
/store/mc/Run3Summer22EENanoAODv12/DYto2L-2Jets_MLL-50_PTLL-100to200_2J_TuneCP5_13p6TeV_amcatnloFXFX-pythia8/NANOAODSIM/130X_mcRun3_2022_realistic_postEE_v6-v3/80000/ade8d7d0-35e9-4097-ae38-6ba2321fb01a.root
/store/mc/Run3Summer22EENanoAODv12/DYto2L-2Jets_MLL-50_PTLL-100to200_2J_TuneCP5_13p6TeV_amcatnloFXFX-pythia8/NANOAODSIM/130X_mcRun3_2022_realistic_postEE_v6-v3/80000/a33064fa-daad-47ae-ba7f-7f6d1b432250.root
/store/mc/Run3Summer22EENanoAODv12/DYto2L-2Jets_MLL-50_PTLL-100to200_2J_TuneCP5_13p6TeV_amcatnloFXFX-pythia8/NANOAODSIM/130X_mcRun3_2022_realistic_postEE_v6-v3/80000/296c8c3a-efb1-44fc-a11e-056558191f8c.root
/store/mc/Run3Summer22EENanoAODv12/DYto2L-2Jets_MLL-50_PTLL-100to200_2J_TuneCP5_13p6TeV_amcatnloFXFX-pythia8/NANOAODSIM/130X_mcRun3_2022_realistic_postEE_v6-v3/80000/3380fa5a-4fdb-4eb4-a66c-d64adaf3d679.root
/store/mc/Run3Summer22EENanoAODv12/DYto2L-2Jets_MLL-50_PTLL-100to200_2J_TuneCP5_13p6TeV_amcatnloFXFX-pythia8/NANOAODSIM/130X_mcRun3_2022_realistic_postEE_v6-v3/80000/516e82d8-e5f2-4d5c-b7f5-c18274ef320a.root
/store/mc/Run3Summer22EENanoAODv12/DYto2L-2Jets_MLL-50_PTLL-100to200_2J_TuneCP5_13p6TeV_amcatnloFXFX-pythia8/NANOAODSIM/130X_mcRun3_2022_realistic_postEE_v6-v3/80000/5fdd06b2-16bc-48ef-ab86-b6b330531aa2.root
/store/mc/Run3Summer22EENanoAODv12/DYto2L-2Jets_MLL-50_PTLL-100to200_2J_TuneCP5_13p6TeV_amcatnloFXFX-pythia8/NANOAODSIM/130X_mcRun3_2022_realistic_postEE_v6-v3/80000/5a5b7d62-bf2f-4d7f-9f15-2d141a2aef50.root
/store/mc/Run3Summer22EENanoAODv12/DYto2L-2Jets_MLL-50_PTLL-100to200_2J_TuneCP5_13p6TeV_amcatnloFXFX-pythia8/NANOAODSIM/130X_mcRun3_2022_realistic_postEE_v6-v3/80000/a1dc20cd-d02b-4e1e-9e12-c4ed19a6e240.root
/store/mc/Run3Summer22EENanoAODv12/DYto2L-2Jets_MLL-50_PTLL-100to200_2J_TuneCP5_13p6TeV_amcatnloFXFX-pythia8/NANOAODSIM/130X_mcRun3_2022_realistic_postEE_v6-v3/80000/6c696164-d574-4363-b6b8-1565e0a385ce.root
/store/mc/Run3Summer22EENanoAODv12/DYto2L-2Jets_MLL-50_PTLL-100to200_2J_TuneCP5_13p6TeV_amcatnloFXFX-pythia8/NANOAODSIM/130X_mcRun3_2022_realistic_postEE_v6-v3/80000/0b042662-bd8f-4863-8193-2eaa264ab002.root
/store/mc/Run3Summer22EENanoAODv12/DYto2L-2Jets_MLL-50_PTLL-100to200_2J_TuneCP5_13p6TeV_amcatnloFXFX-pythia8/NANOAODSIM/130X_mcRun3_2022_realistic_postEE_v6-v3/50000/5a3428d7-30f6-4212-917d-cf3d732ababb.root
/store/mc/Run3Summer22EENanoAODv12/DYto2L-2Jets_MLL-50_PTLL-100to200_2J_TuneCP5_13p6TeV_amcatnloFXFX-pythia8/NANOAODSIM/130X_mcRun3_2022_realistic_postEE_v6-v3/50000/ab3674ed-8faf-4f7c-b04e-436de5510050.root
/store/mc/Run3Summer22EENanoAODv12/DYto2L-2Jets_MLL-50_PTLL-100to200_2J_TuneCP5_13p6TeV_amcatnloFXFX-pythia8/NANOAODSIM/130X_mcRun3_2022_realistic_postEE_v6-v3/50000/66d36892-a826-4a55-9052-a3d294207c85.root
/store/mc/Run3Summer22EENanoAODv12/DYto2L-2Jets_MLL-50_PTLL-100to200_2J_TuneCP5_13p6TeV_amcatnloFXFX-pythia8/NANOAODSIM/130X_mcRun3_2022_realistic_postEE_v6-v3/50000/c614123e-d408-4c04-bd7d-e5338e45b43f.root
/store/mc/Run3Summer22EENanoAODv12/DYto2L-2Jets_MLL-50_PTLL-100to200_2J_TuneCP5_13p6TeV_amcatnloFXFX-pythia8/NANOAODSIM/130X_mcRun3_2022_realistic_postEE_v6-v3/50000/c301861c-03dc-4ece-a541-c118e0594a10.root
/store/mc/Run3Summer22EENanoAODv12/DYto2L-2Jets_MLL-50_PTLL-100to200_2J_TuneCP5_13p6TeV_amcatnloFXFX-pythia8/NANOAODSIM/130X_mcRun3_2022_realistic_postEE_v6-v3/50000/f90e5d26-908d-46a3-9ccc-34d300240335.root
/store/mc/Run3Summer22EENanoAODv12/DYto2L-2Jets_MLL-50_PTLL-100to200_2J_TuneCP5_13p6TeV_amcatnloFXFX-pythia8/NANOAODSIM/130X_mcRun3_2022_realistic_postEE_v6-v3/50000/85a7f509-ce09-400f-8405-25a75e523b91.root
/store/mc/Run3Summer22EENanoAODv12/DYto2L-2Jets_MLL-50_PTLL-100to200_2J_TuneCP5_13p6TeV_amcatnloFXFX-pythia8/NANOAODSIM/130X_mcRun3_2022_realistic_postEE_v6-v3/50000/1a6a3b52-2401-412c-9aaf-7bdb14e8cb0c.root
/store/mc/Run3Summer22EENanoAODv12/DYto2L-2Jets_MLL-50_PTLL-100to200_2J_TuneCP5_13p6TeV_amcatnloFXFX-pythia8/NANOAODSIM/130X_mcRun3_2022_realistic_postEE_v6-v3/50000/a3fee9ea-82e1-4409-b41e-0716beab03f3.root
/store/mc/Run3Summer22EENanoAODv12/DYto2L-2Jets_MLL-50_PTLL-100to200_2J_TuneCP5_13p6TeV_amcatnloFXFX-pythia8/NANOAODSIM/130X_mcRun3_2022_realistic_postEE_v6-v3/50000/33e2ebae-5d9f-47b8-a34f-7faf76feef07.root
/store/mc/Run3Summer22EENanoAODv12/DYto2L-2Jets_MLL-50_PTLL-100to200_2J_TuneCP5_13p6TeV_amcatnloFXFX-pythia8/NANOAODSIM/130X_mcRun3_2022_realistic_postEE_v6-v3/50000/3af2fc42-d99d-451d-98c7-817cd2a3bac3.root
/store/mc/Run3Summer22EENanoAODv12/DYto2L-2Jets_MLL-50_PTLL-100to200_2J_TuneCP5_13p6TeV_amcatnloFXFX-pythia8/NANOAODSIM/130X_mcRun3_2022_realistic_postEE_v6-v3/50000/df35659a-d718-42d5-9015-aac4d60a2a4b.root
/store/mc/Run3Summer22EENanoAODv12/DYto2L-2Jets_MLL-50_PTLL-100to200_2J_TuneCP5_13p6TeV_amcatnloFXFX-pythia8/NANOAODSIM/130X_mcRun3_2022_realistic_postEE_v6-v3/50000/14591d28-6466-4907-b656-1860cd8c25a0.root
/store/mc/Run3Summer22EENanoAODv12/DYto2L-2Jets_MLL-50_PTLL-100to200_2J_TuneCP5_13p6TeV_amcatnloFXFX-pythia8/NANOAODSIM/130X_mcRun3_2022_realistic_postEE_v6-v3/50000/d79f4acf-49b5-4f26-a6c1-b7034567edd9.root
/store/mc/Run3Summer22EENanoAODv12/DYto2L-2Jets_MLL-50_PTLL-100to200_2J_TuneCP5_13p6TeV_amcatnloFXFX-pythia8/NANOAODSIM/130X_mcRun3_2022_realistic_postEE_v6-v3/50000/c7d7f209-ec85-4963-8ce5-0a91751dfe7f.root
/store/mc/Run3Summer22EENanoAODv12/DYto2L-2Jets_MLL-50_PTLL-100to200_2J_TuneCP5_13p6TeV_amcatnloFXFX-pythia8/NANOAODSIM/130X_mcRun3_2022_realistic_postEE_v6-v3/50000/af6db383-d401-4965-9be3-4878e911fec8.root
/store/mc/Run3Summer22EENanoAODv12/DYto2L-2Jets_MLL-50_PTLL-100to200_2J_TuneCP5_13p6TeV_amcatnloFXFX-pythia8/NANOAODSIM/130X_mcRun3_2022_realistic_postEE_v6-v3/50000/ac368186-d59d-4f81-994c-d8873de0c292.root
/store/mc/Run3Summer22EENanoAODv12/DYto2L-2Jets_MLL-50_PTLL-100to200_2J_TuneCP5_13p6TeV_amcatnloFXFX-pythia8/NANOAODSIM/130X_mcRun3_2022_realistic_postEE_v6-v3/50000/8b2607da-554a-4cfb-a1aa-ce3f612b80d7.root
/store/mc/Run3Summer22EENanoAODv12/DYto2L-2Jets_MLL-50_PTLL-100to200_2J_TuneCP5_13p6TeV_amcatnloFXFX-pythia8/NANOAODSIM/130X_mcRun3_2022_realistic_postEE_v6-v3/50000/19ab76ec-7d04-4150-afe0-2b8524b114a1.root
/store/mc/Run3Summer22EENanoAODv12/DYto2L-2Jets_MLL-50_PTLL-100to200_2J_TuneCP5_13p6TeV_amcatnloFXFX-pythia8/NANOAODSIM/130X_mcRun3_2022_realistic_postEE_v6-v3/50000/564d67a7-199f-4645-9571-3a40439071db.root
/store/mc/Run3Summer22EENanoAODv12/DYto2L-2Jets_MLL-50_PTLL-100to200_2J_TuneCP5_13p6TeV_amcatnloFXFX-pythia8/NANOAODSIM/130X_mcRun3_2022_realistic_postEE_v6-v3/50000/bc1357a1-fab5-41c7-85f3-40b46211a0c1.root
/store/mc/Run3Summer22EENanoAODv12/DYto2L-2Jets_MLL-50_PTLL-100to200_2J_TuneCP5_13p6TeV_amcatnloFXFX-pythia8/NANOAODSIM/130X_mcRun3_2022_realistic_postEE_v6-v3/50000/f96289bb-af28-4404-afcb-792dd36175b5.root
/store/mc/Run3Summer22EENanoAODv12/DYto2L-2Jets_MLL-50_PTLL-100to200_2J_TuneCP5_13p6TeV_amcatnloFXFX-pythia8/NANOAODSIM/130X_mcRun3_2022_realistic_postEE_v6-v3/50000/e5b44ad3-97ab-4879-a38a-5340f4c96f87.root
/store/mc/Run3Summer22EENanoAODv12/DYto2L-2Jets_MLL-50_PTLL-100to200_2J_TuneCP5_13p6TeV_amcatnloFXFX-pythia8/NANOAODSIM/130X_mcRun3_2022_realistic_postEE_v6-v3/50000/fd278f31-2b06-41dc-83d4-c1c29b502de3.root
/store/mc/Run3Summer22EENanoAODv12/DYto2L-2Jets_MLL-50_PTLL-100to200_2J_TuneCP5_13p6TeV_amcatnloFXFX-pythia8/NANOAODSIM/130X_mcRun3_2022_realistic_postEE_v6-v3/50000/785a3bae-06eb-4347-94d2-fa2a67388a19.root
/store/mc/Run3Summer22EENanoAODv12/DYto2L-2Jets_MLL-50_PTLL-100to200_2J_TuneCP5_13p6TeV_amcatnloFXFX-pythia8/NANOAODSIM/130X_mcRun3_2022_realistic_postEE_v6-v3/50000/48226f01-3ea7-4f65-9b0a-619ba9da0b7b.root
/store/mc/Run3Summer22EENanoAODv12/DYto2L-2Jets_MLL-50_PTLL-100to200_2J_TuneCP5_13p6TeV_amcatnloFXFX-pythia8/NANOAODSIM/130X_mcRun3_2022_realistic_postEE_v6-v3/50000/480dfd06-538b-4fac-a260-12677307d2e6.root
/store/mc/Run3Summer22EENanoAODv12/DYto2L-2Jets_MLL-50_PTLL-100to200_2J_TuneCP5_13p6TeV_amcatnloFXFX-pythia8/NANOAODSIM/130X_mcRun3_2022_realistic_postEE_v6-v3/50000/b817aefc-44b0-4ed4-8e3c-f05aea0e0cb1.root
/store/mc/Run3Summer22EENanoAODv12/DYto2L-2Jets_MLL-50_PTLL-100to200_2J_TuneCP5_13p6TeV_amcatnloFXFX-pythia8/NANOAODSIM/130X_mcRun3_2022_realistic_postEE_v6-v3/50000/f6a525cc-e780-40f6-8cc9-22ad68562775.root
/store/mc/Run3Summer22EENanoAODv12/DYto2L-2Jets_MLL-50_PTLL-100to200_2J_TuneCP5_13p6TeV_amcatnloFXFX-pythia8/NANOAODSIM/130X_mcRun3_2022_realistic_postEE_v6-v3/50000/f61b5744-bd02-448d-a59c-aabcc79365c2.root
/store/mc/Run3Summer22EENanoAODv12/DYto2L-2Jets_MLL-50_PTLL-100to200_2J_TuneCP5_13p6TeV_amcatnloFXFX-pythia8/NANOAODSIM/130X_mcRun3_2022_realistic_postEE_v6-v3/50000/f339648d-74c8-4642-b233-29610b087970.root
/store/mc/Run3Summer22EENanoAODv12/DYto2L-2Jets_MLL-50_PTLL-100to200_2J_TuneCP5_13p6TeV_amcatnloFXFX-pythia8/NANOAODSIM/130X_mcRun3_2022_realistic_postEE_v6-v3/50000/4b2f3d91-27fa-41c1-8bc6-efb8bcef3d9a.root
/store/mc/Run3Summer22EENanoAODv12/DYto2L-2Jets_MLL-50_PTLL-100to200_2J_TuneCP5_13p6TeV_amcatnloFXFX-pythia8/NANOAODSIM/130X_mcRun3_2022_realistic_postEE_v6-v3/50000/f39ee2c3-8738-44ee-9063-e20f80e99f75.root
/store/mc/Run3Summer22EENanoAODv12/DYto2L-2Jets_MLL-50_PTLL-100to200_2J_TuneCP5_13p6TeV_amcatnloFXFX-pythia8/NANOAODSIM/130X_mcRun3_2022_realistic_postEE_v6-v3/50000/76d0bc8d-eb57-4f54-b4d4-16e3183f0da2.root
/store/mc/Run3Summer22EENanoAODv12/DYto2L-2Jets_MLL-50_PTLL-100to200_2J_TuneCP5_13p6TeV_amcatnloFXFX-pythia8/NANOAODSIM/130X_mcRun3_2022_realistic_postEE_v6-v3/50000/3bbf1651-7fff-458f-a4e9-4fa58ac54931.root
/store/mc/Run3Summer22EENanoAODv12/DYto2L-2Jets_MLL-50_PTLL-100to200_2J_TuneCP5_13p6TeV_amcatnloFXFX-pythia8/NANOAODSIM/130X_mcRun3_2022_realistic_postEE_v6-v3/50000/e01c0468-554e-4c06-a9a7-0ab08347b657.root
/store/mc/Run3Summer22EENanoAODv12/DYto2L-2Jets_MLL-50_PTLL-100to200_2J_TuneCP5_13p6TeV_amcatnloFXFX-pythia8/NANOAODSIM/130X_mcRun3_2022_realistic_postEE_v6-v3/50000/7f0e76e0-f8f6-4931-a535-b930a420f382.root
/store/mc/Run3Summer22EENanoAODv12/DYto2L-2Jets_MLL-50_PTLL-100to200_2J_TuneCP5_13p6TeV_amcatnloFXFX-pythia8/NANOAODSIM/130X_mcRun3_2022_realistic_postEE_v6-v3/50000/6354f109-5335-4b78-a2c5-e137e6e57b7d.root
/store/mc/Run3Summer22EENanoAODv12/DYto2L-2Jets_MLL-50_PTLL-100to200_2J_TuneCP5_13p6TeV_amcatnloFXFX-pythia8/NANOAODSIM/130X_mcRun3_2022_realistic_postEE_v6-v3/50000/e1e67466-95b7-4158-9e8d-34d53bf8fcae.root
/store/mc/Run3Summer22EENanoAODv12/DYto2L-2Jets_MLL-50_PTLL-100to200_2J_TuneCP5_13p6TeV_amcatnloFXFX-pythia8/NANOAODSIM/130X_mcRun3_2022_realistic_postEE_v6-v3/50000/abdaa1d1-853b-4f0b-b5f1-547d0deae8f9.root
/store/mc/Run3Summer22EENanoAODv12/DYto2L-2Jets_MLL-50_PTLL-100to200_2J_TuneCP5_13p6TeV_amcatnloFXFX-pythia8/NANOAODSIM/130X_mcRun3_2022_realistic_postEE_v6-v3/50000/876cd998-5a59-4b4c-b4bf-4747afcac9bb.root
/store/mc/Run3Summer22EENanoAODv12/DYto2L-2Jets_MLL-50_PTLL-100to200_2J_TuneCP5_13p6TeV_amcatnloFXFX-pythia8/NANOAODSIM/130X_mcRun3_2022_realistic_postEE_v6-v3/50000/a29987d5-5450-4da8-8c78-268154f33037.root
/store/mc/Run3Summer22EENanoAODv12/DYto2L-2Jets_MLL-50_PTLL-100to200_2J_TuneCP5_13p6TeV_amcatnloFXFX-pythia8/NANOAODSIM/130X_mcRun3_2022_realistic_postEE_v6-v3/50000/c3494fd7-4a4f-4cb3-a876-2d29215c7ab5.root
/store/mc/Run3Summer22EENanoAODv12/DYto2L-2Jets_MLL-50_PTLL-100to200_2J_TuneCP5_13p6TeV_amcatnloFXFX-pythia8/NANOAODSIM/130X_mcRun3_2022_realistic_postEE_v6-v3/50000/c7e608a5-4faf-4781-93b5-8f726e0220c0.root
/store/mc/Run3Summer22EENanoAODv12/DYto2L-2Jets_MLL-50_PTLL-100to200_2J_TuneCP5_13p6TeV_amcatnloFXFX-pythia8/NANOAODSIM/130X_mcRun3_2022_realistic_postEE_v6-v3/50000/2bcc37a1-faf5-44f0-a24d-d712c1bd2a78.root
/store/mc/Run3Summer22EENanoAODv12/DYto2L-2Jets_MLL-50_PTLL-100to200_2J_TuneCP5_13p6TeV_amcatnloFXFX-pythia8/NANOAODSIM/130X_mcRun3_2022_realistic_postEE_v6-v3/50000/ad1999d0-4afe-4616-9e32-f9869269047e.root
/store/mc/Run3Summer22EENanoAODv12/DYto2L-2Jets_MLL-50_PTLL-100to200_2J_TuneCP5_13p6TeV_amcatnloFXFX-pythia8/NANOAODSIM/130X_mcRun3_2022_realistic_postEE_v6-v3/50000/719bfbf3-999f-4edd-a601-6274ddd4f90e.root
/store/mc/Run3Summer22EENanoAODv12/DYto2L-2Jets_MLL-50_PTLL-100to200_2J_TuneCP5_13p6TeV_amcatnloFXFX-pythia8/NANOAODSIM/130X_mcRun3_2022_realistic_postEE_v6-v3/50000/32e0945e-ba7c-4660-9488-df75a928cf80.root
/store/mc/Run3Summer22EENanoAODv12/DYto2L-2Jets_MLL-50_PTLL-100to200_2J_TuneCP5_13p6TeV_amcatnloFXFX-pythia8/NANOAODSIM/130X_mcRun3_2022_realistic_postEE_v6-v3/50000/36135ff5-717d-4fee-84a8-d7b70e1b71f7.root
/store/mc/Run3Summer22EENanoAODv12/DYto2L-2Jets_MLL-50_PTLL-100to200_2J_TuneCP5_13p6TeV_amcatnloFXFX-pythia8/NANOAODSIM/130X_mcRun3_2022_realistic_postEE_v6-v3/50000/ed8f3328-408c-415d-b833-4458c3649085.root
/store/mc/Run3Summer22EENanoAODv12/DYto2L-2Jets_MLL-50_PTLL-100to200_2J_TuneCP5_13p6TeV_amcatnloFXFX-pythia8/NANOAODSIM/130X_mcRun3_2022_realistic_postEE_v6-v3/50000/e2f54ba6-f53c-4eb7-8711-81af611275e9.root
/store/mc/Run3Summer22EENanoAODv12/DYto2L-2Jets_MLL-50_PTLL-100to200_2J_TuneCP5_13p6TeV_amcatnloFXFX-pythia8/NANOAODSIM/130X_mcRun3_2022_realistic_postEE_v6-v3/50000/87f3c70a-de28-491f-a864-4b2aed5e3c6f.root
/store/mc/Run3Summer22EENanoAODv12/DYto2L-2Jets_MLL-50_PTLL-100to200_2J_TuneCP5_13p6TeV_amcatnloFXFX-pythia8/NANOAODSIM/130X_mcRun3_2022_realistic_postEE_v6-v3/50000/964b58a7-18f4-41ab-9d6c-62869f442565.root
/store/mc/Run3Summer22EENanoAODv12/DYto2L-2Jets_MLL-50_PTLL-100to200_2J_TuneCP5_13p6TeV_amcatnloFXFX-pythia8/NANOAODSIM/130X_mcRun3_2022_realistic_postEE_v6-v3/50000/a03bfae6-f58c-43ef-acef-7da9f454cbfe.root
/store/mc/Run3Summer22EENanoAODv12/DYto2L-2Jets_MLL-50_PTLL-100to200_2J_TuneCP5_13p6TeV_amcatnloFXFX-pythia8/NANOAODSIM/130X_mcRun3_2022_realistic_postEE_v6-v3/50000/c514566b-4205-419c-a024-1551775d01d9.root
/store/mc/Run3Summer22EENanoAODv12/DYto2L-2Jets_MLL-50_PTLL-100to200_2J_TuneCP5_13p6TeV_amcatnloFXFX-pythia8/NANOAODSIM/130X_mcRun3_2022_realistic_postEE_v6-v3/50000/05c68d17-4295-4997-8a6c-4ae0ce3ce3c2.root
/store/mc/Run3Summer22EENanoAODv12/DYto2L-2Jets_MLL-50_PTLL-100to200_2J_TuneCP5_13p6TeV_amcatnloFXFX-pythia8/NANOAODSIM/130X_mcRun3_2022_realistic_postEE_v6-v3/50000/cdee93e5-7d31-4812-a528-de9abf509fd7.root
/store/mc/Run3Summer22EENanoAODv12/DYto2L-2Jets_MLL-50_PTLL-100to200_2J_TuneCP5_13p6TeV_amcatnloFXFX-pythia8/NANOAODSIM/130X_mcRun3_2022_realistic_postEE_v6-v3/50000/90528fb3-28d1-4994-a05e-1a89769c365a.root
/store/mc/Run3Summer22EENanoAODv12/DYto2L-2Jets_MLL-50_PTLL-100to200_2J_TuneCP5_13p6TeV_amcatnloFXFX-pythia8/NANOAODSIM/130X_mcRun3_2022_realistic_postEE_v6-v3/50000/fef22153-56a4-4532-8d17-8bb971e6fe35.root
/store/mc/Run3Summer22EENanoAODv12/DYto2L-2Jets_MLL-50_PTLL-100to200_2J_TuneCP5_13p6TeV_amcatnloFXFX-pythia8/NANOAODSIM/130X_mcRun3_2022_realistic_postEE_v6-v3/50000/a0b7e776-f27e-4cf4-9922-3776bdc33642.root
/store/mc/Run3Summer22EENanoAODv12/DYto2L-2Jets_MLL-50_PTLL-100to200_2J_TuneCP5_13p6TeV_amcatnloFXFX-pythia8/NANOAODSIM/130X_mcRun3_2022_realistic_postEE_v6-v3/50000/4c523609-187a-496e-8913-86ade4710a91.root
/store/mc/Run3Summer22EENanoAODv12/DYto2L-2Jets_MLL-50_PTLL-100to200_2J_TuneCP5_13p6TeV_amcatnloFXFX-pythia8/NANOAODSIM/130X_mcRun3_2022_realistic_postEE_v6-v3/50000/3f526885-48df-4d05-912e-c4f3750816bc.root
/store/mc/Run3Summer22EENanoAODv12/DYto2L-2Jets_MLL-50_PTLL-100to200_2J_TuneCP5_13p6TeV_amcatnloFXFX-pythia8/NANOAODSIM/130X_mcRun3_2022_realistic_postEE_v6-v3/50000/05f77c0a-6fb0-446b-93db-f84b3b697c54.root
/store/mc/Run3Summer22EENanoAODv12/DYto2L-2Jets_MLL-50_PTLL-100to200_2J_TuneCP5_13p6TeV_amcatnloFXFX-pythia8/NANOAODSIM/130X_mcRun3_2022_realistic_postEE_v6-v3/50000/79f50c28-82ac-47ba-ac92-fb78922cc869.root
/store/mc/Run3Summer22EENanoAODv12/DYto2L-2Jets_MLL-50_PTLL-100to200_2J_TuneCP5_13p6TeV_amcatnloFXFX-pythia8/NANOAODSIM/130X_mcRun3_2022_realistic_postEE_v6-v3/50000/d71eb13c-8868-42fd-a4df-ceedb5c6e5fd.root
/store/mc/Run3Summer22EENanoAODv12/DYto2L-2Jets_MLL-50_PTLL-100to200_2J_TuneCP5_13p6TeV_amcatnloFXFX-pythia8/NANOAODSIM/130X_mcRun3_2022_realistic_postEE_v6-v3/50000/4aec0a73-c69e-4a90-842c-00cb6adb33f7.root
/store/mc/Run3Summer22EENanoAODv12/DYto2L-2Jets_MLL-50_PTLL-100to200_2J_TuneCP5_13p6TeV_amcatnloFXFX-pythia8/NANOAODSIM/130X_mcRun3_2022_realistic_postEE_v6-v3/50000/ed67650d-686f-4e3b-bce1-9e68fe357881.root
/store/mc/Run3Summer22EENanoAODv12/DYto2L-2Jets_MLL-50_PTLL-100to200_2J_TuneCP5_13p6TeV_amcatnloFXFX-pythia8/NANOAODSIM/130X_mcRun3_2022_realistic_postEE_v6-v3/50000/fa2b4044-64da-45e1-ab5a-ae391911229b.root
/store/mc/Run3Summer22EENanoAODv12/DYto2L-2Jets_MLL-50_PTLL-100to200_2J_TuneCP5_13p6TeV_amcatnloFXFX-pythia8/NANOAODSIM/130X_mcRun3_2022_realistic_postEE_v6-v3/50000/15d4f93b-90b2-43f9-9d1f-2f7d0530b8bc.root
/store/mc/Run3Summer22EENanoAODv12/DYto2L-2Jets_MLL-50_PTLL-100to200_2J_TuneCP5_13p6TeV_amcatnloFXFX-pythia8/NANOAODSIM/130X_mcRun3_2022_realistic_postEE_v6-v3/50000/fcae5478-2f72-458d-b657-a0b2d004bf0d.root
/store/mc/Run3Summer22EENanoAODv12/DYto2L-2Jets_MLL-50_PTLL-100to200_2J_TuneCP5_13p6TeV_amcatnloFXFX-pythia8/NANOAODSIM/130X_mcRun3_2022_realistic_postEE_v6-v3/50000/f98d64e8-e9c2-4d58-b81d-050ca34227ea.root
/store/mc/Run3Summer22EENanoAODv12/DYto2L-2Jets_MLL-50_PTLL-100to200_2J_TuneCP5_13p6TeV_amcatnloFXFX-pythia8/NANOAODSIM/130X_mcRun3_2022_realistic_postEE_v6-v3/50000/da3fc87d-c277-4af5-bae6-d9d151fea87e.root
/store/mc/Run3Summer22EENanoAODv12/DYto2L-2Jets_MLL-50_PTLL-100to200_2J_TuneCP5_13p6TeV_amcatnloFXFX-pythia8/NANOAODSIM/130X_mcRun3_2022_realistic_postEE_v6-v3/50000/52e74b77-24e2-47d6-8430-d1d131982d53.root
/store/mc/Run3Summer22EENanoAODv12/DYto2L-2Jets_MLL-50_PTLL-100to200_2J_TuneCP5_13p6TeV_amcatnloFXFX-pythia8/NANOAODSIM/130X_mcRun3_2022_realistic_postEE_v6-v3/50000/d26b82b7-fb65-43fe-a5f5-1f7398d29f4d.root
/store/mc/Run3Summer22EENanoAODv12/DYto2L-2Jets_MLL-50_PTLL-100to200_2J_TuneCP5_13p6TeV_amcatnloFXFX-pythia8/NANOAODSIM/130X_mcRun3_2022_realistic_postEE_v6-v3/50000/84fd2815-dd7d-4162-8d96-2b62067b5daf.root
/store/mc/Run3Summer22EENanoAODv12/DYto2L-2Jets_MLL-50_PTLL-100to200_2J_TuneCP5_13p6TeV_amcatnloFXFX-pythia8/NANOAODSIM/130X_mcRun3_2022_realistic_postEE_v6-v3/50000/521d9f8d-15d4-4f6f-a79e-90c50a68f105.root
/store/mc/Run3Summer22EENanoAODv12/DYto2L-2Jets_MLL-50_PTLL-100to200_2J_TuneCP5_13p6TeV_amcatnloFXFX-pythia8/NANOAODSIM/130X_mcRun3_2022_realistic_postEE_v6-v3/50000/015f794c-fab9-47c9-8304-8f4d2151a6ea.root
/store/mc/Run3Summer22EENanoAODv12/DYto2L-2Jets_MLL-50_PTLL-100to200_2J_TuneCP5_13p6TeV_amcatnloFXFX-pythia8/NANOAODSIM/130X_mcRun3_2022_realistic_postEE_v6-v3/50000/9dc7c141-19a8-4c7c-8fdb-e9d1ccaf0a0a.root
/store/mc/Run3Summer22EENanoAODv12/DYto2L-2Jets_MLL-50_PTLL-100to200_2J_TuneCP5_13p6TeV_amcatnloFXFX-pythia8/NANOAODSIM/130X_mcRun3_2022_realistic_postEE_v6-v3/50000/d868871d-d71b-4c5c-bce3-80da4d3f036c.root
/store/mc/Run3Summer22EENanoAODv12/DYto2L-2Jets_MLL-50_PTLL-100to200_2J_TuneCP5_13p6TeV_amcatnloFXFX-pythia8/NANOAODSIM/130X_mcRun3_2022_realistic_postEE_v6-v3/50000/88b80e0e-bcf5-4410-be93-4fea2bb23155.root
/store/mc/Run3Summer22EENanoAODv12/DYto2L-2Jets_MLL-50_PTLL-100to200_2J_TuneCP5_13p6TeV_amcatnloFXFX-pythia8/NANOAODSIM/130X_mcRun3_2022_realistic_postEE_v6-v3/50000/eed9b88a-6954-46b3-b406-e931aeaff3fa.root
/store/mc/Run3Summer22EENanoAODv12/DYto2L-2Jets_MLL-50_PTLL-100to200_2J_TuneCP5_13p6TeV_amcatnloFXFX-pythia8/NANOAODSIM/130X_mcRun3_2022_realistic_postEE_v6-v3/50000/1eebea64-d9e5-42f5-817a-b3cd2415c845.root
/store/mc/Run3Summer22EENanoAODv12/DYto2L-2Jets_MLL-50_PTLL-100to200_2J_TuneCP5_13p6TeV_amcatnloFXFX-pythia8/NANOAODSIM/130X_mcRun3_2022_realistic_postEE_v6-v3/50000/c94e8a92-2aac-4354-975d-2c8a6758db5d.root
/store/mc/Run3Summer22EENanoAODv12/DYto2L-2Jets_MLL-50_PTLL-100to200_2J_TuneCP5_13p6TeV_amcatnloFXFX-pythia8/NANOAODSIM/130X_mcRun3_2022_realistic_postEE_v6-v3/50000/5c91b253-d4bb-4f69-a99a-e03a52cf8333.root
/store/mc/Run3Summer22EENanoAODv12/DYto2L-2Jets_MLL-50_PTLL-100to200_2J_TuneCP5_13p6TeV_amcatnloFXFX-pythia8/NANOAODSIM/130X_mcRun3_2022_realistic_postEE_v6-v3/50000/e844739e-0f46-478c-b7c2-4380e7bcadae.root
/store/mc/Run3Summer22EENanoAODv12/DYto2L-2Jets_MLL-50_PTLL-100to200_2J_TuneCP5_13p6TeV_amcatnloFXFX-pythia8/NANOAODSIM/130X_mcRun3_2022_realistic_postEE_v6-v3/50000/d46d04f7-73ca-4472-bc3d-e1c946e38454.root
/store/mc/Run3Summer22EENanoAODv12/DYto2L-2Jets_MLL-50_PTLL-100to200_2J_TuneCP5_13p6TeV_amcatnloFXFX-pythia8/NANOAODSIM/130X_mcRun3_2022_realistic_postEE_v6-v3/50000/e94f40c5-2130-47c8-93a6-ff9f05c1ea32.root
/store/mc/Run3Summer22EENanoAODv12/DYto2L-2Jets_MLL-50_PTLL-100to200_2J_TuneCP5_13p6TeV_amcatnloFXFX-pythia8/NANOAODSIM/130X_mcRun3_2022_realistic_postEE_v6-v3/50000/deb74bfd-439c-4bf3-b3a2-ad564f504e97.root
/store/mc/Run3Summer22EENanoAODv12/DYto2L-2Jets_MLL-50_PTLL-100to200_2J_TuneCP5_13p6TeV_amcatnloFXFX-pythia8/NANOAODSIM/130X_mcRun3_2022_realistic_postEE_v6-v3/50000/a350c7de-9519-45ce-ad8b-2bf0f695377d.root
/store/mc/Run3Summer22EENanoAODv12/DYto2L-2Jets_MLL-50_PTLL-100to200_2J_TuneCP5_13p6TeV_amcatnloFXFX-pythia8/NANOAODSIM/130X_mcRun3_2022_realistic_postEE_v6-v3/50000/6b90f672-53f5-482f-bf33-72c8ef686c06.root
/store/mc/Run3Summer22EENanoAODv12/DYto2L-2Jets_MLL-50_PTLL-100to200_2J_TuneCP5_13p6TeV_amcatnloFXFX-pythia8/NANOAODSIM/130X_mcRun3_2022_realistic_postEE_v6-v3/50000/956b5ea8-249f-4901-8a52-6b8e9246648c.root
/store/mc/Run3Summer22EENanoAODv12/DYto2L-2Jets_MLL-50_PTLL-100to200_2J_TuneCP5_13p6TeV_amcatnloFXFX-pythia8/NANOAODSIM/130X_mcRun3_2022_realistic_postEE_v6-v3/50000/278d082b-a830-4a0e-ab6d-bdfe44c2e3ec.root
/store/mc/Run3Summer22EENanoAODv12/DYto2L-2Jets_MLL-50_PTLL-100to200_2J_TuneCP5_13p6TeV_amcatnloFXFX-pythia8/NANOAODSIM/130X_mcRun3_2022_realistic_postEE_v6-v3/50000/e6aa08d1-7a5c-4157-b6b9-30ba84c649e5.root
/store/mc/Run3Summer22EENanoAODv12/DYto2L-2Jets_MLL-50_PTLL-100to200_2J_TuneCP5_13p6TeV_amcatnloFXFX-pythia8/NANOAODSIM/130X_mcRun3_2022_realistic_postEE_v6-v3/50000/b92a82f7-4eda-41df-b8a4-a2c4ae3918af.root
/store/mc/Run3Summer22EENanoAODv12/DYto2L-2Jets_MLL-50_PTLL-100to200_2J_TuneCP5_13p6TeV_amcatnloFXFX-pythia8/NANOAODSIM/130X_mcRun3_2022_realistic_postEE_v6-v3/50000/6a235af5-c9d3-4318-9c79-7db21ba262c9.root
/store/mc/Run3Summer22EENanoAODv12/DYto2L-2Jets_MLL-50_PTLL-100to200_2J_TuneCP5_13p6TeV_amcatnloFXFX-pythia8/NANOAODSIM/130X_mcRun3_2022_realistic_postEE_v6-v3/50000/316ec5d5-f329-4f9b-a426-522ec19b9292.root
/store/mc/Run3Summer22EENanoAODv12/DYto2L-2Jets_MLL-50_PTLL-100to200_2J_TuneCP5_13p6TeV_amcatnloFXFX-pythia8/NANOAODSIM/130X_mcRun3_2022_realistic_postEE_v6-v3/50000/57f60ba3-0c16-469d-bd15-1aebef9a94a8.root
/store/mc/Run3Summer22EENanoAODv12/DYto2L-2Jets_MLL-50_PTLL-100to200_2J_TuneCP5_13p6TeV_amcatnloFXFX-pythia8/NANOAODSIM/130X_mcRun3_2022_realistic_postEE_v6-v3/50000/5b8c97b2-1500-4eb2-82a1-497d5b3142d0.root
/store/mc/Run3Summer22EENanoAODv12/DYto2L-2Jets_MLL-50_PTLL-100to200_2J_TuneCP5_13p6TeV_amcatnloFXFX-pythia8/NANOAODSIM/130X_mcRun3_2022_realistic_postEE_v6-v3/50000/8fe6dcc3-89dc-4a49-b8b1-b6680d6f04a1.root
/store/mc/Run3Summer22EENanoAODv12/DYto2L-2Jets_MLL-50_PTLL-100to200_2J_TuneCP5_13p6TeV_amcatnloFXFX-pythia8/NANOAODSIM/130X_mcRun3_2022_realistic_postEE_v6-v3/50000/e9295251-de07-4166-9565-77aba8d2ec42.root
/store/mc/Run3Summer22EENanoAODv12/DYto2L-2Jets_MLL-50_PTLL-100to200_2J_TuneCP5_13p6TeV_amcatnloFXFX-pythia8/NANOAODSIM/130X_mcRun3_2022_realistic_postEE_v6-v3/50000/c1a4a894-357c-4529-acc5-58fb1bf76045.root
/store/mc/Run3Summer22EENanoAODv12/DYto2L-2Jets_MLL-50_PTLL-100to200_2J_TuneCP5_13p6TeV_amcatnloFXFX-pythia8/NANOAODSIM/130X_mcRun3_2022_realistic_postEE_v6-v3/50000/7c9e8667-9c2e-42bc-bea6-5d3da0c4ded6.root
/store/mc/Run3Summer22EENanoAODv12/DYto2L-2Jets_MLL-50_PTLL-100to200_2J_TuneCP5_13p6TeV_amcatnloFXFX-pythia8/NANOAODSIM/130X_mcRun3_2022_realistic_postEE_v6-v3/50000/d1d2fa0a-b596-4d4d-89fc-f94d13f1180b.root
/store/mc/Run3Summer22EENanoAODv12/DYto2L-2Jets_MLL-50_PTLL-100to200_2J_TuneCP5_13p6TeV_amcatnloFXFX-pythia8/NANOAODSIM/130X_mcRun3_2022_realistic_postEE_v6-v3/50000/fbdad0d2-f127-4362-96fd-7607ca971ed7.root
/store/mc/Run3Summer22EENanoAODv12/DYto2L-2Jets_MLL-50_PTLL-100to200_2J_TuneCP5_13p6TeV_amcatnloFXFX-pythia8/NANOAODSIM/130X_mcRun3_2022_realistic_postEE_v6-v3/50000/4ca6f878-0126-4e24-96d2-6d6ed35c6e4c.root
/store/mc/Run3Summer22EENanoAODv12/DYto2L-2Jets_MLL-50_PTLL-100to200_2J_TuneCP5_13p6TeV_amcatnloFXFX-pythia8/NANOAODSIM/130X_mcRun3_2022_realistic_postEE_v6-v3/50000/df359f45-08c2-45f9-9c04-ad35d80246bb.root
/store/mc/Run3Summer22EENanoAODv12/DYto2L-2Jets_MLL-50_PTLL-100to200_2J_TuneCP5_13p6TeV_amcatnloFXFX-pythia8/NANOAODSIM/130X_mcRun3_2022_realistic_postEE_v6-v3/50000/90204f30-e76d-4b21-8ed7-9dc8bf7630cc.root
/store/mc/Run3Summer22EENanoAODv12/DYto2L-2Jets_MLL-50_PTLL-100to200_2J_TuneCP5_13p6TeV_amcatnloFXFX-pythia8/NANOAODSIM/130X_mcRun3_2022_realistic_postEE_v6-v3/50000/ea7ea4bb-62a9-4994-90ea-9b5061409434.root
/store/mc/Run3Summer22EENanoAODv12/DYto2L-2Jets_MLL-50_PTLL-100to200_2J_TuneCP5_13p6TeV_amcatnloFXFX-pythia8/NANOAODSIM/130X_mcRun3_2022_realistic_postEE_v6-v3/50000/7faab07e-c1db-4ecf-b64a-fa52a2a5b811.root
/store/mc/Run3Summer22EENanoAODv12/DYto2L-2Jets_MLL-50_PTLL-100to200_2J_TuneCP5_13p6TeV_amcatnloFXFX-pythia8/NANOAODSIM/130X_mcRun3_2022_realistic_postEE_v6-v3/80000/f1e6db11-0bee-4c3c-a6b9-90fabb006af2.root
/store/mc/Run3Summer22EENanoAODv12/DYto2L-2Jets_MLL-50_PTLL-100to200_2J_TuneCP5_13p6TeV_amcatnloFXFX-pythia8/NANOAODSIM/130X_mcRun3_2022_realistic_postEE_v6-v3/80000/75caa1f4-a0f0-49f9-a9ad-b4e02e6d0dd1.root
/store/mc/Run3Summer22EENanoAODv12/DYto2L-2Jets_MLL-50_PTLL-100to200_2J_TuneCP5_13p6TeV_amcatnloFXFX-pythia8/NANOAODSIM/130X_mcRun3_2022_realistic_postEE_v6-v3/80000/73468f99-3ef8-4c8f-8dbf-becca4c58d46.root
/store/mc/Run3Summer22EENanoAODv12/DYto2L-2Jets_MLL-50_PTLL-100to200_2J_TuneCP5_13p6TeV_amcatnloFXFX-pythia8/NANOAODSIM/130X_mcRun3_2022_realistic_postEE_v6-v3/80000/ad247f63-7d4a-4fce-b7b6-b1a879077af5.root
/store/mc/Run3Summer22EENanoAODv12/DYto2L-2Jets_MLL-50_PTLL-100to200_2J_TuneCP5_13p6TeV_amcatnloFXFX-pythia8/NANOAODSIM/130X_mcRun3_2022_realistic_postEE_v6-v3/80000/bd88a117-988c-47b4-80e0-149e9ab04109.root
/store/mc/Run3Summer22EENanoAODv12/DYto2L-2Jets_MLL-50_PTLL-100to200_2J_TuneCP5_13p6TeV_amcatnloFXFX-pythia8/NANOAODSIM/130X_mcRun3_2022_realistic_postEE_v6-v3/80000/2954a8f7-3423-4598-871f-7ef438c902e3.root
/store/mc/Run3Summer22EENanoAODv12/DYto2L-2Jets_MLL-50_PTLL-100to200_2J_TuneCP5_13p6TeV_amcatnloFXFX-pythia8/NANOAODSIM/130X_mcRun3_2022_realistic_postEE_v6-v3/80000/3062fd7d-6ec1-49f4-984a-1f31a3d43372.root
/store/mc/Run3Summer22EENanoAODv12/DYto2L-2Jets_MLL-50_PTLL-100to200_2J_TuneCP5_13p6TeV_amcatnloFXFX-pythia8/NANOAODSIM/130X_mcRun3_2022_realistic_postEE_v6-v3/50000/51c8fe58-645b-410b-bfd5-ff53bd207d10.root
/store/mc/Run3Summer22EENanoAODv12/DYto2L-2Jets_MLL-50_PTLL-100to200_2J_TuneCP5_13p6TeV_amcatnloFXFX-pythia8/NANOAODSIM/130X_mcRun3_2022_realistic_postEE_v6-v3/50000/6949aec2-bb0e-452e-bf7d-2b66b39c77d2.root
/store/mc/Run3Summer22EENanoAODv12/DYto2L-2Jets_MLL-50_PTLL-100to200_2J_TuneCP5_13p6TeV_amcatnloFXFX-pythia8/NANOAODSIM/130X_mcRun3_2022_realistic_postEE_v6-v3/50000/49710bb8-ff20-448f-bd59-45b5e3fae98c.root
/store/mc/Run3Summer22EENanoAODv12/DYto2L-2Jets_MLL-50_PTLL-100to200_2J_TuneCP5_13p6TeV_amcatnloFXFX-pythia8/NANOAODSIM/130X_mcRun3_2022_realistic_postEE_v6-v3/50000/d5fc8588-753e-457c-b0d5-16b6622c3f69.root
/store/mc/Run3Summer22EENanoAODv12/DYto2L-2Jets_MLL-50_PTLL-100to200_2J_TuneCP5_13p6TeV_amcatnloFXFX-pythia8/NANOAODSIM/130X_mcRun3_2022_realistic_postEE_v6-v3/50000/b651a49c-70ae-4aa8-874f-e1d51444d366.root
/store/mc/Run3Summer22EENanoAODv12/DYto2L-2Jets_MLL-50_PTLL-100to200_2J_TuneCP5_13p6TeV_amcatnloFXFX-pythia8/NANOAODSIM/130X_mcRun3_2022_realistic_postEE_v6-v3/50000/bc215b9e-ac0b-4a5a-b41f-fd615e2f1cc0.root
/store/mc/Run3Summer22EENanoAODv12/DYto2L-2Jets_MLL-50_PTLL-100to200_2J_TuneCP5_13p6TeV_amcatnloFXFX-pythia8/NANOAODSIM/130X_mcRun3_2022_realistic_postEE_v6-v3/80000/10c1c1c4-eaad-44ab-9415-ebddcf537555.root
/store/mc/Run3Summer22EENanoAODv12/DYto2L-2Jets_MLL-50_PTLL-100to200_2J_TuneCP5_13p6TeV_amcatnloFXFX-pythia8/NANOAODSIM/130X_mcRun3_2022_realistic_postEE_v6-v3/80000/7adc41d5-78ef-4c7e-996d-d7e9dbe86a67.root
/store/mc/Run3Summer22EENanoAODv12/DYto2L-2Jets_MLL-50_PTLL-100to200_2J_TuneCP5_13p6TeV_amcatnloFXFX-pythia8/NANOAODSIM/130X_mcRun3_2022_realistic_postEE_v6-v3/80000/41dac98e-82fd-4d21-bf5b-7d0f425b6dcc.root
/store/mc/Run3Summer22EENanoAODv12/DYto2L-2Jets_MLL-50_PTLL-100to200_2J_TuneCP5_13p6TeV_amcatnloFXFX-pythia8/NANOAODSIM/130X_mcRun3_2022_realistic_postEE_v6-v3/80000/d55dc2b7-ea0e-4366-a035-4881e1c0f383.root
/store/mc/Run3Summer22EENanoAODv12/DYto2L-2Jets_MLL-50_PTLL-100to200_2J_TuneCP5_13p6TeV_amcatnloFXFX-pythia8/NANOAODSIM/130X_mcRun3_2022_realistic_postEE_v6-v3/50000/b538deaa-87be-4ee7-a9b3-7f34f9ccba44.root
/store/mc/Run3Summer22EENanoAODv12/DYto2L-2Jets_MLL-50_PTLL-100to200_2J_TuneCP5_13p6TeV_amcatnloFXFX-pythia8/NANOAODSIM/130X_mcRun3_2022_realistic_postEE_v6-v3/50000/6c5cb0b5-95e9-43bc-aea3-e242e89cb50b.root
/store/mc/Run3Summer22EENanoAODv12/DYto2L-2Jets_MLL-50_PTLL-100to200_2J_TuneCP5_13p6TeV_amcatnloFXFX-pythia8/NANOAODSIM/130X_mcRun3_2022_realistic_postEE_v6-v3/50000/61577c15-8c79-4dde-9fea-293ee3a59e4a.root
/store/mc/Run3Summer22EENanoAODv12/DYto2L-2Jets_MLL-50_PTLL-100to200_2J_TuneCP5_13p6TeV_amcatnloFXFX-pythia8/NANOAODSIM/130X_mcRun3_2022_realistic_postEE_v6-v3/50000/cee2d3d1-727c-4903-bf38-be0f8c85f37e.root
/store/mc/Run3Summer22EENanoAODv12/DYto2L-2Jets_MLL-50_PTLL-100to200_2J_TuneCP5_13p6TeV_amcatnloFXFX-pythia8/NANOAODSIM/130X_mcRun3_2022_realistic_postEE_v6-v3/50000/11e6cf9e-89d6-42dc-a4c6-42da563617c0.root
/store/mc/Run3Summer22EENanoAODv12/DYto2L-2Jets_MLL-50_PTLL-100to200_2J_TuneCP5_13p6TeV_amcatnloFXFX-pythia8/NANOAODSIM/130X_mcRun3_2022_realistic_postEE_v6-v3/50000/1fd0c9a9-22e0-4dc1-a9b9-7abd3f563292.root
/store/mc/Run3Summer22EENanoAODv12/DYto2L-2Jets_MLL-50_PTLL-100to200_2J_TuneCP5_13p6TeV_amcatnloFXFX-pythia8/NANOAODSIM/130X_mcRun3_2022_realistic_postEE_v6-v3/50000/9356b7c7-8ba2-4058-9bf1-9278b58cc598.root
/store/mc/Run3Summer22EENanoAODv12/DYto2L-2Jets_MLL-50_PTLL-100to200_2J_TuneCP5_13p6TeV_amcatnloFXFX-pythia8/NANOAODSIM/130X_mcRun3_2022_realistic_postEE_v6-v3/50000/dc9b8477-99f5-4308-8356-ded0e23a74e4.root
/store/mc/Run3Summer22EENanoAODv12/DYto2L-2Jets_MLL-50_PTLL-100to200_2J_TuneCP5_13p6TeV_amcatnloFXFX-pythia8/NANOAODSIM/130X_mcRun3_2022_realistic_postEE_v6-v3/50000/6cc036bd-2ad2-4817-b473-a021485a03dc.root