/store/data/Run2022E/EGamma/NANOAOD/22Sep2023-v1/50000/a2c2a0c9-b83e-4e96-b9e0-4ee52b136d86.root
/store/data/Run2022E/EGamma/NANOAOD/22Sep2023-v1/50000/1ffc3233-81fd-4bc4-8525-40167aa5a6da.root
/store/data/Run2022E/EGamma/NANOAOD/22Sep2023-v1/2530000/bdccd72c-3140-4961-b653-cf89c695d3fb.root
/store/data/Run2022E/EGamma/NANOAOD/22Sep2023-v1/2530000/9f90369a-23f0-4e86-853b-abf02e50ab8d.root
/store/data/Run2022E/EGamma/NANOAOD/22Sep2023-v1/2530000/d1b6ed6f-2162-4a4f-9a99-7eb5d742ca6b.root
/store/data/Run2022E/EGamma/NANOAOD/22Sep2023-v1/2530000/b018bba0-3871-4fc3-85c2-31db4e0b8341.root
/store/data/Run2022E/EGamma/NANOAOD/22Sep2023-v1/2530000/8ec3ca0d-d49d-403c-a295-1d38073cfc2c.root
/store/data/Run2022E/EGamma/NANOAOD/22Sep2023-v1/2530000/c8cd4b1f-904e-4663-844d-ee73938596a6.root
/store/data/Run2022E/EGamma/NANOAOD/22Sep2023-v1/2530000/749184a1-8f88-4227-b2b5-1a31a09edc04.root
/store/data/Run2022E/EGamma/NANOAOD/22Sep2023-v1/2530000/2e99c9eb-fd9c-40b3-a142-cd39cdadc440.root
/store/data/Run2022E/EGamma/NANOAOD/22Sep2023-v1/2530000/bc5df632-08b5-495b-a91a-e379398a51d5.root
/store/data/Run2022E/EGamma/NANOAOD/22Sep2023-v1/2530000/239f4904-c29d-43ab-af33-70c8c34ecb06.root
/store/data/Run2022E/EGamma/NANOAOD/22Sep2023-v1/2530000/606dea97-a7d8-4c03-a41d-f2cb26272175.root
/store/data/Run2022E/EGamma/NANOAOD/22Sep2023-v1/2530000/fac4a564-84ef-43ff-85bf-f3f03cd3e493.root
/store/data/Run2022E/EGamma/NANOAOD/22Sep2023-v1/2530000/4d70dd95-7261-4bcc-b192-481a6a173231.root
/store/data/Run2022E/EGamma/NANOAOD/22Sep2023-v1/2530000/8513ec94-76a4-47cb-aafb-f12fca67cc9a.root
/store/data/Run2022E/EGamma/NANOAOD/22Sep2023-v1/2530000/a983255a-57c5-428d-b037-7dab088434b5.root
/store/data/Run2022E/EGamma/NANOAOD/22Sep2023-v1/2530000/040ef6e1-54fa-4138-bb9a-0ac41ec02bd1.root
/store/data/Run2022E/EGamma/NANOAOD/22Sep2023-v1/2530000/fbd052c8-f0f0-4fb0-ac13-6aa1aa817265.root
/store/data/Run2022E/EGamma/NANOAOD/22Sep2023-v1/2530000/20fe274b-2c24-40ac-b9dc-adecca1bdaee.root
/store/data/Run2022E/EGamma/NANOAOD/22Sep2023-v1/2530000/3fcfc810-32bb-457c-8747-de6dabaa458f.root
/store/data/Run2022E/EGamma/NANOAOD/22Sep2023-v1/2530000/77383a52-75ec-4719-9c6b-d712dc1a6a9f.root
/store/data/Run2022E/EGamma/NANOAOD/22Sep2023-v1/2530000/fa746ab6-41b6-439e-b632-5d8f0eff101a.root
/store/data/Run2022E/EGamma/NANOAOD/22Sep2023-v1/2530000/28552da7-31ec-4ffe-92b2-2f250b52a44b.root
/store/data/Run2022E/EGamma/NANOAOD/22Sep2023-v1/2530000/ebaab646-0d8a-4f0c-9e75-344cc1d197c0.root
/store/data/Run2022E/EGamma/NANOAOD/22Sep2023-v1/2530000/7965d679-3726-4318-b0e2-54649419fbaf.root
/store/data/Run2022E/EGamma/NANOAOD/22Sep2023-v1/2530000/da3e0bf3-bc55-4f6a-982f-1159807feb28.root
/store/data/Run2022E/EGamma/NANOAOD/22Sep2023-v1/2530000/eb3c8b38-adf1-4974-a0e6-bc1b47f59477.root
/store/data/Run2022E/EGamma/NANOAOD/22Sep2023-v1/2530000/67d46e17-df73-4397-91d6-9753f6252093.root
/store/data/Run2022E/EGamma/NANOAOD/22Sep2023-v1/2530000/4f0efef4-f85c-4778-b720-4d7b1267f5bb.root
/store/data/Run2022E/EGamma/NANOAOD/22Sep2023-v1/2530000/39193ae2-3288-4dee-b984-3bd87d72dbe9.root
/store/data/Run2022E/EGamma/NANOAOD/22Sep2023-v1/2530000/af574291-9944-4260-ae15-1a6ecd308a2f.root
/store/data/Run2022E/EGamma/NANOAOD/22Sep2023-v1/2530000/565c5655-cff3-404d-ae0c-de1f40fa82d6.root
/store/data/Run2022E/EGamma/NANOAOD/22Sep2023-v1/2530000/d4e651ab-28a9-40ed-be38-b9a572b62f42.root
/store/data/Run2022E/EGamma/NANOAOD/22Sep2023-v1/2530000/e4123ffd-5043-4727-a08d-9df2d4af875f.root
/store/data/Run2022E/EGamma/NANOAOD/22Sep2023-v1/2530000/e8cb5d08-8c02-4ce9-8888-94447421b76d.root
/store/data/Run2022E/EGamma/NANOAOD/22Sep2023-v1/2530000/1614e049-8ce0-45bc-9015-e63c33caa61f.root
/store/data/Run2022E/EGamma/NANOAOD/22Sep2023-v1/2530000/0aabaca2-6c3b-4004-a514-17d204532883.root
/store/data/Run2022E/EGamma/NANOAOD/22Sep2023-v1/2530000/270af0f2-fcb1-4cc3-9efe-0fd9170334d8.root
/store/data/Run2022E/EGamma/NANOAOD/22Sep2023-v1/2530000/ff8385b4-a4f8-4638-a57d-85f5ef39a66d.root
/store/data/Run2022E/EGamma/NANOAOD/22Sep2023-v1/2530000/0ad6145f-3ac6-477c-88c4-97900e7c410b.root
/store/data/Run2022E/EGamma/NANOAOD/22Sep2023-v1/2530000/85a04762-0b7b-428d-9a74-628ca2034765.root
/store/data/Run2022E/EGamma/NANOAOD/22Sep2023-v1/2530000/17918b9f-f192-47b0-94d3-4de49b05b537.root
/store/data/Run2022E/EGamma/NANOAOD/22Sep2023-v1/2530000/35216f66-eb6e-49ce-8673-7c5f930589f7.root
/store/data/Run2022E/EGamma/NANOAOD/22Sep2023-v1/2530000/e51a3f1b-a1f1-40d6-bbdf-70dd9c12947e.root
/store/data/Run2022E/EGamma/NANOAOD/22Sep2023-v1/2530000/6f2cafc2-0133-46f1-9092-945b3fe2733b.root
/store/data/Run2022E/EGamma/NANOAOD/22Sep2023-v1/2530000/f8b5db25-5e92-47e6-8587-85b812064d25.root
/store/data/Run2022E/EGamma/NANOAOD/22Sep2023-v1/2530000/b19c0330-0e8b-44ff-a21e-284838b2d7d8.root
/store/data/Run2022E/EGamma/NANOAOD/22Sep2023-v1/2530000/87d04d37-0f12-41cb-aa39-99111c8c2bb4.root
/store/data/Run2022E/EGamma/NANOAOD/22Sep2023-v1/2530000/13b8b6ff-3f66-4071-a4a4-f282e2635213.root
/store/data/Run2022E/EGamma/NANOAOD/22Sep2023-v1/2530000/904dff2a-3b59-4c85-b350-453c54e37f5e.root
/store/data/Run2022E/EGamma/NANOAOD/22Sep2023-v1/2530000/940c2078-cae0-445e-ba1e-e0262094a52e.root
/store/data/Run2022E/EGamma/NANOAOD/22Sep2023-v1/2530000/9d77fa0b-8002-48d2-b4aa-d7131393c077.root
/store/data/Run2022E/EGamma/NANOAOD/22Sep2023-v1/2530000/d249ca4a-cc92-4145-b637-e433bf6014b2.root
/store/data/Run2022E/EGamma/NANOAOD/22Sep2023-v1/2530000/a7f3b73c-4f75-46df-97dc-98ffdd467533.root
/store/data/Run2022E/EGamma/NANOAOD/22Sep2023-v1/2530000/baaf7f45-c937-4801-93e9-83e18e1a4777.root
/store/data/Run2022E/EGamma/NANOAOD/22Sep2023-v1/2530000/6735af14-bffb-479f-b1f3-c1fefbe6e82a.root
/store/data/Run2022E/EGamma/NANOAOD/22Sep2023-v1/2530000/427c98a7-3b00-40de-bd93-92c39d475e7f.root
/store/data/Run2022E/EGamma/NANOAOD/22Sep2023-v1/2530000/52a6538e-e3e0-40d6-b6b7-5305586107ee.root
/store/data/Run2022E/EGamma/NANOAOD/22Sep2023-v1/2530000/56a71d01-13c4-4888-a1b4-38143b125269.root
/store/data/Run2022E/EGamma/NANOAOD/22Sep2023-v1/2530000/7b73e6dd-0dfd-4308-bd26-95d1d8f1b55a.root
/store/data/Run2022E/EGamma/NANOAOD/22Sep2023-v1/2530000/fa2ba6df-eac8-4ba0-8bca-377f68f494a8.root
/store/data/Run2022E/EGamma/NANOAOD/22Sep2023-v1/2530000/fabf483b-fb8e-40a9-9db6-ef764c09e87d.root
/store/data/Run2022E/EGamma/NANOAOD/22Sep2023-v1/2530000/ae204ea8-5329-4c66-ae95-48988908d2c0.root
/store/data/Run2022E/EGamma/NANOAOD/22Sep2023-v1/2530000/b167a985-711e-424f-9f0c-9eebdd638e06.root
/store/data/Run2022E/EGamma/NANOAOD/22Sep2023-v1/2530000/5624e4a1-8d93-41ad-83e2-88955482c847.root
/store/data/Run2022E/EGamma/NANOAOD/22Sep2023-v1/2530000/ad943a05-b6f7-47c0-a042-036a77d0a113.root
/store/data/Run2022E/EGamma/NANOAOD/22Sep2023-v1/2530000/77bf7655-ca72-44aa-aed3-52a47ed0c6b7.root
/store/data/Run2022E/EGamma/NANOAOD/22Sep2023-v1/2530000/9aa3b9e6-545e-4f7b-b1e5-0c12e5b6ffe1.root
/store/data/Run2022E/EGamma/NANOAOD/22Sep2023-v1/2530000/110f80fb-ab73-421c-afa3-4d33f3052761.root
/store/data/Run2022E/EGamma/NANOAOD/22Sep2023-v1/2530000/d5336f4b-1409-43e2-9acd-0ee03fddc3e3.root
/store/data/Run2022E/EGamma/NANOAOD/22Sep2023-v1/2530000/3d0aade7-d6ce-4378-9476-1f697fb3d420.root
/store/data/Run2022E/EGamma/NANOAOD/22Sep2023-v1/2530000/2be1f04c-77ea-4160-a2f1-f8e0d0c35380.root
/store/data/Run2022E/EGamma/NANOAOD/22Sep2023-v1/2530000/c6f045f3-cc8c-4aa7-a3b8-415207b7d238.root
/store/data/Run2022E/EGamma/NANOAOD/22Sep2023-v1/2530000/502fc23a-085f-450f-9a5f-82a8b912e6bb.root
/store/data/Run2022E/EGamma/NANOAOD/22Sep2023-v1/2530000/f5b4f5ee-5496-444a-9101-4f8ad1f0c69e.root
/store/data/Run2022E/EGamma/NANOAOD/22Sep2023-v1/2530000/7b1d396d-e102-4a48-a194-783776b26c55.root
/store/data/Run2022E/EGamma/NANOAOD/22Sep2023-v1/2530000/1182df96-5154-4194-b230-0acbcac4db8b.root
/store/data/Run2022E/EGamma/NANOAOD/22Sep2023-v1/2530000/37b228b9-c6fd-445b-959f-ded14eb992e4.root
/store/data/Run2022E/EGamma/NANOAOD/22Sep2023-v1/2530000/096eb5f9-d1ce-40f7-a2d2-9cbc1d14c0a5.root
/store/data/Run2022E/EGamma/NANOAOD/22Sep2023-v1/2530000/e3f9adf4-9e8f-4de8-81d3-ab58dde8d828.root
/store/data/Run2022E/EGamma/NANOAOD/22Sep2023-v1/2530000/7fb446c1-5c4b-4d64-b101-1179feff3215.root
/store/data/Run2022E/EGamma/NANOAOD/22Sep2023-v1/2530000/0900e874-435c-4ac1-aa69-dd6a5eff46c7.root
/store/data/Run2022E/EGamma/NANOAOD/22Sep2023-v1/2530000/880cb191-2785-4e70-942f-517e498ab1c6.root
/store/data/Run2022E/EGamma/NANOAOD/22Sep2023-v1/2530000/3ec82051-00b0-4864-8095-056bba4fec93.root
/store/data/Run2022E/EGamma/NANOAOD/22Sep2023-v1/2530000/b00cfc0b-0981-4b1e-87ab-094abb4498c1.root
/store/data/Run2022E/EGamma/NANOAOD/22Sep2023-v1/2530000/4a86ee8a-5863-498f-9989-bc24a81993cb.root
/store/data/Run2022E/EGamma/NANOAOD/22Sep2023-v1/2530000/ba03b93b-a691-448e-8097-e83f12f790c3.root
/store/data/Run2022E/EGamma/NANOAOD/22Sep2023-v1/2530000/85f83dbd-f1b1-48e2-a817-825f6a8bb312.root
/store/data/Run2022E/EGamma/NANOAOD/22Sep2023-v1/2530000/dda9dc0d-6888-4744-8dc6-83b9580523af.root
/store/data/Run2022E/EGamma/NANOAOD/22Sep2023-v1/2530000/adb13e89-47d6-4c22-9a36-d8d3e21f6f83.root
/store/data/Run2022E/EGamma/NANOAOD/22Sep2023-v1/2530000/67d8e108-7563-4d7e-b9fe-ea65b46bad1d.root
/store/data/Run2022E/EGamma/NANOAOD/22Sep2023-v1/2530000/79db4c07-0987-41a3-9c5c-69e5c93ddda3.root
/store/data/Run2022E/EGamma/NANOAOD/22Sep2023-v1/2530000/546ba352-a949-4b95-818d-3df9f82616c7.root
/store/data/Run2022E/EGamma/NANOAOD/22Sep2023-v1/2530000/07d41d45-cd6d-459b-833b-0d61e9def71d.root
/store/data/Run2022E/EGamma/NANOAOD/22Sep2023-v1/2530000/2e8412ee-3c80-414a-a45e-52ca27bcd3b1.root
/store/data/Run2022E/EGamma/NANOAOD/22Sep2023-v1/2530000/013fae71-8df1-453c-a114-d3e8cd9965d6.root
/store/data/Run2022E/EGamma/NANOAOD/22Sep2023-v1/2530000/791ced3c-02df-4d20-86a6-2e1acfd7a698.root
/store/data/Run2022E/EGamma/NANOAOD/22Sep2023-v1/2530000/4d9ca383-e1f1-46a1-921e-8450019464fd.root
/store/data/Run2022E/EGamma/NANOAOD/22Sep2023-v1/2530000/0aa4b751-1a1d-4792-a4fd-62c64741a905.root
/store/data/Run2022E/EGamma/NANOAOD/22Sep2023-v1/2530000/a7bac341-31d8-4308-8521-b17112065480.root
/store/data/Run2022E/EGamma/NANOAOD/22Sep2023-v1/2530000/51cac6f0-3fb2-46d8-98a4-56e928022413.root
/store/data/Run2022E/EGamma/NANOAOD/22Sep2023-v1/2530000/e67a5fe5-eef6-4e37-b843-a1802932a123.root
/store/data/Run2022E/EGamma/NANOAOD/22Sep2023-v1/2530000/5b640d96-e2b6-47c8-b50d-63d122209b6f.root
/store/data/Run2022E/EGamma/NANOAOD/22Sep2023-v1/2530000/fdbb4bbb-c5d5-4ecf-857d-f5e267c0945f.root
/store/data/Run2022E/EGamma/NANOAOD/22Sep2023-v1/2530000/ca909460-501d-4219-900e-e9d8287c1713.root
/store/data/Run2022E/EGamma/NANOAOD/22Sep2023-v1/2530000/5cfbacd0-a8d7-48fb-9a0d-e9dee89e2f2b.root
/store/data/Run2022E/EGamma/NANOAOD/22Sep2023-v1/2530000/a8364f76-f99f-4c9d-9156-b9e88cb9d07a.root
/store/data/Run2022E/EGamma/NANOAOD/22Sep2023-v1/2530000/c8cbdf65-ccac-4038-b137-07f3893eefa2.root
/store/data/Run2022E/EGamma/NANOAOD/22Sep2023-v1/2530000/d1f9079c-960e-4f24-a199-03f0d2739c09.root
/store/data/Run2022E/EGamma/NANOAOD/22Sep2023-v1/2530000/4ec39508-6bea-465a-a03d-2232998f2d9a.root
/store/data/Run2022E/EGamma/NANOAOD/22Sep2023-v1/2530000/8208a87b-6e44-4678-8055-f4ee82708d3f.root
/store/data/Run2022E/EGamma/NANOAOD/22Sep2023-v1/2530000/597dd2cd-105f-4452-b150-c01f38c7dc3b.root
/store/data/Run2022E/EGamma/NANOAOD/22Sep2023-v1/2530000/e0f8c3da-383f-4fc9-82b4-645a1b525d52.root
/store/data/Run2022E/EGamma/NANOAOD/22Sep2023-v1/2530000/cb5d90d8-e32f-4b7f-8e96-bc3c15f1e64c.root
/store/data/Run2022E/EGamma/NANOAOD/22Sep2023-v1/2530000/ac501527-f9c9-4265-ae9d-40e05965daf8.root
/store/data/Run2022E/EGamma/NANOAOD/22Sep2023-v1/2530000/1317d80e-1adb-4dae-8ba9-95511015394d.root
/store/data/Run2022E/EGamma/NANOAOD/22Sep2023-v1/2530000/da1f14d6-fc81-4b6a-a3bb-b1f092db6e5e.root
/store/data/Run2022E/EGamma/NANOAOD/22Sep2023-v1/2530000/0d8d5a7a-e492-4c37-83f9-8ee9486cb2ce.root
/store/data/Run2022E/EGamma/NANOAOD/22Sep2023-v1/2530000/008cc478-10d4-44f3-8d43-0ccb76f23672.root
/store/data/Run2022E/EGamma/NANOAOD/22Sep2023-v1/2530000/829a1def-fd5d-4a89-a04f-dd9449239421.root
/store/data/Run2022E/EGamma/NANOAOD/22Sep2023-v1/2530000/cba38044-e9b8-4e2e-ae87-aed0ba063e21.root
/store/data/Run2022E/EGamma/NANOAOD/22Sep2023-v1/2530000/79389f87-4568-45c3-ab4c-140b332e6de9.root
/store/data/Run2022E/EGamma/NANOAOD/22Sep2023-v1/2530000/334e1316-b9e1-42cb-942c-78a8ab135acf.root
/store/data/Run2022E/EGamma/NANOAOD/22Sep2023-v1/2530000/c8b7091e-29e6-48a5-b464-baed0466b908.root
/store/data/Run2022E/EGamma/NANOAOD/22Sep2023-v1/2530000/a3e3bf10-1abf-4873-81c2-ee7f1137201e.root
/store/data/Run2022E/EGamma/NANOAOD/22Sep2023-v1/2530000/3bcbd7f3-dbfb-4dfd-b4f0-67debc63b03a.root
/store/data/Run2022E/EGamma/NANOAOD/22Sep2023-v1/2530000/8dc88ecd-82fc-45c6-b36c-6fdb5ebe4c65.root
/store/data/Run2022E/EGamma/NANOAOD/22Sep2023-v1/2530000/9229dcfd-6da2-4289-ae8b-db97c141d826.root
/store/data/Run2022E/EGamma/NANOAOD/22Sep2023-v1/2530000/7405a438-2797-4f96-9071-01e6defc962c.root
/store/data/Run2022E/EGamma/NANOAOD/22Sep2023-v1/2530000/b64a24b3-eb3b-437e-9a67-ed5a85bde3c2.root
/store/data/Run2022E/EGamma/NANOAOD/22Sep2023-v1/2530000/6e28eea3-453a-4c85-9f80-559bffb4da0f.root
/store/data/Run2022E/EGamma/NANOAOD/22Sep2023-v1/2530000/6c19ce02-89c6-479c-934e-4d824f200f2f.root
/store/data/Run2022E/EGamma/NANOAOD/22Sep2023-v1/2530000/7e3d6214-2b08-446d-adf4-7f1bd3570bcd.root
/store/data/Run2022E/EGamma/NANOAOD/22Sep2023-v1/2530000/23c43974-6056-4007-a8e0-bcf9b22b756c.root
/store/data/Run2022E/EGamma/NANOAOD/22Sep2023-v1/2530000/3d4f7475-0942-4062-9465-f2bea27713a5.root
/store/data/Run2022E/EGamma/NANOAOD/22Sep2023-v1/2530000/13a3b8e4-61b0-413b-a0a1-cac7ee919200.root
/store/data/Run2022E/EGamma/NANOAOD/22Sep2023-v1/2530000/c866e03f-2fcf-42be-b57e-3dfa6101f33e.root
/store/data/Run2022E/EGamma/NANOAOD/22Sep2023-v1/2530000/91ff6cd9-4c2e-469a-a6e1-00d46fb7d5f5.root
/store/data/Run2022E/EGamma/NANOAOD/22Sep2023-v1/2530000/4c52172e-756a-426f-9db8-ec6f002db696.root
/store/data/Run2022E/EGamma/NANOAOD/22Sep2023-v1/2530000/4cd6866b-e2c9-4e7f-a60f-a12c129b7f47.root
/store/data/Run2022E/EGamma/NANOAOD/22Sep2023-v1/2530000/92bb2704-6dca-41a7-90f0-94cea2fcddd6.root
/store/data/Run2022E/EGamma/NANOAOD/22Sep2023-v1/2530000/f841b32b-2029-41c1-8524-9a2ecf3e1cc5.root
/store/data/Run2022E/EGamma/NANOAOD/22Sep2023-v1/2530000/f9aac341-803d-4b3c-ae0c-cf9f6dcba703.root
/store/data/Run2022E/EGamma/NANOAOD/22Sep2023-v1/2530000/98e94507-11fa-49d8-b77c-18de7d6b1266.root
/store/data/Run2022E/EGamma/NANOAOD/22Sep2023-v1/2530000/02572330-9619-4b72-a1ff-18df5b8812dc.root
/store/data/Run2022E/EGamma/NANOAOD/22Sep2023-v1/2530000/4198f356-1d93-435a-aff0-e7ff7a0f3fa1.root
/store/data/Run2022E/EGamma/NANOAOD/22Sep2023-v1/2530000/19e2203f-a7b8-4cfb-8f0c-f9422496b75a.root
/store/data/Run2022E/EGamma/NANOAOD/22Sep2023-v1/2530000/f2a3ae5d-c463-4c12-9e86-ce4bff179de9.root
/store/data/Run2022E/EGamma/NANOAOD/22Sep2023-v1/2530000/56c4043f-4021-4f5a-b4ca-11480d823618.root
/store/data/Run2022E/EGamma/NANOAOD/22Sep2023-v1/2530000/f9e5b750-57a9-4a3b-9241-1172fbc990bd.root
/store/data/Run2022E/EGamma/NANOAOD/22Sep2023-v1/2530000/1357375e-cb9e-4e55-8718-0a02c3431024.root
/store/data/Run2022E/EGamma/NANOAOD/22Sep2023-v1/2530000/3dfcbfef-3eae-4da4-8187-42437f039299.root
/store/data/Run2022E/EGamma/NANOAOD/22Sep2023-v1/2530000/cc075377-2b8e-4915-adaf-4e038ba1a8a7.root
/store/data/Run2022E/EGamma/NANOAOD/22Sep2023-v1/2530000/f9b3c6ae-aea0-481f-a592-26013b06950b.root
/store/data/Run2022E/EGamma/NANOAOD/22Sep2023-v1/2530000/33bd6d3f-9556-49ba-a2e8-f335ca5c8615.root
/store/data/Run2022E/EGamma/NANOAOD/22Sep2023-v1/2530000/f27593ef-d3f6-47a8-8b98-15c5657d85b6.root
/store/data/Run2022E/EGamma/NANOAOD/22Sep2023-v1/2530000/7532a82e-856e-4150-8627-9506026af87d.root
/store/data/Run2022E/EGamma/NANOAOD/22Sep2023-v1/2530000/6c25bc50-7205-4e2d-933f-d06dd21e6e18.root
/store/data/Run2022E/EGamma/NANOAOD/22Sep2023-v1/2530000/5ff12657-826c-442a-82b9-730ef1ddd2d5.root
/store/data/Run2022E/EGamma/NANOAOD/22Sep2023-v1/2530000/b2c98a4c-2fe2-4e6b-aa25-f04d2926cd6f.root
/store/data/Run2022E/EGamma/NANOAOD/22Sep2023-v1/2530000/f9ae7614-28c4-463c-84dd-12018852edb1.root
/store/data/Run2022E/EGamma/NANOAOD/22Sep2023-v1/2530000/61963ad2-7a0f-49cf-9649-f2d702bb500a.root
/store/data/Run2022E/EGamma/NANOAOD/22Sep2023-v1/2530000/374d38bb-db85-4d35-87d3-583d0a099d90.root
/store/data/Run2022E/EGamma/NANOAOD/22Sep2023-v1/2530000/0baa7142-dfa6-45fa-b5ac-17f280d20013.root
/store/data/Run2022E/EGamma/NANOAOD/22Sep2023-v1/2530000/fe44fa23-b0a5-4c5d-a515-d56e7d101ac5.root
/store/data/Run2022E/EGamma/NANOAOD/22Sep2023-v1/2530000/9b46349d-0512-4ef9-8ff7-f9a7f64f99c3.root
/store/data/Run2022E/EGamma/NANOAOD/22Sep2023-v1/2530000/b42d9b88-b380-40c1-8b1b-a7af0aaa6100.root
/store/data/Run2022E/EGamma/NANOAOD/22Sep2023-v1/2530000/dba062e9-442f-47ad-81fa-7d08ef2dcdcf.root
/store/data/Run2022E/EGamma/NANOAOD/22Sep2023-v1/2530000/03f9c880-464b-418a-b155-d1644b29fd67.root
/store/data/Run2022E/EGamma/NANOAOD/22Sep2023-v1/2530000/c5a32d6a-85d8-48bd-a5cd-29dfacb02005.root
/store/data/Run2022E/EGamma/NANOAOD/22Sep2023-v1/2530000/af15e190-4b3d-4b0b-a436-a764f70d8221.root
/store/data/Run2022E/EGamma/NANOAOD/22Sep2023-v1/2530000/d1b85637-027c-4b6c-94e7-538c91e00033.root
/store/data/Run2022E/EGamma/NANOAOD/22Sep2023-v1/2530000/8b18d980-0cb2-40c6-b078-f83ee3cba39b.root
/store/data/Run2022E/EGamma/NANOAOD/22Sep2023-v1/2530000/1a140fff-e8aa-47c6-9be0-f0bbd10aa3ab.root
/store/data/Run2022E/EGamma/NANOAOD/22Sep2023-v1/2530000/22dfdc60-70ed-4bde-b86e-fcad46cc1f46.root
/store/data/Run2022E/EGamma/NANOAOD/22Sep2023-v1/2530000/5fdb140f-7662-4a40-b465-fbf77715a067.root
/store/data/Run2022E/EGamma/NANOAOD/22Sep2023-v1/2530000/dbe31408-eb51-47be-a78e-68b5c563d711.root
/store/data/Run2022E/EGamma/NANOAOD/22Sep2023-v1/2530000/2863e4ff-1f9c-4c30-bfb3-83553b5b94dc.root
/store/data/Run2022E/EGamma/NANOAOD/22Sep2023-v1/2530000/c423fde1-27b9-4048-917d-ea726752bdfd.root
/store/data/Run2022E/EGamma/NANOAOD/22Sep2023-v1/2530000/770de41b-a1cd-4028-967f-35d2bc631065.root
/store/data/Run2022E/EGamma/NANOAOD/22Sep2023-v1/2530000/7d5d747f-61f5-4462-9f45-3b7911cba24a.root
/store/data/Run2022E/EGamma/NANOAOD/22Sep2023-v1/40000/35a67222-1476-4c9c-9d84-c31e580a5a7b.root
/store/data/Run2022E/EGamma/NANOAOD/22Sep2023-v1/40000/53b0deda-473b-41cb-b8fd-c90ba95dd392.root
/store/data/Run2022E/EGamma/NANOAOD/22Sep2023-v1/40000/7c817ff3-b12a-43fe-8e92-c49c94e376f0.root
/store/data/Run2022E/EGamma/NANOAOD/22Sep2023-v1/40000/4939a46d-6c24-4d4e-9f8c-c4c147ffc70a.root
/store/data/Run2022E/EGamma/NANOAOD/22Sep2023-v1/40000/860df1c7-aaa4-42e2-80ff-7a19b5ca8fd3.root
/store/data/Run2022E/EGamma/NANOAOD/22Sep2023-v1/40000/2c8e1cfa-d8f3-4383-bfea-1791fcc2857a.root