/store/mc/Run3Summer22EENanoAODv12/VBFHHto2B2Tau_CV_1_C2V_1_C3_1_TuneCP5_13p6TeV_madgraph-pythia8/NANOAODSIM/130X_mcRun3_2022_realistic_postEE_v6-v2/2520000/3b46386c-9b52-4731-9224-a38fd7bf3cf8.root
/store/mc/Run3Summer22EENanoAODv12/VBFHHto2B2Tau_CV_1_C2V_1_C3_1_TuneCP5_13p6TeV_madgraph-pythia8/NANOAODSIM/130X_mcRun3_2022_realistic_postEE_v6-v2/2530000/590f2f4f-6813-4ffe-bab5-6818f31192aa.root
/store/mc/Run3Summer22EENanoAODv12/VBFHHto2B2Tau_CV_1_C2V_1_C3_1_TuneCP5_13p6TeV_madgraph-pythia8/NANOAODSIM/130X_mcRun3_2022_realistic_postEE_v6-v2/2530000/ad055d36-4c83-4bf0-acb5-15ca35c4ab75.root
/store/mc/Run3Summer22EENanoAODv12/VBFHHto2B2Tau_CV_1_C2V_1_C3_1_TuneCP5_13p6TeV_madgraph-pythia8/NANOAODSIM/130X_mcRun3_2022_realistic_postEE_v6-v2/2530000/86b2cf7c-0534-4c00-bee6-15ca8df09163.root
/store/mc/Run3Summer22EENanoAODv12/VBFHHto2B2Tau_CV_1_C2V_1_C3_1_TuneCP5_13p6TeV_madgraph-pythia8/NANOAODSIM/130X_mcRun3_2022_realistic_postEE_v6-v2/2530000/af23cbd6-e112-46d5-8b67-481cebe82026.root
/store/mc/Run3Summer22EENanoAODv12/VBFHHto2B2Tau_CV_1_C2V_1_C3_1_TuneCP5_13p6TeV_madgraph-pythia8/NANOAODSIM/130X_mcRun3_2022_realistic_postEE_v6-v2/2530000/065cd558-6847-4644-a053-6469d9b05a95.root
/store/mc/Run3Summer22EENanoAODv12/VBFHHto2B2Tau_CV_1_C2V_1_C3_1_TuneCP5_13p6TeV_madgraph-pythia8/NANOAODSIM/130X_mcRun3_2022_realistic_postEE_v6-v2/2530000/38f39103-cb91-4bb5-91fa-f587c7a94bc9.root
/store/mc/Run3Summer22EENanoAODv12/VBFHHto2B2Tau_CV_1_C2V_1_C3_1_TuneCP5_13p6TeV_madgraph-pythia8/NANOAODSIM/130X_mcRun3_2022_realistic_postEE_v6-v2/2530000/0be5d7a2-e79b-454b-8885-2fabdf388282.root
/store/mc/Run3Summer22EENanoAODv12/VBFHHto2B2Tau_CV_1_C2V_1_C3_1_TuneCP5_13p6TeV_madgraph-pythia8/NANOAODSIM/130X_mcRun3_2022_realistic_postEE_v6-v2/50000/addc9455-cdb8-44c5-a4a8-7b75b5a2331f.root
/store/mc/Run3Summer22EENanoAODv12/VBFHHto2B2Tau_CV_1_C2V_1_C3_1_TuneCP5_13p6TeV_madgraph-pythia8/NANOAODSIM/130X_mcRun3_2022_realistic_postEE_v6-v2/50000/dc0d95ee-e227-4294-9e96-30b84b5cc68f.root
/store/mc/Run3Summer22EENanoAODv12/VBFHHto2B2Tau_CV_1_C2V_1_C3_1_TuneCP5_13p6TeV_madgraph-pythia8/NANOAODSIM/130X_mcRun3_2022_realistic_postEE_v6-v2/30000/d569af8a-07fd-4b61-b52b-e5f300ffb72a.root
/store/mc/Run3Summer22EENanoAODv12/VBFHHto2B2Tau_CV_1_C2V_1_C3_1_TuneCP5_13p6TeV_madgraph-pythia8/NANOAODSIM/130X_mcRun3_2022_realistic_postEE_v6-v2/30000/2b04e78e-5db3-4025-9c43-1af0c69abaf4.root
/store/mc/Run3Summer22EENanoAODv12/VBFHHto2B2Tau_CV_1_C2V_1_C3_1_TuneCP5_13p6TeV_madgraph-pythia8/NANOAODSIM/130X_mcRun3_2022_realistic_postEE_v6-v2/30000/d0d19c65-8f93-42c9-99cb-8dae59604583.root
/store/mc/Run3Summer22EENanoAODv12/VBFHHto2B2Tau_CV_1_C2V_1_C3_1_TuneCP5_13p6TeV_madgraph-pythia8/NANOAODSIM/130X_mcRun3_2022_realistic_postEE_v6-v2/30000/ec37370e-4c3c-435c-961c-d34b8c86916e.root
/store/mc/Run3Summer22EENanoAODv12/VBFHHto2B2Tau_CV_1_C2V_1_C3_1_TuneCP5_13p6TeV_madgraph-pythia8/NANOAODSIM/130X_mcRun3_2022_realistic_postEE_v6-v2/40000/9b091fef-09d0-4a34-a4fe-b5fe2f6b7d22.root
/store/mc/Run3Summer22EENanoAODv12/VBFHHto2B2Tau_CV_1_C2V_1_C3_1_TuneCP5_13p6TeV_madgraph-pythia8/NANOAODSIM/130X_mcRun3_2022_realistic_postEE_v6-v2/30000/55724474-99a7-49f9-acea-b3e0ec06fa03.root
/store/mc/Run3Summer22EENanoAODv12/VBFHHto2B2Tau_CV_1_C2V_1_C3_1_TuneCP5_13p6TeV_madgraph-pythia8/NANOAODSIM/130X_mcRun3_2022_realistic_postEE_v6-v2/40000/a09539d5-f376-4dd3-906a-a6dc73b32f45.root
/store/mc/Run3Summer22EENanoAODv12/VBFHHto2B2Tau_CV_1_C2V_1_C3_1_TuneCP5_13p6TeV_madgraph-pythia8/NANOAODSIM/130X_mcRun3_2022_realistic_postEE_v6-v2/30000/4087b0ab-4996-4508-a756-645e64e780ca.root