/store/mc/Run3Summer22EENanoAODv12/VBFHHto2B2Tau_CV-m0p012_C2V-0p030_C3-10p2_TuneCP5_13p6TeV_madgraph-pythia8/NANOAODSIM/130X_mcRun3_2022_realistic_postEE_v6-v2/2540000/48b829a4-2a5a-4f7f-89dd-fa3cb518e1c4.root
/store/mc/Run3Summer22EENanoAODv12/VBFHHto2B2Tau_CV-m0p012_C2V-0p030_C3-10p2_TuneCP5_13p6TeV_madgraph-pythia8/NANOAODSIM/130X_mcRun3_2022_realistic_postEE_v6-v2/2540000/728ec5a8-ff6e-4179-bfcf-99177eee5863.root
/store/mc/Run3Summer22EENanoAODv12/VBFHHto2B2Tau_CV-m0p012_C2V-0p030_C3-10p2_TuneCP5_13p6TeV_madgraph-pythia8/NANOAODSIM/130X_mcRun3_2022_realistic_postEE_v6-v2/2540000/f427d042-4164-48b0-baa9-a8c9c5592a79.root
/store/mc/Run3Summer22EENanoAODv12/VBFHHto2B2Tau_CV-m0p012_C2V-0p030_C3-10p2_TuneCP5_13p6TeV_madgraph-pythia8/NANOAODSIM/130X_mcRun3_2022_realistic_postEE_v6-v2/2540000/e14559c2-b92a-4f78-866f-e4721ce8a1cb.root
/store/mc/Run3Summer22EENanoAODv12/VBFHHto2B2Tau_CV-m0p012_C2V-0p030_C3-10p2_TuneCP5_13p6TeV_madgraph-pythia8/NANOAODSIM/130X_mcRun3_2022_realistic_postEE_v6-v2/2540000/998f90a4-d155-495e-9130-261f19f41ec8.root
/store/mc/Run3Summer22EENanoAODv12/VBFHHto2B2Tau_CV-m0p012_C2V-0p030_C3-10p2_TuneCP5_13p6TeV_madgraph-pythia8/NANOAODSIM/130X_mcRun3_2022_realistic_postEE_v6-v2/2540000/a4ce214f-ccbe-4f0b-aaa6-72328c3a2d67.root
/store/mc/Run3Summer22EENanoAODv12/VBFHHto2B2Tau_CV-m0p012_C2V-0p030_C3-10p2_TuneCP5_13p6TeV_madgraph-pythia8/NANOAODSIM/130X_mcRun3_2022_realistic_postEE_v6-v2/2540000/83c08223-e1bc-43bd-a5f2-26261f670406.root
/store/mc/Run3Summer22EENanoAODv12/VBFHHto2B2Tau_CV-m0p012_C2V-0p030_C3-10p2_TuneCP5_13p6TeV_madgraph-pythia8/NANOAODSIM/130X_mcRun3_2022_realistic_postEE_v6-v2/2540000/b526bb96-4155-4faf-81e3-40c5e4ae844e.root
/store/mc/Run3Summer22EENanoAODv12/VBFHHto2B2Tau_CV-m0p012_C2V-0p030_C3-10p2_TuneCP5_13p6TeV_madgraph-pythia8/NANOAODSIM/130X_mcRun3_2022_realistic_postEE_v6-v2/2540000/086dfe6e-f18d-40a2-86cd-0b1781b66234.root
/store/mc/Run3Summer22EENanoAODv12/VBFHHto2B2Tau_CV-m0p012_C2V-0p030_C3-10p2_TuneCP5_13p6TeV_madgraph-pythia8/NANOAODSIM/130X_mcRun3_2022_realistic_postEE_v6-v2/2540000/2a464336-be0a-4be4-b0f8-8f54199f252f.root
/store/mc/Run3Summer22EENanoAODv12/VBFHHto2B2Tau_CV-m0p012_C2V-0p030_C3-10p2_TuneCP5_13p6TeV_madgraph-pythia8/NANOAODSIM/130X_mcRun3_2022_realistic_postEE_v6-v2/50000/63a743f1-7ed8-4a3b-8854-244f0fd3dbcc.root
/store/mc/Run3Summer22EENanoAODv12/VBFHHto2B2Tau_CV-m0p012_C2V-0p030_C3-10p2_TuneCP5_13p6TeV_madgraph-pythia8/NANOAODSIM/130X_mcRun3_2022_realistic_postEE_v6-v2/50000/88b33b43-6a50-4b88-99a6-0ff254a42949.root
/store/mc/Run3Summer22EENanoAODv12/VBFHHto2B2Tau_CV-m0p012_C2V-0p030_C3-10p2_TuneCP5_13p6TeV_madgraph-pythia8/NANOAODSIM/130X_mcRun3_2022_realistic_postEE_v6-v2/50000/12d3ef82-7119-46c4-a024-53d6cb92590b.root
/store/mc/Run3Summer22EENanoAODv12/VBFHHto2B2Tau_CV-m0p012_C2V-0p030_C3-10p2_TuneCP5_13p6TeV_madgraph-pythia8/NANOAODSIM/130X_mcRun3_2022_realistic_postEE_v6-v2/50000/d0b922c2-bb71-4c1d-8486-4618da4fb4f9.root
/store/mc/Run3Summer22EENanoAODv12/VBFHHto2B2Tau_CV-m0p012_C2V-0p030_C3-10p2_TuneCP5_13p6TeV_madgraph-pythia8/NANOAODSIM/130X_mcRun3_2022_realistic_postEE_v6-v2/50000/0741ec72-51ca-4104-91d3-6be72946118d.root
/store/mc/Run3Summer22EENanoAODv12/VBFHHto2B2Tau_CV-m0p012_C2V-0p030_C3-10p2_TuneCP5_13p6TeV_madgraph-pythia8/NANOAODSIM/130X_mcRun3_2022_realistic_postEE_v6-v2/50000/cee8cbbd-6668-4b91-8f58-c8a4e047fc04.root
/store/mc/Run3Summer22EENanoAODv12/VBFHHto2B2Tau_CV-m0p012_C2V-0p030_C3-10p2_TuneCP5_13p6TeV_madgraph-pythia8/NANOAODSIM/130X_mcRun3_2022_realistic_postEE_v6-v2/50000/e44140e9-1949-47a0-8460-d5cc989a391d.root
/store/mc/Run3Summer22EENanoAODv12/VBFHHto2B2Tau_CV-m0p012_C2V-0p030_C3-10p2_TuneCP5_13p6TeV_madgraph-pythia8/NANOAODSIM/130X_mcRun3_2022_realistic_postEE_v6-v2/50000/6ec94018-ad70-4792-ab0c-8666e05b2083.root
/store/mc/Run3Summer22EENanoAODv12/VBFHHto2B2Tau_CV-m0p012_C2V-0p030_C3-10p2_TuneCP5_13p6TeV_madgraph-pythia8/NANOAODSIM/130X_mcRun3_2022_realistic_postEE_v6-v2/50000/64bbc512-447f-464e-98d1-813ed70517ea.root
/store/mc/Run3Summer22EENanoAODv12/VBFHHto2B2Tau_CV-m0p012_C2V-0p030_C3-10p2_TuneCP5_13p6TeV_madgraph-pythia8/NANOAODSIM/130X_mcRun3_2022_realistic_postEE_v6-v2/50000/6eac32b6-cd62-4454-aa7e-b85a188b1735.root
/store/mc/Run3Summer22EENanoAODv12/VBFHHto2B2Tau_CV-m0p012_C2V-0p030_C3-10p2_TuneCP5_13p6TeV_madgraph-pythia8/NANOAODSIM/130X_mcRun3_2022_realistic_postEE_v6-v2/2540000/e419ab18-8f29-4da7-bc64-62f75e6efbca.root
/store/mc/Run3Summer22EENanoAODv12/VBFHHto2B2Tau_CV-m0p012_C2V-0p030_C3-10p2_TuneCP5_13p6TeV_madgraph-pythia8/NANOAODSIM/130X_mcRun3_2022_realistic_postEE_v6-v2/2540000/2dcf88ba-3580-41a0-980a-c4a482b761ab.root
/store/mc/Run3Summer22EENanoAODv12/VBFHHto2B2Tau_CV-m0p012_C2V-0p030_C3-10p2_TuneCP5_13p6TeV_madgraph-pythia8/NANOAODSIM/130X_mcRun3_2022_realistic_postEE_v6-v2/2540000/4261ee13-5cd7-471d-a870-1c6622b93466.root
/store/mc/Run3Summer22EENanoAODv12/VBFHHto2B2Tau_CV-m0p012_C2V-0p030_C3-10p2_TuneCP5_13p6TeV_madgraph-pythia8/NANOAODSIM/130X_mcRun3_2022_realistic_postEE_v6-v2/50000/adbe7527-b17b-49b9-ab47-f7857b7ef411.root
/store/mc/Run3Summer22EENanoAODv12/VBFHHto2B2Tau_CV-m0p012_C2V-0p030_C3-10p2_TuneCP5_13p6TeV_madgraph-pythia8/NANOAODSIM/130X_mcRun3_2022_realistic_postEE_v6-v2/50000/c8c0b8ac-7bfa-4247-919c-720bd172206b.root
/store/mc/Run3Summer22EENanoAODv12/VBFHHto2B2Tau_CV-m0p012_C2V-0p030_C3-10p2_TuneCP5_13p6TeV_madgraph-pythia8/NANOAODSIM/130X_mcRun3_2022_realistic_postEE_v6-v2/50000/448e2170-abf1-4dff-a85e-af5fd217c962.root
/store/mc/Run3Summer22EENanoAODv12/VBFHHto2B2Tau_CV-m0p012_C2V-0p030_C3-10p2_TuneCP5_13p6TeV_madgraph-pythia8/NANOAODSIM/130X_mcRun3_2022_realistic_postEE_v6-v2/50000/3150c011-7d5a-4786-bf4a-2fca5503aefe.root
/store/mc/Run3Summer22EENanoAODv12/VBFHHto2B2Tau_CV-m0p012_C2V-0p030_C3-10p2_TuneCP5_13p6TeV_madgraph-pythia8/NANOAODSIM/130X_mcRun3_2022_realistic_postEE_v6-v2/50000/cb74eb9d-6df0-4993-985e-170ce240dd3f.root
/store/mc/Run3Summer22EENanoAODv12/VBFHHto2B2Tau_CV-m0p012_C2V-0p030_C3-10p2_TuneCP5_13p6TeV_madgraph-pythia8/NANOAODSIM/130X_mcRun3_2022_realistic_postEE_v6-v2/50000/9263ad3d-ee70-433a-a325-f2c71c2e66ce.root
/store/mc/Run3Summer22EENanoAODv12/VBFHHto2B2Tau_CV-m0p012_C2V-0p030_C3-10p2_TuneCP5_13p6TeV_madgraph-pythia8/NANOAODSIM/130X_mcRun3_2022_realistic_postEE_v6-v2/50000/93f6bf83-48ef-4b04-a18b-47ede3560011.root
/store/mc/Run3Summer22EENanoAODv12/VBFHHto2B2Tau_CV-m0p012_C2V-0p030_C3-10p2_TuneCP5_13p6TeV_madgraph-pythia8/NANOAODSIM/130X_mcRun3_2022_realistic_postEE_v6-v2/50000/36bd885c-c470-458f-8189-0632c145cfd8.root
/store/mc/Run3Summer22EENanoAODv12/VBFHHto2B2Tau_CV-m0p012_C2V-0p030_C3-10p2_TuneCP5_13p6TeV_madgraph-pythia8/NANOAODSIM/130X_mcRun3_2022_realistic_postEE_v6-v2/50000/8e730d13-2d9e-49bc-9738-7cbe856dddd8.root
/store/mc/Run3Summer22EENanoAODv12/VBFHHto2B2Tau_CV-m0p012_C2V-0p030_C3-10p2_TuneCP5_13p6TeV_madgraph-pythia8/NANOAODSIM/130X_mcRun3_2022_realistic_postEE_v6-v2/50000/2c51b328-ab63-463a-a3a2-653190e19ac3.root
/store/mc/Run3Summer22EENanoAODv12/VBFHHto2B2Tau_CV-m0p012_C2V-0p030_C3-10p2_TuneCP5_13p6TeV_madgraph-pythia8/NANOAODSIM/130X_mcRun3_2022_realistic_postEE_v6-v2/50000/ea7bb8ba-16b7-4ded-9e90-08304f1659bc.root
/store/mc/Run3Summer22EENanoAODv12/VBFHHto2B2Tau_CV-m0p012_C2V-0p030_C3-10p2_TuneCP5_13p6TeV_madgraph-pythia8/NANOAODSIM/130X_mcRun3_2022_realistic_postEE_v6-v2/50000/f643f288-e0ed-44cc-815a-4110370c971d.root
/store/mc/Run3Summer22EENanoAODv12/VBFHHto2B2Tau_CV-m0p012_C2V-0p030_C3-10p2_TuneCP5_13p6TeV_madgraph-pythia8/NANOAODSIM/130X_mcRun3_2022_realistic_postEE_v6-v2/2540000/d276a2de-b6df-4dd8-85fb-f73527a8ee9f.root
/store/mc/Run3Summer22EENanoAODv12/VBFHHto2B2Tau_CV-m0p012_C2V-0p030_C3-10p2_TuneCP5_13p6TeV_madgraph-pythia8/NANOAODSIM/130X_mcRun3_2022_realistic_postEE_v6-v2/2540000/f0e17e06-b3f8-4aa3-a20a-61b9e3158d3c.root
/store/mc/Run3Summer22EENanoAODv12/VBFHHto2B2Tau_CV-m0p012_C2V-0p030_C3-10p2_TuneCP5_13p6TeV_madgraph-pythia8/NANOAODSIM/130X_mcRun3_2022_realistic_postEE_v6-v2/2540000/a6b41f16-e41d-4319-9311-4faa55080d3c.root
/store/mc/Run3Summer22EENanoAODv12/VBFHHto2B2Tau_CV-m0p012_C2V-0p030_C3-10p2_TuneCP5_13p6TeV_madgraph-pythia8/NANOAODSIM/130X_mcRun3_2022_realistic_postEE_v6-v2/50000/f78dcb3f-de6b-4313-83b0-0c0dca9edcb4.root
/store/mc/Run3Summer22EENanoAODv12/VBFHHto2B2Tau_CV-m0p012_C2V-0p030_C3-10p2_TuneCP5_13p6TeV_madgraph-pythia8/NANOAODSIM/130X_mcRun3_2022_realistic_postEE_v6-v2/50000/4872c861-c21a-435c-9843-4dad1981ecd6.root
/store/mc/Run3Summer22EENanoAODv12/VBFHHto2B2Tau_CV-m0p012_C2V-0p030_C3-10p2_TuneCP5_13p6TeV_madgraph-pythia8/NANOAODSIM/130X_mcRun3_2022_realistic_postEE_v6-v2/2540000/fa8aee0f-db8a-4d67-a30a-8a87e2b113e9.root
/store/mc/Run3Summer22EENanoAODv12/VBFHHto2B2Tau_CV-m0p012_C2V-0p030_C3-10p2_TuneCP5_13p6TeV_madgraph-pythia8/NANOAODSIM/130X_mcRun3_2022_realistic_postEE_v6-v2/2540000/fbef74bf-899a-4da6-9306-d721296fe302.root
/store/mc/Run3Summer22EENanoAODv12/VBFHHto2B2Tau_CV-m0p012_C2V-0p030_C3-10p2_TuneCP5_13p6TeV_madgraph-pythia8/NANOAODSIM/130X_mcRun3_2022_realistic_postEE_v6-v2/50000/f64da785-e61c-417f-87cb-d8cd7df35944.root
/store/mc/Run3Summer22EENanoAODv12/VBFHHto2B2Tau_CV-m0p012_C2V-0p030_C3-10p2_TuneCP5_13p6TeV_madgraph-pythia8/NANOAODSIM/130X_mcRun3_2022_realistic_postEE_v6-v2/50000/9212c606-37dd-4fe4-b301-a3b5c17c8e80.root
/store/mc/Run3Summer22EENanoAODv12/VBFHHto2B2Tau_CV-m0p012_C2V-0p030_C3-10p2_TuneCP5_13p6TeV_madgraph-pythia8/NANOAODSIM/130X_mcRun3_2022_realistic_postEE_v6-v2/50000/90838322-09ba-4e8b-9f51-f3f9088d65c9.root
/store/mc/Run3Summer22EENanoAODv12/VBFHHto2B2Tau_CV-m0p012_C2V-0p030_C3-10p2_TuneCP5_13p6TeV_madgraph-pythia8/NANOAODSIM/130X_mcRun3_2022_realistic_postEE_v6-v2/2540000/fa92b20a-af4e-42d8-901b-25bf8ea7c410.root
/store/mc/Run3Summer22EENanoAODv12/VBFHHto2B2Tau_CV-m0p012_C2V-0p030_C3-10p2_TuneCP5_13p6TeV_madgraph-pythia8/NANOAODSIM/130X_mcRun3_2022_realistic_postEE_v6-v2/2540000/bb881329-b0a0-47bd-957c-b35c9e2d6c9e.root
/store/mc/Run3Summer22EENanoAODv12/VBFHHto2B2Tau_CV-m0p012_C2V-0p030_C3-10p2_TuneCP5_13p6TeV_madgraph-pythia8/NANOAODSIM/130X_mcRun3_2022_realistic_postEE_v6-v2/50000/acf24aa2-b48a-4b6c-9faf-ddbe09d5a8bf.root
/store/mc/Run3Summer22EENanoAODv12/VBFHHto2B2Tau_CV-m0p012_C2V-0p030_C3-10p2_TuneCP5_13p6TeV_madgraph-pythia8/NANOAODSIM/130X_mcRun3_2022_realistic_postEE_v6-v2/50000/8062c97b-7266-49d4-8642-97a5a6ec6055.root
/store/mc/Run3Summer22EENanoAODv12/VBFHHto2B2Tau_CV-m0p012_C2V-0p030_C3-10p2_TuneCP5_13p6TeV_madgraph-pythia8/NANOAODSIM/130X_mcRun3_2022_realistic_postEE_v6-v2/50000/c32246f2-e5cd-4df6-a0a9-ef7867b30c91.root
/store/mc/Run3Summer22EENanoAODv12/VBFHHto2B2Tau_CV-m0p012_C2V-0p030_C3-10p2_TuneCP5_13p6TeV_madgraph-pythia8/NANOAODSIM/130X_mcRun3_2022_realistic_postEE_v6-v2/50000/55434cae-36b0-4a17-a692-407e6e1b17f1.root
/store/mc/Run3Summer22EENanoAODv12/VBFHHto2B2Tau_CV-m0p012_C2V-0p030_C3-10p2_TuneCP5_13p6TeV_madgraph-pythia8/NANOAODSIM/130X_mcRun3_2022_realistic_postEE_v6-v2/50000/ebcf8e07-de41-4b04-9866-12690d8048ad.root
/store/mc/Run3Summer22EENanoAODv12/VBFHHto2B2Tau_CV-m0p012_C2V-0p030_C3-10p2_TuneCP5_13p6TeV_madgraph-pythia8/NANOAODSIM/130X_mcRun3_2022_realistic_postEE_v6-v2/50000/8ba06d65-8ae6-41f6-a434-bde6d0a37f29.root
/store/mc/Run3Summer22EENanoAODv12/VBFHHto2B2Tau_CV-m0p012_C2V-0p030_C3-10p2_TuneCP5_13p6TeV_madgraph-pythia8/NANOAODSIM/130X_mcRun3_2022_realistic_postEE_v6-v2/50000/18a35dd6-2416-48f1-bac7-b47b2359439b.root
/store/mc/Run3Summer22EENanoAODv12/VBFHHto2B2Tau_CV-m0p012_C2V-0p030_C3-10p2_TuneCP5_13p6TeV_madgraph-pythia8/NANOAODSIM/130X_mcRun3_2022_realistic_postEE_v6-v2/50000/8473b01e-47aa-4903-99f4-aafd9ebae376.root
/store/mc/Run3Summer22EENanoAODv12/VBFHHto2B2Tau_CV-m0p012_C2V-0p030_C3-10p2_TuneCP5_13p6TeV_madgraph-pythia8/NANOAODSIM/130X_mcRun3_2022_realistic_postEE_v6-v2/2540000/5a3eee34-e6a2-4f80-81a8-60fb13f392ce.root
/store/mc/Run3Summer22EENanoAODv12/VBFHHto2B2Tau_CV-m0p012_C2V-0p030_C3-10p2_TuneCP5_13p6TeV_madgraph-pythia8/NANOAODSIM/130X_mcRun3_2022_realistic_postEE_v6-v2/2540000/6ff3dcd8-81d6-472d-8388-21f0937b7413.root
/store/mc/Run3Summer22EENanoAODv12/VBFHHto2B2Tau_CV-m0p012_C2V-0p030_C3-10p2_TuneCP5_13p6TeV_madgraph-pythia8/NANOAODSIM/130X_mcRun3_2022_realistic_postEE_v6-v2/2540000/1cf34088-8f16-4afd-af19-c74f1d18ac18.root
/store/mc/Run3Summer22EENanoAODv12/VBFHHto2B2Tau_CV-m0p012_C2V-0p030_C3-10p2_TuneCP5_13p6TeV_madgraph-pythia8/NANOAODSIM/130X_mcRun3_2022_realistic_postEE_v6-v2/2540000/5ab178a2-7b9a-4aec-96ea-a7c0e1122fab.root