/store/mc/Run3Summer22EENanoAODv12/VBFHHto2B2Tau_CV-m1p21_C2V-1p94_C3-m0p94_TuneCP5_13p6TeV_madgraph-pythia8/NANOAODSIM/130X_mcRun3_2022_realistic_postEE_v6-v2/50000/bac9dcda-9d99-41c0-b007-f5e36a08e7f3.root
/store/mc/Run3Summer22EENanoAODv12/VBFHHto2B2Tau_CV-m1p21_C2V-1p94_C3-m0p94_TuneCP5_13p6TeV_madgraph-pythia8/NANOAODSIM/130X_mcRun3_2022_realistic_postEE_v6-v2/50000/e3e5ba87-49e5-4fcd-919b-4480737d9472.root
/store/mc/Run3Summer22EENanoAODv12/VBFHHto2B2Tau_CV-m1p21_C2V-1p94_C3-m0p94_TuneCP5_13p6TeV_madgraph-pythia8/NANOAODSIM/130X_mcRun3_2022_realistic_postEE_v6-v2/50000/9dd3c70d-ba4f-4be2-a77b-cc9477b2efa6.root
/store/mc/Run3Summer22EENanoAODv12/VBFHHto2B2Tau_CV-m1p21_C2V-1p94_C3-m0p94_TuneCP5_13p6TeV_madgraph-pythia8/NANOAODSIM/130X_mcRun3_2022_realistic_postEE_v6-v2/2540000/ba8ca03c-66d5-4de1-b743-49372805498f.root
/store/mc/Run3Summer22EENanoAODv12/VBFHHto2B2Tau_CV-m1p21_C2V-1p94_C3-m0p94_TuneCP5_13p6TeV_madgraph-pythia8/NANOAODSIM/130X_mcRun3_2022_realistic_postEE_v6-v2/2540000/40a287e6-af68-442a-92ab-1a4005e4ec7c.root
/store/mc/Run3Summer22EENanoAODv12/VBFHHto2B2Tau_CV-m1p21_C2V-1p94_C3-m0p94_TuneCP5_13p6TeV_madgraph-pythia8/NANOAODSIM/130X_mcRun3_2022_realistic_postEE_v6-v2/2540000/f0ef0255-37c5-438f-984f-e16b77b82e5b.root
/store/mc/Run3Summer22EENanoAODv12/VBFHHto2B2Tau_CV-m1p21_C2V-1p94_C3-m0p94_TuneCP5_13p6TeV_madgraph-pythia8/NANOAODSIM/130X_mcRun3_2022_realistic_postEE_v6-v2/2540000/18026cf2-ae1c-42ff-86a2-59c7b30a7b2d.root
/store/mc/Run3Summer22EENanoAODv12/VBFHHto2B2Tau_CV-m1p21_C2V-1p94_C3-m0p94_TuneCP5_13p6TeV_madgraph-pythia8/NANOAODSIM/130X_mcRun3_2022_realistic_postEE_v6-v2/2540000/bb5210cd-5e1f-49ec-8ef6-3eac3220980b.root
/store/mc/Run3Summer22EENanoAODv12/VBFHHto2B2Tau_CV-m1p21_C2V-1p94_C3-m0p94_TuneCP5_13p6TeV_madgraph-pythia8/NANOAODSIM/130X_mcRun3_2022_realistic_postEE_v6-v2/2540000/efbf0243-c43b-4326-950c-2b5ed407e63b.root
/store/mc/Run3Summer22EENanoAODv12/VBFHHto2B2Tau_CV-m1p21_C2V-1p94_C3-m0p94_TuneCP5_13p6TeV_madgraph-pythia8/NANOAODSIM/130X_mcRun3_2022_realistic_postEE_v6-v2/50000/5c001190-918a-4ccc-a1b4-adbf5bfc5e9c.root
/store/mc/Run3Summer22EENanoAODv12/VBFHHto2B2Tau_CV-m1p21_C2V-1p94_C3-m0p94_TuneCP5_13p6TeV_madgraph-pythia8/NANOAODSIM/130X_mcRun3_2022_realistic_postEE_v6-v2/50000/f370e7da-86b3-4bfd-a243-4f7a54251a63.root
/store/mc/Run3Summer22EENanoAODv12/VBFHHto2B2Tau_CV-m1p21_C2V-1p94_C3-m0p94_TuneCP5_13p6TeV_madgraph-pythia8/NANOAODSIM/130X_mcRun3_2022_realistic_postEE_v6-v2/50000/3423a180-b683-4e50-a0ef-1e879b4fd2e6.root
/store/mc/Run3Summer22EENanoAODv12/VBFHHto2B2Tau_CV-m1p21_C2V-1p94_C3-m0p94_TuneCP5_13p6TeV_madgraph-pythia8/NANOAODSIM/130X_mcRun3_2022_realistic_postEE_v6-v2/50000/b6142833-205c-4aee-8ae3-18f0212f2e1b.root
/store/mc/Run3Summer22EENanoAODv12/VBFHHto2B2Tau_CV-m1p21_C2V-1p94_C3-m0p94_TuneCP5_13p6TeV_madgraph-pythia8/NANOAODSIM/130X_mcRun3_2022_realistic_postEE_v6-v2/50000/fd4afa16-bfef-4e3f-8dde-3559c8b72578.root
/store/mc/Run3Summer22EENanoAODv12/VBFHHto2B2Tau_CV-m1p21_C2V-1p94_C3-m0p94_TuneCP5_13p6TeV_madgraph-pythia8/NANOAODSIM/130X_mcRun3_2022_realistic_postEE_v6-v2/50000/bbae116b-8dd4-4cab-94be-d065ffa46095.root
/store/mc/Run3Summer22EENanoAODv12/VBFHHto2B2Tau_CV-m1p21_C2V-1p94_C3-m0p94_TuneCP5_13p6TeV_madgraph-pythia8/NANOAODSIM/130X_mcRun3_2022_realistic_postEE_v6-v2/50000/b950bac8-70bb-4c4a-a955-204d2760df0f.root
/store/mc/Run3Summer22EENanoAODv12/VBFHHto2B2Tau_CV-m1p21_C2V-1p94_C3-m0p94_TuneCP5_13p6TeV_madgraph-pythia8/NANOAODSIM/130X_mcRun3_2022_realistic_postEE_v6-v2/50000/c9642868-5c66-4532-a3fc-37b738e8dbd0.root
/store/mc/Run3Summer22EENanoAODv12/VBFHHto2B2Tau_CV-m1p21_C2V-1p94_C3-m0p94_TuneCP5_13p6TeV_madgraph-pythia8/NANOAODSIM/130X_mcRun3_2022_realistic_postEE_v6-v2/50000/b4b9f20d-1d17-441d-87d8-ff46532b5a64.root
/store/mc/Run3Summer22EENanoAODv12/VBFHHto2B2Tau_CV-m1p21_C2V-1p94_C3-m0p94_TuneCP5_13p6TeV_madgraph-pythia8/NANOAODSIM/130X_mcRun3_2022_realistic_postEE_v6-v2/50000/f288a425-87f5-49d6-a91e-d90dca532122.root
/store/mc/Run3Summer22EENanoAODv12/VBFHHto2B2Tau_CV-m1p21_C2V-1p94_C3-m0p94_TuneCP5_13p6TeV_madgraph-pythia8/NANOAODSIM/130X_mcRun3_2022_realistic_postEE_v6-v2/2540000/c279a718-49ca-48a8-ae9e-c937c1cdecd7.root
/store/mc/Run3Summer22EENanoAODv12/VBFHHto2B2Tau_CV-m1p21_C2V-1p94_C3-m0p94_TuneCP5_13p6TeV_madgraph-pythia8/NANOAODSIM/130X_mcRun3_2022_realistic_postEE_v6-v2/2540000/01e732f6-c431-409c-8348-016ea348eb13.root
/store/mc/Run3Summer22EENanoAODv12/VBFHHto2B2Tau_CV-m1p21_C2V-1p94_C3-m0p94_TuneCP5_13p6TeV_madgraph-pythia8/NANOAODSIM/130X_mcRun3_2022_realistic_postEE_v6-v2/2540000/82802643-4838-4f2a-8ff0-7d9c406328e4.root
/store/mc/Run3Summer22EENanoAODv12/VBFHHto2B2Tau_CV-m1p21_C2V-1p94_C3-m0p94_TuneCP5_13p6TeV_madgraph-pythia8/NANOAODSIM/130X_mcRun3_2022_realistic_postEE_v6-v2/2540000/eb0e4dfb-3e47-4e5f-af02-449237ae6944.root
/store/mc/Run3Summer22EENanoAODv12/VBFHHto2B2Tau_CV-m1p21_C2V-1p94_C3-m0p94_TuneCP5_13p6TeV_madgraph-pythia8/NANOAODSIM/130X_mcRun3_2022_realistic_postEE_v6-v2/2540000/a9f98c31-8eae-4315-a0d4-d91a05d1e740.root
/store/mc/Run3Summer22EENanoAODv12/VBFHHto2B2Tau_CV-m1p21_C2V-1p94_C3-m0p94_TuneCP5_13p6TeV_madgraph-pythia8/NANOAODSIM/130X_mcRun3_2022_realistic_postEE_v6-v2/2540000/51f9c47e-489d-441d-94f7-80400bfeaa0e.root
/store/mc/Run3Summer22EENanoAODv12/VBFHHto2B2Tau_CV-m1p21_C2V-1p94_C3-m0p94_TuneCP5_13p6TeV_madgraph-pythia8/NANOAODSIM/130X_mcRun3_2022_realistic_postEE_v6-v2/50000/dfbac793-2c20-4ed9-b218-843dea3ce193.root
/store/mc/Run3Summer22EENanoAODv12/VBFHHto2B2Tau_CV-m1p21_C2V-1p94_C3-m0p94_TuneCP5_13p6TeV_madgraph-pythia8/NANOAODSIM/130X_mcRun3_2022_realistic_postEE_v6-v2/50000/6a3ee720-6248-4d0e-adcf-4fd6f7f10a07.root
/store/mc/Run3Summer22EENanoAODv12/VBFHHto2B2Tau_CV-m1p21_C2V-1p94_C3-m0p94_TuneCP5_13p6TeV_madgraph-pythia8/NANOAODSIM/130X_mcRun3_2022_realistic_postEE_v6-v2/2540000/0d164d9c-dff6-498d-a704-6243813eec6e.root
/store/mc/Run3Summer22EENanoAODv12/VBFHHto2B2Tau_CV-m1p21_C2V-1p94_C3-m0p94_TuneCP5_13p6TeV_madgraph-pythia8/NANOAODSIM/130X_mcRun3_2022_realistic_postEE_v6-v2/2550000/227fb157-907c-4d22-b07c-700fc2d665c5.root
/store/mc/Run3Summer22EENanoAODv12/VBFHHto2B2Tau_CV-m1p21_C2V-1p94_C3-m0p94_TuneCP5_13p6TeV_madgraph-pythia8/NANOAODSIM/130X_mcRun3_2022_realistic_postEE_v6-v2/2550000/d8469bee-f395-4e0a-a087-bf0d8b7e6d90.root
/store/mc/Run3Summer22EENanoAODv12/VBFHHto2B2Tau_CV-m1p21_C2V-1p94_C3-m0p94_TuneCP5_13p6TeV_madgraph-pythia8/NANOAODSIM/130X_mcRun3_2022_realistic_postEE_v6-v2/50000/a6eb56c1-e6e0-4ed0-b2f8-7e10434cf226.root
/store/mc/Run3Summer22EENanoAODv12/VBFHHto2B2Tau_CV-m1p21_C2V-1p94_C3-m0p94_TuneCP5_13p6TeV_madgraph-pythia8/NANOAODSIM/130X_mcRun3_2022_realistic_postEE_v6-v2/50000/91d0a262-5628-4999-9805-292707010f97.root
/store/mc/Run3Summer22EENanoAODv12/VBFHHto2B2Tau_CV-m1p21_C2V-1p94_C3-m0p94_TuneCP5_13p6TeV_madgraph-pythia8/NANOAODSIM/130X_mcRun3_2022_realistic_postEE_v6-v2/50000/86fb8e89-06da-473f-b947-c0538becdf47.root
/store/mc/Run3Summer22EENanoAODv12/VBFHHto2B2Tau_CV-m1p21_C2V-1p94_C3-m0p94_TuneCP5_13p6TeV_madgraph-pythia8/NANOAODSIM/130X_mcRun3_2022_realistic_postEE_v6-v2/50000/aef2fd02-af6a-4f71-a727-6480231506fc.root
/store/mc/Run3Summer22EENanoAODv12/VBFHHto2B2Tau_CV-m1p21_C2V-1p94_C3-m0p94_TuneCP5_13p6TeV_madgraph-pythia8/NANOAODSIM/130X_mcRun3_2022_realistic_postEE_v6-v2/50000/57d61b0f-45b1-41e8-99c8-188abce1a22f.root
/store/mc/Run3Summer22EENanoAODv12/VBFHHto2B2Tau_CV-m1p21_C2V-1p94_C3-m0p94_TuneCP5_13p6TeV_madgraph-pythia8/NANOAODSIM/130X_mcRun3_2022_realistic_postEE_v6-v2/2540000/f5aa0f9b-128a-4d80-a2c1-2ab383fc7485.root
/store/mc/Run3Summer22EENanoAODv12/VBFHHto2B2Tau_CV-m1p21_C2V-1p94_C3-m0p94_TuneCP5_13p6TeV_madgraph-pythia8/NANOAODSIM/130X_mcRun3_2022_realistic_postEE_v6-v2/2540000/bc17c56c-1789-4ec3-b9e3-67ff23cb279f.root
/store/mc/Run3Summer22EENanoAODv12/VBFHHto2B2Tau_CV-m1p21_C2V-1p94_C3-m0p94_TuneCP5_13p6TeV_madgraph-pythia8/NANOAODSIM/130X_mcRun3_2022_realistic_postEE_v6-v2/50000/24a967bd-d6da-42c4-b825-f1383cef60c1.root
/store/mc/Run3Summer22EENanoAODv12/VBFHHto2B2Tau_CV-m1p21_C2V-1p94_C3-m0p94_TuneCP5_13p6TeV_madgraph-pythia8/NANOAODSIM/130X_mcRun3_2022_realistic_postEE_v6-v2/50000/3e185748-ff5a-4e2e-865e-7270b90d7ec2.root
/store/mc/Run3Summer22EENanoAODv12/VBFHHto2B2Tau_CV-m1p21_C2V-1p94_C3-m0p94_TuneCP5_13p6TeV_madgraph-pythia8/NANOAODSIM/130X_mcRun3_2022_realistic_postEE_v6-v2/50000/fd8ebb05-8606-463e-aed2-5a7befdbb609.root
/store/mc/Run3Summer22EENanoAODv12/VBFHHto2B2Tau_CV-m1p21_C2V-1p94_C3-m0p94_TuneCP5_13p6TeV_madgraph-pythia8/NANOAODSIM/130X_mcRun3_2022_realistic_postEE_v6-v2/2540000/7d53c66f-ec84-4e67-90f1-bc6aeece4bec.root
/store/mc/Run3Summer22EENanoAODv12/VBFHHto2B2Tau_CV-m1p21_C2V-1p94_C3-m0p94_TuneCP5_13p6TeV_madgraph-pythia8/NANOAODSIM/130X_mcRun3_2022_realistic_postEE_v6-v2/2540000/dccadeb2-06ed-4f80-92b7-f4f98d93f412.root
/store/mc/Run3Summer22EENanoAODv12/VBFHHto2B2Tau_CV-m1p21_C2V-1p94_C3-m0p94_TuneCP5_13p6TeV_madgraph-pythia8/NANOAODSIM/130X_mcRun3_2022_realistic_postEE_v6-v2/2540000/b4946235-28f4-43fb-b491-7fb73b7e1171.root
/store/mc/Run3Summer22EENanoAODv12/VBFHHto2B2Tau_CV-m1p21_C2V-1p94_C3-m0p94_TuneCP5_13p6TeV_madgraph-pythia8/NANOAODSIM/130X_mcRun3_2022_realistic_postEE_v6-v2/2540000/4ec31653-10b1-4682-9f10-5862c9647a8d.root
/store/mc/Run3Summer22EENanoAODv12/VBFHHto2B2Tau_CV-m1p21_C2V-1p94_C3-m0p94_TuneCP5_13p6TeV_madgraph-pythia8/NANOAODSIM/130X_mcRun3_2022_realistic_postEE_v6-v2/2540000/7378f8d5-9865-4870-9bbe-1c91c51dfb52.root
/store/mc/Run3Summer22EENanoAODv12/VBFHHto2B2Tau_CV-m1p21_C2V-1p94_C3-m0p94_TuneCP5_13p6TeV_madgraph-pythia8/NANOAODSIM/130X_mcRun3_2022_realistic_postEE_v6-v2/2540000/aeb0a683-9224-464f-a138-b9732a36ec6a.root
/store/mc/Run3Summer22EENanoAODv12/VBFHHto2B2Tau_CV-m1p21_C2V-1p94_C3-m0p94_TuneCP5_13p6TeV_madgraph-pythia8/NANOAODSIM/130X_mcRun3_2022_realistic_postEE_v6-v2/2540000/15b492dc-fb51-44a5-8a8a-31901e945ca8.root
/store/mc/Run3Summer22EENanoAODv12/VBFHHto2B2Tau_CV-m1p21_C2V-1p94_C3-m0p94_TuneCP5_13p6TeV_madgraph-pythia8/NANOAODSIM/130X_mcRun3_2022_realistic_postEE_v6-v2/2540000/62b69d28-ad35-47ee-8919-db6a4b1d8881.root
/store/mc/Run3Summer22EENanoAODv12/VBFHHto2B2Tau_CV-m1p21_C2V-1p94_C3-m0p94_TuneCP5_13p6TeV_madgraph-pythia8/NANOAODSIM/130X_mcRun3_2022_realistic_postEE_v6-v2/50000/012ed903-10ad-4689-9b32-729ed831333d.root
/store/mc/Run3Summer22EENanoAODv12/VBFHHto2B2Tau_CV-m1p21_C2V-1p94_C3-m0p94_TuneCP5_13p6TeV_madgraph-pythia8/NANOAODSIM/130X_mcRun3_2022_realistic_postEE_v6-v2/50000/68f69c00-57a0-455a-804d-a6020d809a71.root
/store/mc/Run3Summer22EENanoAODv12/VBFHHto2B2Tau_CV-m1p21_C2V-1p94_C3-m0p94_TuneCP5_13p6TeV_madgraph-pythia8/NANOAODSIM/130X_mcRun3_2022_realistic_postEE_v6-v2/2550000/960fd327-7b02-4049-ae3a-8eda430596f4.root
/store/mc/Run3Summer22EENanoAODv12/VBFHHto2B2Tau_CV-m1p21_C2V-1p94_C3-m0p94_TuneCP5_13p6TeV_madgraph-pythia8/NANOAODSIM/130X_mcRun3_2022_realistic_postEE_v6-v2/2550000/e5819ce1-23b3-4941-a3b4-07a737afaa5c.root
/store/mc/Run3Summer22EENanoAODv12/VBFHHto2B2Tau_CV-m1p21_C2V-1p94_C3-m0p94_TuneCP5_13p6TeV_madgraph-pythia8/NANOAODSIM/130X_mcRun3_2022_realistic_postEE_v6-v2/2550000/531a881c-b0f3-4831-9eea-b6fc74a80901.root
/store/mc/Run3Summer22EENanoAODv12/VBFHHto2B2Tau_CV-m1p21_C2V-1p94_C3-m0p94_TuneCP5_13p6TeV_madgraph-pythia8/NANOAODSIM/130X_mcRun3_2022_realistic_postEE_v6-v2/2550000/40659e31-800b-4fb5-a03b-79b6ebd07b92.root
/store/mc/Run3Summer22EENanoAODv12/VBFHHto2B2Tau_CV-m1p21_C2V-1p94_C3-m0p94_TuneCP5_13p6TeV_madgraph-pythia8/NANOAODSIM/130X_mcRun3_2022_realistic_postEE_v6-v2/2550000/53552c8c-49f7-4e1a-bf0f-b7d40e05c857.root
/store/mc/Run3Summer22EENanoAODv12/VBFHHto2B2Tau_CV-m1p21_C2V-1p94_C3-m0p94_TuneCP5_13p6TeV_madgraph-pythia8/NANOAODSIM/130X_mcRun3_2022_realistic_postEE_v6-v2/2550000/08d3b096-b4c5-46f6-b0b0-0a643f8d8d89.root
/store/mc/Run3Summer22EENanoAODv12/VBFHHto2B2Tau_CV-m1p21_C2V-1p94_C3-m0p94_TuneCP5_13p6TeV_madgraph-pythia8/NANOAODSIM/130X_mcRun3_2022_realistic_postEE_v6-v2/2550000/41223524-9778-4a34-bc71-d76673ef96ec.root
/store/mc/Run3Summer22EENanoAODv12/VBFHHto2B2Tau_CV-m1p21_C2V-1p94_C3-m0p94_TuneCP5_13p6TeV_madgraph-pythia8/NANOAODSIM/130X_mcRun3_2022_realistic_postEE_v6-v2/2550000/2a0a2b87-a7ab-40b5-a5b7-fe022d6bf862.root
/store/mc/Run3Summer22EENanoAODv12/VBFHHto2B2Tau_CV-m1p21_C2V-1p94_C3-m0p94_TuneCP5_13p6TeV_madgraph-pythia8/NANOAODSIM/130X_mcRun3_2022_realistic_postEE_v6-v2/2550000/1c4f99cb-27c4-47d0-b92b-41f02dc2da7b.root
/store/mc/Run3Summer22EENanoAODv12/VBFHHto2B2Tau_CV-m1p21_C2V-1p94_C3-m0p94_TuneCP5_13p6TeV_madgraph-pythia8/NANOAODSIM/130X_mcRun3_2022_realistic_postEE_v6-v2/2550000/0ed3e73d-c5c2-4be0-a220-3d8c84f6ed3e.root
/store/mc/Run3Summer22EENanoAODv12/VBFHHto2B2Tau_CV-m1p21_C2V-1p94_C3-m0p94_TuneCP5_13p6TeV_madgraph-pythia8/NANOAODSIM/130X_mcRun3_2022_realistic_postEE_v6-v2/2550000/d86d809a-fc46-4ab2-ab1c-49b06eaaec3e.root
/store/mc/Run3Summer22EENanoAODv12/VBFHHto2B2Tau_CV-m1p21_C2V-1p94_C3-m0p94_TuneCP5_13p6TeV_madgraph-pythia8/NANOAODSIM/130X_mcRun3_2022_realistic_postEE_v6-v2/2550000/741d44c5-9531-4762-ad9a-5c159bba42a1.root
/store/mc/Run3Summer22EENanoAODv12/VBFHHto2B2Tau_CV-m1p21_C2V-1p94_C3-m0p94_TuneCP5_13p6TeV_madgraph-pythia8/NANOAODSIM/130X_mcRun3_2022_realistic_postEE_v6-v2/2550000/94677c18-d419-47c2-8f50-fb083d28503b.root
/store/mc/Run3Summer22EENanoAODv12/VBFHHto2B2Tau_CV-m1p21_C2V-1p94_C3-m0p94_TuneCP5_13p6TeV_madgraph-pythia8/NANOAODSIM/130X_mcRun3_2022_realistic_postEE_v6-v2/2550000/a43404c7-bc29-4664-9df9-fc0c275ef45b.root
/store/mc/Run3Summer22EENanoAODv12/VBFHHto2B2Tau_CV-m1p21_C2V-1p94_C3-m0p94_TuneCP5_13p6TeV_madgraph-pythia8/NANOAODSIM/130X_mcRun3_2022_realistic_postEE_v6-v2/2550000/b04d00b1-656c-4414-9805-c03337808c5c.root
/store/mc/Run3Summer22EENanoAODv12/VBFHHto2B2Tau_CV-m1p21_C2V-1p94_C3-m0p94_TuneCP5_13p6TeV_madgraph-pythia8/NANOAODSIM/130X_mcRun3_2022_realistic_postEE_v6-v2/2550000/5627b853-460d-45ec-92aa-f054db96dcbd.root
/store/mc/Run3Summer22EENanoAODv12/VBFHHto2B2Tau_CV-m1p21_C2V-1p94_C3-m0p94_TuneCP5_13p6TeV_madgraph-pythia8/NANOAODSIM/130X_mcRun3_2022_realistic_postEE_v6-v2/2550000/ba52e51d-d697-4fa1-90b9-f364800df44e.root
/store/mc/Run3Summer22EENanoAODv12/VBFHHto2B2Tau_CV-m1p21_C2V-1p94_C3-m0p94_TuneCP5_13p6TeV_madgraph-pythia8/NANOAODSIM/130X_mcRun3_2022_realistic_postEE_v6-v2/2550000/84715e23-b05a-4f33-89a3-a181f116d76c.root
/store/mc/Run3Summer22EENanoAODv12/VBFHHto2B2Tau_CV-m1p21_C2V-1p94_C3-m0p94_TuneCP5_13p6TeV_madgraph-pythia8/NANOAODSIM/130X_mcRun3_2022_realistic_postEE_v6-v2/2550000/ca9266ac-09ad-4f15-b120-4994cae2303f.root
/store/mc/Run3Summer22EENanoAODv12/VBFHHto2B2Tau_CV-m1p21_C2V-1p94_C3-m0p94_TuneCP5_13p6TeV_madgraph-pythia8/NANOAODSIM/130X_mcRun3_2022_realistic_postEE_v6-v2/2550000/c1908f5c-972b-4a5b-9727-4afa4b044dbe.root
/store/mc/Run3Summer22EENanoAODv12/VBFHHto2B2Tau_CV-m1p21_C2V-1p94_C3-m0p94_TuneCP5_13p6TeV_madgraph-pythia8/NANOAODSIM/130X_mcRun3_2022_realistic_postEE_v6-v2/2550000/9f3f1012-0659-47e3-b7c7-96095997530e.root
/store/mc/Run3Summer22EENanoAODv12/VBFHHto2B2Tau_CV-m1p21_C2V-1p94_C3-m0p94_TuneCP5_13p6TeV_madgraph-pythia8/NANOAODSIM/130X_mcRun3_2022_realistic_postEE_v6-v2/2550000/08e63f0b-9759-48fd-8a9e-14670a9290dc.root
/store/mc/Run3Summer22EENanoAODv12/VBFHHto2B2Tau_CV-m1p21_C2V-1p94_C3-m0p94_TuneCP5_13p6TeV_madgraph-pythia8/NANOAODSIM/130X_mcRun3_2022_realistic_postEE_v6-v2/2550000/6021d510-c291-49e9-8b93-489b1b20299a.root
/store/mc/Run3Summer22EENanoAODv12/VBFHHto2B2Tau_CV-m1p21_C2V-1p94_C3-m0p94_TuneCP5_13p6TeV_madgraph-pythia8/NANOAODSIM/130X_mcRun3_2022_realistic_postEE_v6-v2/2550000/3a979af7-7a41-4262-8889-74bc2aee3d6e.root
/store/mc/Run3Summer22EENanoAODv12/VBFHHto2B2Tau_CV-m1p21_C2V-1p94_C3-m0p94_TuneCP5_13p6TeV_madgraph-pythia8/NANOAODSIM/130X_mcRun3_2022_realistic_postEE_v6-v2/2550000/3966095c-3825-437b-8da5-f6737ca204be.root
/store/mc/Run3Summer22EENanoAODv12/VBFHHto2B2Tau_CV-m1p21_C2V-1p94_C3-m0p94_TuneCP5_13p6TeV_madgraph-pythia8/NANOAODSIM/130X_mcRun3_2022_realistic_postEE_v6-v2/2550000/21aa8dff-89d3-4f51-8e9a-1c79f9fcfabc.root
/store/mc/Run3Summer22EENanoAODv12/VBFHHto2B2Tau_CV-m1p21_C2V-1p94_C3-m0p94_TuneCP5_13p6TeV_madgraph-pythia8/NANOAODSIM/130X_mcRun3_2022_realistic_postEE_v6-v2/2550000/2e160022-ee88-41a2-8989-9057b503c9a6.root
/store/mc/Run3Summer22EENanoAODv12/VBFHHto2B2Tau_CV-m1p21_C2V-1p94_C3-m0p94_TuneCP5_13p6TeV_madgraph-pythia8/NANOAODSIM/130X_mcRun3_2022_realistic_postEE_v6-v2/2550000/b23c2dc4-04f3-42cf-88db-d4a56a276243.root
/store/mc/Run3Summer22EENanoAODv12/VBFHHto2B2Tau_CV-m1p21_C2V-1p94_C3-m0p94_TuneCP5_13p6TeV_madgraph-pythia8/NANOAODSIM/130X_mcRun3_2022_realistic_postEE_v6-v2/2550000/3b005bf1-b163-4ac4-8e17-2efdaeecfb4c.root