/store/mc/Run3Summer22EENanoAODv12/WtoLNu-2Jets_PTLNu-200to400_1J_TuneCP5_13p6TeV_amcatnloFXFX-pythia8/NANOAODSIM/130X_mcRun3_2022_realistic_postEE_v6-v3/80000/8c553c63-5aae-4331-ac00-6d943fe008b1.root
/store/mc/Run3Summer22EENanoAODv12/WtoLNu-2Jets_PTLNu-200to400_1J_TuneCP5_13p6TeV_amcatnloFXFX-pythia8/NANOAODSIM/130X_mcRun3_2022_realistic_postEE_v6-v3/80000/932c06de-1645-4e16-9841-a7a45fcc4447.root
/store/mc/Run3Summer22EENanoAODv12/WtoLNu-2Jets_PTLNu-200to400_1J_TuneCP5_13p6TeV_amcatnloFXFX-pythia8/NANOAODSIM/130X_mcRun3_2022_realistic_postEE_v6-v3/80000/078437c7-ac51-4f20-a338-a2b407472546.root
/store/mc/Run3Summer22EENanoAODv12/WtoLNu-2Jets_PTLNu-200to400_1J_TuneCP5_13p6TeV_amcatnloFXFX-pythia8/NANOAODSIM/130X_mcRun3_2022_realistic_postEE_v6-v3/2550000/44f66234-d49b-4458-99dd-7dd4d4814b99.root
/store/mc/Run3Summer22EENanoAODv12/WtoLNu-2Jets_PTLNu-200to400_1J_TuneCP5_13p6TeV_amcatnloFXFX-pythia8/NANOAODSIM/130X_mcRun3_2022_realistic_postEE_v6-v3/2550000/b91bf570-fd99-4660-a233-4f3f318b7280.root
/store/mc/Run3Summer22EENanoAODv12/WtoLNu-2Jets_PTLNu-200to400_1J_TuneCP5_13p6TeV_amcatnloFXFX-pythia8/NANOAODSIM/130X_mcRun3_2022_realistic_postEE_v6-v3/2550000/622c6a1a-16b7-43f8-b13e-08ded50260ca.root
/store/mc/Run3Summer22EENanoAODv12/WtoLNu-2Jets_PTLNu-200to400_1J_TuneCP5_13p6TeV_amcatnloFXFX-pythia8/NANOAODSIM/130X_mcRun3_2022_realistic_postEE_v6-v3/2550000/c2dc26a4-9edf-43ec-82fb-767f4735bd84.root
/store/mc/Run3Summer22EENanoAODv12/WtoLNu-2Jets_PTLNu-200to400_1J_TuneCP5_13p6TeV_amcatnloFXFX-pythia8/NANOAODSIM/130X_mcRun3_2022_realistic_postEE_v6-v3/2550000/d66474de-ac37-4317-88a0-8bf573ba345b.root
/store/mc/Run3Summer22EENanoAODv12/WtoLNu-2Jets_PTLNu-200to400_1J_TuneCP5_13p6TeV_amcatnloFXFX-pythia8/NANOAODSIM/130X_mcRun3_2022_realistic_postEE_v6-v3/2550000/3d23a625-c063-4173-ad40-58ae7d491f4e.root
/store/mc/Run3Summer22EENanoAODv12/WtoLNu-2Jets_PTLNu-200to400_1J_TuneCP5_13p6TeV_amcatnloFXFX-pythia8/NANOAODSIM/130X_mcRun3_2022_realistic_postEE_v6-v3/2550000/b1111005-b543-4407-9fa0-ef456d4a1239.root
/store/mc/Run3Summer22EENanoAODv12/WtoLNu-2Jets_PTLNu-200to400_1J_TuneCP5_13p6TeV_amcatnloFXFX-pythia8/NANOAODSIM/130X_mcRun3_2022_realistic_postEE_v6-v3/2550000/32c299bd-91e3-4d37-850e-6c179b5adbf3.root
/store/mc/Run3Summer22EENanoAODv12/WtoLNu-2Jets_PTLNu-200to400_1J_TuneCP5_13p6TeV_amcatnloFXFX-pythia8/NANOAODSIM/130X_mcRun3_2022_realistic_postEE_v6-v3/2550000/81eed0a2-ad9c-4e96-90eb-ed134c50cf1d.root
/store/mc/Run3Summer22EENanoAODv12/WtoLNu-2Jets_PTLNu-200to400_1J_TuneCP5_13p6TeV_amcatnloFXFX-pythia8/NANOAODSIM/130X_mcRun3_2022_realistic_postEE_v6-v3/2550000/62eb9d42-a51e-4645-9b92-a4302d7e349a.root
/store/mc/Run3Summer22EENanoAODv12/WtoLNu-2Jets_PTLNu-200to400_1J_TuneCP5_13p6TeV_amcatnloFXFX-pythia8/NANOAODSIM/130X_mcRun3_2022_realistic_postEE_v6-v3/2550000/0343bf6c-66f1-4506-bc9e-00bd0309d662.root
/store/mc/Run3Summer22EENanoAODv12/WtoLNu-2Jets_PTLNu-200to400_1J_TuneCP5_13p6TeV_amcatnloFXFX-pythia8/NANOAODSIM/130X_mcRun3_2022_realistic_postEE_v6-v3/2550000/4d8472cb-8f7e-453b-8706-d252e06c42b4.root
/store/mc/Run3Summer22EENanoAODv12/WtoLNu-2Jets_PTLNu-200to400_1J_TuneCP5_13p6TeV_amcatnloFXFX-pythia8/NANOAODSIM/130X_mcRun3_2022_realistic_postEE_v6-v3/2550000/a71ad668-bde6-44e7-8ad3-0405d7d0f8a2.root
/store/mc/Run3Summer22EENanoAODv12/WtoLNu-2Jets_PTLNu-200to400_1J_TuneCP5_13p6TeV_amcatnloFXFX-pythia8/NANOAODSIM/130X_mcRun3_2022_realistic_postEE_v6-v3/2550000/8d4d0907-4377-4ac3-b15c-ce98b0070dd1.root
/store/mc/Run3Summer22EENanoAODv12/WtoLNu-2Jets_PTLNu-200to400_1J_TuneCP5_13p6TeV_amcatnloFXFX-pythia8/NANOAODSIM/130X_mcRun3_2022_realistic_postEE_v6-v3/2550000/cf156d43-e576-440e-93e8-0411c705ce7b.root
/store/mc/Run3Summer22EENanoAODv12/WtoLNu-2Jets_PTLNu-200to400_1J_TuneCP5_13p6TeV_amcatnloFXFX-pythia8/NANOAODSIM/130X_mcRun3_2022_realistic_postEE_v6-v3/2550000/37fd1039-8182-4f97-8290-5ed6ac62e812.root
/store/mc/Run3Summer22EENanoAODv12/WtoLNu-2Jets_PTLNu-200to400_1J_TuneCP5_13p6TeV_amcatnloFXFX-pythia8/NANOAODSIM/130X_mcRun3_2022_realistic_postEE_v6-v3/2550000/f024d713-3f3d-46cd-91c5-eaef839668a9.root
/store/mc/Run3Summer22EENanoAODv12/WtoLNu-2Jets_PTLNu-200to400_1J_TuneCP5_13p6TeV_amcatnloFXFX-pythia8/NANOAODSIM/130X_mcRun3_2022_realistic_postEE_v6-v3/2550000/0eb88701-f41f-4611-9ec3-c3dfb2da45e4.root
/store/mc/Run3Summer22EENanoAODv12/WtoLNu-2Jets_PTLNu-200to400_1J_TuneCP5_13p6TeV_amcatnloFXFX-pythia8/NANOAODSIM/130X_mcRun3_2022_realistic_postEE_v6-v3/2550000/e05abbbb-8f9d-4b06-90c8-2db5d85c0ac7.root
/store/mc/Run3Summer22EENanoAODv12/WtoLNu-2Jets_PTLNu-200to400_1J_TuneCP5_13p6TeV_amcatnloFXFX-pythia8/NANOAODSIM/130X_mcRun3_2022_realistic_postEE_v6-v3/80000/aed1fa0f-57a9-4f04-bc7f-66d87ca01a3b.root
/store/mc/Run3Summer22EENanoAODv12/WtoLNu-2Jets_PTLNu-200to400_1J_TuneCP5_13p6TeV_amcatnloFXFX-pythia8/NANOAODSIM/130X_mcRun3_2022_realistic_postEE_v6-v3/80000/c993e56f-a41a-4ab6-8946-b97734ec0d5a.root
/store/mc/Run3Summer22EENanoAODv12/WtoLNu-2Jets_PTLNu-200to400_1J_TuneCP5_13p6TeV_amcatnloFXFX-pythia8/NANOAODSIM/130X_mcRun3_2022_realistic_postEE_v6-v3/2550000/0e119878-46c6-4832-94d5-812e6b0093d9.root
/store/mc/Run3Summer22EENanoAODv12/WtoLNu-2Jets_PTLNu-200to400_1J_TuneCP5_13p6TeV_amcatnloFXFX-pythia8/NANOAODSIM/130X_mcRun3_2022_realistic_postEE_v6-v3/2550000/a80bafd8-41ae-4d5b-b53c-e446d0150d57.root
/store/mc/Run3Summer22EENanoAODv12/WtoLNu-2Jets_PTLNu-200to400_1J_TuneCP5_13p6TeV_amcatnloFXFX-pythia8/NANOAODSIM/130X_mcRun3_2022_realistic_postEE_v6-v3/2550000/ecbf96dc-9ae1-4b6f-99a8-5e49aae67014.root
/store/mc/Run3Summer22EENanoAODv12/WtoLNu-2Jets_PTLNu-200to400_1J_TuneCP5_13p6TeV_amcatnloFXFX-pythia8/NANOAODSIM/130X_mcRun3_2022_realistic_postEE_v6-v3/2550000/f76364be-6b00-4b17-94f4-f99e885e30cf.root
/store/mc/Run3Summer22EENanoAODv12/WtoLNu-2Jets_PTLNu-200to400_1J_TuneCP5_13p6TeV_amcatnloFXFX-pythia8/NANOAODSIM/130X_mcRun3_2022_realistic_postEE_v6-v3/2550000/19b84654-4fe0-45b3-b7d2-8b3240bf20e7.root
/store/mc/Run3Summer22EENanoAODv12/WtoLNu-2Jets_PTLNu-200to400_1J_TuneCP5_13p6TeV_amcatnloFXFX-pythia8/NANOAODSIM/130X_mcRun3_2022_realistic_postEE_v6-v3/2550000/c8551764-1561-453f-bad2-0853e8501c68.root
/store/mc/Run3Summer22EENanoAODv12/WtoLNu-2Jets_PTLNu-200to400_1J_TuneCP5_13p6TeV_amcatnloFXFX-pythia8/NANOAODSIM/130X_mcRun3_2022_realistic_postEE_v6-v3/2550000/f2ded737-2e21-4552-93b1-68ab396a1c80.root
/store/mc/Run3Summer22EENanoAODv12/WtoLNu-2Jets_PTLNu-200to400_1J_TuneCP5_13p6TeV_amcatnloFXFX-pythia8/NANOAODSIM/130X_mcRun3_2022_realistic_postEE_v6-v3/2550000/be60088f-32fc-4853-8a51-aad36a2686b5.root
/store/mc/Run3Summer22EENanoAODv12/WtoLNu-2Jets_PTLNu-200to400_1J_TuneCP5_13p6TeV_amcatnloFXFX-pythia8/NANOAODSIM/130X_mcRun3_2022_realistic_postEE_v6-v3/2550000/3248ff71-064f-4ea9-a594-4ef7b7bb16aa.root
/store/mc/Run3Summer22EENanoAODv12/WtoLNu-2Jets_PTLNu-200to400_1J_TuneCP5_13p6TeV_amcatnloFXFX-pythia8/NANOAODSIM/130X_mcRun3_2022_realistic_postEE_v6-v3/2550000/742a15dd-e063-4c1b-8110-da3fefc3c2fc.root
/store/mc/Run3Summer22EENanoAODv12/WtoLNu-2Jets_PTLNu-200to400_1J_TuneCP5_13p6TeV_amcatnloFXFX-pythia8/NANOAODSIM/130X_mcRun3_2022_realistic_postEE_v6-v3/2550000/726030d0-acbf-4179-a5da-37026706a012.root
/store/mc/Run3Summer22EENanoAODv12/WtoLNu-2Jets_PTLNu-200to400_1J_TuneCP5_13p6TeV_amcatnloFXFX-pythia8/NANOAODSIM/130X_mcRun3_2022_realistic_postEE_v6-v3/2550000/d89c81eb-7ee0-46ba-abdb-57984c86284c.root
/store/mc/Run3Summer22EENanoAODv12/WtoLNu-2Jets_PTLNu-200to400_1J_TuneCP5_13p6TeV_amcatnloFXFX-pythia8/NANOAODSIM/130X_mcRun3_2022_realistic_postEE_v6-v3/2550000/4aa75628-25a2-4c48-abb4-67a70c58be9b.root
/store/mc/Run3Summer22EENanoAODv12/WtoLNu-2Jets_PTLNu-200to400_1J_TuneCP5_13p6TeV_amcatnloFXFX-pythia8/NANOAODSIM/130X_mcRun3_2022_realistic_postEE_v6-v3/80000/b3759d4d-47bd-443f-ac65-535d2be0a3f3.root
/store/mc/Run3Summer22EENanoAODv12/WtoLNu-2Jets_PTLNu-200to400_1J_TuneCP5_13p6TeV_amcatnloFXFX-pythia8/NANOAODSIM/130X_mcRun3_2022_realistic_postEE_v6-v3/80000/ba568ca5-35a6-4150-9325-5f590052b935.root
/store/mc/Run3Summer22EENanoAODv12/WtoLNu-2Jets_PTLNu-200to400_1J_TuneCP5_13p6TeV_amcatnloFXFX-pythia8/NANOAODSIM/130X_mcRun3_2022_realistic_postEE_v6-v3/80000/7a0f5ba9-8c4e-416d-af70-8c1eded5494e.root
/store/mc/Run3Summer22EENanoAODv12/WtoLNu-2Jets_PTLNu-200to400_1J_TuneCP5_13p6TeV_amcatnloFXFX-pythia8/NANOAODSIM/130X_mcRun3_2022_realistic_postEE_v6-v3/80000/e46322fb-c2cc-4a61-bfa6-f389a5003d50.root
/store/mc/Run3Summer22EENanoAODv12/WtoLNu-2Jets_PTLNu-200to400_1J_TuneCP5_13p6TeV_amcatnloFXFX-pythia8/NANOAODSIM/130X_mcRun3_2022_realistic_postEE_v6-v3/80000/41f830b2-c935-4862-8eed-51bc0564ad9e.root
/store/mc/Run3Summer22EENanoAODv12/WtoLNu-2Jets_PTLNu-200to400_1J_TuneCP5_13p6TeV_amcatnloFXFX-pythia8/NANOAODSIM/130X_mcRun3_2022_realistic_postEE_v6-v3/2550000/ec89057f-6fc4-4e3b-ae3a-e2e182130df5.root
/store/mc/Run3Summer22EENanoAODv12/WtoLNu-2Jets_PTLNu-200to400_1J_TuneCP5_13p6TeV_amcatnloFXFX-pythia8/NANOAODSIM/130X_mcRun3_2022_realistic_postEE_v6-v3/2550000/53bfd2e6-0013-44fd-b8b2-232d6dfb1ca4.root
/store/mc/Run3Summer22EENanoAODv12/WtoLNu-2Jets_PTLNu-200to400_1J_TuneCP5_13p6TeV_amcatnloFXFX-pythia8/NANOAODSIM/130X_mcRun3_2022_realistic_postEE_v6-v3/2550000/4b923ce7-25d3-4bcb-90a5-1f741417ef17.root
/store/mc/Run3Summer22EENanoAODv12/WtoLNu-2Jets_PTLNu-200to400_1J_TuneCP5_13p6TeV_amcatnloFXFX-pythia8/NANOAODSIM/130X_mcRun3_2022_realistic_postEE_v6-v3/2550000/43dbcdca-f766-4c17-9e0f-795ba03bde62.root
/store/mc/Run3Summer22EENanoAODv12/WtoLNu-2Jets_PTLNu-200to400_1J_TuneCP5_13p6TeV_amcatnloFXFX-pythia8/NANOAODSIM/130X_mcRun3_2022_realistic_postEE_v6-v3/2550000/8cb49e5f-7092-4803-a75e-4ebca2f277d4.root
/store/mc/Run3Summer22EENanoAODv12/WtoLNu-2Jets_PTLNu-200to400_1J_TuneCP5_13p6TeV_amcatnloFXFX-pythia8/NANOAODSIM/130X_mcRun3_2022_realistic_postEE_v6-v3/80000/1ffa278e-01de-49be-ad8d-cf3f5add464e.root
/store/mc/Run3Summer22EENanoAODv12/WtoLNu-2Jets_PTLNu-200to400_1J_TuneCP5_13p6TeV_amcatnloFXFX-pythia8/NANOAODSIM/130X_mcRun3_2022_realistic_postEE_v6-v3/80000/b4c67c5a-a8b1-45d9-8282-70ea083024f1.root
/store/mc/Run3Summer22EENanoAODv12/WtoLNu-2Jets_PTLNu-200to400_1J_TuneCP5_13p6TeV_amcatnloFXFX-pythia8/NANOAODSIM/130X_mcRun3_2022_realistic_postEE_v6-v3/80000/735e482b-813d-4712-87d6-83f673c59559.root
/store/mc/Run3Summer22EENanoAODv12/WtoLNu-2Jets_PTLNu-200to400_1J_TuneCP5_13p6TeV_amcatnloFXFX-pythia8/NANOAODSIM/130X_mcRun3_2022_realistic_postEE_v6-v3/2550000/367eb050-c1da-4660-bc4f-136ca61e0549.root
/store/mc/Run3Summer22EENanoAODv12/WtoLNu-2Jets_PTLNu-200to400_1J_TuneCP5_13p6TeV_amcatnloFXFX-pythia8/NANOAODSIM/130X_mcRun3_2022_realistic_postEE_v6-v3/2550000/f2c2b909-fab0-4d42-bc27-836ef1ca1fb0.root
/store/mc/Run3Summer22EENanoAODv12/WtoLNu-2Jets_PTLNu-200to400_1J_TuneCP5_13p6TeV_amcatnloFXFX-pythia8/NANOAODSIM/130X_mcRun3_2022_realistic_postEE_v6-v3/2550000/4422f2b6-2053-4e03-ae82-9e2da6b28418.root
/store/mc/Run3Summer22EENanoAODv12/WtoLNu-2Jets_PTLNu-200to400_1J_TuneCP5_13p6TeV_amcatnloFXFX-pythia8/NANOAODSIM/130X_mcRun3_2022_realistic_postEE_v6-v3/2550000/ea29367d-fe30-4499-803b-43b2050f993c.root
/store/mc/Run3Summer22EENanoAODv12/WtoLNu-2Jets_PTLNu-200to400_1J_TuneCP5_13p6TeV_amcatnloFXFX-pythia8/NANOAODSIM/130X_mcRun3_2022_realistic_postEE_v6-v3/80000/573700f2-cef1-4bd6-83ae-447e2115bd60.root
/store/mc/Run3Summer22EENanoAODv12/WtoLNu-2Jets_PTLNu-200to400_1J_TuneCP5_13p6TeV_amcatnloFXFX-pythia8/NANOAODSIM/130X_mcRun3_2022_realistic_postEE_v6-v3/80000/101dd830-e68f-4d52-970d-08e94c7d3e9a.root
/store/mc/Run3Summer22EENanoAODv12/WtoLNu-2Jets_PTLNu-200to400_1J_TuneCP5_13p6TeV_amcatnloFXFX-pythia8/NANOAODSIM/130X_mcRun3_2022_realistic_postEE_v6-v3/80000/dde91163-a091-432d-9218-a4a79d418420.root
/store/mc/Run3Summer22EENanoAODv12/WtoLNu-2Jets_PTLNu-200to400_1J_TuneCP5_13p6TeV_amcatnloFXFX-pythia8/NANOAODSIM/130X_mcRun3_2022_realistic_postEE_v6-v3/2550000/5275fbf6-1ccf-44a8-97d4-c3eb35770503.root
/store/mc/Run3Summer22EENanoAODv12/WtoLNu-2Jets_PTLNu-200to400_1J_TuneCP5_13p6TeV_amcatnloFXFX-pythia8/NANOAODSIM/130X_mcRun3_2022_realistic_postEE_v6-v3/80000/2dc3633c-d06c-41cf-9108-6085b70db65f.root
/store/mc/Run3Summer22EENanoAODv12/WtoLNu-2Jets_PTLNu-200to400_1J_TuneCP5_13p6TeV_amcatnloFXFX-pythia8/NANOAODSIM/130X_mcRun3_2022_realistic_postEE_v6-v3/80000/29731759-7780-4d1e-a815-f3a15bb37cc3.root
/store/mc/Run3Summer22EENanoAODv12/WtoLNu-2Jets_PTLNu-200to400_1J_TuneCP5_13p6TeV_amcatnloFXFX-pythia8/NANOAODSIM/130X_mcRun3_2022_realistic_postEE_v6-v3/80000/85850880-65ba-4dde-a1a1-4b4f99500dbc.root
/store/mc/Run3Summer22EENanoAODv12/WtoLNu-2Jets_PTLNu-200to400_1J_TuneCP5_13p6TeV_amcatnloFXFX-pythia8/NANOAODSIM/130X_mcRun3_2022_realistic_postEE_v6-v3/80000/901f4865-996a-4da7-81ac-83e84992e5cf.root
/store/mc/Run3Summer22EENanoAODv12/WtoLNu-2Jets_PTLNu-200to400_1J_TuneCP5_13p6TeV_amcatnloFXFX-pythia8/NANOAODSIM/130X_mcRun3_2022_realistic_postEE_v6-v3/80000/e990cf1c-e656-4e22-9a7b-7d17ee0e9a18.root
/store/mc/Run3Summer22EENanoAODv12/WtoLNu-2Jets_PTLNu-200to400_1J_TuneCP5_13p6TeV_amcatnloFXFX-pythia8/NANOAODSIM/130X_mcRun3_2022_realistic_postEE_v6-v3/2550000/124f2ff2-1d59-4500-9cbf-f99536efcd33.root
/store/mc/Run3Summer22EENanoAODv12/WtoLNu-2Jets_PTLNu-200to400_1J_TuneCP5_13p6TeV_amcatnloFXFX-pythia8/NANOAODSIM/130X_mcRun3_2022_realistic_postEE_v6-v3/2550000/08c2fd1f-2c7c-4ad0-84c6-4e6c574ae819.root
/store/mc/Run3Summer22EENanoAODv12/WtoLNu-2Jets_PTLNu-200to400_1J_TuneCP5_13p6TeV_amcatnloFXFX-pythia8/NANOAODSIM/130X_mcRun3_2022_realistic_postEE_v6-v3/2550000/41189d1b-11cf-44c8-8953-de2dce233ac1.root
/store/mc/Run3Summer22EENanoAODv12/WtoLNu-2Jets_PTLNu-200to400_1J_TuneCP5_13p6TeV_amcatnloFXFX-pythia8/NANOAODSIM/130X_mcRun3_2022_realistic_postEE_v6-v3/2550000/66d2381f-8bc4-4c6a-ac5e-e540387ef601.root
/store/mc/Run3Summer22EENanoAODv12/WtoLNu-2Jets_PTLNu-200to400_1J_TuneCP5_13p6TeV_amcatnloFXFX-pythia8/NANOAODSIM/130X_mcRun3_2022_realistic_postEE_v6-v3/2550000/2e51d360-8fe7-4907-a400-25ee120bb040.root
/store/mc/Run3Summer22EENanoAODv12/WtoLNu-2Jets_PTLNu-200to400_1J_TuneCP5_13p6TeV_amcatnloFXFX-pythia8/NANOAODSIM/130X_mcRun3_2022_realistic_postEE_v6-v3/80000/e0562b19-ccd9-452d-82db-d2cecd63cb3c.root
/store/mc/Run3Summer22EENanoAODv12/WtoLNu-2Jets_PTLNu-200to400_1J_TuneCP5_13p6TeV_amcatnloFXFX-pythia8/NANOAODSIM/130X_mcRun3_2022_realistic_postEE_v6-v3/80000/ab5bbed6-a571-4223-9141-c45296280d89.root
/store/mc/Run3Summer22EENanoAODv12/WtoLNu-2Jets_PTLNu-200to400_1J_TuneCP5_13p6TeV_amcatnloFXFX-pythia8/NANOAODSIM/130X_mcRun3_2022_realistic_postEE_v6-v3/80000/26331a19-1faf-44d9-8681-ba29d225f03d.root
/store/mc/Run3Summer22EENanoAODv12/WtoLNu-2Jets_PTLNu-200to400_1J_TuneCP5_13p6TeV_amcatnloFXFX-pythia8/NANOAODSIM/130X_mcRun3_2022_realistic_postEE_v6-v3/80000/2a05b33a-16e4-4033-a28e-0af8467febcb.root
/store/mc/Run3Summer22EENanoAODv12/WtoLNu-2Jets_PTLNu-200to400_1J_TuneCP5_13p6TeV_amcatnloFXFX-pythia8/NANOAODSIM/130X_mcRun3_2022_realistic_postEE_v6-v3/80000/38039768-d9cc-4cb7-88c9-a066315315c5.root
/store/mc/Run3Summer22EENanoAODv12/WtoLNu-2Jets_PTLNu-200to400_1J_TuneCP5_13p6TeV_amcatnloFXFX-pythia8/NANOAODSIM/130X_mcRun3_2022_realistic_postEE_v6-v3/2550000/685aa2a6-87ce-4052-af7e-23b3df307804.root
/store/mc/Run3Summer22EENanoAODv12/WtoLNu-2Jets_PTLNu-200to400_1J_TuneCP5_13p6TeV_amcatnloFXFX-pythia8/NANOAODSIM/130X_mcRun3_2022_realistic_postEE_v6-v3/2550000/0a75238d-d4d2-4ccb-a3c6-b470b83849d6.root
/store/mc/Run3Summer22EENanoAODv12/WtoLNu-2Jets_PTLNu-200to400_1J_TuneCP5_13p6TeV_amcatnloFXFX-pythia8/NANOAODSIM/130X_mcRun3_2022_realistic_postEE_v6-v3/80000/cf21706d-6d61-4731-bfa6-b3a0514263b0.root
/store/mc/Run3Summer22EENanoAODv12/WtoLNu-2Jets_PTLNu-200to400_1J_TuneCP5_13p6TeV_amcatnloFXFX-pythia8/NANOAODSIM/130X_mcRun3_2022_realistic_postEE_v6-v3/80000/30726e80-257f-4269-a7a8-b9ef32b99d81.root
/store/mc/Run3Summer22EENanoAODv12/WtoLNu-2Jets_PTLNu-200to400_1J_TuneCP5_13p6TeV_amcatnloFXFX-pythia8/NANOAODSIM/130X_mcRun3_2022_realistic_postEE_v6-v3/80000/62202eba-6dff-43d7-807c-be10cd70fc6f.root
/store/mc/Run3Summer22EENanoAODv12/WtoLNu-2Jets_PTLNu-200to400_1J_TuneCP5_13p6TeV_amcatnloFXFX-pythia8/NANOAODSIM/130X_mcRun3_2022_realistic_postEE_v6-v3/80000/18140b85-b226-4691-9700-85d88937a1d0.root
/store/mc/Run3Summer22EENanoAODv12/WtoLNu-2Jets_PTLNu-200to400_1J_TuneCP5_13p6TeV_amcatnloFXFX-pythia8/NANOAODSIM/130X_mcRun3_2022_realistic_postEE_v6-v3/80000/d8359955-d906-4be2-a453-7dababec3698.root
/store/mc/Run3Summer22EENanoAODv12/WtoLNu-2Jets_PTLNu-200to400_1J_TuneCP5_13p6TeV_amcatnloFXFX-pythia8/NANOAODSIM/130X_mcRun3_2022_realistic_postEE_v6-v3/80000/5dc8cba2-9643-4c0f-88f2-833ca1093d24.root
/store/mc/Run3Summer22EENanoAODv12/WtoLNu-2Jets_PTLNu-200to400_1J_TuneCP5_13p6TeV_amcatnloFXFX-pythia8/NANOAODSIM/130X_mcRun3_2022_realistic_postEE_v6-v3/80000/09214183-d0f1-4f38-a695-e209b1aa500f.root
/store/mc/Run3Summer22EENanoAODv12/WtoLNu-2Jets_PTLNu-200to400_1J_TuneCP5_13p6TeV_amcatnloFXFX-pythia8/NANOAODSIM/130X_mcRun3_2022_realistic_postEE_v6-v3/80000/352b01ec-25e0-4da7-bdb1-02e0c00cd993.root
/store/mc/Run3Summer22EENanoAODv12/WtoLNu-2Jets_PTLNu-200to400_1J_TuneCP5_13p6TeV_amcatnloFXFX-pythia8/NANOAODSIM/130X_mcRun3_2022_realistic_postEE_v6-v3/80000/2fe565d9-2147-460e-9be2-64259eb01c75.root
/store/mc/Run3Summer22EENanoAODv12/WtoLNu-2Jets_PTLNu-200to400_1J_TuneCP5_13p6TeV_amcatnloFXFX-pythia8/NANOAODSIM/130X_mcRun3_2022_realistic_postEE_v6-v3/80000/1bab6b21-b289-4408-bc61-d5816a7a4bef.root
/store/mc/Run3Summer22EENanoAODv12/WtoLNu-2Jets_PTLNu-200to400_1J_TuneCP5_13p6TeV_amcatnloFXFX-pythia8/NANOAODSIM/130X_mcRun3_2022_realistic_postEE_v6-v3/80000/d89236a3-6895-4611-8457-ed23d8074371.root
/store/mc/Run3Summer22EENanoAODv12/WtoLNu-2Jets_PTLNu-200to400_1J_TuneCP5_13p6TeV_amcatnloFXFX-pythia8/NANOAODSIM/130X_mcRun3_2022_realistic_postEE_v6-v3/80000/c2b34b57-8a3e-439c-b730-da16d9d0f87e.root
/store/mc/Run3Summer22EENanoAODv12/WtoLNu-2Jets_PTLNu-200to400_1J_TuneCP5_13p6TeV_amcatnloFXFX-pythia8/NANOAODSIM/130X_mcRun3_2022_realistic_postEE_v6-v3/80000/b73ac23e-8792-48e7-8ad7-c4b6404b3316.root
/store/mc/Run3Summer22EENanoAODv12/WtoLNu-2Jets_PTLNu-200to400_1J_TuneCP5_13p6TeV_amcatnloFXFX-pythia8/NANOAODSIM/130X_mcRun3_2022_realistic_postEE_v6-v3/80000/64bb5f14-4822-4405-9c49-11a135e5e702.root
/store/mc/Run3Summer22EENanoAODv12/WtoLNu-2Jets_PTLNu-200to400_1J_TuneCP5_13p6TeV_amcatnloFXFX-pythia8/NANOAODSIM/130X_mcRun3_2022_realistic_postEE_v6-v3/80000/f77e3827-9e7d-4be5-b75b-866d7b703860.root
/store/mc/Run3Summer22EENanoAODv12/WtoLNu-2Jets_PTLNu-200to400_1J_TuneCP5_13p6TeV_amcatnloFXFX-pythia8/NANOAODSIM/130X_mcRun3_2022_realistic_postEE_v6-v3/80000/c633b6f4-8f0f-4c73-998f-10101d88f13c.root