/store/mc/Run3Summer22EENanoAODv12/WtoLNu-2Jets_PTLNu-400to600_2J_TuneCP5_13p6TeV_amcatnloFXFX-pythia8/NANOAODSIM/130X_mcRun3_2022_realistic_postEE_v6-v1/2550000/ea5a7f38-bbf2-4d6d-a4c0-da5586e8b9cd.root
/store/mc/Run3Summer22EENanoAODv12/WtoLNu-2Jets_PTLNu-400to600_2J_TuneCP5_13p6TeV_amcatnloFXFX-pythia8/NANOAODSIM/130X_mcRun3_2022_realistic_postEE_v6-v1/2550000/5db5d568-fcaf-4b2c-a4e8-09e916aeb66f.root
/store/mc/Run3Summer22EENanoAODv12/WtoLNu-2Jets_PTLNu-400to600_2J_TuneCP5_13p6TeV_amcatnloFXFX-pythia8/NANOAODSIM/130X_mcRun3_2022_realistic_postEE_v6-v1/80000/9131ddb2-459d-4c29-8a0d-fa68c7b76593.root
/store/mc/Run3Summer22EENanoAODv12/WtoLNu-2Jets_PTLNu-400to600_2J_TuneCP5_13p6TeV_amcatnloFXFX-pythia8/NANOAODSIM/130X_mcRun3_2022_realistic_postEE_v6-v1/80000/9708f363-d314-4916-979c-3923226ce718.root
/store/mc/Run3Summer22EENanoAODv12/WtoLNu-2Jets_PTLNu-400to600_2J_TuneCP5_13p6TeV_amcatnloFXFX-pythia8/NANOAODSIM/130X_mcRun3_2022_realistic_postEE_v6-v1/50000/a1513033-f471-4a49-bdcf-15433b7aeb8d.root
/store/mc/Run3Summer22EENanoAODv12/WtoLNu-2Jets_PTLNu-400to600_2J_TuneCP5_13p6TeV_amcatnloFXFX-pythia8/NANOAODSIM/130X_mcRun3_2022_realistic_postEE_v6-v1/2560000/268072fb-b2a0-415b-8e4a-6f277172f4a3.root
/store/mc/Run3Summer22EENanoAODv12/WtoLNu-2Jets_PTLNu-400to600_2J_TuneCP5_13p6TeV_amcatnloFXFX-pythia8/NANOAODSIM/130X_mcRun3_2022_realistic_postEE_v6-v1/2560000/457e3024-f9cd-47b2-8534-ca5109206d80.root
/store/mc/Run3Summer22EENanoAODv12/WtoLNu-2Jets_PTLNu-400to600_2J_TuneCP5_13p6TeV_amcatnloFXFX-pythia8/NANOAODSIM/130X_mcRun3_2022_realistic_postEE_v6-v1/2560000/cb106592-e21a-4b29-a277-13bdf8b6996d.root
/store/mc/Run3Summer22EENanoAODv12/WtoLNu-2Jets_PTLNu-400to600_2J_TuneCP5_13p6TeV_amcatnloFXFX-pythia8/NANOAODSIM/130X_mcRun3_2022_realistic_postEE_v6-v1/2560000/a33b24e2-6b34-4d50-89d5-06e7ca80d186.root
/store/mc/Run3Summer22EENanoAODv12/WtoLNu-2Jets_PTLNu-400to600_2J_TuneCP5_13p6TeV_amcatnloFXFX-pythia8/NANOAODSIM/130X_mcRun3_2022_realistic_postEE_v6-v1/2560000/692d2b93-ccc6-4717-bed3-ba72a279d9d9.root
/store/mc/Run3Summer22EENanoAODv12/WtoLNu-2Jets_PTLNu-400to600_2J_TuneCP5_13p6TeV_amcatnloFXFX-pythia8/NANOAODSIM/130X_mcRun3_2022_realistic_postEE_v6-v1/2560000/0871cd49-bf46-4ff8-a6c7-2ac984edbcc9.root
/store/mc/Run3Summer22EENanoAODv12/WtoLNu-2Jets_PTLNu-400to600_2J_TuneCP5_13p6TeV_amcatnloFXFX-pythia8/NANOAODSIM/130X_mcRun3_2022_realistic_postEE_v6-v1/2560000/74f79552-5b5a-49ea-90f8-d8efdf47f29c.root
/store/mc/Run3Summer22EENanoAODv12/WtoLNu-2Jets_PTLNu-400to600_2J_TuneCP5_13p6TeV_amcatnloFXFX-pythia8/NANOAODSIM/130X_mcRun3_2022_realistic_postEE_v6-v1/2560000/15899257-9b53-4596-8e99-341916af63f1.root
/store/mc/Run3Summer22EENanoAODv12/WtoLNu-2Jets_PTLNu-400to600_2J_TuneCP5_13p6TeV_amcatnloFXFX-pythia8/NANOAODSIM/130X_mcRun3_2022_realistic_postEE_v6-v1/2560000/e8359196-a306-48ce-a4ab-ba24c3f8ec76.root
/store/mc/Run3Summer22EENanoAODv12/WtoLNu-2Jets_PTLNu-400to600_2J_TuneCP5_13p6TeV_amcatnloFXFX-pythia8/NANOAODSIM/130X_mcRun3_2022_realistic_postEE_v6-v1/2560000/301ed7eb-d096-4b07-973e-d2a69e4f873d.root
/store/mc/Run3Summer22EENanoAODv12/WtoLNu-2Jets_PTLNu-400to600_2J_TuneCP5_13p6TeV_amcatnloFXFX-pythia8/NANOAODSIM/130X_mcRun3_2022_realistic_postEE_v6-v1/2560000/69a691d6-d29e-4368-82d7-887da458f015.root
/store/mc/Run3Summer22EENanoAODv12/WtoLNu-2Jets_PTLNu-400to600_2J_TuneCP5_13p6TeV_amcatnloFXFX-pythia8/NANOAODSIM/130X_mcRun3_2022_realistic_postEE_v6-v1/2560000/49df6c4b-deee-47ea-8114-08f611cd059c.root
/store/mc/Run3Summer22EENanoAODv12/WtoLNu-2Jets_PTLNu-400to600_2J_TuneCP5_13p6TeV_amcatnloFXFX-pythia8/NANOAODSIM/130X_mcRun3_2022_realistic_postEE_v6-v1/2550000/6f645472-07fb-4b4e-92c1-d9f8ed4844d2.root
/store/mc/Run3Summer22EENanoAODv12/WtoLNu-2Jets_PTLNu-400to600_2J_TuneCP5_13p6TeV_amcatnloFXFX-pythia8/NANOAODSIM/130X_mcRun3_2022_realistic_postEE_v6-v1/2550000/46306043-c358-4f0c-a76e-b7b7cc5be091.root
/store/mc/Run3Summer22EENanoAODv12/WtoLNu-2Jets_PTLNu-400to600_2J_TuneCP5_13p6TeV_amcatnloFXFX-pythia8/NANOAODSIM/130X_mcRun3_2022_realistic_postEE_v6-v1/2550000/f5fb58cf-ac5f-44ad-88e9-f545bf204342.root
/store/mc/Run3Summer22EENanoAODv12/WtoLNu-2Jets_PTLNu-400to600_2J_TuneCP5_13p6TeV_amcatnloFXFX-pythia8/NANOAODSIM/130X_mcRun3_2022_realistic_postEE_v6-v1/2550000/c67ab746-0fc6-4b33-83d2-9766025e88d3.root
/store/mc/Run3Summer22EENanoAODv12/WtoLNu-2Jets_PTLNu-400to600_2J_TuneCP5_13p6TeV_amcatnloFXFX-pythia8/NANOAODSIM/130X_mcRun3_2022_realistic_postEE_v6-v1/30000/e443d180-fc56-44f9-b40b-60457fe7d5d2.root
/store/mc/Run3Summer22EENanoAODv12/WtoLNu-2Jets_PTLNu-400to600_2J_TuneCP5_13p6TeV_amcatnloFXFX-pythia8/NANOAODSIM/130X_mcRun3_2022_realistic_postEE_v6-v1/30000/a2fb50f2-195f-4bb4-97b9-5ff99d7edc0a.root
/store/mc/Run3Summer22EENanoAODv12/WtoLNu-2Jets_PTLNu-400to600_2J_TuneCP5_13p6TeV_amcatnloFXFX-pythia8/NANOAODSIM/130X_mcRun3_2022_realistic_postEE_v6-v1/30000/b49c5ccd-7007-4f89-80be-1fd266eabcea.root
/store/mc/Run3Summer22EENanoAODv12/WtoLNu-2Jets_PTLNu-400to600_2J_TuneCP5_13p6TeV_amcatnloFXFX-pythia8/NANOAODSIM/130X_mcRun3_2022_realistic_postEE_v6-v1/30000/1976917d-8f97-44c6-8b5a-f57e46323a05.root
/store/mc/Run3Summer22EENanoAODv12/WtoLNu-2Jets_PTLNu-400to600_2J_TuneCP5_13p6TeV_amcatnloFXFX-pythia8/NANOAODSIM/130X_mcRun3_2022_realistic_postEE_v6-v1/30000/ad234fce-89ce-4a69-9ed9-b3cc6d842bc7.root
/store/mc/Run3Summer22EENanoAODv12/WtoLNu-2Jets_PTLNu-400to600_2J_TuneCP5_13p6TeV_amcatnloFXFX-pythia8/NANOAODSIM/130X_mcRun3_2022_realistic_postEE_v6-v1/30000/89612d55-fc37-432a-8a4c-c09a326f642d.root
/store/mc/Run3Summer22EENanoAODv12/WtoLNu-2Jets_PTLNu-400to600_2J_TuneCP5_13p6TeV_amcatnloFXFX-pythia8/NANOAODSIM/130X_mcRun3_2022_realistic_postEE_v6-v1/30000/701adf08-f46a-48ef-95a2-0f4ca6b9fa06.root
/store/mc/Run3Summer22EENanoAODv12/WtoLNu-2Jets_PTLNu-400to600_2J_TuneCP5_13p6TeV_amcatnloFXFX-pythia8/NANOAODSIM/130X_mcRun3_2022_realistic_postEE_v6-v1/30000/f7e307e6-1b5e-496b-8ea2-8c5c05d760ab.root
/store/mc/Run3Summer22EENanoAODv12/WtoLNu-2Jets_PTLNu-400to600_2J_TuneCP5_13p6TeV_amcatnloFXFX-pythia8/NANOAODSIM/130X_mcRun3_2022_realistic_postEE_v6-v1/30000/007775cf-523a-4017-9fc8-7044a1bc2fe9.root
/store/mc/Run3Summer22EENanoAODv12/WtoLNu-2Jets_PTLNu-400to600_2J_TuneCP5_13p6TeV_amcatnloFXFX-pythia8/NANOAODSIM/130X_mcRun3_2022_realistic_postEE_v6-v1/2810000/403671b9-2646-4b97-8616-1e87434779e6.root
/store/mc/Run3Summer22EENanoAODv12/WtoLNu-2Jets_PTLNu-400to600_2J_TuneCP5_13p6TeV_amcatnloFXFX-pythia8/NANOAODSIM/130X_mcRun3_2022_realistic_postEE_v6-v1/30000/4ca80017-4caa-4267-ba4e-b5bb575c247d.root