/store/mc/Run3Summer23BPixNanoAODv12/DYto2L-2Jets_MLL-50_PTLL-40to100_2J_TuneCP5_13p6TeV_amcatnloFXFX-pythia8/NANOAODSIM/130X_mcRun3_2023_realistic_postBPix_v2-v1/70000/8c556174-7695-43b5-8fd7-6ec7bedd06b1.root
/store/mc/Run3Summer23BPixNanoAODv12/DYto2L-2Jets_MLL-50_PTLL-40to100_2J_TuneCP5_13p6TeV_amcatnloFXFX-pythia8/NANOAODSIM/130X_mcRun3_2023_realistic_postBPix_v2-v1/70000/bd261574-406c-47c4-8c28-282249189cfb.root
/store/mc/Run3Summer23BPixNanoAODv12/DYto2L-2Jets_MLL-50_PTLL-40to100_2J_TuneCP5_13p6TeV_amcatnloFXFX-pythia8/NANOAODSIM/130X_mcRun3_2023_realistic_postBPix_v2-v1/70000/0bc2f50c-10e1-40f4-a4fe-213c781ccd91.root
/store/mc/Run3Summer23BPixNanoAODv12/DYto2L-2Jets_MLL-50_PTLL-40to100_2J_TuneCP5_13p6TeV_amcatnloFXFX-pythia8/NANOAODSIM/130X_mcRun3_2023_realistic_postBPix_v2-v1/70000/6c278c23-eab7-41e4-ba27-6137a2293300.root
/store/mc/Run3Summer23BPixNanoAODv12/DYto2L-2Jets_MLL-50_PTLL-40to100_2J_TuneCP5_13p6TeV_amcatnloFXFX-pythia8/NANOAODSIM/130X_mcRun3_2023_realistic_postBPix_v2-v1/70000/3b5be751-4632-4ab4-b9e1-5c223d3529fa.root
/store/mc/Run3Summer23BPixNanoAODv12/DYto2L-2Jets_MLL-50_PTLL-40to100_2J_TuneCP5_13p6TeV_amcatnloFXFX-pythia8/NANOAODSIM/130X_mcRun3_2023_realistic_postBPix_v2-v1/70000/a1f27301-31cb-47fb-bc18-70e6d46360ee.root
/store/mc/Run3Summer23BPixNanoAODv12/DYto2L-2Jets_MLL-50_PTLL-40to100_2J_TuneCP5_13p6TeV_amcatnloFXFX-pythia8/NANOAODSIM/130X_mcRun3_2023_realistic_postBPix_v2-v1/70000/7ccd8ffd-d208-4a55-a8d9-6c7b0c82de30.root
/store/mc/Run3Summer23BPixNanoAODv12/DYto2L-2Jets_MLL-50_PTLL-40to100_2J_TuneCP5_13p6TeV_amcatnloFXFX-pythia8/NANOAODSIM/130X_mcRun3_2023_realistic_postBPix_v2-v1/70000/5730e255-8fc4-42e4-8ce3-54305d99be18.root
/store/mc/Run3Summer23BPixNanoAODv12/DYto2L-2Jets_MLL-50_PTLL-40to100_2J_TuneCP5_13p6TeV_amcatnloFXFX-pythia8/NANOAODSIM/130X_mcRun3_2023_realistic_postBPix_v2-v1/70000/c2fca614-ff52-4eb5-87bf-34e4168f765d.root
/store/mc/Run3Summer23BPixNanoAODv12/DYto2L-2Jets_MLL-50_PTLL-40to100_2J_TuneCP5_13p6TeV_amcatnloFXFX-pythia8/NANOAODSIM/130X_mcRun3_2023_realistic_postBPix_v2-v1/2560000/6e855b53-a08e-4437-a71a-af49cdb5fda9.root
/store/mc/Run3Summer23BPixNanoAODv12/DYto2L-2Jets_MLL-50_PTLL-40to100_2J_TuneCP5_13p6TeV_amcatnloFXFX-pythia8/NANOAODSIM/130X_mcRun3_2023_realistic_postBPix_v2-v1/2560000/0e6e93a2-3323-431a-addf-0dd5f0c2cabf.root
/store/mc/Run3Summer23BPixNanoAODv12/DYto2L-2Jets_MLL-50_PTLL-40to100_2J_TuneCP5_13p6TeV_amcatnloFXFX-pythia8/NANOAODSIM/130X_mcRun3_2023_realistic_postBPix_v2-v1/2560000/3c24aa7d-2cd6-4712-b108-de8773b7883c.root
/store/mc/Run3Summer23BPixNanoAODv12/DYto2L-2Jets_MLL-50_PTLL-40to100_2J_TuneCP5_13p6TeV_amcatnloFXFX-pythia8/NANOAODSIM/130X_mcRun3_2023_realistic_postBPix_v2-v1/60000/3e5850d2-b8ae-43eb-9074-e2a3bdc55607.root
/store/mc/Run3Summer23BPixNanoAODv12/DYto2L-2Jets_MLL-50_PTLL-40to100_2J_TuneCP5_13p6TeV_amcatnloFXFX-pythia8/NANOAODSIM/130X_mcRun3_2023_realistic_postBPix_v2-v1/60000/c9f2f109-6415-4eba-b855-5fb0fe644e9d.root
/store/mc/Run3Summer23BPixNanoAODv12/DYto2L-2Jets_MLL-50_PTLL-40to100_2J_TuneCP5_13p6TeV_amcatnloFXFX-pythia8/NANOAODSIM/130X_mcRun3_2023_realistic_postBPix_v2-v1/60000/fcfef861-0886-44ac-b90d-6662e3505984.root
/store/mc/Run3Summer23BPixNanoAODv12/DYto2L-2Jets_MLL-50_PTLL-40to100_2J_TuneCP5_13p6TeV_amcatnloFXFX-pythia8/NANOAODSIM/130X_mcRun3_2023_realistic_postBPix_v2-v1/70000/6f63667a-2ec6-4645-b0bb-65877286ad10.root
/store/mc/Run3Summer23BPixNanoAODv12/DYto2L-2Jets_MLL-50_PTLL-40to100_2J_TuneCP5_13p6TeV_amcatnloFXFX-pythia8/NANOAODSIM/130X_mcRun3_2023_realistic_postBPix_v2-v1/70000/f2c9fe24-c815-4513-9192-4956f559985b.root
/store/mc/Run3Summer23BPixNanoAODv12/DYto2L-2Jets_MLL-50_PTLL-40to100_2J_TuneCP5_13p6TeV_amcatnloFXFX-pythia8/NANOAODSIM/130X_mcRun3_2023_realistic_postBPix_v2-v1/70000/8f01813d-8da2-4906-9de8-4a0b9856210c.root
/store/mc/Run3Summer23BPixNanoAODv12/DYto2L-2Jets_MLL-50_PTLL-40to100_2J_TuneCP5_13p6TeV_amcatnloFXFX-pythia8/NANOAODSIM/130X_mcRun3_2023_realistic_postBPix_v2-v1/70000/457163d7-e3e4-4776-983e-288559c74d72.root
/store/mc/Run3Summer23BPixNanoAODv12/DYto2L-2Jets_MLL-50_PTLL-40to100_2J_TuneCP5_13p6TeV_amcatnloFXFX-pythia8/NANOAODSIM/130X_mcRun3_2023_realistic_postBPix_v2-v1/70000/3c170e6a-df0e-4043-8eb0-4eff637e6d60.root
/store/mc/Run3Summer23BPixNanoAODv12/DYto2L-2Jets_MLL-50_PTLL-40to100_2J_TuneCP5_13p6TeV_amcatnloFXFX-pythia8/NANOAODSIM/130X_mcRun3_2023_realistic_postBPix_v2-v1/70000/9b8b83d2-5a06-4cba-b40e-3b53d1522442.root
/store/mc/Run3Summer23BPixNanoAODv12/DYto2L-2Jets_MLL-50_PTLL-40to100_2J_TuneCP5_13p6TeV_amcatnloFXFX-pythia8/NANOAODSIM/130X_mcRun3_2023_realistic_postBPix_v2-v1/2560000/624cacf1-8417-42af-885f-29c60db2b3a1.root
/store/mc/Run3Summer23BPixNanoAODv12/DYto2L-2Jets_MLL-50_PTLL-40to100_2J_TuneCP5_13p6TeV_amcatnloFXFX-pythia8/NANOAODSIM/130X_mcRun3_2023_realistic_postBPix_v2-v1/2560000/aedc3699-0743-49ab-bf57-82fb84434d83.root
/store/mc/Run3Summer23BPixNanoAODv12/DYto2L-2Jets_MLL-50_PTLL-40to100_2J_TuneCP5_13p6TeV_amcatnloFXFX-pythia8/NANOAODSIM/130X_mcRun3_2023_realistic_postBPix_v2-v1/60000/321f612d-7bb7-49eb-ba6c-d6e0f66bc271.root
/store/mc/Run3Summer23BPixNanoAODv12/DYto2L-2Jets_MLL-50_PTLL-40to100_2J_TuneCP5_13p6TeV_amcatnloFXFX-pythia8/NANOAODSIM/130X_mcRun3_2023_realistic_postBPix_v2-v1/60000/129e8fcc-6974-44b1-999a-79aeb96d089d.root
/store/mc/Run3Summer23BPixNanoAODv12/DYto2L-2Jets_MLL-50_PTLL-40to100_2J_TuneCP5_13p6TeV_amcatnloFXFX-pythia8/NANOAODSIM/130X_mcRun3_2023_realistic_postBPix_v2-v1/60000/c7652b13-c562-4e01-929f-3c181864afb8.root
/store/mc/Run3Summer23BPixNanoAODv12/DYto2L-2Jets_MLL-50_PTLL-40to100_2J_TuneCP5_13p6TeV_amcatnloFXFX-pythia8/NANOAODSIM/130X_mcRun3_2023_realistic_postBPix_v2-v1/60000/081c29d8-acc7-4409-9452-1df25bc28ba6.root
/store/mc/Run3Summer23BPixNanoAODv12/DYto2L-2Jets_MLL-50_PTLL-40to100_2J_TuneCP5_13p6TeV_amcatnloFXFX-pythia8/NANOAODSIM/130X_mcRun3_2023_realistic_postBPix_v2-v1/60000/faf3e65d-3e23-42d8-8a76-432dbe479fee.root
/store/mc/Run3Summer23BPixNanoAODv12/DYto2L-2Jets_MLL-50_PTLL-40to100_2J_TuneCP5_13p6TeV_amcatnloFXFX-pythia8/NANOAODSIM/130X_mcRun3_2023_realistic_postBPix_v2-v1/60000/cc5465f7-0a19-49fb-83ef-3e7b1e8a8a29.root
/store/mc/Run3Summer23BPixNanoAODv12/DYto2L-2Jets_MLL-50_PTLL-40to100_2J_TuneCP5_13p6TeV_amcatnloFXFX-pythia8/NANOAODSIM/130X_mcRun3_2023_realistic_postBPix_v2-v1/2560000/1ea110ea-be9d-4086-b5eb-f1109d69a7f8.root
/store/mc/Run3Summer23BPixNanoAODv12/DYto2L-2Jets_MLL-50_PTLL-40to100_2J_TuneCP5_13p6TeV_amcatnloFXFX-pythia8/NANOAODSIM/130X_mcRun3_2023_realistic_postBPix_v2-v1/60000/9224f783-55e8-490a-a63f-5ace84e681f6.root
/store/mc/Run3Summer23BPixNanoAODv12/DYto2L-2Jets_MLL-50_PTLL-40to100_2J_TuneCP5_13p6TeV_amcatnloFXFX-pythia8/NANOAODSIM/130X_mcRun3_2023_realistic_postBPix_v2-v1/60000/ad7984b1-670d-41f7-8649-9ffd02f7c9b9.root
/store/mc/Run3Summer23BPixNanoAODv12/DYto2L-2Jets_MLL-50_PTLL-40to100_2J_TuneCP5_13p6TeV_amcatnloFXFX-pythia8/NANOAODSIM/130X_mcRun3_2023_realistic_postBPix_v2-v1/60000/2e5cea36-5682-46c7-bf84-d88a97e5b03b.root
/store/mc/Run3Summer23BPixNanoAODv12/DYto2L-2Jets_MLL-50_PTLL-40to100_2J_TuneCP5_13p6TeV_amcatnloFXFX-pythia8/NANOAODSIM/130X_mcRun3_2023_realistic_postBPix_v2-v1/60000/aaafa0ec-952e-4a4f-a365-c78bca027caf.root
/store/mc/Run3Summer23BPixNanoAODv12/DYto2L-2Jets_MLL-50_PTLL-40to100_2J_TuneCP5_13p6TeV_amcatnloFXFX-pythia8/NANOAODSIM/130X_mcRun3_2023_realistic_postBPix_v2-v1/60000/7b876beb-e919-48a6-bf75-9c26337b8a9b.root
/store/mc/Run3Summer23BPixNanoAODv12/DYto2L-2Jets_MLL-50_PTLL-40to100_2J_TuneCP5_13p6TeV_amcatnloFXFX-pythia8/NANOAODSIM/130X_mcRun3_2023_realistic_postBPix_v2-v1/60000/bf6902f0-26c9-4286-b031-2c0d831baf13.root
/store/mc/Run3Summer23BPixNanoAODv12/DYto2L-2Jets_MLL-50_PTLL-40to100_2J_TuneCP5_13p6TeV_amcatnloFXFX-pythia8/NANOAODSIM/130X_mcRun3_2023_realistic_postBPix_v2-v1/60000/20b66c7a-c51f-4d09-9750-2383f0b0ba9f.root
/store/mc/Run3Summer23BPixNanoAODv12/DYto2L-2Jets_MLL-50_PTLL-40to100_2J_TuneCP5_13p6TeV_amcatnloFXFX-pythia8/NANOAODSIM/130X_mcRun3_2023_realistic_postBPix_v2-v1/60000/5241d3f9-05c0-4622-bf31-19f2d59ae224.root
/store/mc/Run3Summer23BPixNanoAODv12/DYto2L-2Jets_MLL-50_PTLL-40to100_2J_TuneCP5_13p6TeV_amcatnloFXFX-pythia8/NANOAODSIM/130X_mcRun3_2023_realistic_postBPix_v2-v1/60000/f3225aa1-a285-440b-9ab4-d94775437ba2.root
/store/mc/Run3Summer23BPixNanoAODv12/DYto2L-2Jets_MLL-50_PTLL-40to100_2J_TuneCP5_13p6TeV_amcatnloFXFX-pythia8/NANOAODSIM/130X_mcRun3_2023_realistic_postBPix_v2-v1/60000/189ec1cc-b2d4-4df6-82e9-2c2c86cbf4a0.root
/store/mc/Run3Summer23BPixNanoAODv12/DYto2L-2Jets_MLL-50_PTLL-40to100_2J_TuneCP5_13p6TeV_amcatnloFXFX-pythia8/NANOAODSIM/130X_mcRun3_2023_realistic_postBPix_v2-v1/70000/20316157-fcf8-4600-a70a-8442390539ac.root
/store/mc/Run3Summer23BPixNanoAODv12/DYto2L-2Jets_MLL-50_PTLL-40to100_2J_TuneCP5_13p6TeV_amcatnloFXFX-pythia8/NANOAODSIM/130X_mcRun3_2023_realistic_postBPix_v2-v1/70000/d27014e0-0448-4272-84e0-ccc5fa057e37.root
/store/mc/Run3Summer23BPixNanoAODv12/DYto2L-2Jets_MLL-50_PTLL-40to100_2J_TuneCP5_13p6TeV_amcatnloFXFX-pythia8/NANOAODSIM/130X_mcRun3_2023_realistic_postBPix_v2-v1/70000/81dfe42e-b954-4332-b243-0f03e672a192.root
/store/mc/Run3Summer23BPixNanoAODv12/DYto2L-2Jets_MLL-50_PTLL-40to100_2J_TuneCP5_13p6TeV_amcatnloFXFX-pythia8/NANOAODSIM/130X_mcRun3_2023_realistic_postBPix_v2-v1/70000/8db679ab-14bb-4183-a8cb-18521ce7ed35.root
/store/mc/Run3Summer23BPixNanoAODv12/DYto2L-2Jets_MLL-50_PTLL-40to100_2J_TuneCP5_13p6TeV_amcatnloFXFX-pythia8/NANOAODSIM/130X_mcRun3_2023_realistic_postBPix_v2-v1/70000/81c5c90f-b174-4e20-b51d-62b53030b808.root
/store/mc/Run3Summer23BPixNanoAODv12/DYto2L-2Jets_MLL-50_PTLL-40to100_2J_TuneCP5_13p6TeV_amcatnloFXFX-pythia8/NANOAODSIM/130X_mcRun3_2023_realistic_postBPix_v2-v1/60000/585139dc-8a12-4425-85fa-63fe50f0d93b.root
/store/mc/Run3Summer23BPixNanoAODv12/DYto2L-2Jets_MLL-50_PTLL-40to100_2J_TuneCP5_13p6TeV_amcatnloFXFX-pythia8/NANOAODSIM/130X_mcRun3_2023_realistic_postBPix_v2-v1/60000/92e5b747-c9ef-49fd-a4ad-aa96e3d369ee.root
/store/mc/Run3Summer23BPixNanoAODv12/DYto2L-2Jets_MLL-50_PTLL-40to100_2J_TuneCP5_13p6TeV_amcatnloFXFX-pythia8/NANOAODSIM/130X_mcRun3_2023_realistic_postBPix_v2-v1/60000/f0d1ca83-c3ba-4221-9ade-323682102fae.root
/store/mc/Run3Summer23BPixNanoAODv12/DYto2L-2Jets_MLL-50_PTLL-40to100_2J_TuneCP5_13p6TeV_amcatnloFXFX-pythia8/NANOAODSIM/130X_mcRun3_2023_realistic_postBPix_v2-v1/60000/8dcbe0c3-3759-4c47-a55d-11d885c38f99.root
/store/mc/Run3Summer23BPixNanoAODv12/DYto2L-2Jets_MLL-50_PTLL-40to100_2J_TuneCP5_13p6TeV_amcatnloFXFX-pythia8/NANOAODSIM/130X_mcRun3_2023_realistic_postBPix_v2-v1/60000/763e080b-c108-46a7-92d3-e9c0426e650e.root
/store/mc/Run3Summer23BPixNanoAODv12/DYto2L-2Jets_MLL-50_PTLL-40to100_2J_TuneCP5_13p6TeV_amcatnloFXFX-pythia8/NANOAODSIM/130X_mcRun3_2023_realistic_postBPix_v2-v1/60000/7c651e0d-bc48-4a8e-be7f-7f7300a6a2aa.root
/store/mc/Run3Summer23BPixNanoAODv12/DYto2L-2Jets_MLL-50_PTLL-40to100_2J_TuneCP5_13p6TeV_amcatnloFXFX-pythia8/NANOAODSIM/130X_mcRun3_2023_realistic_postBPix_v2-v1/60000/12f979ea-b053-478c-a239-dc1fa19bbdd4.root
/store/mc/Run3Summer23BPixNanoAODv12/DYto2L-2Jets_MLL-50_PTLL-40to100_2J_TuneCP5_13p6TeV_amcatnloFXFX-pythia8/NANOAODSIM/130X_mcRun3_2023_realistic_postBPix_v2-v1/60000/04fc1764-0b7a-40ee-8496-9959e42e9c54.root
/store/mc/Run3Summer23BPixNanoAODv12/DYto2L-2Jets_MLL-50_PTLL-40to100_2J_TuneCP5_13p6TeV_amcatnloFXFX-pythia8/NANOAODSIM/130X_mcRun3_2023_realistic_postBPix_v2-v1/60000/7253166f-f934-4c47-b9cc-d470189835ba.root
/store/mc/Run3Summer23BPixNanoAODv12/DYto2L-2Jets_MLL-50_PTLL-40to100_2J_TuneCP5_13p6TeV_amcatnloFXFX-pythia8/NANOAODSIM/130X_mcRun3_2023_realistic_postBPix_v2-v1/60000/b4a16650-bf72-4c75-b71f-1de952c390fb.root
/store/mc/Run3Summer23BPixNanoAODv12/DYto2L-2Jets_MLL-50_PTLL-40to100_2J_TuneCP5_13p6TeV_amcatnloFXFX-pythia8/NANOAODSIM/130X_mcRun3_2023_realistic_postBPix_v2-v1/2560000/c06a6c14-810f-4102-88d5-b95bbd982151.root
/store/mc/Run3Summer23BPixNanoAODv12/DYto2L-2Jets_MLL-50_PTLL-40to100_2J_TuneCP5_13p6TeV_amcatnloFXFX-pythia8/NANOAODSIM/130X_mcRun3_2023_realistic_postBPix_v2-v1/2560000/7230d666-cf1b-4709-acd1-2f8a631d0c1a.root
/store/mc/Run3Summer23BPixNanoAODv12/DYto2L-2Jets_MLL-50_PTLL-40to100_2J_TuneCP5_13p6TeV_amcatnloFXFX-pythia8/NANOAODSIM/130X_mcRun3_2023_realistic_postBPix_v2-v1/2560000/d45182e2-090f-4a2f-abe6-83959463c218.root
/store/mc/Run3Summer23BPixNanoAODv12/DYto2L-2Jets_MLL-50_PTLL-40to100_2J_TuneCP5_13p6TeV_amcatnloFXFX-pythia8/NANOAODSIM/130X_mcRun3_2023_realistic_postBPix_v2-v1/60000/6f212b75-73b7-4298-a55b-486ac1e739bf.root
/store/mc/Run3Summer23BPixNanoAODv12/DYto2L-2Jets_MLL-50_PTLL-40to100_2J_TuneCP5_13p6TeV_amcatnloFXFX-pythia8/NANOAODSIM/130X_mcRun3_2023_realistic_postBPix_v2-v1/60000/0970116a-27b7-4755-98f9-92e8ea4767fb.root
/store/mc/Run3Summer23BPixNanoAODv12/DYto2L-2Jets_MLL-50_PTLL-40to100_2J_TuneCP5_13p6TeV_amcatnloFXFX-pythia8/NANOAODSIM/130X_mcRun3_2023_realistic_postBPix_v2-v1/60000/866e842e-31fd-4a09-b2d1-2268f96bace3.root
/store/mc/Run3Summer23BPixNanoAODv12/DYto2L-2Jets_MLL-50_PTLL-40to100_2J_TuneCP5_13p6TeV_amcatnloFXFX-pythia8/NANOAODSIM/130X_mcRun3_2023_realistic_postBPix_v2-v1/60000/fc0098d2-0960-4b04-b30f-7687d751ce91.root
/store/mc/Run3Summer23BPixNanoAODv12/DYto2L-2Jets_MLL-50_PTLL-40to100_2J_TuneCP5_13p6TeV_amcatnloFXFX-pythia8/NANOAODSIM/130X_mcRun3_2023_realistic_postBPix_v2-v1/60000/cee34a6c-ac29-42b7-a249-aff472747f1f.root
/store/mc/Run3Summer23BPixNanoAODv12/DYto2L-2Jets_MLL-50_PTLL-40to100_2J_TuneCP5_13p6TeV_amcatnloFXFX-pythia8/NANOAODSIM/130X_mcRun3_2023_realistic_postBPix_v2-v1/2560000/f22677c8-2f3f-478a-b4da-9852815f10f7.root
/store/mc/Run3Summer23BPixNanoAODv12/DYto2L-2Jets_MLL-50_PTLL-40to100_2J_TuneCP5_13p6TeV_amcatnloFXFX-pythia8/NANOAODSIM/130X_mcRun3_2023_realistic_postBPix_v2-v1/2560000/0359828e-55bc-40e2-a734-67282d98b101.root
/store/mc/Run3Summer23BPixNanoAODv12/DYto2L-2Jets_MLL-50_PTLL-40to100_2J_TuneCP5_13p6TeV_amcatnloFXFX-pythia8/NANOAODSIM/130X_mcRun3_2023_realistic_postBPix_v2-v1/2560000/fbc4b46d-7ef1-432f-bc00-55e10b332df9.root
/store/mc/Run3Summer23BPixNanoAODv12/DYto2L-2Jets_MLL-50_PTLL-40to100_2J_TuneCP5_13p6TeV_amcatnloFXFX-pythia8/NANOAODSIM/130X_mcRun3_2023_realistic_postBPix_v2-v1/2560000/5cd0f57c-47af-4b96-a451-77da4300944f.root
/store/mc/Run3Summer23BPixNanoAODv12/DYto2L-2Jets_MLL-50_PTLL-40to100_2J_TuneCP5_13p6TeV_amcatnloFXFX-pythia8/NANOAODSIM/130X_mcRun3_2023_realistic_postBPix_v2-v1/2560000/c7188c49-8b5d-49a1-bba5-f0b3b9444939.root
/store/mc/Run3Summer23BPixNanoAODv12/DYto2L-2Jets_MLL-50_PTLL-40to100_2J_TuneCP5_13p6TeV_amcatnloFXFX-pythia8/NANOAODSIM/130X_mcRun3_2023_realistic_postBPix_v2-v1/2560000/e8e93646-69c8-4a25-9735-2d65aeb618a0.root
/store/mc/Run3Summer23BPixNanoAODv12/DYto2L-2Jets_MLL-50_PTLL-40to100_2J_TuneCP5_13p6TeV_amcatnloFXFX-pythia8/NANOAODSIM/130X_mcRun3_2023_realistic_postBPix_v2-v1/2560000/6574a170-ac8a-4ab3-a88a-bee00cc726d2.root
/store/mc/Run3Summer23BPixNanoAODv12/DYto2L-2Jets_MLL-50_PTLL-40to100_2J_TuneCP5_13p6TeV_amcatnloFXFX-pythia8/NANOAODSIM/130X_mcRun3_2023_realistic_postBPix_v2-v1/2560000/762e11b2-9a80-4dd7-b431-0015c1c5bd90.root
/store/mc/Run3Summer23BPixNanoAODv12/DYto2L-2Jets_MLL-50_PTLL-40to100_2J_TuneCP5_13p6TeV_amcatnloFXFX-pythia8/NANOAODSIM/130X_mcRun3_2023_realistic_postBPix_v2-v1/2560000/2b3d0719-b3d3-4f81-a72b-a465fd110da5.root
/store/mc/Run3Summer23BPixNanoAODv12/DYto2L-2Jets_MLL-50_PTLL-40to100_2J_TuneCP5_13p6TeV_amcatnloFXFX-pythia8/NANOAODSIM/130X_mcRun3_2023_realistic_postBPix_v2-v1/2560000/d56d57da-96ec-4a75-9869-a25f65d0a097.root
/store/mc/Run3Summer23BPixNanoAODv12/DYto2L-2Jets_MLL-50_PTLL-40to100_2J_TuneCP5_13p6TeV_amcatnloFXFX-pythia8/NANOAODSIM/130X_mcRun3_2023_realistic_postBPix_v2-v1/2560000/1792ef78-2c87-4d0d-8de7-19538e23083a.root
/store/mc/Run3Summer23BPixNanoAODv12/DYto2L-2Jets_MLL-50_PTLL-40to100_2J_TuneCP5_13p6TeV_amcatnloFXFX-pythia8/NANOAODSIM/130X_mcRun3_2023_realistic_postBPix_v2-v1/2560000/4db865ca-f191-4ac3-8974-81de17686402.root
/store/mc/Run3Summer23BPixNanoAODv12/DYto2L-2Jets_MLL-50_PTLL-40to100_2J_TuneCP5_13p6TeV_amcatnloFXFX-pythia8/NANOAODSIM/130X_mcRun3_2023_realistic_postBPix_v2-v1/2560000/caeed840-2b19-409a-a23a-823cb985695c.root
/store/mc/Run3Summer23BPixNanoAODv12/DYto2L-2Jets_MLL-50_PTLL-40to100_2J_TuneCP5_13p6TeV_amcatnloFXFX-pythia8/NANOAODSIM/130X_mcRun3_2023_realistic_postBPix_v2-v1/2560000/ae4c7939-5447-4148-8273-f8857e095064.root
/store/mc/Run3Summer23BPixNanoAODv12/DYto2L-2Jets_MLL-50_PTLL-40to100_2J_TuneCP5_13p6TeV_amcatnloFXFX-pythia8/NANOAODSIM/130X_mcRun3_2023_realistic_postBPix_v2-v1/2560000/870d2a71-9553-4e5f-8316-6335cebe55cd.root
/store/mc/Run3Summer23BPixNanoAODv12/DYto2L-2Jets_MLL-50_PTLL-40to100_2J_TuneCP5_13p6TeV_amcatnloFXFX-pythia8/NANOAODSIM/130X_mcRun3_2023_realistic_postBPix_v2-v1/2560000/c6ef2680-fe38-4830-80cb-d319213c9d45.root
/store/mc/Run3Summer23BPixNanoAODv12/DYto2L-2Jets_MLL-50_PTLL-40to100_2J_TuneCP5_13p6TeV_amcatnloFXFX-pythia8/NANOAODSIM/130X_mcRun3_2023_realistic_postBPix_v2-v1/2560000/5a6eae06-432e-4a73-8e5a-ed65b5070531.root
/store/mc/Run3Summer23BPixNanoAODv12/DYto2L-2Jets_MLL-50_PTLL-40to100_2J_TuneCP5_13p6TeV_amcatnloFXFX-pythia8/NANOAODSIM/130X_mcRun3_2023_realistic_postBPix_v2-v1/60000/c04d57b8-fa3e-4959-ab99-6ee6c424c03a.root
/store/mc/Run3Summer23BPixNanoAODv12/DYto2L-2Jets_MLL-50_PTLL-40to100_2J_TuneCP5_13p6TeV_amcatnloFXFX-pythia8/NANOAODSIM/130X_mcRun3_2023_realistic_postBPix_v2-v1/60000/1d07a47a-e55b-4162-9a19-b91cfa423824.root
/store/mc/Run3Summer23BPixNanoAODv12/DYto2L-2Jets_MLL-50_PTLL-40to100_2J_TuneCP5_13p6TeV_amcatnloFXFX-pythia8/NANOAODSIM/130X_mcRun3_2023_realistic_postBPix_v2-v1/60000/2276d86a-0bea-4e21-89c1-b90194b46866.root
/store/mc/Run3Summer23BPixNanoAODv12/DYto2L-2Jets_MLL-50_PTLL-40to100_2J_TuneCP5_13p6TeV_amcatnloFXFX-pythia8/NANOAODSIM/130X_mcRun3_2023_realistic_postBPix_v2-v1/60000/22bb029b-b083-4fa6-8eb6-ac41a979f806.root
/store/mc/Run3Summer23BPixNanoAODv12/DYto2L-2Jets_MLL-50_PTLL-40to100_2J_TuneCP5_13p6TeV_amcatnloFXFX-pythia8/NANOAODSIM/130X_mcRun3_2023_realistic_postBPix_v2-v1/60000/814e71cd-b6e3-452d-a28a-e8e8a5b10339.root
/store/mc/Run3Summer23BPixNanoAODv12/DYto2L-2Jets_MLL-50_PTLL-40to100_2J_TuneCP5_13p6TeV_amcatnloFXFX-pythia8/NANOAODSIM/130X_mcRun3_2023_realistic_postBPix_v2-v1/60000/5fc8680b-9119-440e-8dde-2f45bf7196f9.root
/store/mc/Run3Summer23BPixNanoAODv12/DYto2L-2Jets_MLL-50_PTLL-40to100_2J_TuneCP5_13p6TeV_amcatnloFXFX-pythia8/NANOAODSIM/130X_mcRun3_2023_realistic_postBPix_v2-v1/2560000/36c43b97-ac7c-478e-8eac-425fa3982d15.root
/store/mc/Run3Summer23BPixNanoAODv12/DYto2L-2Jets_MLL-50_PTLL-40to100_2J_TuneCP5_13p6TeV_amcatnloFXFX-pythia8/NANOAODSIM/130X_mcRun3_2023_realistic_postBPix_v2-v1/2560000/eb90ec61-cdcf-4989-aa06-86720133e5a3.root
/store/mc/Run3Summer23BPixNanoAODv12/DYto2L-2Jets_MLL-50_PTLL-40to100_2J_TuneCP5_13p6TeV_amcatnloFXFX-pythia8/NANOAODSIM/130X_mcRun3_2023_realistic_postBPix_v2-v1/70000/dac51abb-33af-4525-a673-8202ee160fc5.root
/store/mc/Run3Summer23BPixNanoAODv12/DYto2L-2Jets_MLL-50_PTLL-40to100_2J_TuneCP5_13p6TeV_amcatnloFXFX-pythia8/NANOAODSIM/130X_mcRun3_2023_realistic_postBPix_v2-v1/70000/2f625959-e660-452e-8aba-b70316b73f65.root
/store/mc/Run3Summer23BPixNanoAODv12/DYto2L-2Jets_MLL-50_PTLL-40to100_2J_TuneCP5_13p6TeV_amcatnloFXFX-pythia8/NANOAODSIM/130X_mcRun3_2023_realistic_postBPix_v2-v1/70000/c207107f-5640-4fe4-b8ed-1d8b181c30be.root
/store/mc/Run3Summer23BPixNanoAODv12/DYto2L-2Jets_MLL-50_PTLL-40to100_2J_TuneCP5_13p6TeV_amcatnloFXFX-pythia8/NANOAODSIM/130X_mcRun3_2023_realistic_postBPix_v2-v1/70000/20e6345e-a233-4d5c-a6c1-5a4af3bcd66a.root
/store/mc/Run3Summer23BPixNanoAODv12/DYto2L-2Jets_MLL-50_PTLL-40to100_2J_TuneCP5_13p6TeV_amcatnloFXFX-pythia8/NANOAODSIM/130X_mcRun3_2023_realistic_postBPix_v2-v1/70000/bd703e00-cd90-47e0-b26d-f734869de8d9.root
/store/mc/Run3Summer23BPixNanoAODv12/DYto2L-2Jets_MLL-50_PTLL-40to100_2J_TuneCP5_13p6TeV_amcatnloFXFX-pythia8/NANOAODSIM/130X_mcRun3_2023_realistic_postBPix_v2-v1/70000/569ee844-0134-4d2a-b1ba-b2e44752921a.root
/store/mc/Run3Summer23BPixNanoAODv12/DYto2L-2Jets_MLL-50_PTLL-40to100_2J_TuneCP5_13p6TeV_amcatnloFXFX-pythia8/NANOAODSIM/130X_mcRun3_2023_realistic_postBPix_v2-v1/70000/a80b7ac0-b7d4-4a2e-9145-cf23a433074f.root
/store/mc/Run3Summer23BPixNanoAODv12/DYto2L-2Jets_MLL-50_PTLL-40to100_2J_TuneCP5_13p6TeV_amcatnloFXFX-pythia8/NANOAODSIM/130X_mcRun3_2023_realistic_postBPix_v2-v1/70000/a5b1062e-dcc7-42e5-bf0f-499df2f891cd.root
/store/mc/Run3Summer23BPixNanoAODv12/DYto2L-2Jets_MLL-50_PTLL-40to100_2J_TuneCP5_13p6TeV_amcatnloFXFX-pythia8/NANOAODSIM/130X_mcRun3_2023_realistic_postBPix_v2-v1/70000/ca2df635-4307-4f8a-a34b-6b3a90a6b3ec.root
/store/mc/Run3Summer23BPixNanoAODv12/DYto2L-2Jets_MLL-50_PTLL-40to100_2J_TuneCP5_13p6TeV_amcatnloFXFX-pythia8/NANOAODSIM/130X_mcRun3_2023_realistic_postBPix_v2-v1/70000/dfb30d29-fa94-4d23-b655-e0799e1c365e.root
/store/mc/Run3Summer23BPixNanoAODv12/DYto2L-2Jets_MLL-50_PTLL-40to100_2J_TuneCP5_13p6TeV_amcatnloFXFX-pythia8/NANOAODSIM/130X_mcRun3_2023_realistic_postBPix_v2-v1/70000/7e92bcdc-f2d1-4347-90b3-5f20c259f011.root
/store/mc/Run3Summer23BPixNanoAODv12/DYto2L-2Jets_MLL-50_PTLL-40to100_2J_TuneCP5_13p6TeV_amcatnloFXFX-pythia8/NANOAODSIM/130X_mcRun3_2023_realistic_postBPix_v2-v1/70000/11ebf5e5-92b9-4ef1-95ba-ec3b9557b19f.root
/store/mc/Run3Summer23BPixNanoAODv12/DYto2L-2Jets_MLL-50_PTLL-40to100_2J_TuneCP5_13p6TeV_amcatnloFXFX-pythia8/NANOAODSIM/130X_mcRun3_2023_realistic_postBPix_v2-v1/70000/deb19dee-5c4c-4256-aa44-e36ee13dd8c6.root
/store/mc/Run3Summer23BPixNanoAODv12/DYto2L-2Jets_MLL-50_PTLL-40to100_2J_TuneCP5_13p6TeV_amcatnloFXFX-pythia8/NANOAODSIM/130X_mcRun3_2023_realistic_postBPix_v2-v1/70000/6c63e8fe-8952-4873-8117-57c5300b988b.root
/store/mc/Run3Summer23BPixNanoAODv12/DYto2L-2Jets_MLL-50_PTLL-40to100_2J_TuneCP5_13p6TeV_amcatnloFXFX-pythia8/NANOAODSIM/130X_mcRun3_2023_realistic_postBPix_v2-v1/70000/7097b3b9-1617-4baa-b9c7-424cb5d547ca.root
/store/mc/Run3Summer23BPixNanoAODv12/DYto2L-2Jets_MLL-50_PTLL-40to100_2J_TuneCP5_13p6TeV_amcatnloFXFX-pythia8/NANOAODSIM/130X_mcRun3_2023_realistic_postBPix_v2-v1/70000/be8184a7-65a9-48c0-900a-2e6b81ddcab8.root
/store/mc/Run3Summer23BPixNanoAODv12/DYto2L-2Jets_MLL-50_PTLL-40to100_2J_TuneCP5_13p6TeV_amcatnloFXFX-pythia8/NANOAODSIM/130X_mcRun3_2023_realistic_postBPix_v2-v1/70000/048dfa5c-7bea-401d-9763-b194157d75c7.root
/store/mc/Run3Summer23BPixNanoAODv12/DYto2L-2Jets_MLL-50_PTLL-40to100_2J_TuneCP5_13p6TeV_amcatnloFXFX-pythia8/NANOAODSIM/130X_mcRun3_2023_realistic_postBPix_v2-v1/60000/8c3e511a-73f8-467f-bc8c-273d060bd99b.root
/store/mc/Run3Summer23BPixNanoAODv12/DYto2L-2Jets_MLL-50_PTLL-40to100_2J_TuneCP5_13p6TeV_amcatnloFXFX-pythia8/NANOAODSIM/130X_mcRun3_2023_realistic_postBPix_v2-v1/2550000/14b62673-3431-4dac-81c5-7a89752ea7ea.root
/store/mc/Run3Summer23BPixNanoAODv12/DYto2L-2Jets_MLL-50_PTLL-40to100_2J_TuneCP5_13p6TeV_amcatnloFXFX-pythia8/NANOAODSIM/130X_mcRun3_2023_realistic_postBPix_v2-v1/60000/afe47939-5233-4cb9-ae14-d387ad6056cb.root
/store/mc/Run3Summer23BPixNanoAODv12/DYto2L-2Jets_MLL-50_PTLL-40to100_2J_TuneCP5_13p6TeV_amcatnloFXFX-pythia8/NANOAODSIM/130X_mcRun3_2023_realistic_postBPix_v2-v1/2560000/4b9020e4-5699-4844-b122-e21231fb72e9.root
/store/mc/Run3Summer23BPixNanoAODv12/DYto2L-2Jets_MLL-50_PTLL-40to100_2J_TuneCP5_13p6TeV_amcatnloFXFX-pythia8/NANOAODSIM/130X_mcRun3_2023_realistic_postBPix_v2-v1/60000/c403d50f-cf7e-4c2f-9ed1-7ff096687dac.root
/store/mc/Run3Summer23BPixNanoAODv12/DYto2L-2Jets_MLL-50_PTLL-40to100_2J_TuneCP5_13p6TeV_amcatnloFXFX-pythia8/NANOAODSIM/130X_mcRun3_2023_realistic_postBPix_v2-v1/2560000/047f8e6a-f358-468a-b8c8-a234eedc15fd.root
/store/mc/Run3Summer23BPixNanoAODv12/DYto2L-2Jets_MLL-50_PTLL-40to100_2J_TuneCP5_13p6TeV_amcatnloFXFX-pythia8/NANOAODSIM/130X_mcRun3_2023_realistic_postBPix_v2-v1/2560000/2d6ed803-b6cf-46ee-bc29-018ed1e45197.root
/store/mc/Run3Summer23BPixNanoAODv12/DYto2L-2Jets_MLL-50_PTLL-40to100_2J_TuneCP5_13p6TeV_amcatnloFXFX-pythia8/NANOAODSIM/130X_mcRun3_2023_realistic_postBPix_v2-v1/2560000/b8360286-a9e1-480f-91cb-872b783dbf3a.root
/store/mc/Run3Summer23BPixNanoAODv12/DYto2L-2Jets_MLL-50_PTLL-40to100_2J_TuneCP5_13p6TeV_amcatnloFXFX-pythia8/NANOAODSIM/130X_mcRun3_2023_realistic_postBPix_v2-v1/2560000/464faacc-ffbf-4bf8-ade1-dca10480e71b.root
/store/mc/Run3Summer23BPixNanoAODv12/DYto2L-2Jets_MLL-50_PTLL-40to100_2J_TuneCP5_13p6TeV_amcatnloFXFX-pythia8/NANOAODSIM/130X_mcRun3_2023_realistic_postBPix_v2-v1/2560000/e7c323cb-fac8-4e63-8712-ab69fe611867.root
/store/mc/Run3Summer23BPixNanoAODv12/DYto2L-2Jets_MLL-50_PTLL-40to100_2J_TuneCP5_13p6TeV_amcatnloFXFX-pythia8/NANOAODSIM/130X_mcRun3_2023_realistic_postBPix_v2-v1/2560000/08b5079f-f888-464b-b504-2929d79bf25b.root
/store/mc/Run3Summer23BPixNanoAODv12/DYto2L-2Jets_MLL-50_PTLL-40to100_2J_TuneCP5_13p6TeV_amcatnloFXFX-pythia8/NANOAODSIM/130X_mcRun3_2023_realistic_postBPix_v2-v1/2560000/06000290-e17f-4072-bb65-c9ae3b83cb76.root
/store/mc/Run3Summer23BPixNanoAODv12/DYto2L-2Jets_MLL-50_PTLL-40to100_2J_TuneCP5_13p6TeV_amcatnloFXFX-pythia8/NANOAODSIM/130X_mcRun3_2023_realistic_postBPix_v2-v1/2560000/80a2f707-a88c-46dc-b5f7-ba26c7b9276e.root
/store/mc/Run3Summer23BPixNanoAODv12/DYto2L-2Jets_MLL-50_PTLL-40to100_2J_TuneCP5_13p6TeV_amcatnloFXFX-pythia8/NANOAODSIM/130X_mcRun3_2023_realistic_postBPix_v2-v1/2560000/26bb9746-6dde-4e0d-8cdf-7c5b47e1ebd4.root
/store/mc/Run3Summer23BPixNanoAODv12/DYto2L-2Jets_MLL-50_PTLL-40to100_2J_TuneCP5_13p6TeV_amcatnloFXFX-pythia8/NANOAODSIM/130X_mcRun3_2023_realistic_postBPix_v2-v1/2560000/23504cd7-2bc0-4410-b33d-f79099bc1bf6.root
/store/mc/Run3Summer23BPixNanoAODv12/DYto2L-2Jets_MLL-50_PTLL-40to100_2J_TuneCP5_13p6TeV_amcatnloFXFX-pythia8/NANOAODSIM/130X_mcRun3_2023_realistic_postBPix_v2-v1/2560000/892724da-a88e-4dfc-9113-9d10d29b5f60.root
/store/mc/Run3Summer23BPixNanoAODv12/DYto2L-2Jets_MLL-50_PTLL-40to100_2J_TuneCP5_13p6TeV_amcatnloFXFX-pythia8/NANOAODSIM/130X_mcRun3_2023_realistic_postBPix_v2-v1/2560000/e2dff0c2-4b1b-4af9-b8f3-8f652863bc32.root
/store/mc/Run3Summer23BPixNanoAODv12/DYto2L-2Jets_MLL-50_PTLL-40to100_2J_TuneCP5_13p6TeV_amcatnloFXFX-pythia8/NANOAODSIM/130X_mcRun3_2023_realistic_postBPix_v2-v1/60000/4ee34856-add8-4c7d-bcb0-936f42d0c670.root
/store/mc/Run3Summer23BPixNanoAODv12/DYto2L-2Jets_MLL-50_PTLL-40to100_2J_TuneCP5_13p6TeV_amcatnloFXFX-pythia8/NANOAODSIM/130X_mcRun3_2023_realistic_postBPix_v2-v1/60000/27bd9642-0f8e-4936-9277-36885032f05f.root
/store/mc/Run3Summer23BPixNanoAODv12/DYto2L-2Jets_MLL-50_PTLL-40to100_2J_TuneCP5_13p6TeV_amcatnloFXFX-pythia8/NANOAODSIM/130X_mcRun3_2023_realistic_postBPix_v2-v1/60000/06846a92-aff6-4a07-b4ae-59a6514ba219.root
/store/mc/Run3Summer23BPixNanoAODv12/DYto2L-2Jets_MLL-50_PTLL-40to100_2J_TuneCP5_13p6TeV_amcatnloFXFX-pythia8/NANOAODSIM/130X_mcRun3_2023_realistic_postBPix_v2-v1/60000/1397a867-91cd-4177-b3e2-dfe2d79b9747.root
/store/mc/Run3Summer23BPixNanoAODv12/DYto2L-2Jets_MLL-50_PTLL-40to100_2J_TuneCP5_13p6TeV_amcatnloFXFX-pythia8/NANOAODSIM/130X_mcRun3_2023_realistic_postBPix_v2-v1/60000/0d848d86-5142-46ce-b3af-709b87cc9a18.root
/store/mc/Run3Summer23BPixNanoAODv12/DYto2L-2Jets_MLL-50_PTLL-40to100_2J_TuneCP5_13p6TeV_amcatnloFXFX-pythia8/NANOAODSIM/130X_mcRun3_2023_realistic_postBPix_v2-v1/60000/488f2a73-03ae-4d08-94c7-92cc208aa9fa.root
/store/mc/Run3Summer23BPixNanoAODv12/DYto2L-2Jets_MLL-50_PTLL-40to100_2J_TuneCP5_13p6TeV_amcatnloFXFX-pythia8/NANOAODSIM/130X_mcRun3_2023_realistic_postBPix_v2-v1/60000/a4703787-de63-4283-8953-9bae42580d9a.root
/store/mc/Run3Summer23BPixNanoAODv12/DYto2L-2Jets_MLL-50_PTLL-40to100_2J_TuneCP5_13p6TeV_amcatnloFXFX-pythia8/NANOAODSIM/130X_mcRun3_2023_realistic_postBPix_v2-v1/60000/b5dc1c04-becc-4d0d-9b15-c84d3cee07a3.root
/store/mc/Run3Summer23BPixNanoAODv12/DYto2L-2Jets_MLL-50_PTLL-40to100_2J_TuneCP5_13p6TeV_amcatnloFXFX-pythia8/NANOAODSIM/130X_mcRun3_2023_realistic_postBPix_v2-v1/60000/5d1b83a0-7f18-46b7-b273-1f859c6eb0f5.root
/store/mc/Run3Summer23BPixNanoAODv12/DYto2L-2Jets_MLL-50_PTLL-40to100_2J_TuneCP5_13p6TeV_amcatnloFXFX-pythia8/NANOAODSIM/130X_mcRun3_2023_realistic_postBPix_v2-v1/60000/710fa2bb-d1b8-46ec-bac2-e7f564dd4634.root
/store/mc/Run3Summer23BPixNanoAODv12/DYto2L-2Jets_MLL-50_PTLL-40to100_2J_TuneCP5_13p6TeV_amcatnloFXFX-pythia8/NANOAODSIM/130X_mcRun3_2023_realistic_postBPix_v2-v1/60000/62020455-3985-45df-8546-653e8c257ef3.root
/store/mc/Run3Summer23BPixNanoAODv12/DYto2L-2Jets_MLL-50_PTLL-40to100_2J_TuneCP5_13p6TeV_amcatnloFXFX-pythia8/NANOAODSIM/130X_mcRun3_2023_realistic_postBPix_v2-v1/60000/5a0f5ccc-62cf-40ca-b005-32fff897fe9b.root
/store/mc/Run3Summer23BPixNanoAODv12/DYto2L-2Jets_MLL-50_PTLL-40to100_2J_TuneCP5_13p6TeV_amcatnloFXFX-pythia8/NANOAODSIM/130X_mcRun3_2023_realistic_postBPix_v2-v1/60000/4b3c78b4-6ff1-4ffd-a1da-6f6b47c15a0c.root
/store/mc/Run3Summer23BPixNanoAODv12/DYto2L-2Jets_MLL-50_PTLL-40to100_2J_TuneCP5_13p6TeV_amcatnloFXFX-pythia8/NANOAODSIM/130X_mcRun3_2023_realistic_postBPix_v2-v1/60000/68a3e0d5-d494-4aab-972d-cdf67163893b.root
/store/mc/Run3Summer23BPixNanoAODv12/DYto2L-2Jets_MLL-50_PTLL-40to100_2J_TuneCP5_13p6TeV_amcatnloFXFX-pythia8/NANOAODSIM/130X_mcRun3_2023_realistic_postBPix_v2-v1/60000/c1e85dea-1a66-460d-830f-0f77f946d819.root
/store/mc/Run3Summer23BPixNanoAODv12/DYto2L-2Jets_MLL-50_PTLL-40to100_2J_TuneCP5_13p6TeV_amcatnloFXFX-pythia8/NANOAODSIM/130X_mcRun3_2023_realistic_postBPix_v2-v1/60000/4976a31d-d132-40d6-84c2-c7dea6830dc7.root
/store/mc/Run3Summer23BPixNanoAODv12/DYto2L-2Jets_MLL-50_PTLL-40to100_2J_TuneCP5_13p6TeV_amcatnloFXFX-pythia8/NANOAODSIM/130X_mcRun3_2023_realistic_postBPix_v2-v1/60000/11286aec-ada5-4aef-a5c3-5dd5c559576e.root
/store/mc/Run3Summer23BPixNanoAODv12/DYto2L-2Jets_MLL-50_PTLL-40to100_2J_TuneCP5_13p6TeV_amcatnloFXFX-pythia8/NANOAODSIM/130X_mcRun3_2023_realistic_postBPix_v2-v1/60000/9b22be90-9d0f-4587-97cf-7d4304a535ea.root
/store/mc/Run3Summer23BPixNanoAODv12/DYto2L-2Jets_MLL-50_PTLL-40to100_2J_TuneCP5_13p6TeV_amcatnloFXFX-pythia8/NANOAODSIM/130X_mcRun3_2023_realistic_postBPix_v2-v1/60000/4b30fa61-5d61-4ada-95c1-74fd801e24ca.root
/store/mc/Run3Summer23BPixNanoAODv12/DYto2L-2Jets_MLL-50_PTLL-40to100_2J_TuneCP5_13p6TeV_amcatnloFXFX-pythia8/NANOAODSIM/130X_mcRun3_2023_realistic_postBPix_v2-v1/60000/445a4916-543d-4e16-a737-0c121e9b9e9a.root
/store/mc/Run3Summer23BPixNanoAODv12/DYto2L-2Jets_MLL-50_PTLL-40to100_2J_TuneCP5_13p6TeV_amcatnloFXFX-pythia8/NANOAODSIM/130X_mcRun3_2023_realistic_postBPix_v2-v1/60000/20d8278b-b233-4ae1-b576-73065c1eb91e.root
/store/mc/Run3Summer23BPixNanoAODv12/DYto2L-2Jets_MLL-50_PTLL-40to100_2J_TuneCP5_13p6TeV_amcatnloFXFX-pythia8/NANOAODSIM/130X_mcRun3_2023_realistic_postBPix_v2-v1/60000/7c1f1e9a-c6ec-41ce-9fe2-96284d49a0d1.root
/store/mc/Run3Summer23BPixNanoAODv12/DYto2L-2Jets_MLL-50_PTLL-40to100_2J_TuneCP5_13p6TeV_amcatnloFXFX-pythia8/NANOAODSIM/130X_mcRun3_2023_realistic_postBPix_v2-v1/60000/99055b88-2ad7-4583-898a-21b614063677.root
/store/mc/Run3Summer23BPixNanoAODv12/DYto2L-2Jets_MLL-50_PTLL-40to100_2J_TuneCP5_13p6TeV_amcatnloFXFX-pythia8/NANOAODSIM/130X_mcRun3_2023_realistic_postBPix_v2-v1/60000/63a45229-9bcd-4347-905c-80edf905e9c4.root
/store/mc/Run3Summer23BPixNanoAODv12/DYto2L-2Jets_MLL-50_PTLL-40to100_2J_TuneCP5_13p6TeV_amcatnloFXFX-pythia8/NANOAODSIM/130X_mcRun3_2023_realistic_postBPix_v2-v1/60000/0ec1cd35-5451-4e67-9330-513a31a855e6.root
/store/mc/Run3Summer23BPixNanoAODv12/DYto2L-2Jets_MLL-50_PTLL-40to100_2J_TuneCP5_13p6TeV_amcatnloFXFX-pythia8/NANOAODSIM/130X_mcRun3_2023_realistic_postBPix_v2-v1/60000/4850f189-b433-40a9-bbc8-6596fb803abc.root
/store/mc/Run3Summer23BPixNanoAODv12/DYto2L-2Jets_MLL-50_PTLL-40to100_2J_TuneCP5_13p6TeV_amcatnloFXFX-pythia8/NANOAODSIM/130X_mcRun3_2023_realistic_postBPix_v2-v1/60000/d6d81c2c-448a-4132-ae2a-ca6acd6313f2.root
/store/mc/Run3Summer23BPixNanoAODv12/DYto2L-2Jets_MLL-50_PTLL-40to100_2J_TuneCP5_13p6TeV_amcatnloFXFX-pythia8/NANOAODSIM/130X_mcRun3_2023_realistic_postBPix_v2-v1/60000/40d42282-bda1-470a-89a0-1f1a2c229478.root
/store/mc/Run3Summer23BPixNanoAODv12/DYto2L-2Jets_MLL-50_PTLL-40to100_2J_TuneCP5_13p6TeV_amcatnloFXFX-pythia8/NANOAODSIM/130X_mcRun3_2023_realistic_postBPix_v2-v1/60000/8cf213ee-a9e1-431c-81a0-631c1fcd1df2.root
/store/mc/Run3Summer23BPixNanoAODv12/DYto2L-2Jets_MLL-50_PTLL-40to100_2J_TuneCP5_13p6TeV_amcatnloFXFX-pythia8/NANOAODSIM/130X_mcRun3_2023_realistic_postBPix_v2-v1/60000/fed67636-de84-4420-b133-f54e0c8f4799.root
/store/mc/Run3Summer23BPixNanoAODv12/DYto2L-2Jets_MLL-50_PTLL-40to100_2J_TuneCP5_13p6TeV_amcatnloFXFX-pythia8/NANOAODSIM/130X_mcRun3_2023_realistic_postBPix_v2-v1/60000/1dea2aa0-96c4-43fe-ad20-04caefdbad8a.root
/store/mc/Run3Summer23BPixNanoAODv12/DYto2L-2Jets_MLL-50_PTLL-40to100_2J_TuneCP5_13p6TeV_amcatnloFXFX-pythia8/NANOAODSIM/130X_mcRun3_2023_realistic_postBPix_v2-v1/60000/6102dcef-1405-4ece-9293-0e894e622a89.root
/store/mc/Run3Summer23BPixNanoAODv12/DYto2L-2Jets_MLL-50_PTLL-40to100_2J_TuneCP5_13p6TeV_amcatnloFXFX-pythia8/NANOAODSIM/130X_mcRun3_2023_realistic_postBPix_v2-v1/60000/14c9566f-83cd-4ab4-8a91-9c7146d344c5.root
/store/mc/Run3Summer23BPixNanoAODv12/DYto2L-2Jets_MLL-50_PTLL-40to100_2J_TuneCP5_13p6TeV_amcatnloFXFX-pythia8/NANOAODSIM/130X_mcRun3_2023_realistic_postBPix_v2-v1/60000/bb486389-999d-4536-a869-2c4ba01f5585.root
/store/mc/Run3Summer23BPixNanoAODv12/DYto2L-2Jets_MLL-50_PTLL-40to100_2J_TuneCP5_13p6TeV_amcatnloFXFX-pythia8/NANOAODSIM/130X_mcRun3_2023_realistic_postBPix_v2-v1/60000/45c88f50-7862-4c54-ae04-f17a0279edd3.root
/store/mc/Run3Summer23BPixNanoAODv12/DYto2L-2Jets_MLL-50_PTLL-40to100_2J_TuneCP5_13p6TeV_amcatnloFXFX-pythia8/NANOAODSIM/130X_mcRun3_2023_realistic_postBPix_v2-v1/60000/39ea9dbd-c724-43b2-8680-b12fbff20973.root
/store/mc/Run3Summer23BPixNanoAODv12/DYto2L-2Jets_MLL-50_PTLL-40to100_2J_TuneCP5_13p6TeV_amcatnloFXFX-pythia8/NANOAODSIM/130X_mcRun3_2023_realistic_postBPix_v2-v1/60000/074397e3-f7da-467a-801c-2b087b2dfa38.root
/store/mc/Run3Summer23BPixNanoAODv12/DYto2L-2Jets_MLL-50_PTLL-40to100_2J_TuneCP5_13p6TeV_amcatnloFXFX-pythia8/NANOAODSIM/130X_mcRun3_2023_realistic_postBPix_v2-v1/60000/02963938-c99f-48ea-badd-ec9ef01a41df.root