/store/mc/Run3Summer23BPixNanoAODv12/DYto2L-2Jets_MLL-50_PTLL-400to600_2J_TuneCP5_13p6TeV_amcatnloFXFX-pythia8/NANOAODSIM/130X_mcRun3_2023_realistic_postBPix_v2-v1/60000/456ac0d3-9709-4f4e-ac85-a77144229090.root
/store/mc/Run3Summer23BPixNanoAODv12/DYto2L-2Jets_MLL-50_PTLL-400to600_2J_TuneCP5_13p6TeV_amcatnloFXFX-pythia8/NANOAODSIM/130X_mcRun3_2023_realistic_postBPix_v2-v1/60000/344a1bab-5701-4459-8123-4186d5e603cf.root
/store/mc/Run3Summer23BPixNanoAODv12/DYto2L-2Jets_MLL-50_PTLL-400to600_2J_TuneCP5_13p6TeV_amcatnloFXFX-pythia8/NANOAODSIM/130X_mcRun3_2023_realistic_postBPix_v2-v1/60000/fd6b8679-fdf9-42d7-af52-6f1f0dcaae8d.root
/store/mc/Run3Summer23BPixNanoAODv12/DYto2L-2Jets_MLL-50_PTLL-400to600_2J_TuneCP5_13p6TeV_amcatnloFXFX-pythia8/NANOAODSIM/130X_mcRun3_2023_realistic_postBPix_v2-v1/60000/aead86a1-d919-4c16-a463-34cb1b232658.root
/store/mc/Run3Summer23BPixNanoAODv12/DYto2L-2Jets_MLL-50_PTLL-400to600_2J_TuneCP5_13p6TeV_amcatnloFXFX-pythia8/NANOAODSIM/130X_mcRun3_2023_realistic_postBPix_v2-v1/60000/fac59d58-93dd-419d-bf07-95c8f2e3d77d.root
/store/mc/Run3Summer23BPixNanoAODv12/DYto2L-2Jets_MLL-50_PTLL-400to600_2J_TuneCP5_13p6TeV_amcatnloFXFX-pythia8/NANOAODSIM/130X_mcRun3_2023_realistic_postBPix_v2-v1/60000/f5b9e2cf-d803-4c47-8962-2901cdeec5ad.root
/store/mc/Run3Summer23BPixNanoAODv12/DYto2L-2Jets_MLL-50_PTLL-400to600_2J_TuneCP5_13p6TeV_amcatnloFXFX-pythia8/NANOAODSIM/130X_mcRun3_2023_realistic_postBPix_v2-v1/60000/5b37db52-65ba-4361-9622-199a624d9ce4.root
/store/mc/Run3Summer23BPixNanoAODv12/DYto2L-2Jets_MLL-50_PTLL-400to600_2J_TuneCP5_13p6TeV_amcatnloFXFX-pythia8/NANOAODSIM/130X_mcRun3_2023_realistic_postBPix_v2-v1/60000/47bbd2de-fe9b-4aa7-a7fb-b5bbe205aa20.root
/store/mc/Run3Summer23BPixNanoAODv12/DYto2L-2Jets_MLL-50_PTLL-400to600_2J_TuneCP5_13p6TeV_amcatnloFXFX-pythia8/NANOAODSIM/130X_mcRun3_2023_realistic_postBPix_v2-v1/60000/0acb278e-7526-462e-9f07-acc7bfb9616b.root
/store/mc/Run3Summer23BPixNanoAODv12/DYto2L-2Jets_MLL-50_PTLL-400to600_2J_TuneCP5_13p6TeV_amcatnloFXFX-pythia8/NANOAODSIM/130X_mcRun3_2023_realistic_postBPix_v2-v1/60000/d73e87c3-356c-40ed-88e3-7d97955b9af1.root
/store/mc/Run3Summer23BPixNanoAODv12/DYto2L-2Jets_MLL-50_PTLL-400to600_2J_TuneCP5_13p6TeV_amcatnloFXFX-pythia8/NANOAODSIM/130X_mcRun3_2023_realistic_postBPix_v2-v1/60000/70039348-905d-4692-bf6e-9aab8a9d07be.root
/store/mc/Run3Summer23BPixNanoAODv12/DYto2L-2Jets_MLL-50_PTLL-400to600_2J_TuneCP5_13p6TeV_amcatnloFXFX-pythia8/NANOAODSIM/130X_mcRun3_2023_realistic_postBPix_v2-v1/60000/3995fb7e-8e8f-4129-8d0d-24f416893b44.root
/store/mc/Run3Summer23BPixNanoAODv12/DYto2L-2Jets_MLL-50_PTLL-400to600_2J_TuneCP5_13p6TeV_amcatnloFXFX-pythia8/NANOAODSIM/130X_mcRun3_2023_realistic_postBPix_v2-v1/60000/dc7bc967-ee9b-46cd-b326-ca5fe140022f.root
/store/mc/Run3Summer23BPixNanoAODv12/DYto2L-2Jets_MLL-50_PTLL-400to600_2J_TuneCP5_13p6TeV_amcatnloFXFX-pythia8/NANOAODSIM/130X_mcRun3_2023_realistic_postBPix_v2-v1/60000/67e3b86d-e24c-4b4d-9592-9f32e4e0b2d4.root
/store/mc/Run3Summer23BPixNanoAODv12/DYto2L-2Jets_MLL-50_PTLL-400to600_2J_TuneCP5_13p6TeV_amcatnloFXFX-pythia8/NANOAODSIM/130X_mcRun3_2023_realistic_postBPix_v2-v1/60000/913f9cce-f773-4487-9d94-2423c3845238.root
/store/mc/Run3Summer23BPixNanoAODv12/DYto2L-2Jets_MLL-50_PTLL-400to600_2J_TuneCP5_13p6TeV_amcatnloFXFX-pythia8/NANOAODSIM/130X_mcRun3_2023_realistic_postBPix_v2-v1/60000/222b2648-d8db-43a2-8199-f1b9da6f1333.root
/store/mc/Run3Summer23BPixNanoAODv12/DYto2L-2Jets_MLL-50_PTLL-400to600_2J_TuneCP5_13p6TeV_amcatnloFXFX-pythia8/NANOAODSIM/130X_mcRun3_2023_realistic_postBPix_v2-v1/2550000/1cff6710-bf58-4d9a-af6b-c55c3438598c.root
/store/mc/Run3Summer23BPixNanoAODv12/DYto2L-2Jets_MLL-50_PTLL-400to600_2J_TuneCP5_13p6TeV_amcatnloFXFX-pythia8/NANOAODSIM/130X_mcRun3_2023_realistic_postBPix_v2-v1/2550000/d1fb7e19-ed60-49ca-b203-d6a49cce9738.root
/store/mc/Run3Summer23BPixNanoAODv12/DYto2L-2Jets_MLL-50_PTLL-400to600_2J_TuneCP5_13p6TeV_amcatnloFXFX-pythia8/NANOAODSIM/130X_mcRun3_2023_realistic_postBPix_v2-v1/2550000/a78eee9c-70a1-4566-908d-38d92453cd08.root
/store/mc/Run3Summer23BPixNanoAODv12/DYto2L-2Jets_MLL-50_PTLL-400to600_2J_TuneCP5_13p6TeV_amcatnloFXFX-pythia8/NANOAODSIM/130X_mcRun3_2023_realistic_postBPix_v2-v1/2550000/bf9aff12-0035-4d30-8038-bec8b4b7ce31.root
/store/mc/Run3Summer23BPixNanoAODv12/DYto2L-2Jets_MLL-50_PTLL-400to600_2J_TuneCP5_13p6TeV_amcatnloFXFX-pythia8/NANOAODSIM/130X_mcRun3_2023_realistic_postBPix_v2-v1/2560000/92093460-5f02-4b20-90eb-6cc767b903c1.root
/store/mc/Run3Summer23BPixNanoAODv12/DYto2L-2Jets_MLL-50_PTLL-400to600_2J_TuneCP5_13p6TeV_amcatnloFXFX-pythia8/NANOAODSIM/130X_mcRun3_2023_realistic_postBPix_v2-v1/2560000/fa90f66c-2096-4479-b0a9-356246297fe8.root
/store/mc/Run3Summer23BPixNanoAODv12/DYto2L-2Jets_MLL-50_PTLL-400to600_2J_TuneCP5_13p6TeV_amcatnloFXFX-pythia8/NANOAODSIM/130X_mcRun3_2023_realistic_postBPix_v2-v1/2560000/56d4ab1c-77fa-4bc5-aa32-b816e85ce972.root
/store/mc/Run3Summer23BPixNanoAODv12/DYto2L-2Jets_MLL-50_PTLL-400to600_2J_TuneCP5_13p6TeV_amcatnloFXFX-pythia8/NANOAODSIM/130X_mcRun3_2023_realistic_postBPix_v2-v1/2560000/ee56be0b-ed29-4785-acdd-a3127a6377db.root
/store/mc/Run3Summer23BPixNanoAODv12/DYto2L-2Jets_MLL-50_PTLL-400to600_2J_TuneCP5_13p6TeV_amcatnloFXFX-pythia8/NANOAODSIM/130X_mcRun3_2023_realistic_postBPix_v2-v1/2560000/71afe983-ecb3-446e-bdd6-fd4c665b497e.root