/store/data/Run2023D/EGamma1/NANOAOD/22Sep2023_v1-v1/40000/a146c6ce-83ad-4007-ba49-e8767c0e7680.root
/store/data/Run2023D/EGamma1/NANOAOD/22Sep2023_v1-v1/40000/9921b44e-0fac-4625-aed2-b5fc81bdf230.root
/store/data/Run2023D/EGamma1/NANOAOD/22Sep2023_v1-v1/40000/da1b24e4-9d64-43e1-ba57-436f53851a98.root
/store/data/Run2023D/EGamma1/NANOAOD/22Sep2023_v1-v1/40000/ed7b6436-fe3a-4783-bbfd-9c235c56b4bb.root
/store/data/Run2023D/EGamma1/NANOAOD/22Sep2023_v1-v1/40000/fda3b2d1-8862-4c9e-8301-2b71cb9df0cc.root
/store/data/Run2023D/EGamma1/NANOAOD/22Sep2023_v1-v1/40000/a09e4655-1224-48f7-bfc9-c1989043f995.root
/store/data/Run2023D/EGamma1/NANOAOD/22Sep2023_v1-v1/40000/d7308bb0-c8e4-4a2e-842d-96db8012fc9a.root
/store/data/Run2023D/EGamma1/NANOAOD/22Sep2023_v1-v1/40000/46e059e1-160f-422c-896c-9ea8dae8a3b5.root
/store/data/Run2023D/EGamma1/NANOAOD/22Sep2023_v1-v1/40000/3265bcd0-4681-4f49-b4f8-8d52a364fdf2.root
/store/data/Run2023D/EGamma1/NANOAOD/22Sep2023_v1-v1/40000/694b8dd6-c09d-4b05-880a-4af76b132598.root
/store/data/Run2023D/EGamma1/NANOAOD/22Sep2023_v1-v1/40000/c09c53aa-8ed7-43cc-ac6a-470ed36a9471.root
/store/data/Run2023D/EGamma1/NANOAOD/22Sep2023_v1-v1/40000/ca831e5a-ecdc-483a-81fa-1650615175e7.root
/store/data/Run2023D/EGamma1/NANOAOD/22Sep2023_v1-v1/40000/456327fe-abcf-416b-bcde-762f0ccd4a32.root
/store/data/Run2023D/EGamma1/NANOAOD/22Sep2023_v1-v1/40000/2efaaca5-673d-416c-97b1-3a6fae3979d9.root
/store/data/Run2023D/EGamma1/NANOAOD/22Sep2023_v1-v1/40000/6da48400-5be6-4dd2-9394-81cbe50b4354.root
/store/data/Run2023D/EGamma1/NANOAOD/22Sep2023_v1-v1/40000/ecba1a09-6da7-4214-b260-94ee4a2e4c4b.root
/store/data/Run2023D/EGamma1/NANOAOD/22Sep2023_v1-v1/40000/ce86767e-803f-443d-9d8a-4513970173b1.root
/store/data/Run2023D/EGamma1/NANOAOD/22Sep2023_v1-v1/40000/2c54cd37-d051-41f6-9e5f-c2ab0fe4d157.root
/store/data/Run2023D/EGamma1/NANOAOD/22Sep2023_v1-v1/40000/11815464-59d1-4446-8551-acbb0223b08b.root
/store/data/Run2023D/EGamma1/NANOAOD/22Sep2023_v1-v1/40000/c8882add-32bb-4a5f-8982-cc957b231422.root
/store/data/Run2023D/EGamma1/NANOAOD/22Sep2023_v1-v1/40000/72ebc814-a7be-400d-8548-676d5d00bb03.root
/store/data/Run2023D/EGamma1/NANOAOD/22Sep2023_v1-v1/40000/a3299ef4-e150-4e50-912f-429b075e114f.root
/store/data/Run2023D/EGamma1/NANOAOD/22Sep2023_v1-v1/40000/de3a6ddf-322d-46bc-922f-c77e93769c06.root
/store/data/Run2023D/EGamma1/NANOAOD/22Sep2023_v1-v1/40000/fa7ee0ab-c62d-483e-9422-92033a2232f9.root
/store/data/Run2023D/EGamma1/NANOAOD/22Sep2023_v1-v1/40000/c1da342f-5691-44e6-9621-448aad147cc5.root
/store/data/Run2023D/EGamma1/NANOAOD/22Sep2023_v1-v1/40000/cd8482e4-d58c-4570-9ac5-bd75f017b475.root
/store/data/Run2023D/EGamma1/NANOAOD/22Sep2023_v1-v1/40000/4ec7270d-a4f7-43fc-9d5b-2a6ed1bdc80b.root
/store/data/Run2023D/EGamma1/NANOAOD/22Sep2023_v1-v1/40000/a88521cf-0775-4a8f-aebe-d9fd064b6df4.root
/store/data/Run2023D/EGamma1/NANOAOD/22Sep2023_v1-v1/40000/1b13be9f-a498-4bb4-9ecf-2e2a112671db.root
/store/data/Run2023D/EGamma1/NANOAOD/22Sep2023_v1-v1/40000/fe6dc1dd-8243-42ea-bd58-919b9df3e6a7.root
/store/data/Run2023D/EGamma1/NANOAOD/22Sep2023_v1-v1/40000/2cb2fedc-711f-44c6-b933-e9cc8e5fc3c2.root
/store/data/Run2023D/EGamma1/NANOAOD/22Sep2023_v1-v1/40000/32836df4-167a-401e-bb2c-d39053cdabd7.root
/store/data/Run2023D/EGamma1/NANOAOD/22Sep2023_v1-v1/40000/81982e6d-dbc1-482c-9e62-86f97a669611.root
/store/data/Run2023D/EGamma1/NANOAOD/22Sep2023_v1-v1/40000/98667dd4-2a88-41c4-9d6e-61b88de86595.root
/store/data/Run2023D/EGamma1/NANOAOD/22Sep2023_v1-v1/40000/ca212317-b288-4322-81a3-02d087f5a4e2.root
/store/data/Run2023D/EGamma1/NANOAOD/22Sep2023_v1-v1/40000/f9b41570-53fd-4155-8eef-0ee27e27ecec.root
/store/data/Run2023D/EGamma1/NANOAOD/22Sep2023_v1-v1/40000/d247dd82-7576-4ecd-8854-507263794a98.root
/store/data/Run2023D/EGamma1/NANOAOD/22Sep2023_v1-v1/40000/5926d023-cc85-4f54-8093-297a35ceb34a.root
/store/data/Run2023D/EGamma1/NANOAOD/22Sep2023_v1-v1/40000/785fa291-05d8-40cc-87cf-9a6f40aea70c.root
/store/data/Run2023D/EGamma1/NANOAOD/22Sep2023_v1-v1/30000/d3f76e01-a6b9-486d-9a5c-9c00ac05e7cd.root
/store/data/Run2023D/EGamma1/NANOAOD/22Sep2023_v1-v1/30000/f89b8650-c9ca-46d8-adf0-f6d71e67ad03.root
/store/data/Run2023D/EGamma1/NANOAOD/22Sep2023_v1-v1/30000/0d81d79e-1240-42c6-9dbc-3b10637d1d7b.root
/store/data/Run2023D/EGamma1/NANOAOD/22Sep2023_v1-v1/30000/ff91ddfd-2535-4f41-bdc1-36c8310b52b5.root
/store/data/Run2023D/EGamma1/NANOAOD/22Sep2023_v1-v1/30000/19f725a8-c093-491d-9fc3-2d2e64a2a8e4.root
/store/data/Run2023D/EGamma1/NANOAOD/22Sep2023_v1-v1/30000/90b98285-d3c8-4e1b-8cd3-e5c5a727fbbf.root
/store/data/Run2023D/EGamma1/NANOAOD/22Sep2023_v1-v1/30000/2c18a682-c5e1-4afc-9a32-ecadbc472e3f.root
/store/data/Run2023D/EGamma1/NANOAOD/22Sep2023_v1-v1/30000/b7e09c90-7099-4815-9eec-e6d85a85e7c0.root
/store/data/Run2023D/EGamma1/NANOAOD/22Sep2023_v1-v1/30000/b6f303bb-a484-4bb4-8871-02ff86f970c9.root
/store/data/Run2023D/EGamma1/NANOAOD/22Sep2023_v1-v1/30000/a284760d-7fb4-48fe-a602-0c2e32df2855.root
/store/data/Run2023D/EGamma1/NANOAOD/22Sep2023_v1-v1/30000/523ca83d-1e3e-4c8e-b956-66f39670ce53.root
/store/data/Run2023D/EGamma1/NANOAOD/22Sep2023_v1-v1/40000/6f3e1300-bd0a-49c2-ad47-2eebfe46e8c6.root
/store/data/Run2023D/EGamma1/NANOAOD/22Sep2023_v1-v1/40000/7b4728a6-1416-4811-8071-c415a1dbb89f.root
/store/data/Run2023D/EGamma1/NANOAOD/22Sep2023_v1-v1/40000/172d500c-f083-4f79-bfc0-e71ce531c12e.root
/store/data/Run2023D/EGamma1/NANOAOD/22Sep2023_v1-v1/40000/ae7dd7f9-24e5-4159-bf2f-a80e8a6422f8.root
/store/data/Run2023D/EGamma1/NANOAOD/22Sep2023_v1-v1/40000/c31c7970-fc4a-46f4-9123-ebbd40f73d85.root
/store/data/Run2023D/EGamma1/NANOAOD/22Sep2023_v1-v1/40000/b709b4bf-8864-49b2-9bfa-23f6a17b6fcd.root
/store/data/Run2023D/EGamma1/NANOAOD/22Sep2023_v1-v1/40000/ed3775b1-f81e-440b-9c63-e95216b3076d.root
/store/data/Run2023D/EGamma1/NANOAOD/22Sep2023_v1-v1/40000/69d93f85-b6c2-453b-87e3-049626f2fe70.root
/store/data/Run2023D/EGamma1/NANOAOD/22Sep2023_v1-v1/40000/0008a76a-507e-45ed-ab9b-d6dffff0b509.root
/store/data/Run2023D/EGamma1/NANOAOD/22Sep2023_v1-v1/40000/7a4fa460-0ef0-4129-8cab-32ce1cdf3305.root
/store/data/Run2023D/EGamma1/NANOAOD/22Sep2023_v1-v1/40000/f3c4a340-fae3-4c29-b214-8ad2c6d296b2.root
/store/data/Run2023D/EGamma1/NANOAOD/22Sep2023_v1-v1/40000/99c78e0d-f55c-4946-8aa9-ddaacaa9b7b3.root
/store/data/Run2023D/EGamma1/NANOAOD/22Sep2023_v1-v1/40000/8a36301a-b898-4ac0-9d9c-e404a8f8d36b.root
/store/data/Run2023D/EGamma1/NANOAOD/22Sep2023_v1-v1/40000/85c8eadc-0630-47ec-99f3-d8478beb8a91.root
/store/data/Run2023D/EGamma1/NANOAOD/22Sep2023_v1-v1/40000/a8e82c63-69fa-4d5b-933e-c1da42194ced.root
/store/data/Run2023D/EGamma1/NANOAOD/22Sep2023_v1-v1/40000/b0c1b507-0033-4363-8686-65c8864dfce0.root
/store/data/Run2023D/EGamma1/NANOAOD/22Sep2023_v1-v1/40000/3d10064f-3a19-47be-b7d3-1577dbced09f.root
/store/data/Run2023D/EGamma1/NANOAOD/22Sep2023_v1-v1/40000/20199326-23af-4a7d-b9cb-43340e9624a5.root
/store/data/Run2023D/EGamma1/NANOAOD/22Sep2023_v1-v1/40000/22e6708a-e59d-4e7f-926c-3cefc5603a48.root
/store/data/Run2023D/EGamma1/NANOAOD/22Sep2023_v1-v1/40000/ed19f6b4-ba26-4691-bde8-bb8c16f9ef36.root
/store/data/Run2023D/EGamma1/NANOAOD/22Sep2023_v1-v1/40000/ed221fe8-e5ea-4c6c-95ba-c2431e5f102d.root
/store/data/Run2023D/EGamma1/NANOAOD/22Sep2023_v1-v1/40000/ddef0d82-52e6-4af8-8950-6ad31a3b528a.root
/store/data/Run2023D/EGamma1/NANOAOD/22Sep2023_v1-v1/40000/e471e4ef-f30d-4139-b8c5-eb9d23011aba.root
/store/data/Run2023D/EGamma1/NANOAOD/22Sep2023_v1-v1/40000/e17342a4-1388-4c92-bbba-a504733f5f55.root
/store/data/Run2023D/EGamma1/NANOAOD/22Sep2023_v1-v1/40000/7783b99f-0227-464a-9da7-af65b067b80b.root
/store/data/Run2023D/EGamma1/NANOAOD/22Sep2023_v1-v1/40000/38a65f4c-bc33-4f06-98a4-e562435be8f7.root
/store/data/Run2023D/EGamma1/NANOAOD/22Sep2023_v1-v1/30000/c384410a-f903-4be3-8e3d-82ead0c16958.root
/store/data/Run2023D/EGamma1/NANOAOD/22Sep2023_v1-v1/30000/0175e76d-e5db-4300-bb1a-646aab009e7f.root
/store/data/Run2023D/EGamma1/NANOAOD/22Sep2023_v1-v1/30000/e07fc7fe-cf37-4317-a1bb-cb6186cb3630.root
/store/data/Run2023D/EGamma1/NANOAOD/22Sep2023_v1-v1/30000/f4064f6c-60eb-4ccc-8d73-1bf3eb507a45.root
/store/data/Run2023D/EGamma1/NANOAOD/22Sep2023_v1-v1/30000/7b6e56e2-e4eb-40cf-8730-7ad642714916.root
/store/data/Run2023D/EGamma1/NANOAOD/22Sep2023_v1-v1/30000/5f3e5ffa-f819-4d40-a9e2-175b3cd630bc.root
/store/data/Run2023D/EGamma1/NANOAOD/22Sep2023_v1-v1/30000/5b905d70-4902-474d-93e7-e42d71c5d30d.root
/store/data/Run2023D/EGamma1/NANOAOD/22Sep2023_v1-v1/30000/9c79c2e1-a90a-42aa-b54e-25d307302c99.root
/store/data/Run2023D/EGamma1/NANOAOD/22Sep2023_v1-v1/30000/6b85f335-bdf6-42d9-8bfc-80bf0dc76e7e.root
/store/data/Run2023D/EGamma1/NANOAOD/22Sep2023_v1-v1/30000/a2fccb70-3a14-46c1-a422-9e688a499ce1.root
/store/data/Run2023D/EGamma1/NANOAOD/22Sep2023_v1-v1/30000/a752ac81-0e34-489c-8382-b9a04ef74843.root
/store/data/Run2023D/EGamma1/NANOAOD/22Sep2023_v1-v1/30000/e4a20799-4ec2-4717-b896-3dc571d65d8c.root
/store/data/Run2023D/EGamma1/NANOAOD/22Sep2023_v1-v1/30000/c2f19a2b-2927-4f72-b9c5-b9940ceacbb1.root
/store/data/Run2023D/EGamma1/NANOAOD/22Sep2023_v1-v1/30000/8cd1ed78-1ffc-427a-afbf-2a02a82c2388.root
/store/data/Run2023D/EGamma1/NANOAOD/22Sep2023_v1-v1/50000/152f0a02-d06e-45c5-a230-84a57359eb21.root
/store/data/Run2023D/EGamma1/NANOAOD/22Sep2023_v1-v1/50000/04d203f3-07b7-447a-9ac8-c15458f62f4c.root
/store/data/Run2023D/EGamma1/NANOAOD/22Sep2023_v1-v1/50000/bd68c300-03f1-461b-9bbb-dd454b771e99.root
/store/data/Run2023D/EGamma1/NANOAOD/22Sep2023_v1-v1/50000/b050704a-416d-4531-9ebe-aedcce41a59b.root
/store/data/Run2023D/EGamma1/NANOAOD/22Sep2023_v1-v1/50000/ee9b09c5-2a6d-42c7-8e43-c8511967c9c4.root
/store/data/Run2023D/EGamma1/NANOAOD/22Sep2023_v1-v1/50000/90917bcf-d4d7-4d31-ac06-36fb309520cf.root
/store/data/Run2023D/EGamma1/NANOAOD/22Sep2023_v1-v1/50000/bc64eb12-117b-4ba0-9482-79c6de82f30b.root
/store/data/Run2023D/EGamma1/NANOAOD/22Sep2023_v1-v1/50000/c98b7c73-b940-400c-9f29-63fb72556d20.root
/store/data/Run2023D/EGamma1/NANOAOD/22Sep2023_v1-v1/50000/0243cee3-6076-46f9-886e-924c83c74843.root
/store/data/Run2023D/EGamma1/NANOAOD/22Sep2023_v1-v1/50000/4d6e7d30-0b30-4c67-aad7-c55ec5fc00c4.root
/store/data/Run2023D/EGamma1/NANOAOD/22Sep2023_v1-v1/50000/cb7d02e0-9bcc-43c9-8ef1-13ff41d08cee.root
/store/data/Run2023D/EGamma1/NANOAOD/22Sep2023_v1-v1/50000/acf8a90d-0e48-4fd2-b08c-4f21e8baa5cb.root
/store/data/Run2023D/EGamma1/NANOAOD/22Sep2023_v1-v1/50000/270a9c40-25c9-4185-9b19-4087d2eafff1.root