/store/data/Run2023D/Tau/NANOAOD/22Sep2023_v2-v1/2530000/bece9c8d-aa52-4ba0-a44e-bc3b14dfa74a.root
/store/data/Run2023D/Tau/NANOAOD/22Sep2023_v2-v1/2530000/78f858ea-7ca9-4d5c-b976-6b8db36bb2d6.root
/store/data/Run2023D/Tau/NANOAOD/22Sep2023_v2-v1/2530000/cb0c3d6e-ebb0-4f40-95e7-55abc8eb9613.root
/store/data/Run2023D/Tau/NANOAOD/22Sep2023_v2-v1/2530000/d79d6538-97c0-49a5-a997-03d17fafe4e1.root
/store/data/Run2023D/Tau/NANOAOD/22Sep2023_v2-v1/2530000/e5ddba71-d25c-40b2-bbf5-f8cf06c46650.root
/store/data/Run2023D/Tau/NANOAOD/22Sep2023_v2-v1/2530000/2dc2ec30-a83f-4921-9cdc-98c051a2e9c7.root
/store/data/Run2023D/Tau/NANOAOD/22Sep2023_v2-v1/2530000/1e93f50d-50cd-4b31-bfcc-1522f07c73d8.root
/store/data/Run2023D/Tau/NANOAOD/22Sep2023_v2-v1/2530000/0a44d503-e47c-4000-8396-78e1152da46c.root
/store/data/Run2023D/Tau/NANOAOD/22Sep2023_v2-v1/2530000/b8bd2ab9-3f44-40f6-b905-98595abcb0bf.root
/store/data/Run2023D/Tau/NANOAOD/22Sep2023_v2-v1/2530000/1ba8f36b-b530-4eb1-82b3-992440dffd05.root
/store/data/Run2023D/Tau/NANOAOD/22Sep2023_v2-v1/2530000/b6c4edbf-92a8-4318-a081-91d6d3d04f93.root
/store/data/Run2023D/Tau/NANOAOD/22Sep2023_v2-v1/2530000/f03d9cfa-21dc-4883-828f-7bbe22b5e550.root
/store/data/Run2023D/Tau/NANOAOD/22Sep2023_v2-v1/2530000/4ae36a07-7f68-4d56-994e-f3461be0a3d3.root