/store/mc/Run3Summer23NanoAODv12/DYto2L-2Jets_MLL-50_PTLL-40to100_2J_TuneCP5_13p6TeV_amcatnloFXFX-pythia8/NANOAODSIM/130X_mcRun3_2023_realistic_v14-v1/2550000/4c816783-5295-487e-a305-2f00e972036f.root
/store/mc/Run3Summer23NanoAODv12/DYto2L-2Jets_MLL-50_PTLL-40to100_2J_TuneCP5_13p6TeV_amcatnloFXFX-pythia8/NANOAODSIM/130X_mcRun3_2023_realistic_v14-v1/2550000/a1fb1f4e-4b22-48c0-b28e-c854dc4be88f.root
/store/mc/Run3Summer23NanoAODv12/DYto2L-2Jets_MLL-50_PTLL-40to100_2J_TuneCP5_13p6TeV_amcatnloFXFX-pythia8/NANOAODSIM/130X_mcRun3_2023_realistic_v14-v1/2550000/c356b113-7714-4103-acf5-bbca6e771c59.root
/store/mc/Run3Summer23NanoAODv12/DYto2L-2Jets_MLL-50_PTLL-40to100_2J_TuneCP5_13p6TeV_amcatnloFXFX-pythia8/NANOAODSIM/130X_mcRun3_2023_realistic_v14-v1/2550000/33d12139-3cbf-4e02-b66d-c17a9427f092.root
/store/mc/Run3Summer23NanoAODv12/DYto2L-2Jets_MLL-50_PTLL-40to100_2J_TuneCP5_13p6TeV_amcatnloFXFX-pythia8/NANOAODSIM/130X_mcRun3_2023_realistic_v14-v1/2550000/430265d4-8a0d-41b2-940e-6acabd9a32bb.root
/store/mc/Run3Summer23NanoAODv12/DYto2L-2Jets_MLL-50_PTLL-40to100_2J_TuneCP5_13p6TeV_amcatnloFXFX-pythia8/NANOAODSIM/130X_mcRun3_2023_realistic_v14-v1/2550000/3918dbe9-073c-41c1-b3c8-4c39ed109c69.root
/store/mc/Run3Summer23NanoAODv12/DYto2L-2Jets_MLL-50_PTLL-40to100_2J_TuneCP5_13p6TeV_amcatnloFXFX-pythia8/NANOAODSIM/130X_mcRun3_2023_realistic_v14-v1/2550000/6ff4e6e6-8a41-4838-b0ac-f73b5adaec58.root
/store/mc/Run3Summer23NanoAODv12/DYto2L-2Jets_MLL-50_PTLL-40to100_2J_TuneCP5_13p6TeV_amcatnloFXFX-pythia8/NANOAODSIM/130X_mcRun3_2023_realistic_v14-v1/2550000/644cad06-b202-47c8-9d11-4994e90ea394.root
/store/mc/Run3Summer23NanoAODv12/DYto2L-2Jets_MLL-50_PTLL-40to100_2J_TuneCP5_13p6TeV_amcatnloFXFX-pythia8/NANOAODSIM/130X_mcRun3_2023_realistic_v14-v1/2550000/68aa720c-5e24-435c-ae3d-f9be2077f26e.root
/store/mc/Run3Summer23NanoAODv12/DYto2L-2Jets_MLL-50_PTLL-40to100_2J_TuneCP5_13p6TeV_amcatnloFXFX-pythia8/NANOAODSIM/130X_mcRun3_2023_realistic_v14-v1/2550000/244ed103-7a0e-4721-8623-ebee2078a799.root
/store/mc/Run3Summer23NanoAODv12/DYto2L-2Jets_MLL-50_PTLL-40to100_2J_TuneCP5_13p6TeV_amcatnloFXFX-pythia8/NANOAODSIM/130X_mcRun3_2023_realistic_v14-v1/2550000/a7823b70-89f3-4263-9e04-97dc00477450.root
/store/mc/Run3Summer23NanoAODv12/DYto2L-2Jets_MLL-50_PTLL-40to100_2J_TuneCP5_13p6TeV_amcatnloFXFX-pythia8/NANOAODSIM/130X_mcRun3_2023_realistic_v14-v1/2550000/d6fb6e44-2fb6-40a2-aef8-d553819d7e41.root
/store/mc/Run3Summer23NanoAODv12/DYto2L-2Jets_MLL-50_PTLL-40to100_2J_TuneCP5_13p6TeV_amcatnloFXFX-pythia8/NANOAODSIM/130X_mcRun3_2023_realistic_v14-v1/2550000/01cbc688-da8f-4496-a7c2-e5c7ba598287.root
/store/mc/Run3Summer23NanoAODv12/DYto2L-2Jets_MLL-50_PTLL-40to100_2J_TuneCP5_13p6TeV_amcatnloFXFX-pythia8/NANOAODSIM/130X_mcRun3_2023_realistic_v14-v1/2550000/05bf95ac-e301-4af2-9435-6319fcbc43d2.root
/store/mc/Run3Summer23NanoAODv12/DYto2L-2Jets_MLL-50_PTLL-40to100_2J_TuneCP5_13p6TeV_amcatnloFXFX-pythia8/NANOAODSIM/130X_mcRun3_2023_realistic_v14-v1/2550000/2060e2a2-9141-4607-8846-0ab29fce11ee.root
/store/mc/Run3Summer23NanoAODv12/DYto2L-2Jets_MLL-50_PTLL-40to100_2J_TuneCP5_13p6TeV_amcatnloFXFX-pythia8/NANOAODSIM/130X_mcRun3_2023_realistic_v14-v1/2550000/445cbb9d-0f5e-401b-9ebc-ab9268df8911.root
/store/mc/Run3Summer23NanoAODv12/DYto2L-2Jets_MLL-50_PTLL-40to100_2J_TuneCP5_13p6TeV_amcatnloFXFX-pythia8/NANOAODSIM/130X_mcRun3_2023_realistic_v14-v1/2550000/b82036ad-4ee3-45cc-bd6e-44a4dce736cf.root
/store/mc/Run3Summer23NanoAODv12/DYto2L-2Jets_MLL-50_PTLL-40to100_2J_TuneCP5_13p6TeV_amcatnloFXFX-pythia8/NANOAODSIM/130X_mcRun3_2023_realistic_v14-v1/2550000/4e1d1c1f-9484-4928-b6fa-ad45aee2daf1.root
/store/mc/Run3Summer23NanoAODv12/DYto2L-2Jets_MLL-50_PTLL-40to100_2J_TuneCP5_13p6TeV_amcatnloFXFX-pythia8/NANOAODSIM/130X_mcRun3_2023_realistic_v14-v1/2550000/77a77f85-90c0-4d11-8b32-713d7db6b3fb.root
/store/mc/Run3Summer23NanoAODv12/DYto2L-2Jets_MLL-50_PTLL-40to100_2J_TuneCP5_13p6TeV_amcatnloFXFX-pythia8/NANOAODSIM/130X_mcRun3_2023_realistic_v14-v1/60000/e32cac81-dc60-458e-8743-d5d2e7d1bceb.root
/store/mc/Run3Summer23NanoAODv12/DYto2L-2Jets_MLL-50_PTLL-40to100_2J_TuneCP5_13p6TeV_amcatnloFXFX-pythia8/NANOAODSIM/130X_mcRun3_2023_realistic_v14-v1/60000/c33a9124-4c2b-449b-8664-a22293f7a1e9.root
/store/mc/Run3Summer23NanoAODv12/DYto2L-2Jets_MLL-50_PTLL-40to100_2J_TuneCP5_13p6TeV_amcatnloFXFX-pythia8/NANOAODSIM/130X_mcRun3_2023_realistic_v14-v1/60000/6e7f9610-32f2-4d52-94d7-185c12a3ba76.root
/store/mc/Run3Summer23NanoAODv12/DYto2L-2Jets_MLL-50_PTLL-40to100_2J_TuneCP5_13p6TeV_amcatnloFXFX-pythia8/NANOAODSIM/130X_mcRun3_2023_realistic_v14-v1/60000/f05702c9-f7f2-4392-8598-469223acd2d6.root
/store/mc/Run3Summer23NanoAODv12/DYto2L-2Jets_MLL-50_PTLL-40to100_2J_TuneCP5_13p6TeV_amcatnloFXFX-pythia8/NANOAODSIM/130X_mcRun3_2023_realistic_v14-v1/60000/01f9ff68-b87a-4cf5-b23e-27e110d52b48.root
/store/mc/Run3Summer23NanoAODv12/DYto2L-2Jets_MLL-50_PTLL-40to100_2J_TuneCP5_13p6TeV_amcatnloFXFX-pythia8/NANOAODSIM/130X_mcRun3_2023_realistic_v14-v1/60000/a499bf1a-41d2-4fd5-beb2-0786f16edfa5.root
/store/mc/Run3Summer23NanoAODv12/DYto2L-2Jets_MLL-50_PTLL-40to100_2J_TuneCP5_13p6TeV_amcatnloFXFX-pythia8/NANOAODSIM/130X_mcRun3_2023_realistic_v14-v1/60000/3a27ff9d-6235-4188-b3f2-649cb7fc3f2a.root
/store/mc/Run3Summer23NanoAODv12/DYto2L-2Jets_MLL-50_PTLL-40to100_2J_TuneCP5_13p6TeV_amcatnloFXFX-pythia8/NANOAODSIM/130X_mcRun3_2023_realistic_v14-v1/60000/9efae0c3-c5d9-4d3a-93c5-1ea7b8542386.root
/store/mc/Run3Summer23NanoAODv12/DYto2L-2Jets_MLL-50_PTLL-40to100_2J_TuneCP5_13p6TeV_amcatnloFXFX-pythia8/NANOAODSIM/130X_mcRun3_2023_realistic_v14-v1/60000/7eb3c370-5667-4896-b00e-6985781478e9.root
/store/mc/Run3Summer23NanoAODv12/DYto2L-2Jets_MLL-50_PTLL-40to100_2J_TuneCP5_13p6TeV_amcatnloFXFX-pythia8/NANOAODSIM/130X_mcRun3_2023_realistic_v14-v1/60000/fd285d0d-0c9a-4383-89ae-86e6271d9cad.root
/store/mc/Run3Summer23NanoAODv12/DYto2L-2Jets_MLL-50_PTLL-40to100_2J_TuneCP5_13p6TeV_amcatnloFXFX-pythia8/NANOAODSIM/130X_mcRun3_2023_realistic_v14-v1/60000/14b48a6f-ad07-4bfa-b612-ae923fd6cabe.root
/store/mc/Run3Summer23NanoAODv12/DYto2L-2Jets_MLL-50_PTLL-40to100_2J_TuneCP5_13p6TeV_amcatnloFXFX-pythia8/NANOAODSIM/130X_mcRun3_2023_realistic_v14-v1/60000/d42bcc2a-4c0d-44be-b656-0825662c501e.root
/store/mc/Run3Summer23NanoAODv12/DYto2L-2Jets_MLL-50_PTLL-40to100_2J_TuneCP5_13p6TeV_amcatnloFXFX-pythia8/NANOAODSIM/130X_mcRun3_2023_realistic_v14-v1/60000/9c816157-b3d3-49be-97f1-e5da6a6d4edc.root
/store/mc/Run3Summer23NanoAODv12/DYto2L-2Jets_MLL-50_PTLL-40to100_2J_TuneCP5_13p6TeV_amcatnloFXFX-pythia8/NANOAODSIM/130X_mcRun3_2023_realistic_v14-v1/60000/69c6f8a8-876e-449e-b47c-63ee9aaac5f8.root
/store/mc/Run3Summer23NanoAODv12/DYto2L-2Jets_MLL-50_PTLL-40to100_2J_TuneCP5_13p6TeV_amcatnloFXFX-pythia8/NANOAODSIM/130X_mcRun3_2023_realistic_v14-v1/60000/a1be6460-ae16-4e9b-879c-bda42c99df7e.root
/store/mc/Run3Summer23NanoAODv12/DYto2L-2Jets_MLL-50_PTLL-40to100_2J_TuneCP5_13p6TeV_amcatnloFXFX-pythia8/NANOAODSIM/130X_mcRun3_2023_realistic_v14-v1/60000/63de92a5-91b2-4715-b776-ecd7b2da0613.root
/store/mc/Run3Summer23NanoAODv12/DYto2L-2Jets_MLL-50_PTLL-40to100_2J_TuneCP5_13p6TeV_amcatnloFXFX-pythia8/NANOAODSIM/130X_mcRun3_2023_realistic_v14-v1/60000/f3e61faf-9745-43cd-9ad8-2d964bf95697.root
/store/mc/Run3Summer23NanoAODv12/DYto2L-2Jets_MLL-50_PTLL-40to100_2J_TuneCP5_13p6TeV_amcatnloFXFX-pythia8/NANOAODSIM/130X_mcRun3_2023_realistic_v14-v1/60000/901130fa-ae14-4e1a-afd2-92f58a123d85.root
/store/mc/Run3Summer23NanoAODv12/DYto2L-2Jets_MLL-50_PTLL-40to100_2J_TuneCP5_13p6TeV_amcatnloFXFX-pythia8/NANOAODSIM/130X_mcRun3_2023_realistic_v14-v1/60000/da1fdab6-b43a-4dd3-80fc-958ad49ba72e.root
/store/mc/Run3Summer23NanoAODv12/DYto2L-2Jets_MLL-50_PTLL-40to100_2J_TuneCP5_13p6TeV_amcatnloFXFX-pythia8/NANOAODSIM/130X_mcRun3_2023_realistic_v14-v1/60000/7166427f-6769-4a98-9bd6-ee4ff5e7a75e.root
/store/mc/Run3Summer23NanoAODv12/DYto2L-2Jets_MLL-50_PTLL-40to100_2J_TuneCP5_13p6TeV_amcatnloFXFX-pythia8/NANOAODSIM/130X_mcRun3_2023_realistic_v14-v1/60000/fef32167-c2af-4a4e-ad40-ca04d6286d9e.root
/store/mc/Run3Summer23NanoAODv12/DYto2L-2Jets_MLL-50_PTLL-40to100_2J_TuneCP5_13p6TeV_amcatnloFXFX-pythia8/NANOAODSIM/130X_mcRun3_2023_realistic_v14-v1/60000/40326f26-0ea1-4b34-adb5-bd07badb7e80.root
/store/mc/Run3Summer23NanoAODv12/DYto2L-2Jets_MLL-50_PTLL-40to100_2J_TuneCP5_13p6TeV_amcatnloFXFX-pythia8/NANOAODSIM/130X_mcRun3_2023_realistic_v14-v1/60000/60c6a045-4bd2-446e-9e5b-a8992043b341.root
/store/mc/Run3Summer23NanoAODv12/DYto2L-2Jets_MLL-50_PTLL-40to100_2J_TuneCP5_13p6TeV_amcatnloFXFX-pythia8/NANOAODSIM/130X_mcRun3_2023_realistic_v14-v1/60000/d652b23a-7839-4cf2-9794-f4bb12a57b3d.root
/store/mc/Run3Summer23NanoAODv12/DYto2L-2Jets_MLL-50_PTLL-40to100_2J_TuneCP5_13p6TeV_amcatnloFXFX-pythia8/NANOAODSIM/130X_mcRun3_2023_realistic_v14-v1/60000/405f0fdf-a12c-4f04-b00a-cad9c9f0dff3.root
/store/mc/Run3Summer23NanoAODv12/DYto2L-2Jets_MLL-50_PTLL-40to100_2J_TuneCP5_13p6TeV_amcatnloFXFX-pythia8/NANOAODSIM/130X_mcRun3_2023_realistic_v14-v1/60000/51be3897-9140-43cf-9c94-95dba8f50dc0.root
/store/mc/Run3Summer23NanoAODv12/DYto2L-2Jets_MLL-50_PTLL-40to100_2J_TuneCP5_13p6TeV_amcatnloFXFX-pythia8/NANOAODSIM/130X_mcRun3_2023_realistic_v14-v1/60000/66ebfad5-d10d-4e46-949b-741bf6fac493.root
/store/mc/Run3Summer23NanoAODv12/DYto2L-2Jets_MLL-50_PTLL-40to100_2J_TuneCP5_13p6TeV_amcatnloFXFX-pythia8/NANOAODSIM/130X_mcRun3_2023_realistic_v14-v1/60000/992ba6cb-870c-4d90-ac67-707dfe8f4a7e.root
/store/mc/Run3Summer23NanoAODv12/DYto2L-2Jets_MLL-50_PTLL-40to100_2J_TuneCP5_13p6TeV_amcatnloFXFX-pythia8/NANOAODSIM/130X_mcRun3_2023_realistic_v14-v1/60000/f0cd62c1-19c1-4f5e-8a23-c66d414be427.root
/store/mc/Run3Summer23NanoAODv12/DYto2L-2Jets_MLL-50_PTLL-40to100_2J_TuneCP5_13p6TeV_amcatnloFXFX-pythia8/NANOAODSIM/130X_mcRun3_2023_realistic_v14-v1/60000/2b750493-de16-4e99-aeea-6a9fd3621178.root
/store/mc/Run3Summer23NanoAODv12/DYto2L-2Jets_MLL-50_PTLL-40to100_2J_TuneCP5_13p6TeV_amcatnloFXFX-pythia8/NANOAODSIM/130X_mcRun3_2023_realistic_v14-v1/60000/657418dd-c2d7-40e1-89e7-e34bb2f39229.root
/store/mc/Run3Summer23NanoAODv12/DYto2L-2Jets_MLL-50_PTLL-40to100_2J_TuneCP5_13p6TeV_amcatnloFXFX-pythia8/NANOAODSIM/130X_mcRun3_2023_realistic_v14-v1/60000/88d56e7b-9757-43d1-9472-bbef1494bdc8.root
/store/mc/Run3Summer23NanoAODv12/DYto2L-2Jets_MLL-50_PTLL-40to100_2J_TuneCP5_13p6TeV_amcatnloFXFX-pythia8/NANOAODSIM/130X_mcRun3_2023_realistic_v14-v1/60000/181386fc-4823-47e5-bf7d-6b97a33a23a7.root
/store/mc/Run3Summer23NanoAODv12/DYto2L-2Jets_MLL-50_PTLL-40to100_2J_TuneCP5_13p6TeV_amcatnloFXFX-pythia8/NANOAODSIM/130X_mcRun3_2023_realistic_v14-v1/60000/a2512fa5-717e-458a-b7b1-b6adea914cbf.root
/store/mc/Run3Summer23NanoAODv12/DYto2L-2Jets_MLL-50_PTLL-40to100_2J_TuneCP5_13p6TeV_amcatnloFXFX-pythia8/NANOAODSIM/130X_mcRun3_2023_realistic_v14-v1/60000/2c09b431-cad2-4496-b84c-aec4420eba62.root
/store/mc/Run3Summer23NanoAODv12/DYto2L-2Jets_MLL-50_PTLL-40to100_2J_TuneCP5_13p6TeV_amcatnloFXFX-pythia8/NANOAODSIM/130X_mcRun3_2023_realistic_v14-v1/60000/87e62957-b89f-45eb-a559-13abacaef2ac.root
/store/mc/Run3Summer23NanoAODv12/DYto2L-2Jets_MLL-50_PTLL-40to100_2J_TuneCP5_13p6TeV_amcatnloFXFX-pythia8/NANOAODSIM/130X_mcRun3_2023_realistic_v14-v1/60000/7b6d9a40-8131-4581-b23f-eec838c9e338.root
/store/mc/Run3Summer23NanoAODv12/DYto2L-2Jets_MLL-50_PTLL-40to100_2J_TuneCP5_13p6TeV_amcatnloFXFX-pythia8/NANOAODSIM/130X_mcRun3_2023_realistic_v14-v1/2550000/54ca7ee4-66c4-4ed8-9a0a-4775b8411a4f.root
/store/mc/Run3Summer23NanoAODv12/DYto2L-2Jets_MLL-50_PTLL-40to100_2J_TuneCP5_13p6TeV_amcatnloFXFX-pythia8/NANOAODSIM/130X_mcRun3_2023_realistic_v14-v1/2550000/a87a04f6-8b20-4cf4-b9a3-7f27dbe59f28.root
/store/mc/Run3Summer23NanoAODv12/DYto2L-2Jets_MLL-50_PTLL-40to100_2J_TuneCP5_13p6TeV_amcatnloFXFX-pythia8/NANOAODSIM/130X_mcRun3_2023_realistic_v14-v1/2550000/34894039-b504-4e0c-b926-a194da97788b.root
/store/mc/Run3Summer23NanoAODv12/DYto2L-2Jets_MLL-50_PTLL-40to100_2J_TuneCP5_13p6TeV_amcatnloFXFX-pythia8/NANOAODSIM/130X_mcRun3_2023_realistic_v14-v1/2550000/2a054cd4-1a80-4d76-8a13-f5d5d0e9da39.root
/store/mc/Run3Summer23NanoAODv12/DYto2L-2Jets_MLL-50_PTLL-40to100_2J_TuneCP5_13p6TeV_amcatnloFXFX-pythia8/NANOAODSIM/130X_mcRun3_2023_realistic_v14-v1/2550000/3951d216-33ec-49a9-9272-3bf1aa1726c8.root
/store/mc/Run3Summer23NanoAODv12/DYto2L-2Jets_MLL-50_PTLL-40to100_2J_TuneCP5_13p6TeV_amcatnloFXFX-pythia8/NANOAODSIM/130X_mcRun3_2023_realistic_v14-v1/2550000/a2a10cd0-6cd9-4e19-913e-2aa03401a436.root
/store/mc/Run3Summer23NanoAODv12/DYto2L-2Jets_MLL-50_PTLL-40to100_2J_TuneCP5_13p6TeV_amcatnloFXFX-pythia8/NANOAODSIM/130X_mcRun3_2023_realistic_v14-v1/2550000/9a53982c-913d-4920-a2eb-8c5166ada472.root
/store/mc/Run3Summer23NanoAODv12/DYto2L-2Jets_MLL-50_PTLL-40to100_2J_TuneCP5_13p6TeV_amcatnloFXFX-pythia8/NANOAODSIM/130X_mcRun3_2023_realistic_v14-v1/2550000/651474b6-01f6-4ec8-acde-5fd94168fc73.root
/store/mc/Run3Summer23NanoAODv12/DYto2L-2Jets_MLL-50_PTLL-40to100_2J_TuneCP5_13p6TeV_amcatnloFXFX-pythia8/NANOAODSIM/130X_mcRun3_2023_realistic_v14-v1/2550000/a1d36997-0a15-420d-934f-84cd7db9ca4a.root
/store/mc/Run3Summer23NanoAODv12/DYto2L-2Jets_MLL-50_PTLL-40to100_2J_TuneCP5_13p6TeV_amcatnloFXFX-pythia8/NANOAODSIM/130X_mcRun3_2023_realistic_v14-v1/2550000/587817b7-d736-4e82-b997-13483f207df6.root
/store/mc/Run3Summer23NanoAODv12/DYto2L-2Jets_MLL-50_PTLL-40to100_2J_TuneCP5_13p6TeV_amcatnloFXFX-pythia8/NANOAODSIM/130X_mcRun3_2023_realistic_v14-v1/2550000/baedd33d-740d-4989-9baa-e3e4a722da09.root
/store/mc/Run3Summer23NanoAODv12/DYto2L-2Jets_MLL-50_PTLL-40to100_2J_TuneCP5_13p6TeV_amcatnloFXFX-pythia8/NANOAODSIM/130X_mcRun3_2023_realistic_v14-v1/2550000/89fab51c-d8b5-443f-9daa-cb6adcf987d2.root
/store/mc/Run3Summer23NanoAODv12/DYto2L-2Jets_MLL-50_PTLL-40to100_2J_TuneCP5_13p6TeV_amcatnloFXFX-pythia8/NANOAODSIM/130X_mcRun3_2023_realistic_v14-v1/2550000/55a68d88-c2be-4b35-a818-bcaeb60bd412.root
/store/mc/Run3Summer23NanoAODv12/DYto2L-2Jets_MLL-50_PTLL-40to100_2J_TuneCP5_13p6TeV_amcatnloFXFX-pythia8/NANOAODSIM/130X_mcRun3_2023_realistic_v14-v1/2550000/3f08b7ec-6ce4-4461-9028-fae258a5821a.root
/store/mc/Run3Summer23NanoAODv12/DYto2L-2Jets_MLL-50_PTLL-40to100_2J_TuneCP5_13p6TeV_amcatnloFXFX-pythia8/NANOAODSIM/130X_mcRun3_2023_realistic_v14-v1/2550000/796896be-e1b8-42a8-b815-5aa6b1fe3ee8.root
/store/mc/Run3Summer23NanoAODv12/DYto2L-2Jets_MLL-50_PTLL-40to100_2J_TuneCP5_13p6TeV_amcatnloFXFX-pythia8/NANOAODSIM/130X_mcRun3_2023_realistic_v14-v1/60000/1fbf8a4a-28ba-471d-9ff4-50c73f5c8cfc.root
/store/mc/Run3Summer23NanoAODv12/DYto2L-2Jets_MLL-50_PTLL-40to100_2J_TuneCP5_13p6TeV_amcatnloFXFX-pythia8/NANOAODSIM/130X_mcRun3_2023_realistic_v14-v1/60000/f37d8e14-eb18-4e68-92eb-2e76ec177088.root
/store/mc/Run3Summer23NanoAODv12/DYto2L-2Jets_MLL-50_PTLL-40to100_2J_TuneCP5_13p6TeV_amcatnloFXFX-pythia8/NANOAODSIM/130X_mcRun3_2023_realistic_v14-v1/60000/9e60c0e6-954f-4ed3-a24c-21f3e71cbf90.root
/store/mc/Run3Summer23NanoAODv12/DYto2L-2Jets_MLL-50_PTLL-40to100_2J_TuneCP5_13p6TeV_amcatnloFXFX-pythia8/NANOAODSIM/130X_mcRun3_2023_realistic_v14-v1/60000/878c53d8-ec5e-4a1c-aa10-921aa76b39f6.root
/store/mc/Run3Summer23NanoAODv12/DYto2L-2Jets_MLL-50_PTLL-40to100_2J_TuneCP5_13p6TeV_amcatnloFXFX-pythia8/NANOAODSIM/130X_mcRun3_2023_realistic_v14-v1/60000/0526b7d6-9111-4b45-8163-7c3a324c0fbf.root
/store/mc/Run3Summer23NanoAODv12/DYto2L-2Jets_MLL-50_PTLL-40to100_2J_TuneCP5_13p6TeV_amcatnloFXFX-pythia8/NANOAODSIM/130X_mcRun3_2023_realistic_v14-v1/60000/34f53f52-a475-41e4-8f2b-8e1a59927a0f.root
/store/mc/Run3Summer23NanoAODv12/DYto2L-2Jets_MLL-50_PTLL-40to100_2J_TuneCP5_13p6TeV_amcatnloFXFX-pythia8/NANOAODSIM/130X_mcRun3_2023_realistic_v14-v1/2550000/bdec86b1-eaec-457b-8faf-900d6d1d38f4.root
/store/mc/Run3Summer23NanoAODv12/DYto2L-2Jets_MLL-50_PTLL-40to100_2J_TuneCP5_13p6TeV_amcatnloFXFX-pythia8/NANOAODSIM/130X_mcRun3_2023_realistic_v14-v1/2550000/329753fd-876b-4de8-9251-5503e13a3fb2.root
/store/mc/Run3Summer23NanoAODv12/DYto2L-2Jets_MLL-50_PTLL-40to100_2J_TuneCP5_13p6TeV_amcatnloFXFX-pythia8/NANOAODSIM/130X_mcRun3_2023_realistic_v14-v1/2550000/6e46d3ad-26be-4c38-ad18-566217b5563c.root
/store/mc/Run3Summer23NanoAODv12/DYto2L-2Jets_MLL-50_PTLL-40to100_2J_TuneCP5_13p6TeV_amcatnloFXFX-pythia8/NANOAODSIM/130X_mcRun3_2023_realistic_v14-v1/2550000/4601074f-0666-4c23-90ec-35e8165d231c.root
/store/mc/Run3Summer23NanoAODv12/DYto2L-2Jets_MLL-50_PTLL-40to100_2J_TuneCP5_13p6TeV_amcatnloFXFX-pythia8/NANOAODSIM/130X_mcRun3_2023_realistic_v14-v1/2550000/25e1031c-7fbd-415b-8bed-447519596930.root
/store/mc/Run3Summer23NanoAODv12/DYto2L-2Jets_MLL-50_PTLL-40to100_2J_TuneCP5_13p6TeV_amcatnloFXFX-pythia8/NANOAODSIM/130X_mcRun3_2023_realistic_v14-v1/2550000/a353e595-60a2-4af1-a3f7-cf09f65fe25c.root
/store/mc/Run3Summer23NanoAODv12/DYto2L-2Jets_MLL-50_PTLL-40to100_2J_TuneCP5_13p6TeV_amcatnloFXFX-pythia8/NANOAODSIM/130X_mcRun3_2023_realistic_v14-v1/2550000/c2d2a684-5c15-4f12-bb46-b6a4aefced8c.root
/store/mc/Run3Summer23NanoAODv12/DYto2L-2Jets_MLL-50_PTLL-40to100_2J_TuneCP5_13p6TeV_amcatnloFXFX-pythia8/NANOAODSIM/130X_mcRun3_2023_realistic_v14-v1/2550000/0b941460-701d-4438-b68a-94e6cc20e01b.root
/store/mc/Run3Summer23NanoAODv12/DYto2L-2Jets_MLL-50_PTLL-40to100_2J_TuneCP5_13p6TeV_amcatnloFXFX-pythia8/NANOAODSIM/130X_mcRun3_2023_realistic_v14-v1/2550000/3a1e8696-ae79-499b-add5-1bee199426fb.root
/store/mc/Run3Summer23NanoAODv12/DYto2L-2Jets_MLL-50_PTLL-40to100_2J_TuneCP5_13p6TeV_amcatnloFXFX-pythia8/NANOAODSIM/130X_mcRun3_2023_realistic_v14-v1/2550000/0522805a-bde8-4727-83b4-a552ce634a38.root
/store/mc/Run3Summer23NanoAODv12/DYto2L-2Jets_MLL-50_PTLL-40to100_2J_TuneCP5_13p6TeV_amcatnloFXFX-pythia8/NANOAODSIM/130X_mcRun3_2023_realistic_v14-v1/2550000/03380829-0ace-4212-b2ca-16d88fde8458.root
/store/mc/Run3Summer23NanoAODv12/DYto2L-2Jets_MLL-50_PTLL-40to100_2J_TuneCP5_13p6TeV_amcatnloFXFX-pythia8/NANOAODSIM/130X_mcRun3_2023_realistic_v14-v1/2550000/e7ad5ad3-c747-4d97-bb3d-161e4bcab7d6.root
/store/mc/Run3Summer23NanoAODv12/DYto2L-2Jets_MLL-50_PTLL-40to100_2J_TuneCP5_13p6TeV_amcatnloFXFX-pythia8/NANOAODSIM/130X_mcRun3_2023_realistic_v14-v1/2550000/8e101ebe-6e2f-430b-b8ab-8c7cec36c7d8.root
/store/mc/Run3Summer23NanoAODv12/DYto2L-2Jets_MLL-50_PTLL-40to100_2J_TuneCP5_13p6TeV_amcatnloFXFX-pythia8/NANOAODSIM/130X_mcRun3_2023_realistic_v14-v1/2550000/409d8afe-0840-43d1-9ac3-d71e79003b71.root
/store/mc/Run3Summer23NanoAODv12/DYto2L-2Jets_MLL-50_PTLL-40to100_2J_TuneCP5_13p6TeV_amcatnloFXFX-pythia8/NANOAODSIM/130X_mcRun3_2023_realistic_v14-v1/2550000/e3ed690c-1832-4eab-b209-9eb5d3779bd8.root
/store/mc/Run3Summer23NanoAODv12/DYto2L-2Jets_MLL-50_PTLL-40to100_2J_TuneCP5_13p6TeV_amcatnloFXFX-pythia8/NANOAODSIM/130X_mcRun3_2023_realistic_v14-v1/2550000/2cdc4154-fde5-41c4-9b71-2a81363f2751.root
/store/mc/Run3Summer23NanoAODv12/DYto2L-2Jets_MLL-50_PTLL-40to100_2J_TuneCP5_13p6TeV_amcatnloFXFX-pythia8/NANOAODSIM/130X_mcRun3_2023_realistic_v14-v1/2550000/55ee68c9-c047-4384-bd4f-a6af8b983c38.root
/store/mc/Run3Summer23NanoAODv12/DYto2L-2Jets_MLL-50_PTLL-40to100_2J_TuneCP5_13p6TeV_amcatnloFXFX-pythia8/NANOAODSIM/130X_mcRun3_2023_realistic_v14-v1/2550000/501725d4-637c-4eed-8fad-61718f54c4f2.root
/store/mc/Run3Summer23NanoAODv12/DYto2L-2Jets_MLL-50_PTLL-40to100_2J_TuneCP5_13p6TeV_amcatnloFXFX-pythia8/NANOAODSIM/130X_mcRun3_2023_realistic_v14-v1/2550000/eef69cf9-ea3f-439f-969b-f1bebebadb0d.root
/store/mc/Run3Summer23NanoAODv12/DYto2L-2Jets_MLL-50_PTLL-40to100_2J_TuneCP5_13p6TeV_amcatnloFXFX-pythia8/NANOAODSIM/130X_mcRun3_2023_realistic_v14-v1/2550000/8b39c433-865f-4eb2-8c89-9f645115f261.root
/store/mc/Run3Summer23NanoAODv12/DYto2L-2Jets_MLL-50_PTLL-40to100_2J_TuneCP5_13p6TeV_amcatnloFXFX-pythia8/NANOAODSIM/130X_mcRun3_2023_realistic_v14-v1/2550000/cb7f0404-1dd4-455d-86ba-450215396f7b.root
/store/mc/Run3Summer23NanoAODv12/DYto2L-2Jets_MLL-50_PTLL-40to100_2J_TuneCP5_13p6TeV_amcatnloFXFX-pythia8/NANOAODSIM/130X_mcRun3_2023_realistic_v14-v1/2550000/31f13436-b418-4e3b-8a00-a85ba5a08d90.root
/store/mc/Run3Summer23NanoAODv12/DYto2L-2Jets_MLL-50_PTLL-40to100_2J_TuneCP5_13p6TeV_amcatnloFXFX-pythia8/NANOAODSIM/130X_mcRun3_2023_realistic_v14-v1/2550000/3e302ad3-6d0d-480f-888d-2a37491b54c5.root
/store/mc/Run3Summer23NanoAODv12/DYto2L-2Jets_MLL-50_PTLL-40to100_2J_TuneCP5_13p6TeV_amcatnloFXFX-pythia8/NANOAODSIM/130X_mcRun3_2023_realistic_v14-v1/2550000/36337b05-6615-4637-a8ef-b593a3cc58bd.root
/store/mc/Run3Summer23NanoAODv12/DYto2L-2Jets_MLL-50_PTLL-40to100_2J_TuneCP5_13p6TeV_amcatnloFXFX-pythia8/NANOAODSIM/130X_mcRun3_2023_realistic_v14-v1/2550000/fb1cd856-ab1d-4782-b283-d97692f2feed.root
/store/mc/Run3Summer23NanoAODv12/DYto2L-2Jets_MLL-50_PTLL-40to100_2J_TuneCP5_13p6TeV_amcatnloFXFX-pythia8/NANOAODSIM/130X_mcRun3_2023_realistic_v14-v1/2550000/2072e525-d603-4344-aa80-8c01319d2e13.root
/store/mc/Run3Summer23NanoAODv12/DYto2L-2Jets_MLL-50_PTLL-40to100_2J_TuneCP5_13p6TeV_amcatnloFXFX-pythia8/NANOAODSIM/130X_mcRun3_2023_realistic_v14-v1/2550000/8ef25eff-9db0-47f5-a99f-4bec0f972a25.root
/store/mc/Run3Summer23NanoAODv12/DYto2L-2Jets_MLL-50_PTLL-40to100_2J_TuneCP5_13p6TeV_amcatnloFXFX-pythia8/NANOAODSIM/130X_mcRun3_2023_realistic_v14-v1/2550000/b415708e-63e8-4a66-9603-d672787106b2.root
/store/mc/Run3Summer23NanoAODv12/DYto2L-2Jets_MLL-50_PTLL-40to100_2J_TuneCP5_13p6TeV_amcatnloFXFX-pythia8/NANOAODSIM/130X_mcRun3_2023_realistic_v14-v1/2550000/7a4b67e0-e221-4fd7-a03d-6a165f3e86eb.root
/store/mc/Run3Summer23NanoAODv12/DYto2L-2Jets_MLL-50_PTLL-40to100_2J_TuneCP5_13p6TeV_amcatnloFXFX-pythia8/NANOAODSIM/130X_mcRun3_2023_realistic_v14-v1/2550000/f9bd1984-88f8-4f7a-bbc7-e47c86f386d1.root
/store/mc/Run3Summer23NanoAODv12/DYto2L-2Jets_MLL-50_PTLL-40to100_2J_TuneCP5_13p6TeV_amcatnloFXFX-pythia8/NANOAODSIM/130X_mcRun3_2023_realistic_v14-v1/2550000/59a9f742-ec9f-4453-90da-042676594e32.root
/store/mc/Run3Summer23NanoAODv12/DYto2L-2Jets_MLL-50_PTLL-40to100_2J_TuneCP5_13p6TeV_amcatnloFXFX-pythia8/NANOAODSIM/130X_mcRun3_2023_realistic_v14-v1/2550000/db057a55-2449-4c7a-ba0f-7b777dd4215c.root
/store/mc/Run3Summer23NanoAODv12/DYto2L-2Jets_MLL-50_PTLL-40to100_2J_TuneCP5_13p6TeV_amcatnloFXFX-pythia8/NANOAODSIM/130X_mcRun3_2023_realistic_v14-v1/60000/02b7720c-cac7-423d-b147-a86c2ef0969e.root
/store/mc/Run3Summer23NanoAODv12/DYto2L-2Jets_MLL-50_PTLL-40to100_2J_TuneCP5_13p6TeV_amcatnloFXFX-pythia8/NANOAODSIM/130X_mcRun3_2023_realistic_v14-v1/2560000/ff82fa8d-e769-4fcf-bbc6-2cdd9a184049.root
/store/mc/Run3Summer23NanoAODv12/DYto2L-2Jets_MLL-50_PTLL-40to100_2J_TuneCP5_13p6TeV_amcatnloFXFX-pythia8/NANOAODSIM/130X_mcRun3_2023_realistic_v14-v1/60000/03ba36e2-b213-400f-92d0-100922bcf600.root
/store/mc/Run3Summer23NanoAODv12/DYto2L-2Jets_MLL-50_PTLL-40to100_2J_TuneCP5_13p6TeV_amcatnloFXFX-pythia8/NANOAODSIM/130X_mcRun3_2023_realistic_v14-v1/60000/ec37f17e-b521-4a63-bbf8-a722c7dca308.root
/store/mc/Run3Summer23NanoAODv12/DYto2L-2Jets_MLL-50_PTLL-40to100_2J_TuneCP5_13p6TeV_amcatnloFXFX-pythia8/NANOAODSIM/130X_mcRun3_2023_realistic_v14-v1/60000/78fd224a-2b47-4250-96d4-c5ae99d8e8a7.root
/store/mc/Run3Summer23NanoAODv12/DYto2L-2Jets_MLL-50_PTLL-40to100_2J_TuneCP5_13p6TeV_amcatnloFXFX-pythia8/NANOAODSIM/130X_mcRun3_2023_realistic_v14-v1/60000/530535fb-ffcf-451b-9864-8bab5c1d088d.root
/store/mc/Run3Summer23NanoAODv12/DYto2L-2Jets_MLL-50_PTLL-40to100_2J_TuneCP5_13p6TeV_amcatnloFXFX-pythia8/NANOAODSIM/130X_mcRun3_2023_realistic_v14-v1/60000/3c40fce6-f4bb-44e0-be2c-c89f91f46c0b.root
/store/mc/Run3Summer23NanoAODv12/DYto2L-2Jets_MLL-50_PTLL-40to100_2J_TuneCP5_13p6TeV_amcatnloFXFX-pythia8/NANOAODSIM/130X_mcRun3_2023_realistic_v14-v1/2560000/cc717003-e653-4011-b783-c713acb981a1.root
/store/mc/Run3Summer23NanoAODv12/DYto2L-2Jets_MLL-50_PTLL-40to100_2J_TuneCP5_13p6TeV_amcatnloFXFX-pythia8/NANOAODSIM/130X_mcRun3_2023_realistic_v14-v1/2550000/361777a9-0e06-4854-94f0-888d1a6cb27b.root
/store/mc/Run3Summer23NanoAODv12/DYto2L-2Jets_MLL-50_PTLL-40to100_2J_TuneCP5_13p6TeV_amcatnloFXFX-pythia8/NANOAODSIM/130X_mcRun3_2023_realistic_v14-v1/2550000/1e5027a1-c796-4b25-8706-2fec10c65da2.root
/store/mc/Run3Summer23NanoAODv12/DYto2L-2Jets_MLL-50_PTLL-40to100_2J_TuneCP5_13p6TeV_amcatnloFXFX-pythia8/NANOAODSIM/130X_mcRun3_2023_realistic_v14-v1/2550000/9e11f943-f008-4b9a-9841-8c7f2af3c409.root
/store/mc/Run3Summer23NanoAODv12/DYto2L-2Jets_MLL-50_PTLL-40to100_2J_TuneCP5_13p6TeV_amcatnloFXFX-pythia8/NANOAODSIM/130X_mcRun3_2023_realistic_v14-v1/2550000/d4f5d746-90d3-46e8-bc18-fb6e5c3e6528.root
/store/mc/Run3Summer23NanoAODv12/DYto2L-2Jets_MLL-50_PTLL-40to100_2J_TuneCP5_13p6TeV_amcatnloFXFX-pythia8/NANOAODSIM/130X_mcRun3_2023_realistic_v14-v1/2550000/e6861e97-871a-4adc-9203-5b4751dd4671.root
/store/mc/Run3Summer23NanoAODv12/DYto2L-2Jets_MLL-50_PTLL-40to100_2J_TuneCP5_13p6TeV_amcatnloFXFX-pythia8/NANOAODSIM/130X_mcRun3_2023_realistic_v14-v1/2550000/09aeee6b-166e-4a2b-ad9e-94c88d7daa0b.root
/store/mc/Run3Summer23NanoAODv12/DYto2L-2Jets_MLL-50_PTLL-40to100_2J_TuneCP5_13p6TeV_amcatnloFXFX-pythia8/NANOAODSIM/130X_mcRun3_2023_realistic_v14-v1/2550000/bd793056-1dd0-4ae9-8931-660963a67d83.root
/store/mc/Run3Summer23NanoAODv12/DYto2L-2Jets_MLL-50_PTLL-40to100_2J_TuneCP5_13p6TeV_amcatnloFXFX-pythia8/NANOAODSIM/130X_mcRun3_2023_realistic_v14-v1/2550000/df9822a5-a7ff-485f-bf21-86b8c87ad728.root
/store/mc/Run3Summer23NanoAODv12/DYto2L-2Jets_MLL-50_PTLL-40to100_2J_TuneCP5_13p6TeV_amcatnloFXFX-pythia8/NANOAODSIM/130X_mcRun3_2023_realistic_v14-v1/2550000/5b3b8f11-03cc-4b62-8228-c92bc3fe0cb2.root
/store/mc/Run3Summer23NanoAODv12/DYto2L-2Jets_MLL-50_PTLL-40to100_2J_TuneCP5_13p6TeV_amcatnloFXFX-pythia8/NANOAODSIM/130X_mcRun3_2023_realistic_v14-v1/2550000/9134258a-e6ca-4f10-b5f9-60279386cbfc.root
/store/mc/Run3Summer23NanoAODv12/DYto2L-2Jets_MLL-50_PTLL-40to100_2J_TuneCP5_13p6TeV_amcatnloFXFX-pythia8/NANOAODSIM/130X_mcRun3_2023_realistic_v14-v1/2550000/af081257-3d4a-44ae-bbe9-3e962661c2f5.root
/store/mc/Run3Summer23NanoAODv12/DYto2L-2Jets_MLL-50_PTLL-40to100_2J_TuneCP5_13p6TeV_amcatnloFXFX-pythia8/NANOAODSIM/130X_mcRun3_2023_realistic_v14-v1/2550000/1c2c087e-2677-4b2b-8ea1-a45fb77236c9.root
/store/mc/Run3Summer23NanoAODv12/DYto2L-2Jets_MLL-50_PTLL-40to100_2J_TuneCP5_13p6TeV_amcatnloFXFX-pythia8/NANOAODSIM/130X_mcRun3_2023_realistic_v14-v1/2550000/a80f3cda-9a15-4ce4-bd99-0446311d8d48.root
/store/mc/Run3Summer23NanoAODv12/DYto2L-2Jets_MLL-50_PTLL-40to100_2J_TuneCP5_13p6TeV_amcatnloFXFX-pythia8/NANOAODSIM/130X_mcRun3_2023_realistic_v14-v1/2550000/ce7934b2-8133-44c8-a43b-4cc5d7e202dd.root
/store/mc/Run3Summer23NanoAODv12/DYto2L-2Jets_MLL-50_PTLL-40to100_2J_TuneCP5_13p6TeV_amcatnloFXFX-pythia8/NANOAODSIM/130X_mcRun3_2023_realistic_v14-v1/60000/2cd36db7-7522-4c27-9a50-9f3fcbd680a5.root
/store/mc/Run3Summer23NanoAODv12/DYto2L-2Jets_MLL-50_PTLL-40to100_2J_TuneCP5_13p6TeV_amcatnloFXFX-pythia8/NANOAODSIM/130X_mcRun3_2023_realistic_v14-v1/60000/9cc32b3d-8fda-48c5-9f7d-1ee5a89706c4.root
/store/mc/Run3Summer23NanoAODv12/DYto2L-2Jets_MLL-50_PTLL-40to100_2J_TuneCP5_13p6TeV_amcatnloFXFX-pythia8/NANOAODSIM/130X_mcRun3_2023_realistic_v14-v1/60000/5d93ab13-fa77-4058-a3bf-b538951cbc69.root
/store/mc/Run3Summer23NanoAODv12/DYto2L-2Jets_MLL-50_PTLL-40to100_2J_TuneCP5_13p6TeV_amcatnloFXFX-pythia8/NANOAODSIM/130X_mcRun3_2023_realistic_v14-v1/60000/f92eb367-fec5-4e52-8486-1939a2615fe5.root
/store/mc/Run3Summer23NanoAODv12/DYto2L-2Jets_MLL-50_PTLL-40to100_2J_TuneCP5_13p6TeV_amcatnloFXFX-pythia8/NANOAODSIM/130X_mcRun3_2023_realistic_v14-v1/60000/ac61bf56-e19b-413b-aecf-e750c90336cd.root
/store/mc/Run3Summer23NanoAODv12/DYto2L-2Jets_MLL-50_PTLL-40to100_2J_TuneCP5_13p6TeV_amcatnloFXFX-pythia8/NANOAODSIM/130X_mcRun3_2023_realistic_v14-v1/60000/3c51d88f-fefa-43ff-a190-8d50bbbd476d.root
/store/mc/Run3Summer23NanoAODv12/DYto2L-2Jets_MLL-50_PTLL-40to100_2J_TuneCP5_13p6TeV_amcatnloFXFX-pythia8/NANOAODSIM/130X_mcRun3_2023_realistic_v14-v1/60000/85bdb7af-ac90-4c11-bc0c-a6a356a1d6f1.root
/store/mc/Run3Summer23NanoAODv12/DYto2L-2Jets_MLL-50_PTLL-40to100_2J_TuneCP5_13p6TeV_amcatnloFXFX-pythia8/NANOAODSIM/130X_mcRun3_2023_realistic_v14-v1/60000/08c2b9e3-f6fe-4b35-817e-e70d1e052772.root
/store/mc/Run3Summer23NanoAODv12/DYto2L-2Jets_MLL-50_PTLL-40to100_2J_TuneCP5_13p6TeV_amcatnloFXFX-pythia8/NANOAODSIM/130X_mcRun3_2023_realistic_v14-v1/60000/d8455387-de40-432d-a4f1-012632d8ebb9.root
/store/mc/Run3Summer23NanoAODv12/DYto2L-2Jets_MLL-50_PTLL-40to100_2J_TuneCP5_13p6TeV_amcatnloFXFX-pythia8/NANOAODSIM/130X_mcRun3_2023_realistic_v14-v1/60000/52db343a-04de-4d3d-9bfe-f1ebf862c23b.root
/store/mc/Run3Summer23NanoAODv12/DYto2L-2Jets_MLL-50_PTLL-40to100_2J_TuneCP5_13p6TeV_amcatnloFXFX-pythia8/NANOAODSIM/130X_mcRun3_2023_realistic_v14-v1/60000/a95b3edf-4e1b-4a36-ab94-2e2c4ef7571e.root
/store/mc/Run3Summer23NanoAODv12/DYto2L-2Jets_MLL-50_PTLL-40to100_2J_TuneCP5_13p6TeV_amcatnloFXFX-pythia8/NANOAODSIM/130X_mcRun3_2023_realistic_v14-v1/60000/08271022-a08f-4c1a-a4ce-4feccb73df48.root
/store/mc/Run3Summer23NanoAODv12/DYto2L-2Jets_MLL-50_PTLL-40to100_2J_TuneCP5_13p6TeV_amcatnloFXFX-pythia8/NANOAODSIM/130X_mcRun3_2023_realistic_v14-v1/60000/5d8a9a67-e71e-4b17-bb1b-f8225acbb95f.root
/store/mc/Run3Summer23NanoAODv12/DYto2L-2Jets_MLL-50_PTLL-40to100_2J_TuneCP5_13p6TeV_amcatnloFXFX-pythia8/NANOAODSIM/130X_mcRun3_2023_realistic_v14-v1/60000/61e5a27b-6e1f-4a20-b5e0-fec5e211688f.root
/store/mc/Run3Summer23NanoAODv12/DYto2L-2Jets_MLL-50_PTLL-40to100_2J_TuneCP5_13p6TeV_amcatnloFXFX-pythia8/NANOAODSIM/130X_mcRun3_2023_realistic_v14-v1/60000/d8a96445-7b38-477c-bae9-197c5e2681d9.root
/store/mc/Run3Summer23NanoAODv12/DYto2L-2Jets_MLL-50_PTLL-40to100_2J_TuneCP5_13p6TeV_amcatnloFXFX-pythia8/NANOAODSIM/130X_mcRun3_2023_realistic_v14-v1/60000/28e1490d-4621-4fc7-af86-7c075dfe524a.root
/store/mc/Run3Summer23NanoAODv12/DYto2L-2Jets_MLL-50_PTLL-40to100_2J_TuneCP5_13p6TeV_amcatnloFXFX-pythia8/NANOAODSIM/130X_mcRun3_2023_realistic_v14-v1/60000/83e568d2-c217-41d6-bce1-9c6149616ca9.root
/store/mc/Run3Summer23NanoAODv12/DYto2L-2Jets_MLL-50_PTLL-40to100_2J_TuneCP5_13p6TeV_amcatnloFXFX-pythia8/NANOAODSIM/130X_mcRun3_2023_realistic_v14-v1/60000/f6f10d04-9e78-4677-b2d1-69979bae4fc0.root
/store/mc/Run3Summer23NanoAODv12/DYto2L-2Jets_MLL-50_PTLL-40to100_2J_TuneCP5_13p6TeV_amcatnloFXFX-pythia8/NANOAODSIM/130X_mcRun3_2023_realistic_v14-v1/60000/56c56b1f-fe52-4a7c-9fbb-9ac50cf504e1.root
/store/mc/Run3Summer23NanoAODv12/DYto2L-2Jets_MLL-50_PTLL-40to100_2J_TuneCP5_13p6TeV_amcatnloFXFX-pythia8/NANOAODSIM/130X_mcRun3_2023_realistic_v14-v1/60000/ab29a41b-9d21-405e-a0e1-025fbc7bedee.root
/store/mc/Run3Summer23NanoAODv12/DYto2L-2Jets_MLL-50_PTLL-40to100_2J_TuneCP5_13p6TeV_amcatnloFXFX-pythia8/NANOAODSIM/130X_mcRun3_2023_realistic_v14-v1/60000/5fbb7910-bce5-4be2-8d7e-185afa38635f.root
/store/mc/Run3Summer23NanoAODv12/DYto2L-2Jets_MLL-50_PTLL-40to100_2J_TuneCP5_13p6TeV_amcatnloFXFX-pythia8/NANOAODSIM/130X_mcRun3_2023_realistic_v14-v1/60000/2e0dc16f-183e-46d3-ae07-69c0466dab12.root
/store/mc/Run3Summer23NanoAODv12/DYto2L-2Jets_MLL-50_PTLL-40to100_2J_TuneCP5_13p6TeV_amcatnloFXFX-pythia8/NANOAODSIM/130X_mcRun3_2023_realistic_v14-v1/60000/3cf3dced-fa84-4ca6-aa29-f837dcc11385.root
/store/mc/Run3Summer23NanoAODv12/DYto2L-2Jets_MLL-50_PTLL-40to100_2J_TuneCP5_13p6TeV_amcatnloFXFX-pythia8/NANOAODSIM/130X_mcRun3_2023_realistic_v14-v1/60000/24602051-9d20-46fc-be8a-88f08b2da287.root
/store/mc/Run3Summer23NanoAODv12/DYto2L-2Jets_MLL-50_PTLL-40to100_2J_TuneCP5_13p6TeV_amcatnloFXFX-pythia8/NANOAODSIM/130X_mcRun3_2023_realistic_v14-v1/60000/0d099f8a-61f0-4238-b9bf-f592e4cab114.root
/store/mc/Run3Summer23NanoAODv12/DYto2L-2Jets_MLL-50_PTLL-40to100_2J_TuneCP5_13p6TeV_amcatnloFXFX-pythia8/NANOAODSIM/130X_mcRun3_2023_realistic_v14-v1/60000/b885b691-79aa-4205-b9bf-31c783429d24.root
/store/mc/Run3Summer23NanoAODv12/DYto2L-2Jets_MLL-50_PTLL-40to100_2J_TuneCP5_13p6TeV_amcatnloFXFX-pythia8/NANOAODSIM/130X_mcRun3_2023_realistic_v14-v1/60000/7397116b-c04b-441b-8eff-aca66a79827d.root
/store/mc/Run3Summer23NanoAODv12/DYto2L-2Jets_MLL-50_PTLL-40to100_2J_TuneCP5_13p6TeV_amcatnloFXFX-pythia8/NANOAODSIM/130X_mcRun3_2023_realistic_v14-v1/60000/04fc277d-cd4d-44b3-b188-37fed891ef77.root
/store/mc/Run3Summer23NanoAODv12/DYto2L-2Jets_MLL-50_PTLL-40to100_2J_TuneCP5_13p6TeV_amcatnloFXFX-pythia8/NANOAODSIM/130X_mcRun3_2023_realistic_v14-v1/60000/02cf6f0d-74ff-4aa5-8283-7f49559ae64a.root
/store/mc/Run3Summer23NanoAODv12/DYto2L-2Jets_MLL-50_PTLL-40to100_2J_TuneCP5_13p6TeV_amcatnloFXFX-pythia8/NANOAODSIM/130X_mcRun3_2023_realistic_v14-v1/60000/3f162c32-1468-45f8-9221-1db090cde573.root
/store/mc/Run3Summer23NanoAODv12/DYto2L-2Jets_MLL-50_PTLL-40to100_2J_TuneCP5_13p6TeV_amcatnloFXFX-pythia8/NANOAODSIM/130X_mcRun3_2023_realistic_v14-v1/60000/ec65bba6-51d1-437d-b67a-385b243c5355.root
/store/mc/Run3Summer23NanoAODv12/DYto2L-2Jets_MLL-50_PTLL-40to100_2J_TuneCP5_13p6TeV_amcatnloFXFX-pythia8/NANOAODSIM/130X_mcRun3_2023_realistic_v14-v1/60000/750a0f18-58b2-45a4-acc8-59a30cb3816b.root
/store/mc/Run3Summer23NanoAODv12/DYto2L-2Jets_MLL-50_PTLL-40to100_2J_TuneCP5_13p6TeV_amcatnloFXFX-pythia8/NANOAODSIM/130X_mcRun3_2023_realistic_v14-v1/60000/f151dd2e-0dee-475a-9eb7-531be171335b.root
/store/mc/Run3Summer23NanoAODv12/DYto2L-2Jets_MLL-50_PTLL-40to100_2J_TuneCP5_13p6TeV_amcatnloFXFX-pythia8/NANOAODSIM/130X_mcRun3_2023_realistic_v14-v1/60000/df5d4c2c-6f1f-41ba-a8e4-6196353da7ad.root
/store/mc/Run3Summer23NanoAODv12/DYto2L-2Jets_MLL-50_PTLL-40to100_2J_TuneCP5_13p6TeV_amcatnloFXFX-pythia8/NANOAODSIM/130X_mcRun3_2023_realistic_v14-v1/60000/136a36e7-a7e4-46ba-86b8-248253aa88f6.root
/store/mc/Run3Summer23NanoAODv12/DYto2L-2Jets_MLL-50_PTLL-40to100_2J_TuneCP5_13p6TeV_amcatnloFXFX-pythia8/NANOAODSIM/130X_mcRun3_2023_realistic_v14-v1/60000/47e8ef19-ae2d-47a9-b6aa-3e650a4c724c.root
/store/mc/Run3Summer23NanoAODv12/DYto2L-2Jets_MLL-50_PTLL-40to100_2J_TuneCP5_13p6TeV_amcatnloFXFX-pythia8/NANOAODSIM/130X_mcRun3_2023_realistic_v14-v1/60000/2f7d135f-4425-4ab0-b9ce-c59668f1f45b.root
/store/mc/Run3Summer23NanoAODv12/DYto2L-2Jets_MLL-50_PTLL-40to100_2J_TuneCP5_13p6TeV_amcatnloFXFX-pythia8/NANOAODSIM/130X_mcRun3_2023_realistic_v14-v1/60000/390fac48-a0f2-4e3d-8d0a-eb609da8ec4a.root
/store/mc/Run3Summer23NanoAODv12/DYto2L-2Jets_MLL-50_PTLL-40to100_2J_TuneCP5_13p6TeV_amcatnloFXFX-pythia8/NANOAODSIM/130X_mcRun3_2023_realistic_v14-v1/60000/5814d1e3-d1d0-4356-ac02-462e58ca8380.root
/store/mc/Run3Summer23NanoAODv12/DYto2L-2Jets_MLL-50_PTLL-40to100_2J_TuneCP5_13p6TeV_amcatnloFXFX-pythia8/NANOAODSIM/130X_mcRun3_2023_realistic_v14-v1/60000/1d15ab0f-7e4e-4eb8-9f88-6b03634c8475.root
/store/mc/Run3Summer23NanoAODv12/DYto2L-2Jets_MLL-50_PTLL-40to100_2J_TuneCP5_13p6TeV_amcatnloFXFX-pythia8/NANOAODSIM/130X_mcRun3_2023_realistic_v14-v1/60000/7ccd14f4-83c6-462b-a48a-659eabdc0b55.root
/store/mc/Run3Summer23NanoAODv12/DYto2L-2Jets_MLL-50_PTLL-40to100_2J_TuneCP5_13p6TeV_amcatnloFXFX-pythia8/NANOAODSIM/130X_mcRun3_2023_realistic_v14-v1/60000/e67984d2-a442-4b38-b443-e350145da346.root
/store/mc/Run3Summer23NanoAODv12/DYto2L-2Jets_MLL-50_PTLL-40to100_2J_TuneCP5_13p6TeV_amcatnloFXFX-pythia8/NANOAODSIM/130X_mcRun3_2023_realistic_v14-v1/60000/eaf86c76-0e5b-4dea-a44d-df34c8aaffff.root
/store/mc/Run3Summer23NanoAODv12/DYto2L-2Jets_MLL-50_PTLL-40to100_2J_TuneCP5_13p6TeV_amcatnloFXFX-pythia8/NANOAODSIM/130X_mcRun3_2023_realistic_v14-v1/60000/a8da5dcb-17de-4015-9022-b610fc89eff9.root
/store/mc/Run3Summer23NanoAODv12/DYto2L-2Jets_MLL-50_PTLL-40to100_2J_TuneCP5_13p6TeV_amcatnloFXFX-pythia8/NANOAODSIM/130X_mcRun3_2023_realistic_v14-v1/60000/d4f440ab-4f59-4075-b888-b98fde3d90e2.root
/store/mc/Run3Summer23NanoAODv12/DYto2L-2Jets_MLL-50_PTLL-40to100_2J_TuneCP5_13p6TeV_amcatnloFXFX-pythia8/NANOAODSIM/130X_mcRun3_2023_realistic_v14-v1/60000/5fca6f0f-857f-40db-9810-177230cf37d5.root
/store/mc/Run3Summer23NanoAODv12/DYto2L-2Jets_MLL-50_PTLL-40to100_2J_TuneCP5_13p6TeV_amcatnloFXFX-pythia8/NANOAODSIM/130X_mcRun3_2023_realistic_v14-v1/60000/0beb954c-1035-4db1-85f5-7e4923b74d30.root
/store/mc/Run3Summer23NanoAODv12/DYto2L-2Jets_MLL-50_PTLL-40to100_2J_TuneCP5_13p6TeV_amcatnloFXFX-pythia8/NANOAODSIM/130X_mcRun3_2023_realistic_v14-v1/60000/f002f828-bdc3-42a9-b1ea-4ddb92f5f99e.root
/store/mc/Run3Summer23NanoAODv12/DYto2L-2Jets_MLL-50_PTLL-40to100_2J_TuneCP5_13p6TeV_amcatnloFXFX-pythia8/NANOAODSIM/130X_mcRun3_2023_realistic_v14-v1/60000/90a6e890-b587-4762-9120-72d38d9252ef.root
/store/mc/Run3Summer23NanoAODv12/DYto2L-2Jets_MLL-50_PTLL-40to100_2J_TuneCP5_13p6TeV_amcatnloFXFX-pythia8/NANOAODSIM/130X_mcRun3_2023_realistic_v14-v1/60000/3180c563-8450-4744-b388-7b0051def894.root
/store/mc/Run3Summer23NanoAODv12/DYto2L-2Jets_MLL-50_PTLL-40to100_2J_TuneCP5_13p6TeV_amcatnloFXFX-pythia8/NANOAODSIM/130X_mcRun3_2023_realistic_v14-v1/60000/2edf8d50-efa8-46bf-9c9d-422c34c45fb0.root