/store/mc/Run3Summer23NanoAODv12/DYto2L-2Jets_MLL-50_PTLL-40to100_1J_TuneCP5_13p6TeV_amcatnloFXFX-pythia8/NANOAODSIM/130X_mcRun3_2023_realistic_v14-v1/2560000/b6880374-a3b1-4e24-b215-38d240fd2d17.root
/store/mc/Run3Summer23NanoAODv12/DYto2L-2Jets_MLL-50_PTLL-40to100_1J_TuneCP5_13p6TeV_amcatnloFXFX-pythia8/NANOAODSIM/130X_mcRun3_2023_realistic_v14-v1/2560000/fa6ff8af-663c-44fd-8a2b-0b4971f579b6.root
/store/mc/Run3Summer23NanoAODv12/DYto2L-2Jets_MLL-50_PTLL-40to100_1J_TuneCP5_13p6TeV_amcatnloFXFX-pythia8/NANOAODSIM/130X_mcRun3_2023_realistic_v14-v1/2560000/1fa1c4cb-5c7b-4497-a93f-1d9511a6442f.root
/store/mc/Run3Summer23NanoAODv12/DYto2L-2Jets_MLL-50_PTLL-40to100_1J_TuneCP5_13p6TeV_amcatnloFXFX-pythia8/NANOAODSIM/130X_mcRun3_2023_realistic_v14-v1/2560000/5783fa64-22db-4b61-9cb1-58bfdce5fb91.root
/store/mc/Run3Summer23NanoAODv12/DYto2L-2Jets_MLL-50_PTLL-40to100_1J_TuneCP5_13p6TeV_amcatnloFXFX-pythia8/NANOAODSIM/130X_mcRun3_2023_realistic_v14-v1/2560000/2589d034-e161-4ff1-b257-6c850ee16d7d.root
/store/mc/Run3Summer23NanoAODv12/DYto2L-2Jets_MLL-50_PTLL-40to100_1J_TuneCP5_13p6TeV_amcatnloFXFX-pythia8/NANOAODSIM/130X_mcRun3_2023_realistic_v14-v1/2560000/d2f8cbe1-bbe2-40ff-bea2-23c357576b71.root
/store/mc/Run3Summer23NanoAODv12/DYto2L-2Jets_MLL-50_PTLL-40to100_1J_TuneCP5_13p6TeV_amcatnloFXFX-pythia8/NANOAODSIM/130X_mcRun3_2023_realistic_v14-v1/2560000/de86a364-08f4-403c-97b4-ab68e0e74ff1.root
/store/mc/Run3Summer23NanoAODv12/DYto2L-2Jets_MLL-50_PTLL-40to100_1J_TuneCP5_13p6TeV_amcatnloFXFX-pythia8/NANOAODSIM/130X_mcRun3_2023_realistic_v14-v1/2560000/96b65d0b-1cc8-494d-beba-95057df02785.root
/store/mc/Run3Summer23NanoAODv12/DYto2L-2Jets_MLL-50_PTLL-40to100_1J_TuneCP5_13p6TeV_amcatnloFXFX-pythia8/NANOAODSIM/130X_mcRun3_2023_realistic_v14-v1/2560000/45876594-07ab-4348-8372-d850817b4f2e.root
/store/mc/Run3Summer23NanoAODv12/DYto2L-2Jets_MLL-50_PTLL-40to100_1J_TuneCP5_13p6TeV_amcatnloFXFX-pythia8/NANOAODSIM/130X_mcRun3_2023_realistic_v14-v1/2560000/87736f13-02c8-473f-8e51-b1cc444b04f4.root
/store/mc/Run3Summer23NanoAODv12/DYto2L-2Jets_MLL-50_PTLL-40to100_1J_TuneCP5_13p6TeV_amcatnloFXFX-pythia8/NANOAODSIM/130X_mcRun3_2023_realistic_v14-v1/2560000/33b23954-739b-4854-827c-ac7e9b02a04c.root
/store/mc/Run3Summer23NanoAODv12/DYto2L-2Jets_MLL-50_PTLL-40to100_1J_TuneCP5_13p6TeV_amcatnloFXFX-pythia8/NANOAODSIM/130X_mcRun3_2023_realistic_v14-v1/2560000/0eddda3e-df5a-4cb8-88b0-442327be748a.root
/store/mc/Run3Summer23NanoAODv12/DYto2L-2Jets_MLL-50_PTLL-40to100_1J_TuneCP5_13p6TeV_amcatnloFXFX-pythia8/NANOAODSIM/130X_mcRun3_2023_realistic_v14-v1/2560000/7a61a56b-d946-4b66-84fa-18fa64dd0936.root
/store/mc/Run3Summer23NanoAODv12/DYto2L-2Jets_MLL-50_PTLL-40to100_1J_TuneCP5_13p6TeV_amcatnloFXFX-pythia8/NANOAODSIM/130X_mcRun3_2023_realistic_v14-v1/2560000/2f31278a-1286-4c32-99d0-ef90afdf408d.root
/store/mc/Run3Summer23NanoAODv12/DYto2L-2Jets_MLL-50_PTLL-40to100_1J_TuneCP5_13p6TeV_amcatnloFXFX-pythia8/NANOAODSIM/130X_mcRun3_2023_realistic_v14-v1/2560000/3443b8d8-e784-4e9c-9fa8-1939d3c90ed2.root
/store/mc/Run3Summer23NanoAODv12/DYto2L-2Jets_MLL-50_PTLL-40to100_1J_TuneCP5_13p6TeV_amcatnloFXFX-pythia8/NANOAODSIM/130X_mcRun3_2023_realistic_v14-v1/2560000/8f666b94-450a-4e0f-b8a9-294dce2872e8.root
/store/mc/Run3Summer23NanoAODv12/DYto2L-2Jets_MLL-50_PTLL-40to100_1J_TuneCP5_13p6TeV_amcatnloFXFX-pythia8/NANOAODSIM/130X_mcRun3_2023_realistic_v14-v1/2560000/9f6a4c5b-488b-4546-856d-133865788313.root
/store/mc/Run3Summer23NanoAODv12/DYto2L-2Jets_MLL-50_PTLL-40to100_1J_TuneCP5_13p6TeV_amcatnloFXFX-pythia8/NANOAODSIM/130X_mcRun3_2023_realistic_v14-v1/2560000/97ed4daf-825b-47f5-9a55-70ad15a9440b.root
/store/mc/Run3Summer23NanoAODv12/DYto2L-2Jets_MLL-50_PTLL-40to100_1J_TuneCP5_13p6TeV_amcatnloFXFX-pythia8/NANOAODSIM/130X_mcRun3_2023_realistic_v14-v1/2560000/be2978d0-2385-4ed4-b5e1-7d52df801c7c.root
/store/mc/Run3Summer23NanoAODv12/DYto2L-2Jets_MLL-50_PTLL-40to100_1J_TuneCP5_13p6TeV_amcatnloFXFX-pythia8/NANOAODSIM/130X_mcRun3_2023_realistic_v14-v1/2560000/6dc9f74a-7961-44a2-975b-d66b1a89afb4.root
/store/mc/Run3Summer23NanoAODv12/DYto2L-2Jets_MLL-50_PTLL-40to100_1J_TuneCP5_13p6TeV_amcatnloFXFX-pythia8/NANOAODSIM/130X_mcRun3_2023_realistic_v14-v1/2560000/e0704b4e-04e3-4b16-8a66-5c646419023d.root
/store/mc/Run3Summer23NanoAODv12/DYto2L-2Jets_MLL-50_PTLL-40to100_1J_TuneCP5_13p6TeV_amcatnloFXFX-pythia8/NANOAODSIM/130X_mcRun3_2023_realistic_v14-v1/2560000/94cf0968-ef1f-42a0-866d-5ef9e821bbb3.root
/store/mc/Run3Summer23NanoAODv12/DYto2L-2Jets_MLL-50_PTLL-40to100_1J_TuneCP5_13p6TeV_amcatnloFXFX-pythia8/NANOAODSIM/130X_mcRun3_2023_realistic_v14-v1/2560000/c70c2e19-c10f-4aa9-b9b0-a9422e525364.root
/store/mc/Run3Summer23NanoAODv12/DYto2L-2Jets_MLL-50_PTLL-40to100_1J_TuneCP5_13p6TeV_amcatnloFXFX-pythia8/NANOAODSIM/130X_mcRun3_2023_realistic_v14-v1/2560000/db757965-60bd-4a57-add9-028790cb01a0.root
/store/mc/Run3Summer23NanoAODv12/DYto2L-2Jets_MLL-50_PTLL-40to100_1J_TuneCP5_13p6TeV_amcatnloFXFX-pythia8/NANOAODSIM/130X_mcRun3_2023_realistic_v14-v1/2560000/ffbfdb0f-0c1e-43fd-a762-263b901eb8cb.root
/store/mc/Run3Summer23NanoAODv12/DYto2L-2Jets_MLL-50_PTLL-40to100_1J_TuneCP5_13p6TeV_amcatnloFXFX-pythia8/NANOAODSIM/130X_mcRun3_2023_realistic_v14-v1/2560000/1e06e458-42e9-4345-89d9-887a7d2b46b8.root
/store/mc/Run3Summer23NanoAODv12/DYto2L-2Jets_MLL-50_PTLL-40to100_1J_TuneCP5_13p6TeV_amcatnloFXFX-pythia8/NANOAODSIM/130X_mcRun3_2023_realistic_v14-v1/2560000/24813f35-75f3-4446-85f5-874ee0db26c8.root
/store/mc/Run3Summer23NanoAODv12/DYto2L-2Jets_MLL-50_PTLL-40to100_1J_TuneCP5_13p6TeV_amcatnloFXFX-pythia8/NANOAODSIM/130X_mcRun3_2023_realistic_v14-v1/2560000/c3df0467-665f-45af-87d2-04886c548ca0.root
/store/mc/Run3Summer23NanoAODv12/DYto2L-2Jets_MLL-50_PTLL-40to100_1J_TuneCP5_13p6TeV_amcatnloFXFX-pythia8/NANOAODSIM/130X_mcRun3_2023_realistic_v14-v1/2560000/924b8c2b-700d-4766-bff9-eaf5daabe92a.root
/store/mc/Run3Summer23NanoAODv12/DYto2L-2Jets_MLL-50_PTLL-40to100_1J_TuneCP5_13p6TeV_amcatnloFXFX-pythia8/NANOAODSIM/130X_mcRun3_2023_realistic_v14-v1/2560000/f75e005c-1a72-4ed5-8b34-57dc9d37c9b7.root
/store/mc/Run3Summer23NanoAODv12/DYto2L-2Jets_MLL-50_PTLL-40to100_1J_TuneCP5_13p6TeV_amcatnloFXFX-pythia8/NANOAODSIM/130X_mcRun3_2023_realistic_v14-v1/2560000/14543ead-5332-496e-a545-2cb4a823ee44.root
/store/mc/Run3Summer23NanoAODv12/DYto2L-2Jets_MLL-50_PTLL-40to100_1J_TuneCP5_13p6TeV_amcatnloFXFX-pythia8/NANOAODSIM/130X_mcRun3_2023_realistic_v14-v1/2560000/2a620306-f94b-408a-aa83-0b91491859e2.root
/store/mc/Run3Summer23NanoAODv12/DYto2L-2Jets_MLL-50_PTLL-40to100_1J_TuneCP5_13p6TeV_amcatnloFXFX-pythia8/NANOAODSIM/130X_mcRun3_2023_realistic_v14-v1/2560000/d078a97e-0428-45cb-ba59-1f15be7da071.root
/store/mc/Run3Summer23NanoAODv12/DYto2L-2Jets_MLL-50_PTLL-40to100_1J_TuneCP5_13p6TeV_amcatnloFXFX-pythia8/NANOAODSIM/130X_mcRun3_2023_realistic_v14-v1/2560000/651bc430-80cd-4784-bfdf-0d3c7c677480.root
/store/mc/Run3Summer23NanoAODv12/DYto2L-2Jets_MLL-50_PTLL-40to100_1J_TuneCP5_13p6TeV_amcatnloFXFX-pythia8/NANOAODSIM/130X_mcRun3_2023_realistic_v14-v1/2560000/b0cc1a42-51ac-48e2-91bc-cd66c68aa47a.root
/store/mc/Run3Summer23NanoAODv12/DYto2L-2Jets_MLL-50_PTLL-40to100_1J_TuneCP5_13p6TeV_amcatnloFXFX-pythia8/NANOAODSIM/130X_mcRun3_2023_realistic_v14-v1/2560000/f0ff3965-81ca-42c1-b1f4-6363d8726dae.root
/store/mc/Run3Summer23NanoAODv12/DYto2L-2Jets_MLL-50_PTLL-40to100_1J_TuneCP5_13p6TeV_amcatnloFXFX-pythia8/NANOAODSIM/130X_mcRun3_2023_realistic_v14-v1/2560000/b6cb75d7-e2c2-4b51-8b9f-cdaec6da5193.root
/store/mc/Run3Summer23NanoAODv12/DYto2L-2Jets_MLL-50_PTLL-40to100_1J_TuneCP5_13p6TeV_amcatnloFXFX-pythia8/NANOAODSIM/130X_mcRun3_2023_realistic_v14-v1/2560000/36d4d271-f6b8-446e-ab0d-abeace52c33e.root
/store/mc/Run3Summer23NanoAODv12/DYto2L-2Jets_MLL-50_PTLL-40to100_1J_TuneCP5_13p6TeV_amcatnloFXFX-pythia8/NANOAODSIM/130X_mcRun3_2023_realistic_v14-v1/2560000/cc23ad5b-1f9c-438a-b8b7-f36067608419.root
/store/mc/Run3Summer23NanoAODv12/DYto2L-2Jets_MLL-50_PTLL-40to100_1J_TuneCP5_13p6TeV_amcatnloFXFX-pythia8/NANOAODSIM/130X_mcRun3_2023_realistic_v14-v1/2560000/b84fba49-04c3-473e-a4ba-c4e7304c6cdc.root
/store/mc/Run3Summer23NanoAODv12/DYto2L-2Jets_MLL-50_PTLL-40to100_1J_TuneCP5_13p6TeV_amcatnloFXFX-pythia8/NANOAODSIM/130X_mcRun3_2023_realistic_v14-v1/2560000/98c4e8bc-d496-4fcc-87f9-73b7d618f8a0.root
/store/mc/Run3Summer23NanoAODv12/DYto2L-2Jets_MLL-50_PTLL-40to100_1J_TuneCP5_13p6TeV_amcatnloFXFX-pythia8/NANOAODSIM/130X_mcRun3_2023_realistic_v14-v1/2560000/8fe50974-7314-4a2e-9a80-45064cf29ccc.root
/store/mc/Run3Summer23NanoAODv12/DYto2L-2Jets_MLL-50_PTLL-40to100_1J_TuneCP5_13p6TeV_amcatnloFXFX-pythia8/NANOAODSIM/130X_mcRun3_2023_realistic_v14-v1/2560000/06b6051c-3bca-4e31-a451-49f8dd493603.root
/store/mc/Run3Summer23NanoAODv12/DYto2L-2Jets_MLL-50_PTLL-40to100_1J_TuneCP5_13p6TeV_amcatnloFXFX-pythia8/NANOAODSIM/130X_mcRun3_2023_realistic_v14-v1/2560000/84227dd5-e2e5-41f0-a106-1660a9a09066.root
/store/mc/Run3Summer23NanoAODv12/DYto2L-2Jets_MLL-50_PTLL-40to100_1J_TuneCP5_13p6TeV_amcatnloFXFX-pythia8/NANOAODSIM/130X_mcRun3_2023_realistic_v14-v1/2560000/99206495-1657-4da4-8297-d8d8300a92a2.root
/store/mc/Run3Summer23NanoAODv12/DYto2L-2Jets_MLL-50_PTLL-40to100_1J_TuneCP5_13p6TeV_amcatnloFXFX-pythia8/NANOAODSIM/130X_mcRun3_2023_realistic_v14-v1/2560000/5c9f3e15-98ba-4cc1-8e49-ece813a2db28.root
/store/mc/Run3Summer23NanoAODv12/DYto2L-2Jets_MLL-50_PTLL-40to100_1J_TuneCP5_13p6TeV_amcatnloFXFX-pythia8/NANOAODSIM/130X_mcRun3_2023_realistic_v14-v1/2550000/cb199d87-7a37-4030-a32f-7605a283cd6f.root
/store/mc/Run3Summer23NanoAODv12/DYto2L-2Jets_MLL-50_PTLL-40to100_1J_TuneCP5_13p6TeV_amcatnloFXFX-pythia8/NANOAODSIM/130X_mcRun3_2023_realistic_v14-v1/2550000/a922cf93-a889-4ecb-a4f4-f7ebc2a95751.root
/store/mc/Run3Summer23NanoAODv12/DYto2L-2Jets_MLL-50_PTLL-40to100_1J_TuneCP5_13p6TeV_amcatnloFXFX-pythia8/NANOAODSIM/130X_mcRun3_2023_realistic_v14-v1/2550000/d2a1a239-f860-4880-8b41-d229080c558b.root
/store/mc/Run3Summer23NanoAODv12/DYto2L-2Jets_MLL-50_PTLL-40to100_1J_TuneCP5_13p6TeV_amcatnloFXFX-pythia8/NANOAODSIM/130X_mcRun3_2023_realistic_v14-v1/2550000/33cb367c-7856-42f5-b734-2a66f60df1c7.root
/store/mc/Run3Summer23NanoAODv12/DYto2L-2Jets_MLL-50_PTLL-40to100_1J_TuneCP5_13p6TeV_amcatnloFXFX-pythia8/NANOAODSIM/130X_mcRun3_2023_realistic_v14-v1/2550000/b3ded0ec-4205-4653-8d67-d990cc81ebf5.root
/store/mc/Run3Summer23NanoAODv12/DYto2L-2Jets_MLL-50_PTLL-40to100_1J_TuneCP5_13p6TeV_amcatnloFXFX-pythia8/NANOAODSIM/130X_mcRun3_2023_realistic_v14-v1/2550000/5a777197-954d-4814-b26d-48b81e251df8.root
/store/mc/Run3Summer23NanoAODv12/DYto2L-2Jets_MLL-50_PTLL-40to100_1J_TuneCP5_13p6TeV_amcatnloFXFX-pythia8/NANOAODSIM/130X_mcRun3_2023_realistic_v14-v1/2550000/07321414-2618-49c0-8a13-4d7c43bf2635.root
/store/mc/Run3Summer23NanoAODv12/DYto2L-2Jets_MLL-50_PTLL-40to100_1J_TuneCP5_13p6TeV_amcatnloFXFX-pythia8/NANOAODSIM/130X_mcRun3_2023_realistic_v14-v1/2550000/3e05249d-7669-43bd-b039-4055675730e1.root
/store/mc/Run3Summer23NanoAODv12/DYto2L-2Jets_MLL-50_PTLL-40to100_1J_TuneCP5_13p6TeV_amcatnloFXFX-pythia8/NANOAODSIM/130X_mcRun3_2023_realistic_v14-v1/2550000/27a04398-8d77-46e4-9047-961af24acce0.root
/store/mc/Run3Summer23NanoAODv12/DYto2L-2Jets_MLL-50_PTLL-40to100_1J_TuneCP5_13p6TeV_amcatnloFXFX-pythia8/NANOAODSIM/130X_mcRun3_2023_realistic_v14-v1/2550000/bc08ba6d-f6cb-4553-bf71-85ae77e564cc.root
/store/mc/Run3Summer23NanoAODv12/DYto2L-2Jets_MLL-50_PTLL-40to100_1J_TuneCP5_13p6TeV_amcatnloFXFX-pythia8/NANOAODSIM/130X_mcRun3_2023_realistic_v14-v1/2550000/bd1e3560-fc02-4fca-800a-fceb7506d291.root
/store/mc/Run3Summer23NanoAODv12/DYto2L-2Jets_MLL-50_PTLL-40to100_1J_TuneCP5_13p6TeV_amcatnloFXFX-pythia8/NANOAODSIM/130X_mcRun3_2023_realistic_v14-v1/2550000/cd9309fa-6181-4ecb-a601-cfcb7bc99523.root
/store/mc/Run3Summer23NanoAODv12/DYto2L-2Jets_MLL-50_PTLL-40to100_1J_TuneCP5_13p6TeV_amcatnloFXFX-pythia8/NANOAODSIM/130X_mcRun3_2023_realistic_v14-v1/2550000/515922a4-5b64-40d9-8e44-f7d8f5d4b163.root
/store/mc/Run3Summer23NanoAODv12/DYto2L-2Jets_MLL-50_PTLL-40to100_1J_TuneCP5_13p6TeV_amcatnloFXFX-pythia8/NANOAODSIM/130X_mcRun3_2023_realistic_v14-v1/2550000/0109eefb-e155-45bb-ba0c-20aa6261e605.root
/store/mc/Run3Summer23NanoAODv12/DYto2L-2Jets_MLL-50_PTLL-40to100_1J_TuneCP5_13p6TeV_amcatnloFXFX-pythia8/NANOAODSIM/130X_mcRun3_2023_realistic_v14-v1/2550000/746f7b0a-0bdb-4c1e-a71e-1b49d52cfbd1.root
/store/mc/Run3Summer23NanoAODv12/DYto2L-2Jets_MLL-50_PTLL-40to100_1J_TuneCP5_13p6TeV_amcatnloFXFX-pythia8/NANOAODSIM/130X_mcRun3_2023_realistic_v14-v1/2550000/bcf5711b-7ce9-4e4b-83df-b1c6ed1d829f.root
/store/mc/Run3Summer23NanoAODv12/DYto2L-2Jets_MLL-50_PTLL-40to100_1J_TuneCP5_13p6TeV_amcatnloFXFX-pythia8/NANOAODSIM/130X_mcRun3_2023_realistic_v14-v1/2550000/e56185a7-947f-4e58-9650-646d001caef0.root
/store/mc/Run3Summer23NanoAODv12/DYto2L-2Jets_MLL-50_PTLL-40to100_1J_TuneCP5_13p6TeV_amcatnloFXFX-pythia8/NANOAODSIM/130X_mcRun3_2023_realistic_v14-v1/2550000/f976113c-5cca-475d-a0b1-c359750655e0.root
/store/mc/Run3Summer23NanoAODv12/DYto2L-2Jets_MLL-50_PTLL-40to100_1J_TuneCP5_13p6TeV_amcatnloFXFX-pythia8/NANOAODSIM/130X_mcRun3_2023_realistic_v14-v1/2550000/590e0585-fbf2-4752-80e1-5aa1ec76a9af.root
/store/mc/Run3Summer23NanoAODv12/DYto2L-2Jets_MLL-50_PTLL-40to100_1J_TuneCP5_13p6TeV_amcatnloFXFX-pythia8/NANOAODSIM/130X_mcRun3_2023_realistic_v14-v1/2550000/05010b1d-5a0f-4ee4-936b-4336110a22e1.root
/store/mc/Run3Summer23NanoAODv12/DYto2L-2Jets_MLL-50_PTLL-40to100_1J_TuneCP5_13p6TeV_amcatnloFXFX-pythia8/NANOAODSIM/130X_mcRun3_2023_realistic_v14-v1/2550000/a646e9f0-56f9-4a4e-9105-bb5bc96a4e23.root
/store/mc/Run3Summer23NanoAODv12/DYto2L-2Jets_MLL-50_PTLL-40to100_1J_TuneCP5_13p6TeV_amcatnloFXFX-pythia8/NANOAODSIM/130X_mcRun3_2023_realistic_v14-v1/2550000/5cab5871-f067-46d9-8230-1d5c296b9a5a.root
/store/mc/Run3Summer23NanoAODv12/DYto2L-2Jets_MLL-50_PTLL-40to100_1J_TuneCP5_13p6TeV_amcatnloFXFX-pythia8/NANOAODSIM/130X_mcRun3_2023_realistic_v14-v1/2550000/765d04ac-b411-4f0c-8c27-c8226cf9e79a.root
/store/mc/Run3Summer23NanoAODv12/DYto2L-2Jets_MLL-50_PTLL-40to100_1J_TuneCP5_13p6TeV_amcatnloFXFX-pythia8/NANOAODSIM/130X_mcRun3_2023_realistic_v14-v1/2550000/cbafc072-e65c-497a-94ed-15f587ec3347.root
/store/mc/Run3Summer23NanoAODv12/DYto2L-2Jets_MLL-50_PTLL-40to100_1J_TuneCP5_13p6TeV_amcatnloFXFX-pythia8/NANOAODSIM/130X_mcRun3_2023_realistic_v14-v1/2550000/a0ead9a9-9d12-47ed-9eab-8752c27c928a.root
/store/mc/Run3Summer23NanoAODv12/DYto2L-2Jets_MLL-50_PTLL-40to100_1J_TuneCP5_13p6TeV_amcatnloFXFX-pythia8/NANOAODSIM/130X_mcRun3_2023_realistic_v14-v1/2550000/60f6e232-d5e0-4df8-9076-d26fe86fdffc.root
/store/mc/Run3Summer23NanoAODv12/DYto2L-2Jets_MLL-50_PTLL-40to100_1J_TuneCP5_13p6TeV_amcatnloFXFX-pythia8/NANOAODSIM/130X_mcRun3_2023_realistic_v14-v1/2550000/8145aaa2-debd-4a8d-b436-a405f859945d.root
/store/mc/Run3Summer23NanoAODv12/DYto2L-2Jets_MLL-50_PTLL-40to100_1J_TuneCP5_13p6TeV_amcatnloFXFX-pythia8/NANOAODSIM/130X_mcRun3_2023_realistic_v14-v1/2550000/9b301b16-ee84-454b-afc7-1c9815167553.root
/store/mc/Run3Summer23NanoAODv12/DYto2L-2Jets_MLL-50_PTLL-40to100_1J_TuneCP5_13p6TeV_amcatnloFXFX-pythia8/NANOAODSIM/130X_mcRun3_2023_realistic_v14-v1/2550000/721bdafa-0a36-4237-b8b8-5d8490e37efa.root
/store/mc/Run3Summer23NanoAODv12/DYto2L-2Jets_MLL-50_PTLL-40to100_1J_TuneCP5_13p6TeV_amcatnloFXFX-pythia8/NANOAODSIM/130X_mcRun3_2023_realistic_v14-v1/2550000/b532a399-b8cc-474b-af58-3aabeded0932.root
/store/mc/Run3Summer23NanoAODv12/DYto2L-2Jets_MLL-50_PTLL-40to100_1J_TuneCP5_13p6TeV_amcatnloFXFX-pythia8/NANOAODSIM/130X_mcRun3_2023_realistic_v14-v1/2550000/dda95d26-165d-49f8-94b0-8ad337fa153e.root
/store/mc/Run3Summer23NanoAODv12/DYto2L-2Jets_MLL-50_PTLL-40to100_1J_TuneCP5_13p6TeV_amcatnloFXFX-pythia8/NANOAODSIM/130X_mcRun3_2023_realistic_v14-v1/2560000/352e12e5-02ae-49c3-861e-4abb6578dfb7.root
/store/mc/Run3Summer23NanoAODv12/DYto2L-2Jets_MLL-50_PTLL-40to100_1J_TuneCP5_13p6TeV_amcatnloFXFX-pythia8/NANOAODSIM/130X_mcRun3_2023_realistic_v14-v1/2560000/53f7ec0b-c518-4e65-b5ea-0c8965638b49.root
/store/mc/Run3Summer23NanoAODv12/DYto2L-2Jets_MLL-50_PTLL-40to100_1J_TuneCP5_13p6TeV_amcatnloFXFX-pythia8/NANOAODSIM/130X_mcRun3_2023_realistic_v14-v1/2560000/4747b63b-25e8-4db8-8837-46201dfeda5c.root
/store/mc/Run3Summer23NanoAODv12/DYto2L-2Jets_MLL-50_PTLL-40to100_1J_TuneCP5_13p6TeV_amcatnloFXFX-pythia8/NANOAODSIM/130X_mcRun3_2023_realistic_v14-v1/2560000/26d5f818-c11b-452e-8aab-b39b3e49a426.root
/store/mc/Run3Summer23NanoAODv12/DYto2L-2Jets_MLL-50_PTLL-40to100_1J_TuneCP5_13p6TeV_amcatnloFXFX-pythia8/NANOAODSIM/130X_mcRun3_2023_realistic_v14-v1/2560000/2c9e4034-3079-4f0d-9ecd-80c8bdf39687.root
/store/mc/Run3Summer23NanoAODv12/DYto2L-2Jets_MLL-50_PTLL-40to100_1J_TuneCP5_13p6TeV_amcatnloFXFX-pythia8/NANOAODSIM/130X_mcRun3_2023_realistic_v14-v1/2550000/51b6f97a-ca55-4229-aa54-fa7b7e78d56e.root
/store/mc/Run3Summer23NanoAODv12/DYto2L-2Jets_MLL-50_PTLL-40to100_1J_TuneCP5_13p6TeV_amcatnloFXFX-pythia8/NANOAODSIM/130X_mcRun3_2023_realistic_v14-v1/2550000/26ddee5a-d46d-427e-be4d-a546d5e715ae.root
/store/mc/Run3Summer23NanoAODv12/DYto2L-2Jets_MLL-50_PTLL-40to100_1J_TuneCP5_13p6TeV_amcatnloFXFX-pythia8/NANOAODSIM/130X_mcRun3_2023_realistic_v14-v1/2550000/c18c0716-5e8b-4218-a23a-d13140985eaf.root
/store/mc/Run3Summer23NanoAODv12/DYto2L-2Jets_MLL-50_PTLL-40to100_1J_TuneCP5_13p6TeV_amcatnloFXFX-pythia8/NANOAODSIM/130X_mcRun3_2023_realistic_v14-v1/2550000/170336b3-3de9-4814-b11e-903619efed32.root
/store/mc/Run3Summer23NanoAODv12/DYto2L-2Jets_MLL-50_PTLL-40to100_1J_TuneCP5_13p6TeV_amcatnloFXFX-pythia8/NANOAODSIM/130X_mcRun3_2023_realistic_v14-v1/2550000/63efb98e-e547-4f01-9ba9-deb8f9f8333b.root
/store/mc/Run3Summer23NanoAODv12/DYto2L-2Jets_MLL-50_PTLL-40to100_1J_TuneCP5_13p6TeV_amcatnloFXFX-pythia8/NANOAODSIM/130X_mcRun3_2023_realistic_v14-v1/2550000/c4046989-b546-4949-a926-ecc08313ca93.root
/store/mc/Run3Summer23NanoAODv12/DYto2L-2Jets_MLL-50_PTLL-40to100_1J_TuneCP5_13p6TeV_amcatnloFXFX-pythia8/NANOAODSIM/130X_mcRun3_2023_realistic_v14-v1/2550000/77e022e2-fcd3-445a-b363-6135fd0af326.root
/store/mc/Run3Summer23NanoAODv12/DYto2L-2Jets_MLL-50_PTLL-40to100_1J_TuneCP5_13p6TeV_amcatnloFXFX-pythia8/NANOAODSIM/130X_mcRun3_2023_realistic_v14-v1/2550000/105f0182-ae07-4a15-b9ea-03976d1b1ae8.root
/store/mc/Run3Summer23NanoAODv12/DYto2L-2Jets_MLL-50_PTLL-40to100_1J_TuneCP5_13p6TeV_amcatnloFXFX-pythia8/NANOAODSIM/130X_mcRun3_2023_realistic_v14-v1/2560000/082c2a87-8b5e-4791-b21e-f9b3cfbf5e5c.root
/store/mc/Run3Summer23NanoAODv12/DYto2L-2Jets_MLL-50_PTLL-40to100_1J_TuneCP5_13p6TeV_amcatnloFXFX-pythia8/NANOAODSIM/130X_mcRun3_2023_realistic_v14-v1/2560000/87db2b2e-6d49-4eec-95ab-4f8a586f9d2c.root
/store/mc/Run3Summer23NanoAODv12/DYto2L-2Jets_MLL-50_PTLL-40to100_1J_TuneCP5_13p6TeV_amcatnloFXFX-pythia8/NANOAODSIM/130X_mcRun3_2023_realistic_v14-v1/2560000/d6ca8fe5-226f-4e60-bb37-853d47671860.root
/store/mc/Run3Summer23NanoAODv12/DYto2L-2Jets_MLL-50_PTLL-40to100_1J_TuneCP5_13p6TeV_amcatnloFXFX-pythia8/NANOAODSIM/130X_mcRun3_2023_realistic_v14-v1/2560000/42984b7b-6d5b-433d-a4c8-671a2403c113.root
/store/mc/Run3Summer23NanoAODv12/DYto2L-2Jets_MLL-50_PTLL-40to100_1J_TuneCP5_13p6TeV_amcatnloFXFX-pythia8/NANOAODSIM/130X_mcRun3_2023_realistic_v14-v1/2560000/bec8be6a-baf2-4087-904a-d23915e1d308.root
/store/mc/Run3Summer23NanoAODv12/DYto2L-2Jets_MLL-50_PTLL-40to100_1J_TuneCP5_13p6TeV_amcatnloFXFX-pythia8/NANOAODSIM/130X_mcRun3_2023_realistic_v14-v1/2550000/3c28f0c3-6e66-43fb-bb4d-78b92562e7f7.root
/store/mc/Run3Summer23NanoAODv12/DYto2L-2Jets_MLL-50_PTLL-40to100_1J_TuneCP5_13p6TeV_amcatnloFXFX-pythia8/NANOAODSIM/130X_mcRun3_2023_realistic_v14-v1/2550000/e7cea83b-6f50-45a7-8a78-f9607badf212.root
/store/mc/Run3Summer23NanoAODv12/DYto2L-2Jets_MLL-50_PTLL-40to100_1J_TuneCP5_13p6TeV_amcatnloFXFX-pythia8/NANOAODSIM/130X_mcRun3_2023_realistic_v14-v1/2550000/fc5b7020-0082-4860-a68f-547e8262aaaa.root
/store/mc/Run3Summer23NanoAODv12/DYto2L-2Jets_MLL-50_PTLL-40to100_1J_TuneCP5_13p6TeV_amcatnloFXFX-pythia8/NANOAODSIM/130X_mcRun3_2023_realistic_v14-v1/2550000/726ed4e7-28f3-4c02-bb28-9f03a96421ff.root
/store/mc/Run3Summer23NanoAODv12/DYto2L-2Jets_MLL-50_PTLL-40to100_1J_TuneCP5_13p6TeV_amcatnloFXFX-pythia8/NANOAODSIM/130X_mcRun3_2023_realistic_v14-v1/2550000/36d6e068-3008-40d3-9dd4-87df0d3225b2.root
/store/mc/Run3Summer23NanoAODv12/DYto2L-2Jets_MLL-50_PTLL-40to100_1J_TuneCP5_13p6TeV_amcatnloFXFX-pythia8/NANOAODSIM/130X_mcRun3_2023_realistic_v14-v1/2550000/32150af8-92d9-4048-84f4-3bf34593aecd.root
/store/mc/Run3Summer23NanoAODv12/DYto2L-2Jets_MLL-50_PTLL-40to100_1J_TuneCP5_13p6TeV_amcatnloFXFX-pythia8/NANOAODSIM/130X_mcRun3_2023_realistic_v14-v1/2550000/c195399a-fb34-4b40-ab59-65db12868285.root
/store/mc/Run3Summer23NanoAODv12/DYto2L-2Jets_MLL-50_PTLL-40to100_1J_TuneCP5_13p6TeV_amcatnloFXFX-pythia8/NANOAODSIM/130X_mcRun3_2023_realistic_v14-v1/2550000/f86f4128-f52b-49ad-8bb1-3b9a941a4baa.root
/store/mc/Run3Summer23NanoAODv12/DYto2L-2Jets_MLL-50_PTLL-40to100_1J_TuneCP5_13p6TeV_amcatnloFXFX-pythia8/NANOAODSIM/130X_mcRun3_2023_realistic_v14-v1/2550000/8bf0126c-a643-43e7-bd4f-7f014c5950ae.root
/store/mc/Run3Summer23NanoAODv12/DYto2L-2Jets_MLL-50_PTLL-40to100_1J_TuneCP5_13p6TeV_amcatnloFXFX-pythia8/NANOAODSIM/130X_mcRun3_2023_realistic_v14-v1/2550000/44a0e705-b505-4d01-b0cd-7e22eecb804a.root
/store/mc/Run3Summer23NanoAODv12/DYto2L-2Jets_MLL-50_PTLL-40to100_1J_TuneCP5_13p6TeV_amcatnloFXFX-pythia8/NANOAODSIM/130X_mcRun3_2023_realistic_v14-v1/2550000/24cd04f2-f52e-4328-b938-d9d383bfd2fe.root
/store/mc/Run3Summer23NanoAODv12/DYto2L-2Jets_MLL-50_PTLL-40to100_1J_TuneCP5_13p6TeV_amcatnloFXFX-pythia8/NANOAODSIM/130X_mcRun3_2023_realistic_v14-v1/2550000/be918f6a-b014-4783-af42-4242ee90f644.root
/store/mc/Run3Summer23NanoAODv12/DYto2L-2Jets_MLL-50_PTLL-40to100_1J_TuneCP5_13p6TeV_amcatnloFXFX-pythia8/NANOAODSIM/130X_mcRun3_2023_realistic_v14-v1/2550000/d4b16c84-d6e8-420a-8bfd-c5101a07b44d.root
/store/mc/Run3Summer23NanoAODv12/DYto2L-2Jets_MLL-50_PTLL-40to100_1J_TuneCP5_13p6TeV_amcatnloFXFX-pythia8/NANOAODSIM/130X_mcRun3_2023_realistic_v14-v1/2550000/8de65d0c-7b57-48dd-a19f-06ce9264d507.root
/store/mc/Run3Summer23NanoAODv12/DYto2L-2Jets_MLL-50_PTLL-40to100_1J_TuneCP5_13p6TeV_amcatnloFXFX-pythia8/NANOAODSIM/130X_mcRun3_2023_realistic_v14-v1/2550000/fce4b045-0c02-49de-a54f-505266abb99e.root
/store/mc/Run3Summer23NanoAODv12/DYto2L-2Jets_MLL-50_PTLL-40to100_1J_TuneCP5_13p6TeV_amcatnloFXFX-pythia8/NANOAODSIM/130X_mcRun3_2023_realistic_v14-v1/2550000/9d35b488-991c-427a-a687-2a8b7647bb76.root
/store/mc/Run3Summer23NanoAODv12/DYto2L-2Jets_MLL-50_PTLL-40to100_1J_TuneCP5_13p6TeV_amcatnloFXFX-pythia8/NANOAODSIM/130X_mcRun3_2023_realistic_v14-v1/2550000/cacbf1ae-5fcd-437e-bdd8-4b77e06e5a32.root
/store/mc/Run3Summer23NanoAODv12/DYto2L-2Jets_MLL-50_PTLL-40to100_1J_TuneCP5_13p6TeV_amcatnloFXFX-pythia8/NANOAODSIM/130X_mcRun3_2023_realistic_v14-v1/2550000/a27824dc-2d7f-4b20-9dc7-8e96625ca12c.root
/store/mc/Run3Summer23NanoAODv12/DYto2L-2Jets_MLL-50_PTLL-40to100_1J_TuneCP5_13p6TeV_amcatnloFXFX-pythia8/NANOAODSIM/130X_mcRun3_2023_realistic_v14-v1/2550000/740cb479-b526-4cae-9723-d93446cd70e2.root
/store/mc/Run3Summer23NanoAODv12/DYto2L-2Jets_MLL-50_PTLL-40to100_1J_TuneCP5_13p6TeV_amcatnloFXFX-pythia8/NANOAODSIM/130X_mcRun3_2023_realistic_v14-v1/2550000/ebc4f13f-25a5-4a21-b582-09e6878cb222.root
/store/mc/Run3Summer23NanoAODv12/DYto2L-2Jets_MLL-50_PTLL-40to100_1J_TuneCP5_13p6TeV_amcatnloFXFX-pythia8/NANOAODSIM/130X_mcRun3_2023_realistic_v14-v1/2550000/486534d5-c60b-4914-8c04-4eaf6cc66b9b.root
/store/mc/Run3Summer23NanoAODv12/DYto2L-2Jets_MLL-50_PTLL-40to100_1J_TuneCP5_13p6TeV_amcatnloFXFX-pythia8/NANOAODSIM/130X_mcRun3_2023_realistic_v14-v1/2550000/3dbb8596-9fe1-4fbb-a1eb-0692f64df0fb.root
/store/mc/Run3Summer23NanoAODv12/DYto2L-2Jets_MLL-50_PTLL-40to100_1J_TuneCP5_13p6TeV_amcatnloFXFX-pythia8/NANOAODSIM/130X_mcRun3_2023_realistic_v14-v1/2550000/22fa8875-4677-4582-90d4-c22a8294b0ad.root
/store/mc/Run3Summer23NanoAODv12/DYto2L-2Jets_MLL-50_PTLL-40to100_1J_TuneCP5_13p6TeV_amcatnloFXFX-pythia8/NANOAODSIM/130X_mcRun3_2023_realistic_v14-v1/2550000/e4f0478f-c5f8-4443-991e-57ea95b33f89.root
/store/mc/Run3Summer23NanoAODv12/DYto2L-2Jets_MLL-50_PTLL-40to100_1J_TuneCP5_13p6TeV_amcatnloFXFX-pythia8/NANOAODSIM/130X_mcRun3_2023_realistic_v14-v1/2550000/3aecae82-b852-49d3-813c-06be38e664cd.root
/store/mc/Run3Summer23NanoAODv12/DYto2L-2Jets_MLL-50_PTLL-40to100_1J_TuneCP5_13p6TeV_amcatnloFXFX-pythia8/NANOAODSIM/130X_mcRun3_2023_realistic_v14-v1/2550000/2d1ef741-b998-4823-b59e-c9ed13b39418.root
/store/mc/Run3Summer23NanoAODv12/DYto2L-2Jets_MLL-50_PTLL-40to100_1J_TuneCP5_13p6TeV_amcatnloFXFX-pythia8/NANOAODSIM/130X_mcRun3_2023_realistic_v14-v1/2550000/66608b70-009e-4add-affd-d03e58db2034.root
/store/mc/Run3Summer23NanoAODv12/DYto2L-2Jets_MLL-50_PTLL-40to100_1J_TuneCP5_13p6TeV_amcatnloFXFX-pythia8/NANOAODSIM/130X_mcRun3_2023_realistic_v14-v1/2550000/acb88489-ebf6-4a3a-acad-d05c4a1eae27.root
/store/mc/Run3Summer23NanoAODv12/DYto2L-2Jets_MLL-50_PTLL-40to100_1J_TuneCP5_13p6TeV_amcatnloFXFX-pythia8/NANOAODSIM/130X_mcRun3_2023_realistic_v14-v1/2550000/f18a6ae8-89fc-4ba6-a164-1b84996f45dd.root
/store/mc/Run3Summer23NanoAODv12/DYto2L-2Jets_MLL-50_PTLL-40to100_1J_TuneCP5_13p6TeV_amcatnloFXFX-pythia8/NANOAODSIM/130X_mcRun3_2023_realistic_v14-v1/2550000/77909b80-6b20-4036-9884-aa274160e570.root
/store/mc/Run3Summer23NanoAODv12/DYto2L-2Jets_MLL-50_PTLL-40to100_1J_TuneCP5_13p6TeV_amcatnloFXFX-pythia8/NANOAODSIM/130X_mcRun3_2023_realistic_v14-v1/2550000/9c3c08de-e74f-418c-87f5-fdbbc6ecc32b.root
/store/mc/Run3Summer23NanoAODv12/DYto2L-2Jets_MLL-50_PTLL-40to100_1J_TuneCP5_13p6TeV_amcatnloFXFX-pythia8/NANOAODSIM/130X_mcRun3_2023_realistic_v14-v1/2550000/7cc01f93-ac86-4ff5-8271-40302eb8c9d8.root
/store/mc/Run3Summer23NanoAODv12/DYto2L-2Jets_MLL-50_PTLL-40to100_1J_TuneCP5_13p6TeV_amcatnloFXFX-pythia8/NANOAODSIM/130X_mcRun3_2023_realistic_v14-v1/2550000/13f3bfa0-7392-49f9-ad6b-fb37eb1b2d85.root
/store/mc/Run3Summer23NanoAODv12/DYto2L-2Jets_MLL-50_PTLL-40to100_1J_TuneCP5_13p6TeV_amcatnloFXFX-pythia8/NANOAODSIM/130X_mcRun3_2023_realistic_v14-v1/2550000/f0d7e947-02e1-4686-a21a-aa4fe7960699.root
/store/mc/Run3Summer23NanoAODv12/DYto2L-2Jets_MLL-50_PTLL-40to100_1J_TuneCP5_13p6TeV_amcatnloFXFX-pythia8/NANOAODSIM/130X_mcRun3_2023_realistic_v14-v1/60000/15465597-dea2-4c70-a180-c51f4025102a.root
/store/mc/Run3Summer23NanoAODv12/DYto2L-2Jets_MLL-50_PTLL-40to100_1J_TuneCP5_13p6TeV_amcatnloFXFX-pythia8/NANOAODSIM/130X_mcRun3_2023_realistic_v14-v1/60000/1b1c50b9-701f-4811-973c-1777ceb8917f.root
/store/mc/Run3Summer23NanoAODv12/DYto2L-2Jets_MLL-50_PTLL-40to100_1J_TuneCP5_13p6TeV_amcatnloFXFX-pythia8/NANOAODSIM/130X_mcRun3_2023_realistic_v14-v1/60000/2e51e44f-b914-4c6f-84ed-9946cd57f591.root
/store/mc/Run3Summer23NanoAODv12/DYto2L-2Jets_MLL-50_PTLL-40to100_1J_TuneCP5_13p6TeV_amcatnloFXFX-pythia8/NANOAODSIM/130X_mcRun3_2023_realistic_v14-v1/60000/3ba1fd48-8dd9-4ca4-ab90-3f800904dc34.root
/store/mc/Run3Summer23NanoAODv12/DYto2L-2Jets_MLL-50_PTLL-40to100_1J_TuneCP5_13p6TeV_amcatnloFXFX-pythia8/NANOAODSIM/130X_mcRun3_2023_realistic_v14-v1/60000/28eaeb9b-42c5-4794-99ff-27780a38ee97.root
/store/mc/Run3Summer23NanoAODv12/DYto2L-2Jets_MLL-50_PTLL-40to100_1J_TuneCP5_13p6TeV_amcatnloFXFX-pythia8/NANOAODSIM/130X_mcRun3_2023_realistic_v14-v1/60000/e8d98357-7256-4bb0-a88e-4b5cfc8d8848.root
/store/mc/Run3Summer23NanoAODv12/DYto2L-2Jets_MLL-50_PTLL-40to100_1J_TuneCP5_13p6TeV_amcatnloFXFX-pythia8/NANOAODSIM/130X_mcRun3_2023_realistic_v14-v1/70000/ad5b1531-6ef7-44eb-b94a-c1b61c922de3.root
/store/mc/Run3Summer23NanoAODv12/DYto2L-2Jets_MLL-50_PTLL-40to100_1J_TuneCP5_13p6TeV_amcatnloFXFX-pythia8/NANOAODSIM/130X_mcRun3_2023_realistic_v14-v1/70000/055dbbdd-7172-4d47-bf65-54551649972a.root
/store/mc/Run3Summer23NanoAODv12/DYto2L-2Jets_MLL-50_PTLL-40to100_1J_TuneCP5_13p6TeV_amcatnloFXFX-pythia8/NANOAODSIM/130X_mcRun3_2023_realistic_v14-v1/60000/99c3ea99-bcdd-4beb-9486-fe65c5281219.root
/store/mc/Run3Summer23NanoAODv12/DYto2L-2Jets_MLL-50_PTLL-40to100_1J_TuneCP5_13p6TeV_amcatnloFXFX-pythia8/NANOAODSIM/130X_mcRun3_2023_realistic_v14-v1/60000/8f55db41-a547-4c59-ad4e-098ab9e2539d.root
/store/mc/Run3Summer23NanoAODv12/DYto2L-2Jets_MLL-50_PTLL-40to100_1J_TuneCP5_13p6TeV_amcatnloFXFX-pythia8/NANOAODSIM/130X_mcRun3_2023_realistic_v14-v1/60000/9b765a37-ffc6-450e-8227-5d526916667e.root
/store/mc/Run3Summer23NanoAODv12/DYto2L-2Jets_MLL-50_PTLL-40to100_1J_TuneCP5_13p6TeV_amcatnloFXFX-pythia8/NANOAODSIM/130X_mcRun3_2023_realistic_v14-v1/60000/785870e9-d4d7-445e-88da-713f5b1dc69d.root
/store/mc/Run3Summer23NanoAODv12/DYto2L-2Jets_MLL-50_PTLL-40to100_1J_TuneCP5_13p6TeV_amcatnloFXFX-pythia8/NANOAODSIM/130X_mcRun3_2023_realistic_v14-v1/60000/4096b97e-95e6-4540-a5c2-9c14e8c69ffa.root
/store/mc/Run3Summer23NanoAODv12/DYto2L-2Jets_MLL-50_PTLL-40to100_1J_TuneCP5_13p6TeV_amcatnloFXFX-pythia8/NANOAODSIM/130X_mcRun3_2023_realistic_v14-v1/60000/08088f0a-2ade-4460-91f9-3588439b3ce6.root
/store/mc/Run3Summer23NanoAODv12/DYto2L-2Jets_MLL-50_PTLL-40to100_1J_TuneCP5_13p6TeV_amcatnloFXFX-pythia8/NANOAODSIM/130X_mcRun3_2023_realistic_v14-v1/60000/1b1b3ed5-2354-4e30-8fb5-fabb5412a866.root
/store/mc/Run3Summer23NanoAODv12/DYto2L-2Jets_MLL-50_PTLL-40to100_1J_TuneCP5_13p6TeV_amcatnloFXFX-pythia8/NANOAODSIM/130X_mcRun3_2023_realistic_v14-v1/60000/e6cd8891-fbf5-4b11-8766-79a8026cd9d2.root
/store/mc/Run3Summer23NanoAODv12/DYto2L-2Jets_MLL-50_PTLL-40to100_1J_TuneCP5_13p6TeV_amcatnloFXFX-pythia8/NANOAODSIM/130X_mcRun3_2023_realistic_v14-v1/2550000/d49d248c-fa5a-42c9-afc7-5061ded86ea6.root
/store/mc/Run3Summer23NanoAODv12/DYto2L-2Jets_MLL-50_PTLL-40to100_1J_TuneCP5_13p6TeV_amcatnloFXFX-pythia8/NANOAODSIM/130X_mcRun3_2023_realistic_v14-v1/70000/095a8e03-6aa1-43b9-a792-977243c660a1.root
/store/mc/Run3Summer23NanoAODv12/DYto2L-2Jets_MLL-50_PTLL-40to100_1J_TuneCP5_13p6TeV_amcatnloFXFX-pythia8/NANOAODSIM/130X_mcRun3_2023_realistic_v14-v1/70000/9069224c-2122-4f33-bc88-8be548fd6eab.root
/store/mc/Run3Summer23NanoAODv12/DYto2L-2Jets_MLL-50_PTLL-40to100_1J_TuneCP5_13p6TeV_amcatnloFXFX-pythia8/NANOAODSIM/130X_mcRun3_2023_realistic_v14-v1/70000/7df4c291-f55d-4097-8484-3e48f372d9c8.root
/store/mc/Run3Summer23NanoAODv12/DYto2L-2Jets_MLL-50_PTLL-40to100_1J_TuneCP5_13p6TeV_amcatnloFXFX-pythia8/NANOAODSIM/130X_mcRun3_2023_realistic_v14-v1/70000/2fadcf8d-cb32-48a0-a1d2-001f2e286ad8.root
/store/mc/Run3Summer23NanoAODv12/DYto2L-2Jets_MLL-50_PTLL-40to100_1J_TuneCP5_13p6TeV_amcatnloFXFX-pythia8/NANOAODSIM/130X_mcRun3_2023_realistic_v14-v1/70000/e122ed31-4b25-4f08-9106-106bcd44e73d.root
/store/mc/Run3Summer23NanoAODv12/DYto2L-2Jets_MLL-50_PTLL-40to100_1J_TuneCP5_13p6TeV_amcatnloFXFX-pythia8/NANOAODSIM/130X_mcRun3_2023_realistic_v14-v1/60000/92988e7e-7907-4dee-ab82-8464c32baeb0.root
/store/mc/Run3Summer23NanoAODv12/DYto2L-2Jets_MLL-50_PTLL-40to100_1J_TuneCP5_13p6TeV_amcatnloFXFX-pythia8/NANOAODSIM/130X_mcRun3_2023_realistic_v14-v1/60000/8a9b7ee6-749c-412b-a0c5-59d5b68da6c4.root
/store/mc/Run3Summer23NanoAODv12/DYto2L-2Jets_MLL-50_PTLL-40to100_1J_TuneCP5_13p6TeV_amcatnloFXFX-pythia8/NANOAODSIM/130X_mcRun3_2023_realistic_v14-v1/60000/97471e49-1979-40f4-80e2-55eb59931d4b.root
/store/mc/Run3Summer23NanoAODv12/DYto2L-2Jets_MLL-50_PTLL-40to100_1J_TuneCP5_13p6TeV_amcatnloFXFX-pythia8/NANOAODSIM/130X_mcRun3_2023_realistic_v14-v1/60000/47f21638-24b1-41b5-959e-256c66679c71.root
/store/mc/Run3Summer23NanoAODv12/DYto2L-2Jets_MLL-50_PTLL-40to100_1J_TuneCP5_13p6TeV_amcatnloFXFX-pythia8/NANOAODSIM/130X_mcRun3_2023_realistic_v14-v1/60000/e67024f9-2655-48bd-8f53-184c4851b256.root
/store/mc/Run3Summer23NanoAODv12/DYto2L-2Jets_MLL-50_PTLL-40to100_1J_TuneCP5_13p6TeV_amcatnloFXFX-pythia8/NANOAODSIM/130X_mcRun3_2023_realistic_v14-v1/60000/0c1ed0c8-9538-4f39-b301-b4a999662c74.root
/store/mc/Run3Summer23NanoAODv12/DYto2L-2Jets_MLL-50_PTLL-40to100_1J_TuneCP5_13p6TeV_amcatnloFXFX-pythia8/NANOAODSIM/130X_mcRun3_2023_realistic_v14-v1/60000/711c30a4-1aaf-44f6-be57-880ae1ace463.root
/store/mc/Run3Summer23NanoAODv12/DYto2L-2Jets_MLL-50_PTLL-40to100_1J_TuneCP5_13p6TeV_amcatnloFXFX-pythia8/NANOAODSIM/130X_mcRun3_2023_realistic_v14-v1/2550000/85174c6a-edb7-4789-8790-2ebd035102e7.root
/store/mc/Run3Summer23NanoAODv12/DYto2L-2Jets_MLL-50_PTLL-40to100_1J_TuneCP5_13p6TeV_amcatnloFXFX-pythia8/NANOAODSIM/130X_mcRun3_2023_realistic_v14-v1/60000/9ab91368-fd11-4110-839a-1996b68f0f1b.root
/store/mc/Run3Summer23NanoAODv12/DYto2L-2Jets_MLL-50_PTLL-40to100_1J_TuneCP5_13p6TeV_amcatnloFXFX-pythia8/NANOAODSIM/130X_mcRun3_2023_realistic_v14-v1/60000/8f737c3b-b1fb-4b2d-a01e-1f76a63c9a44.root
/store/mc/Run3Summer23NanoAODv12/DYto2L-2Jets_MLL-50_PTLL-40to100_1J_TuneCP5_13p6TeV_amcatnloFXFX-pythia8/NANOAODSIM/130X_mcRun3_2023_realistic_v14-v1/60000/df03dfbb-ef9e-4124-af08-b42bae2c8f04.root
/store/mc/Run3Summer23NanoAODv12/DYto2L-2Jets_MLL-50_PTLL-40to100_1J_TuneCP5_13p6TeV_amcatnloFXFX-pythia8/NANOAODSIM/130X_mcRun3_2023_realistic_v14-v1/60000/3f4d56f6-3e26-407a-87bc-cd4b9c3d06bc.root
/store/mc/Run3Summer23NanoAODv12/DYto2L-2Jets_MLL-50_PTLL-40to100_1J_TuneCP5_13p6TeV_amcatnloFXFX-pythia8/NANOAODSIM/130X_mcRun3_2023_realistic_v14-v1/60000/d92aeed5-167f-48cd-9e8f-dfe97e3b96ff.root
/store/mc/Run3Summer23NanoAODv12/DYto2L-2Jets_MLL-50_PTLL-40to100_1J_TuneCP5_13p6TeV_amcatnloFXFX-pythia8/NANOAODSIM/130X_mcRun3_2023_realistic_v14-v1/60000/eae853ad-89f1-4aa4-990b-e7a0970bfc25.root
/store/mc/Run3Summer23NanoAODv12/DYto2L-2Jets_MLL-50_PTLL-40to100_1J_TuneCP5_13p6TeV_amcatnloFXFX-pythia8/NANOAODSIM/130X_mcRun3_2023_realistic_v14-v1/60000/647b4ad4-e5f6-4b7d-81c5-775f8d04f4eb.root
/store/mc/Run3Summer23NanoAODv12/DYto2L-2Jets_MLL-50_PTLL-40to100_1J_TuneCP5_13p6TeV_amcatnloFXFX-pythia8/NANOAODSIM/130X_mcRun3_2023_realistic_v14-v1/60000/5bb2eab6-8c1e-4d7a-ac73-d2e6ff755a34.root
/store/mc/Run3Summer23NanoAODv12/DYto2L-2Jets_MLL-50_PTLL-40to100_1J_TuneCP5_13p6TeV_amcatnloFXFX-pythia8/NANOAODSIM/130X_mcRun3_2023_realistic_v14-v1/2550000/5cd1407b-5689-42a6-84ee-335a9d2a91c1.root
/store/mc/Run3Summer23NanoAODv12/DYto2L-2Jets_MLL-50_PTLL-40to100_1J_TuneCP5_13p6TeV_amcatnloFXFX-pythia8/NANOAODSIM/130X_mcRun3_2023_realistic_v14-v1/70000/882ed795-072e-445e-8e85-ac545101c1b8.root
/store/mc/Run3Summer23NanoAODv12/DYto2L-2Jets_MLL-50_PTLL-40to100_1J_TuneCP5_13p6TeV_amcatnloFXFX-pythia8/NANOAODSIM/130X_mcRun3_2023_realistic_v14-v1/70000/8be99a3a-be33-4e17-8800-5295b0c57fc1.root
/store/mc/Run3Summer23NanoAODv12/DYto2L-2Jets_MLL-50_PTLL-40to100_1J_TuneCP5_13p6TeV_amcatnloFXFX-pythia8/NANOAODSIM/130X_mcRun3_2023_realistic_v14-v1/70000/f52e2a59-c74f-4107-9b7e-2c9293165244.root
/store/mc/Run3Summer23NanoAODv12/DYto2L-2Jets_MLL-50_PTLL-40to100_1J_TuneCP5_13p6TeV_amcatnloFXFX-pythia8/NANOAODSIM/130X_mcRun3_2023_realistic_v14-v1/70000/d396fb42-8d6b-45b3-90d8-64b4b3d3c8e5.root
/store/mc/Run3Summer23NanoAODv12/DYto2L-2Jets_MLL-50_PTLL-40to100_1J_TuneCP5_13p6TeV_amcatnloFXFX-pythia8/NANOAODSIM/130X_mcRun3_2023_realistic_v14-v1/70000/67ff4b9e-141c-4ee3-bf46-2ebac813a476.root
/store/mc/Run3Summer23NanoAODv12/DYto2L-2Jets_MLL-50_PTLL-40to100_1J_TuneCP5_13p6TeV_amcatnloFXFX-pythia8/NANOAODSIM/130X_mcRun3_2023_realistic_v14-v1/70000/22b857ae-ea9c-4b11-a8b4-28dd44635d36.root
/store/mc/Run3Summer23NanoAODv12/DYto2L-2Jets_MLL-50_PTLL-40to100_1J_TuneCP5_13p6TeV_amcatnloFXFX-pythia8/NANOAODSIM/130X_mcRun3_2023_realistic_v14-v1/70000/d678b987-af99-43f7-9030-7c0662b804ea.root
/store/mc/Run3Summer23NanoAODv12/DYto2L-2Jets_MLL-50_PTLL-40to100_1J_TuneCP5_13p6TeV_amcatnloFXFX-pythia8/NANOAODSIM/130X_mcRun3_2023_realistic_v14-v1/70000/8a7b8a1d-aa0d-4c42-ab54-059009d424d1.root
/store/mc/Run3Summer23NanoAODv12/DYto2L-2Jets_MLL-50_PTLL-40to100_1J_TuneCP5_13p6TeV_amcatnloFXFX-pythia8/NANOAODSIM/130X_mcRun3_2023_realistic_v14-v1/60000/8a4df0ca-6a52-4383-8b51-a90680f4f038.root
/store/mc/Run3Summer23NanoAODv12/DYto2L-2Jets_MLL-50_PTLL-40to100_1J_TuneCP5_13p6TeV_amcatnloFXFX-pythia8/NANOAODSIM/130X_mcRun3_2023_realistic_v14-v1/60000/c9de8087-ce99-4a38-a4b2-6345b6d2b887.root
/store/mc/Run3Summer23NanoAODv12/DYto2L-2Jets_MLL-50_PTLL-40to100_1J_TuneCP5_13p6TeV_amcatnloFXFX-pythia8/NANOAODSIM/130X_mcRun3_2023_realistic_v14-v1/60000/a8d5a201-cb2a-4878-ab26-b36756b30be8.root
/store/mc/Run3Summer23NanoAODv12/DYto2L-2Jets_MLL-50_PTLL-40to100_1J_TuneCP5_13p6TeV_amcatnloFXFX-pythia8/NANOAODSIM/130X_mcRun3_2023_realistic_v14-v1/60000/aff4a66a-1d07-4a06-a6de-1a11a7e257ef.root
/store/mc/Run3Summer23NanoAODv12/DYto2L-2Jets_MLL-50_PTLL-40to100_1J_TuneCP5_13p6TeV_amcatnloFXFX-pythia8/NANOAODSIM/130X_mcRun3_2023_realistic_v14-v1/60000/4951486c-c8e8-4646-8e13-12b2034096e1.root
/store/mc/Run3Summer23NanoAODv12/DYto2L-2Jets_MLL-50_PTLL-40to100_1J_TuneCP5_13p6TeV_amcatnloFXFX-pythia8/NANOAODSIM/130X_mcRun3_2023_realistic_v14-v1/60000/2de1d3b5-4258-426b-a930-d7797586f40e.root
/store/mc/Run3Summer23NanoAODv12/DYto2L-2Jets_MLL-50_PTLL-40to100_1J_TuneCP5_13p6TeV_amcatnloFXFX-pythia8/NANOAODSIM/130X_mcRun3_2023_realistic_v14-v1/60000/0c67f010-5f02-48b4-9655-e9390b2b2c7f.root
/store/mc/Run3Summer23NanoAODv12/DYto2L-2Jets_MLL-50_PTLL-40to100_1J_TuneCP5_13p6TeV_amcatnloFXFX-pythia8/NANOAODSIM/130X_mcRun3_2023_realistic_v14-v1/60000/4b3369d6-3784-4f18-807f-44c65f657303.root
/store/mc/Run3Summer23NanoAODv12/DYto2L-2Jets_MLL-50_PTLL-40to100_1J_TuneCP5_13p6TeV_amcatnloFXFX-pythia8/NANOAODSIM/130X_mcRun3_2023_realistic_v14-v1/60000/54754f4d-4c95-4384-a836-400dd10e734f.root
/store/mc/Run3Summer23NanoAODv12/DYto2L-2Jets_MLL-50_PTLL-40to100_1J_TuneCP5_13p6TeV_amcatnloFXFX-pythia8/NANOAODSIM/130X_mcRun3_2023_realistic_v14-v1/2550000/b7263bac-4e83-4d00-92aa-0fc06268906a.root
/store/mc/Run3Summer23NanoAODv12/DYto2L-2Jets_MLL-50_PTLL-40to100_1J_TuneCP5_13p6TeV_amcatnloFXFX-pythia8/NANOAODSIM/130X_mcRun3_2023_realistic_v14-v1/70000/1d3fd18f-baae-4fc3-8956-ef7ecd5fef32.root
/store/mc/Run3Summer23NanoAODv12/DYto2L-2Jets_MLL-50_PTLL-40to100_1J_TuneCP5_13p6TeV_amcatnloFXFX-pythia8/NANOAODSIM/130X_mcRun3_2023_realistic_v14-v1/2550000/e094d973-93ac-434e-b9f0-45bdb968fad4.root
/store/mc/Run3Summer23NanoAODv12/DYto2L-2Jets_MLL-50_PTLL-40to100_1J_TuneCP5_13p6TeV_amcatnloFXFX-pythia8/NANOAODSIM/130X_mcRun3_2023_realistic_v14-v1/2550000/2feed6e6-fdea-4ab1-b362-fb04dbd3669c.root
/store/mc/Run3Summer23NanoAODv12/DYto2L-2Jets_MLL-50_PTLL-40to100_1J_TuneCP5_13p6TeV_amcatnloFXFX-pythia8/NANOAODSIM/130X_mcRun3_2023_realistic_v14-v1/70000/1cd9d297-a712-4de7-96bf-bb64c941ffa2.root
/store/mc/Run3Summer23NanoAODv12/DYto2L-2Jets_MLL-50_PTLL-40to100_1J_TuneCP5_13p6TeV_amcatnloFXFX-pythia8/NANOAODSIM/130X_mcRun3_2023_realistic_v14-v1/70000/22b92f5b-6ff0-46ea-889b-50bf12e92eda.root
/store/mc/Run3Summer23NanoAODv12/DYto2L-2Jets_MLL-50_PTLL-40to100_1J_TuneCP5_13p6TeV_amcatnloFXFX-pythia8/NANOAODSIM/130X_mcRun3_2023_realistic_v14-v1/70000/6e30cd03-4a7c-49e0-81ee-f20402fa67bf.root
/store/mc/Run3Summer23NanoAODv12/DYto2L-2Jets_MLL-50_PTLL-40to100_1J_TuneCP5_13p6TeV_amcatnloFXFX-pythia8/NANOAODSIM/130X_mcRun3_2023_realistic_v14-v1/70000/b5971cba-1953-40ba-a1bc-851d663c81af.root
/store/mc/Run3Summer23NanoAODv12/DYto2L-2Jets_MLL-50_PTLL-40to100_1J_TuneCP5_13p6TeV_amcatnloFXFX-pythia8/NANOAODSIM/130X_mcRun3_2023_realistic_v14-v1/70000/247364fe-5d6c-42e2-a8d2-1fac847251bb.root
/store/mc/Run3Summer23NanoAODv12/DYto2L-2Jets_MLL-50_PTLL-40to100_1J_TuneCP5_13p6TeV_amcatnloFXFX-pythia8/NANOAODSIM/130X_mcRun3_2023_realistic_v14-v1/70000/2d6ffa3e-c46c-49eb-849e-8b64bd48819e.root
/store/mc/Run3Summer23NanoAODv12/DYto2L-2Jets_MLL-50_PTLL-40to100_1J_TuneCP5_13p6TeV_amcatnloFXFX-pythia8/NANOAODSIM/130X_mcRun3_2023_realistic_v14-v1/70000/acffd802-0521-47d1-ac72-e4cb46a827ff.root
/store/mc/Run3Summer23NanoAODv12/DYto2L-2Jets_MLL-50_PTLL-40to100_1J_TuneCP5_13p6TeV_amcatnloFXFX-pythia8/NANOAODSIM/130X_mcRun3_2023_realistic_v14-v1/70000/a4b8bc62-222b-4901-93da-8ceece78cc16.root
/store/mc/Run3Summer23NanoAODv12/DYto2L-2Jets_MLL-50_PTLL-40to100_1J_TuneCP5_13p6TeV_amcatnloFXFX-pythia8/NANOAODSIM/130X_mcRun3_2023_realistic_v14-v1/70000/acef610c-61bd-4ade-9058-2e6f9d267993.root
/store/mc/Run3Summer23NanoAODv12/DYto2L-2Jets_MLL-50_PTLL-40to100_1J_TuneCP5_13p6TeV_amcatnloFXFX-pythia8/NANOAODSIM/130X_mcRun3_2023_realistic_v14-v1/70000/255087df-67f5-40d6-a0e2-1a13999443ef.root
/store/mc/Run3Summer23NanoAODv12/DYto2L-2Jets_MLL-50_PTLL-40to100_1J_TuneCP5_13p6TeV_amcatnloFXFX-pythia8/NANOAODSIM/130X_mcRun3_2023_realistic_v14-v1/70000/3db16166-6dd5-4f0c-9716-9f7785ad64aa.root
/store/mc/Run3Summer23NanoAODv12/DYto2L-2Jets_MLL-50_PTLL-40to100_1J_TuneCP5_13p6TeV_amcatnloFXFX-pythia8/NANOAODSIM/130X_mcRun3_2023_realistic_v14-v1/70000/842e0305-c6a2-4c5c-b441-660326f3de5d.root
/store/mc/Run3Summer23NanoAODv12/DYto2L-2Jets_MLL-50_PTLL-40to100_1J_TuneCP5_13p6TeV_amcatnloFXFX-pythia8/NANOAODSIM/130X_mcRun3_2023_realistic_v14-v1/70000/94bb992f-a0eb-401e-bb05-03dc0e94128d.root
/store/mc/Run3Summer23NanoAODv12/DYto2L-2Jets_MLL-50_PTLL-40to100_1J_TuneCP5_13p6TeV_amcatnloFXFX-pythia8/NANOAODSIM/130X_mcRun3_2023_realistic_v14-v1/70000/71ba557c-a2dd-4c4c-a2ab-901d6db778f9.root
/store/mc/Run3Summer23NanoAODv12/DYto2L-2Jets_MLL-50_PTLL-40to100_1J_TuneCP5_13p6TeV_amcatnloFXFX-pythia8/NANOAODSIM/130X_mcRun3_2023_realistic_v14-v1/70000/9c62fbce-4d09-4cda-9822-457e4103eeb7.root
/store/mc/Run3Summer23NanoAODv12/DYto2L-2Jets_MLL-50_PTLL-40to100_1J_TuneCP5_13p6TeV_amcatnloFXFX-pythia8/NANOAODSIM/130X_mcRun3_2023_realistic_v14-v1/70000/d9efaf2b-ff38-46e3-acc4-fa74ad0f9213.root
/store/mc/Run3Summer23NanoAODv12/DYto2L-2Jets_MLL-50_PTLL-40to100_1J_TuneCP5_13p6TeV_amcatnloFXFX-pythia8/NANOAODSIM/130X_mcRun3_2023_realistic_v14-v1/70000/9c74f31f-6524-4463-a29f-267765621847.root
/store/mc/Run3Summer23NanoAODv12/DYto2L-2Jets_MLL-50_PTLL-40to100_1J_TuneCP5_13p6TeV_amcatnloFXFX-pythia8/NANOAODSIM/130X_mcRun3_2023_realistic_v14-v1/70000/69e3371b-0cf0-4563-846e-b3eb0bd6cfbe.root
/store/mc/Run3Summer23NanoAODv12/DYto2L-2Jets_MLL-50_PTLL-40to100_1J_TuneCP5_13p6TeV_amcatnloFXFX-pythia8/NANOAODSIM/130X_mcRun3_2023_realistic_v14-v1/70000/458e0328-c07d-4e8f-9c89-5bbedc3bd6d7.root
/store/mc/Run3Summer23NanoAODv12/DYto2L-2Jets_MLL-50_PTLL-40to100_1J_TuneCP5_13p6TeV_amcatnloFXFX-pythia8/NANOAODSIM/130X_mcRun3_2023_realistic_v14-v1/70000/e851b61e-4db7-4d56-aa5e-b0a26ce6645a.root
/store/mc/Run3Summer23NanoAODv12/DYto2L-2Jets_MLL-50_PTLL-40to100_1J_TuneCP5_13p6TeV_amcatnloFXFX-pythia8/NANOAODSIM/130X_mcRun3_2023_realistic_v14-v1/70000/6bdc7dba-4d3e-4ece-a857-a4c86940f377.root
/store/mc/Run3Summer23NanoAODv12/DYto2L-2Jets_MLL-50_PTLL-40to100_1J_TuneCP5_13p6TeV_amcatnloFXFX-pythia8/NANOAODSIM/130X_mcRun3_2023_realistic_v14-v1/25610000/642f01ad-ecac-449f-bb07-07681d53f3fe.root
/store/mc/Run3Summer23NanoAODv12/DYto2L-2Jets_MLL-50_PTLL-40to100_1J_TuneCP5_13p6TeV_amcatnloFXFX-pythia8/NANOAODSIM/130X_mcRun3_2023_realistic_v14-v1/2550000/5c17bfd2-c73f-4f24-9df0-a1b991068858.root
/store/mc/Run3Summer23NanoAODv12/DYto2L-2Jets_MLL-50_PTLL-40to100_1J_TuneCP5_13p6TeV_amcatnloFXFX-pythia8/NANOAODSIM/130X_mcRun3_2023_realistic_v14-v1/2550000/108683b3-6d40-4277-80cd-47231d01863e.root
/store/mc/Run3Summer23NanoAODv12/DYto2L-2Jets_MLL-50_PTLL-40to100_1J_TuneCP5_13p6TeV_amcatnloFXFX-pythia8/NANOAODSIM/130X_mcRun3_2023_realistic_v14-v1/2550000/7e2570f6-5e67-47d5-9b63-e55e2cbe0935.root
/store/mc/Run3Summer23NanoAODv12/DYto2L-2Jets_MLL-50_PTLL-40to100_1J_TuneCP5_13p6TeV_amcatnloFXFX-pythia8/NANOAODSIM/130X_mcRun3_2023_realistic_v14-v1/2550000/812ace80-4145-40f3-925e-149c02db6e03.root
/store/mc/Run3Summer23NanoAODv12/DYto2L-2Jets_MLL-50_PTLL-40to100_1J_TuneCP5_13p6TeV_amcatnloFXFX-pythia8/NANOAODSIM/130X_mcRun3_2023_realistic_v14-v1/2560000/67aa9bd3-847f-474b-a010-10eda3946993.root
/store/mc/Run3Summer23NanoAODv12/DYto2L-2Jets_MLL-50_PTLL-40to100_1J_TuneCP5_13p6TeV_amcatnloFXFX-pythia8/NANOAODSIM/130X_mcRun3_2023_realistic_v14-v1/70000/002c7496-1532-4dd4-a34c-ab732265c015.root
/store/mc/Run3Summer23NanoAODv12/DYto2L-2Jets_MLL-50_PTLL-40to100_1J_TuneCP5_13p6TeV_amcatnloFXFX-pythia8/NANOAODSIM/130X_mcRun3_2023_realistic_v14-v1/2550000/d6d56642-dc41-4c32-b897-65f0fbed1c68.root
/store/mc/Run3Summer23NanoAODv12/DYto2L-2Jets_MLL-50_PTLL-40to100_1J_TuneCP5_13p6TeV_amcatnloFXFX-pythia8/NANOAODSIM/130X_mcRun3_2023_realistic_v14-v1/2550000/5feacc25-11f6-4e4f-bd9f-24903310d727.root
/store/mc/Run3Summer23NanoAODv12/DYto2L-2Jets_MLL-50_PTLL-40to100_1J_TuneCP5_13p6TeV_amcatnloFXFX-pythia8/NANOAODSIM/130X_mcRun3_2023_realistic_v14-v1/2550000/029c470d-4b0d-4e73-b1f3-fa955664fb01.root
/store/mc/Run3Summer23NanoAODv12/DYto2L-2Jets_MLL-50_PTLL-40to100_1J_TuneCP5_13p6TeV_amcatnloFXFX-pythia8/NANOAODSIM/130X_mcRun3_2023_realistic_v14-v1/2550000/7ee94f4c-95bf-4a69-8296-03c2da6bfcf8.root
/store/mc/Run3Summer23NanoAODv12/DYto2L-2Jets_MLL-50_PTLL-40to100_1J_TuneCP5_13p6TeV_amcatnloFXFX-pythia8/NANOAODSIM/130X_mcRun3_2023_realistic_v14-v1/2550000/e165a43c-e5f5-44c5-b8e7-b5309b97fe30.root
/store/mc/Run3Summer23NanoAODv12/DYto2L-2Jets_MLL-50_PTLL-40to100_1J_TuneCP5_13p6TeV_amcatnloFXFX-pythia8/NANOAODSIM/130X_mcRun3_2023_realistic_v14-v1/60000/a5428f11-4996-413a-bccb-158e3b1675a9.root
/store/mc/Run3Summer23NanoAODv12/DYto2L-2Jets_MLL-50_PTLL-40to100_1J_TuneCP5_13p6TeV_amcatnloFXFX-pythia8/NANOAODSIM/130X_mcRun3_2023_realistic_v14-v1/2550000/2ce7e6f6-4aa0-43e7-a6d8-0807c639b84c.root
/store/mc/Run3Summer23NanoAODv12/DYto2L-2Jets_MLL-50_PTLL-40to100_1J_TuneCP5_13p6TeV_amcatnloFXFX-pythia8/NANOAODSIM/130X_mcRun3_2023_realistic_v14-v1/2560000/102927a5-ed6f-4a17-a564-35f28f2cb00d.root
/store/mc/Run3Summer23NanoAODv12/DYto2L-2Jets_MLL-50_PTLL-40to100_1J_TuneCP5_13p6TeV_amcatnloFXFX-pythia8/NANOAODSIM/130X_mcRun3_2023_realistic_v14-v1/2560000/f0817679-b3af-47f5-adc3-96e4efc96b01.root
/store/mc/Run3Summer23NanoAODv12/DYto2L-2Jets_MLL-50_PTLL-40to100_1J_TuneCP5_13p6TeV_amcatnloFXFX-pythia8/NANOAODSIM/130X_mcRun3_2023_realistic_v14-v1/2560000/edc217d6-7d67-44dd-b412-f0d8e440c25b.root
/store/mc/Run3Summer23NanoAODv12/DYto2L-2Jets_MLL-50_PTLL-40to100_1J_TuneCP5_13p6TeV_amcatnloFXFX-pythia8/NANOAODSIM/130X_mcRun3_2023_realistic_v14-v1/2560000/832550bb-1951-4c9d-8688-ef23202ce1b6.root
/store/mc/Run3Summer23NanoAODv12/DYto2L-2Jets_MLL-50_PTLL-40to100_1J_TuneCP5_13p6TeV_amcatnloFXFX-pythia8/NANOAODSIM/130X_mcRun3_2023_realistic_v14-v1/60000/96a6f2b7-87d1-4f6c-a691-39c5da2df32c.root
/store/mc/Run3Summer23NanoAODv12/DYto2L-2Jets_MLL-50_PTLL-40to100_1J_TuneCP5_13p6TeV_amcatnloFXFX-pythia8/NANOAODSIM/130X_mcRun3_2023_realistic_v14-v1/60000/8ff2dde7-325f-4210-9d1d-e2ab883ecd29.root
/store/mc/Run3Summer23NanoAODv12/DYto2L-2Jets_MLL-50_PTLL-40to100_1J_TuneCP5_13p6TeV_amcatnloFXFX-pythia8/NANOAODSIM/130X_mcRun3_2023_realistic_v14-v1/60000/a61f05cc-3cc6-4fe0-850b-839cd3b939d9.root
/store/mc/Run3Summer23NanoAODv12/DYto2L-2Jets_MLL-50_PTLL-40to100_1J_TuneCP5_13p6TeV_amcatnloFXFX-pythia8/NANOAODSIM/130X_mcRun3_2023_realistic_v14-v1/60000/41f489a4-38c0-405c-8b55-fec352be8646.root
/store/mc/Run3Summer23NanoAODv12/DYto2L-2Jets_MLL-50_PTLL-40to100_1J_TuneCP5_13p6TeV_amcatnloFXFX-pythia8/NANOAODSIM/130X_mcRun3_2023_realistic_v14-v1/60000/d635a7de-25c2-4ea9-8e8a-def3479d3bd8.root
/store/mc/Run3Summer23NanoAODv12/DYto2L-2Jets_MLL-50_PTLL-40to100_1J_TuneCP5_13p6TeV_amcatnloFXFX-pythia8/NANOAODSIM/130X_mcRun3_2023_realistic_v14-v1/60000/c9223df1-beb9-4647-931d-b3d4b7288758.root
/store/mc/Run3Summer23NanoAODv12/DYto2L-2Jets_MLL-50_PTLL-40to100_1J_TuneCP5_13p6TeV_amcatnloFXFX-pythia8/NANOAODSIM/130X_mcRun3_2023_realistic_v14-v1/60000/38d7cbd3-1150-4845-83c1-1c7565ad8724.root
/store/mc/Run3Summer23NanoAODv12/DYto2L-2Jets_MLL-50_PTLL-40to100_1J_TuneCP5_13p6TeV_amcatnloFXFX-pythia8/NANOAODSIM/130X_mcRun3_2023_realistic_v14-v1/60000/00d8452a-1713-4986-ab08-6fba9dfb6ced.root
/store/mc/Run3Summer23NanoAODv12/DYto2L-2Jets_MLL-50_PTLL-40to100_1J_TuneCP5_13p6TeV_amcatnloFXFX-pythia8/NANOAODSIM/130X_mcRun3_2023_realistic_v14-v1/60000/9f544676-2df2-4404-9d74-1b22c51639a0.root
/store/mc/Run3Summer23NanoAODv12/DYto2L-2Jets_MLL-50_PTLL-40to100_1J_TuneCP5_13p6TeV_amcatnloFXFX-pythia8/NANOAODSIM/130X_mcRun3_2023_realistic_v14-v1/60000/585b2f74-c110-422a-88ed-1f36f15811ed.root
/store/mc/Run3Summer23NanoAODv12/DYto2L-2Jets_MLL-50_PTLL-40to100_1J_TuneCP5_13p6TeV_amcatnloFXFX-pythia8/NANOAODSIM/130X_mcRun3_2023_realistic_v14-v1/60000/b5ffd696-7661-4ce2-a96a-e6081fcacf25.root
/store/mc/Run3Summer23NanoAODv12/DYto2L-2Jets_MLL-50_PTLL-40to100_1J_TuneCP5_13p6TeV_amcatnloFXFX-pythia8/NANOAODSIM/130X_mcRun3_2023_realistic_v14-v1/60000/a6822655-1da1-456a-b37b-2078f95bd589.root
/store/mc/Run3Summer23NanoAODv12/DYto2L-2Jets_MLL-50_PTLL-40to100_1J_TuneCP5_13p6TeV_amcatnloFXFX-pythia8/NANOAODSIM/130X_mcRun3_2023_realistic_v14-v1/60000/c85c3f39-670a-43bf-a19d-deb31bcf72a3.root
/store/mc/Run3Summer23NanoAODv12/DYto2L-2Jets_MLL-50_PTLL-40to100_1J_TuneCP5_13p6TeV_amcatnloFXFX-pythia8/NANOAODSIM/130X_mcRun3_2023_realistic_v14-v1/60000/513af293-cfa6-421e-a859-3b06f8f99a82.root
/store/mc/Run3Summer23NanoAODv12/DYto2L-2Jets_MLL-50_PTLL-40to100_1J_TuneCP5_13p6TeV_amcatnloFXFX-pythia8/NANOAODSIM/130X_mcRun3_2023_realistic_v14-v1/60000/a0850d07-109d-4296-8376-301ed782ed35.root
/store/mc/Run3Summer23NanoAODv12/DYto2L-2Jets_MLL-50_PTLL-40to100_1J_TuneCP5_13p6TeV_amcatnloFXFX-pythia8/NANOAODSIM/130X_mcRun3_2023_realistic_v14-v1/60000/431f6a55-9116-4992-85e9-12b568baf22c.root
/store/mc/Run3Summer23NanoAODv12/DYto2L-2Jets_MLL-50_PTLL-40to100_1J_TuneCP5_13p6TeV_amcatnloFXFX-pythia8/NANOAODSIM/130X_mcRun3_2023_realistic_v14-v1/60000/62887ca5-02f4-4bef-942e-3f0225b804e7.root
/store/mc/Run3Summer23NanoAODv12/DYto2L-2Jets_MLL-50_PTLL-40to100_1J_TuneCP5_13p6TeV_amcatnloFXFX-pythia8/NANOAODSIM/130X_mcRun3_2023_realistic_v14-v1/60000/1c3fe12c-784a-4fc8-843d-0ae23cf97573.root
/store/mc/Run3Summer23NanoAODv12/DYto2L-2Jets_MLL-50_PTLL-40to100_1J_TuneCP5_13p6TeV_amcatnloFXFX-pythia8/NANOAODSIM/130X_mcRun3_2023_realistic_v14-v1/60000/093f1aa1-8a42-4fa0-8ae7-e1431fe5a657.root
/store/mc/Run3Summer23NanoAODv12/DYto2L-2Jets_MLL-50_PTLL-40to100_1J_TuneCP5_13p6TeV_amcatnloFXFX-pythia8/NANOAODSIM/130X_mcRun3_2023_realistic_v14-v1/60000/072895ac-ddc5-4c04-992b-249a2475e911.root
/store/mc/Run3Summer23NanoAODv12/DYto2L-2Jets_MLL-50_PTLL-40to100_1J_TuneCP5_13p6TeV_amcatnloFXFX-pythia8/NANOAODSIM/130X_mcRun3_2023_realistic_v14-v1/60000/9072769c-ff5a-4b84-8bd1-557bd7efad8a.root
/store/mc/Run3Summer23NanoAODv12/DYto2L-2Jets_MLL-50_PTLL-40to100_1J_TuneCP5_13p6TeV_amcatnloFXFX-pythia8/NANOAODSIM/130X_mcRun3_2023_realistic_v14-v1/60000/10bfa62f-4cfc-4c18-ac71-7804648d7e90.root
/store/mc/Run3Summer23NanoAODv12/DYto2L-2Jets_MLL-50_PTLL-40to100_1J_TuneCP5_13p6TeV_amcatnloFXFX-pythia8/NANOAODSIM/130X_mcRun3_2023_realistic_v14-v1/60000/34526c73-25ea-4f53-958e-cda8573dc0d7.root
/store/mc/Run3Summer23NanoAODv12/DYto2L-2Jets_MLL-50_PTLL-40to100_1J_TuneCP5_13p6TeV_amcatnloFXFX-pythia8/NANOAODSIM/130X_mcRun3_2023_realistic_v14-v1/60000/da801588-3ebe-4331-b337-799369e5dcc8.root
/store/mc/Run3Summer23NanoAODv12/DYto2L-2Jets_MLL-50_PTLL-40to100_1J_TuneCP5_13p6TeV_amcatnloFXFX-pythia8/NANOAODSIM/130X_mcRun3_2023_realistic_v14-v1/60000/24093f15-f0b4-4d64-af62-26e438ca24f9.root
/store/mc/Run3Summer23NanoAODv12/DYto2L-2Jets_MLL-50_PTLL-40to100_1J_TuneCP5_13p6TeV_amcatnloFXFX-pythia8/NANOAODSIM/130X_mcRun3_2023_realistic_v14-v1/60000/c9cf51e5-0d69-4b64-be8e-4e9d562dd438.root
/store/mc/Run3Summer23NanoAODv12/DYto2L-2Jets_MLL-50_PTLL-40to100_1J_TuneCP5_13p6TeV_amcatnloFXFX-pythia8/NANOAODSIM/130X_mcRun3_2023_realistic_v14-v1/60000/2398a3cd-c928-4c79-8a90-38e6a9047d78.root
/store/mc/Run3Summer23NanoAODv12/DYto2L-2Jets_MLL-50_PTLL-40to100_1J_TuneCP5_13p6TeV_amcatnloFXFX-pythia8/NANOAODSIM/130X_mcRun3_2023_realistic_v14-v1/60000/a154c519-ff87-491b-a792-c3678f1c20ef.root
/store/mc/Run3Summer23NanoAODv12/DYto2L-2Jets_MLL-50_PTLL-40to100_1J_TuneCP5_13p6TeV_amcatnloFXFX-pythia8/NANOAODSIM/130X_mcRun3_2023_realistic_v14-v1/60000/1c14a66a-e284-4f99-a8ce-940a0f8b9c4d.root
/store/mc/Run3Summer23NanoAODv12/DYto2L-2Jets_MLL-50_PTLL-40to100_1J_TuneCP5_13p6TeV_amcatnloFXFX-pythia8/NANOAODSIM/130X_mcRun3_2023_realistic_v14-v1/60000/d73e1bf5-8873-4aee-acb2-ae29385902e5.root
/store/mc/Run3Summer23NanoAODv12/DYto2L-2Jets_MLL-50_PTLL-40to100_1J_TuneCP5_13p6TeV_amcatnloFXFX-pythia8/NANOAODSIM/130X_mcRun3_2023_realistic_v14-v1/60000/bdfae0d4-b40e-4a7a-bc06-f046b1db143c.root
/store/mc/Run3Summer23NanoAODv12/DYto2L-2Jets_MLL-50_PTLL-40to100_1J_TuneCP5_13p6TeV_amcatnloFXFX-pythia8/NANOAODSIM/130X_mcRun3_2023_realistic_v14-v1/60000/a4cf6395-514d-4255-84cf-2ed4a722c79d.root
/store/mc/Run3Summer23NanoAODv12/DYto2L-2Jets_MLL-50_PTLL-40to100_1J_TuneCP5_13p6TeV_amcatnloFXFX-pythia8/NANOAODSIM/130X_mcRun3_2023_realistic_v14-v1/60000/bd38db25-0d5f-43ac-b487-46b6403f0046.root
/store/mc/Run3Summer23NanoAODv12/DYto2L-2Jets_MLL-50_PTLL-40to100_1J_TuneCP5_13p6TeV_amcatnloFXFX-pythia8/NANOAODSIM/130X_mcRun3_2023_realistic_v14-v1/60000/6617bfb6-c897-4ca5-9ae9-c91b94775290.root
/store/mc/Run3Summer23NanoAODv12/DYto2L-2Jets_MLL-50_PTLL-40to100_1J_TuneCP5_13p6TeV_amcatnloFXFX-pythia8/NANOAODSIM/130X_mcRun3_2023_realistic_v14-v1/60000/be9d697d-0d21-425b-8c6d-a59ef28cca68.root
/store/mc/Run3Summer23NanoAODv12/DYto2L-2Jets_MLL-50_PTLL-40to100_1J_TuneCP5_13p6TeV_amcatnloFXFX-pythia8/NANOAODSIM/130X_mcRun3_2023_realistic_v14-v1/60000/e95b2fd4-ca98-47c6-9cf9-6e8896978889.root
/store/mc/Run3Summer23NanoAODv12/DYto2L-2Jets_MLL-50_PTLL-40to100_1J_TuneCP5_13p6TeV_amcatnloFXFX-pythia8/NANOAODSIM/130X_mcRun3_2023_realistic_v14-v1/60000/55421a91-bbd9-4d39-9887-d0022e898a4a.root
/store/mc/Run3Summer23NanoAODv12/DYto2L-2Jets_MLL-50_PTLL-40to100_1J_TuneCP5_13p6TeV_amcatnloFXFX-pythia8/NANOAODSIM/130X_mcRun3_2023_realistic_v14-v1/60000/40c43b33-0794-4735-8108-0dafc1f218a9.root
/store/mc/Run3Summer23NanoAODv12/DYto2L-2Jets_MLL-50_PTLL-40to100_1J_TuneCP5_13p6TeV_amcatnloFXFX-pythia8/NANOAODSIM/130X_mcRun3_2023_realistic_v14-v1/60000/639eabad-b339-4abd-b38e-45b4c82f2d37.root
/store/mc/Run3Summer23NanoAODv12/DYto2L-2Jets_MLL-50_PTLL-40to100_1J_TuneCP5_13p6TeV_amcatnloFXFX-pythia8/NANOAODSIM/130X_mcRun3_2023_realistic_v14-v1/60000/a9368fbf-a6d0-481f-8cef-afe57c3b202e.root
/store/mc/Run3Summer23NanoAODv12/DYto2L-2Jets_MLL-50_PTLL-40to100_1J_TuneCP5_13p6TeV_amcatnloFXFX-pythia8/NANOAODSIM/130X_mcRun3_2023_realistic_v14-v1/60000/09897b28-24aa-43b2-bd52-82ce99fdf71a.root
/store/mc/Run3Summer23NanoAODv12/DYto2L-2Jets_MLL-50_PTLL-40to100_1J_TuneCP5_13p6TeV_amcatnloFXFX-pythia8/NANOAODSIM/130X_mcRun3_2023_realistic_v14-v1/60000/64e1a807-e996-4394-adb8-7465380791ed.root
/store/mc/Run3Summer23NanoAODv12/DYto2L-2Jets_MLL-50_PTLL-40to100_1J_TuneCP5_13p6TeV_amcatnloFXFX-pythia8/NANOAODSIM/130X_mcRun3_2023_realistic_v14-v1/60000/994418c7-7831-4b40-b7e4-0492c3c3db7b.root
/store/mc/Run3Summer23NanoAODv12/DYto2L-2Jets_MLL-50_PTLL-40to100_1J_TuneCP5_13p6TeV_amcatnloFXFX-pythia8/NANOAODSIM/130X_mcRun3_2023_realistic_v14-v1/60000/e37fbeb5-6e09-48ac-aa17-8ebbff3b61a0.root
/store/mc/Run3Summer23NanoAODv12/DYto2L-2Jets_MLL-50_PTLL-40to100_1J_TuneCP5_13p6TeV_amcatnloFXFX-pythia8/NANOAODSIM/130X_mcRun3_2023_realistic_v14-v1/60000/8a04517a-1511-4669-b9ed-4edf37680463.root
/store/mc/Run3Summer23NanoAODv12/DYto2L-2Jets_MLL-50_PTLL-40to100_1J_TuneCP5_13p6TeV_amcatnloFXFX-pythia8/NANOAODSIM/130X_mcRun3_2023_realistic_v14-v1/60000/56d6891b-472e-470b-9dba-d8115a0c6111.root
/store/mc/Run3Summer23NanoAODv12/DYto2L-2Jets_MLL-50_PTLL-40to100_1J_TuneCP5_13p6TeV_amcatnloFXFX-pythia8/NANOAODSIM/130X_mcRun3_2023_realistic_v14-v1/60000/25c98867-c0be-4e02-8d35-38cf4beb1bb9.root
/store/mc/Run3Summer23NanoAODv12/DYto2L-2Jets_MLL-50_PTLL-40to100_1J_TuneCP5_13p6TeV_amcatnloFXFX-pythia8/NANOAODSIM/130X_mcRun3_2023_realistic_v14-v1/60000/7c71dfa8-7606-4aa5-8c07-10b919c14e89.root
/store/mc/Run3Summer23NanoAODv12/DYto2L-2Jets_MLL-50_PTLL-40to100_1J_TuneCP5_13p6TeV_amcatnloFXFX-pythia8/NANOAODSIM/130X_mcRun3_2023_realistic_v14-v1/60000/bbf9c7d2-d4fb-47ae-a247-d8066ec1f9ec.root
/store/mc/Run3Summer23NanoAODv12/DYto2L-2Jets_MLL-50_PTLL-40to100_1J_TuneCP5_13p6TeV_amcatnloFXFX-pythia8/NANOAODSIM/130X_mcRun3_2023_realistic_v14-v1/60000/316058f9-8cec-438a-913f-b72a4e64dc77.root
/store/mc/Run3Summer23NanoAODv12/DYto2L-2Jets_MLL-50_PTLL-40to100_1J_TuneCP5_13p6TeV_amcatnloFXFX-pythia8/NANOAODSIM/130X_mcRun3_2023_realistic_v14-v1/60000/9158af9f-f907-42f4-a277-ce3b78e5cd6b.root
/store/mc/Run3Summer23NanoAODv12/DYto2L-2Jets_MLL-50_PTLL-40to100_1J_TuneCP5_13p6TeV_amcatnloFXFX-pythia8/NANOAODSIM/130X_mcRun3_2023_realistic_v14-v1/60000/5e9650a0-b930-4c39-bdda-357ddb81a36c.root
/store/mc/Run3Summer23NanoAODv12/DYto2L-2Jets_MLL-50_PTLL-40to100_1J_TuneCP5_13p6TeV_amcatnloFXFX-pythia8/NANOAODSIM/130X_mcRun3_2023_realistic_v14-v1/60000/22eb293c-b811-4a80-b825-0ae63d5d6236.root
/store/mc/Run3Summer23NanoAODv12/DYto2L-2Jets_MLL-50_PTLL-40to100_1J_TuneCP5_13p6TeV_amcatnloFXFX-pythia8/NANOAODSIM/130X_mcRun3_2023_realistic_v14-v1/60000/a2950ec9-1c0c-4066-a119-4b8064384b05.root
/store/mc/Run3Summer23NanoAODv12/DYto2L-2Jets_MLL-50_PTLL-40to100_1J_TuneCP5_13p6TeV_amcatnloFXFX-pythia8/NANOAODSIM/130X_mcRun3_2023_realistic_v14-v1/60000/cc1ae551-a4bc-4749-bdb3-a5e6ea9752ee.root
/store/mc/Run3Summer23NanoAODv12/DYto2L-2Jets_MLL-50_PTLL-40to100_1J_TuneCP5_13p6TeV_amcatnloFXFX-pythia8/NANOAODSIM/130X_mcRun3_2023_realistic_v14-v1/60000/acd7dcb7-0068-4940-b0ac-67b1d78899c3.root
/store/mc/Run3Summer23NanoAODv12/DYto2L-2Jets_MLL-50_PTLL-40to100_1J_TuneCP5_13p6TeV_amcatnloFXFX-pythia8/NANOAODSIM/130X_mcRun3_2023_realistic_v14-v1/60000/714747c9-f2c5-4c0d-9e60-2d90a8a3bbdb.root
/store/mc/Run3Summer23NanoAODv12/DYto2L-2Jets_MLL-50_PTLL-40to100_1J_TuneCP5_13p6TeV_amcatnloFXFX-pythia8/NANOAODSIM/130X_mcRun3_2023_realistic_v14-v1/60000/5ad0f4ba-29fe-4487-a0ed-ebc45c9cd12c.root
/store/mc/Run3Summer23NanoAODv12/DYto2L-2Jets_MLL-50_PTLL-40to100_1J_TuneCP5_13p6TeV_amcatnloFXFX-pythia8/NANOAODSIM/130X_mcRun3_2023_realistic_v14-v1/60000/56740d52-b006-4a17-9586-7c4c499eb4d5.root
/store/mc/Run3Summer23NanoAODv12/DYto2L-2Jets_MLL-50_PTLL-40to100_1J_TuneCP5_13p6TeV_amcatnloFXFX-pythia8/NANOAODSIM/130X_mcRun3_2023_realistic_v14-v1/60000/35df37f0-daa1-4ecb-9c94-1c631c0fe1dd.root
/store/mc/Run3Summer23NanoAODv12/DYto2L-2Jets_MLL-50_PTLL-40to100_1J_TuneCP5_13p6TeV_amcatnloFXFX-pythia8/NANOAODSIM/130X_mcRun3_2023_realistic_v14-v1/60000/ad57bb09-2017-4d9e-a1d6-6d66df7fc91d.root
/store/mc/Run3Summer23NanoAODv12/DYto2L-2Jets_MLL-50_PTLL-40to100_1J_TuneCP5_13p6TeV_amcatnloFXFX-pythia8/NANOAODSIM/130X_mcRun3_2023_realistic_v14-v1/60000/5ac340e3-b6a5-4575-affa-5009485a2e61.root
/store/mc/Run3Summer23NanoAODv12/DYto2L-2Jets_MLL-50_PTLL-40to100_1J_TuneCP5_13p6TeV_amcatnloFXFX-pythia8/NANOAODSIM/130X_mcRun3_2023_realistic_v14-v1/60000/9bb0f4b4-6705-4ef3-b5c5-73f4c211f302.root
/store/mc/Run3Summer23NanoAODv12/DYto2L-2Jets_MLL-50_PTLL-40to100_1J_TuneCP5_13p6TeV_amcatnloFXFX-pythia8/NANOAODSIM/130X_mcRun3_2023_realistic_v14-v1/60000/b1cab91f-e52a-4165-9880-025edfa5e03e.root
/store/mc/Run3Summer23NanoAODv12/DYto2L-2Jets_MLL-50_PTLL-40to100_1J_TuneCP5_13p6TeV_amcatnloFXFX-pythia8/NANOAODSIM/130X_mcRun3_2023_realistic_v14-v1/60000/41789efa-3944-4de3-92ef-344d4e4e8767.root
/store/mc/Run3Summer23NanoAODv12/DYto2L-2Jets_MLL-50_PTLL-40to100_1J_TuneCP5_13p6TeV_amcatnloFXFX-pythia8/NANOAODSIM/130X_mcRun3_2023_realistic_v14-v1/60000/c4e62a7d-8f56-40ad-af30-813937623948.root
/store/mc/Run3Summer23NanoAODv12/DYto2L-2Jets_MLL-50_PTLL-40to100_1J_TuneCP5_13p6TeV_amcatnloFXFX-pythia8/NANOAODSIM/130X_mcRun3_2023_realistic_v14-v1/60000/458acf89-b914-4b42-b2d7-4051566aeb47.root
/store/mc/Run3Summer23NanoAODv12/DYto2L-2Jets_MLL-50_PTLL-40to100_1J_TuneCP5_13p6TeV_amcatnloFXFX-pythia8/NANOAODSIM/130X_mcRun3_2023_realistic_v14-v1/60000/87469c64-9af5-4462-bbed-a6370ee524c9.root
/store/mc/Run3Summer23NanoAODv12/DYto2L-2Jets_MLL-50_PTLL-40to100_1J_TuneCP5_13p6TeV_amcatnloFXFX-pythia8/NANOAODSIM/130X_mcRun3_2023_realistic_v14-v1/60000/0da7beaa-12f0-4297-beb5-a982f190f922.root
/store/mc/Run3Summer23NanoAODv12/DYto2L-2Jets_MLL-50_PTLL-40to100_1J_TuneCP5_13p6TeV_amcatnloFXFX-pythia8/NANOAODSIM/130X_mcRun3_2023_realistic_v14-v1/60000/b40e37d4-d0d6-42d8-b8c5-426949ec36c1.root
/store/mc/Run3Summer23NanoAODv12/DYto2L-2Jets_MLL-50_PTLL-40to100_1J_TuneCP5_13p6TeV_amcatnloFXFX-pythia8/NANOAODSIM/130X_mcRun3_2023_realistic_v14-v1/60000/d39d3148-edc3-43a2-8485-da36a9469c95.root
/store/mc/Run3Summer23NanoAODv12/DYto2L-2Jets_MLL-50_PTLL-40to100_1J_TuneCP5_13p6TeV_amcatnloFXFX-pythia8/NANOAODSIM/130X_mcRun3_2023_realistic_v14-v1/60000/d273a54b-7ca3-4f8a-9351-972c3edc0249.root
/store/mc/Run3Summer23NanoAODv12/DYto2L-2Jets_MLL-50_PTLL-40to100_1J_TuneCP5_13p6TeV_amcatnloFXFX-pythia8/NANOAODSIM/130X_mcRun3_2023_realistic_v14-v1/60000/8144e918-f36b-4df0-a98d-df6c33cfd08b.root
/store/mc/Run3Summer23NanoAODv12/DYto2L-2Jets_MLL-50_PTLL-40to100_1J_TuneCP5_13p6TeV_amcatnloFXFX-pythia8/NANOAODSIM/130X_mcRun3_2023_realistic_v14-v1/60000/7e237c8c-c7d9-4b1c-b56e-dcf8858b24f8.root
/store/mc/Run3Summer23NanoAODv12/DYto2L-2Jets_MLL-50_PTLL-40to100_1J_TuneCP5_13p6TeV_amcatnloFXFX-pythia8/NANOAODSIM/130X_mcRun3_2023_realistic_v14-v1/60000/d9004670-ed30-49b5-bef0-8a26a206948c.root
/store/mc/Run3Summer23NanoAODv12/DYto2L-2Jets_MLL-50_PTLL-40to100_1J_TuneCP5_13p6TeV_amcatnloFXFX-pythia8/NANOAODSIM/130X_mcRun3_2023_realistic_v14-v1/60000/b63fe5be-e67a-4642-b300-07f81017f787.root
/store/mc/Run3Summer23NanoAODv12/DYto2L-2Jets_MLL-50_PTLL-40to100_1J_TuneCP5_13p6TeV_amcatnloFXFX-pythia8/NANOAODSIM/130X_mcRun3_2023_realistic_v14-v1/60000/bb8fc740-74cd-4312-adb2-0633ea50791b.root
/store/mc/Run3Summer23NanoAODv12/DYto2L-2Jets_MLL-50_PTLL-40to100_1J_TuneCP5_13p6TeV_amcatnloFXFX-pythia8/NANOAODSIM/130X_mcRun3_2023_realistic_v14-v1/60000/c11c4d92-1447-4fdf-8153-3168f839f38a.root
/store/mc/Run3Summer23NanoAODv12/DYto2L-2Jets_MLL-50_PTLL-40to100_1J_TuneCP5_13p6TeV_amcatnloFXFX-pythia8/NANOAODSIM/130X_mcRun3_2023_realistic_v14-v1/60000/7a9084a5-cfad-4ec2-8cdd-3d9119435950.root
/store/mc/Run3Summer23NanoAODv12/DYto2L-2Jets_MLL-50_PTLL-40to100_1J_TuneCP5_13p6TeV_amcatnloFXFX-pythia8/NANOAODSIM/130X_mcRun3_2023_realistic_v14-v1/2560000/f0fb9435-8186-4e10-97b9-a2c4c468a441.root
/store/mc/Run3Summer23NanoAODv12/DYto2L-2Jets_MLL-50_PTLL-40to100_1J_TuneCP5_13p6TeV_amcatnloFXFX-pythia8/NANOAODSIM/130X_mcRun3_2023_realistic_v14-v1/2560000/09c55378-7492-4969-ade6-a5a9889f1df3.root
/store/mc/Run3Summer23NanoAODv12/DYto2L-2Jets_MLL-50_PTLL-40to100_1J_TuneCP5_13p6TeV_amcatnloFXFX-pythia8/NANOAODSIM/130X_mcRun3_2023_realistic_v14-v1/2560000/5ca3e1ca-5e40-4f5a-82eb-34ac94307d29.root
/store/mc/Run3Summer23NanoAODv12/DYto2L-2Jets_MLL-50_PTLL-40to100_1J_TuneCP5_13p6TeV_amcatnloFXFX-pythia8/NANOAODSIM/130X_mcRun3_2023_realistic_v14-v1/2560000/2b805a22-d920-42e1-bd47-5aed6885d84e.root
/store/mc/Run3Summer23NanoAODv12/DYto2L-2Jets_MLL-50_PTLL-40to100_1J_TuneCP5_13p6TeV_amcatnloFXFX-pythia8/NANOAODSIM/130X_mcRun3_2023_realistic_v14-v1/25620000/b3fad99a-1593-4dde-831d-dfc0284e703c.root
/store/mc/Run3Summer23NanoAODv12/DYto2L-2Jets_MLL-50_PTLL-40to100_1J_TuneCP5_13p6TeV_amcatnloFXFX-pythia8/NANOAODSIM/130X_mcRun3_2023_realistic_v14-v1/2560000/3edc86fc-c6fb-467b-95ba-e250cc2c9052.root
/store/mc/Run3Summer23NanoAODv12/DYto2L-2Jets_MLL-50_PTLL-40to100_1J_TuneCP5_13p6TeV_amcatnloFXFX-pythia8/NANOAODSIM/130X_mcRun3_2023_realistic_v14-v1/2560000/b363f534-1a7a-45fa-b949-45a570a2016d.root
/store/mc/Run3Summer23NanoAODv12/DYto2L-2Jets_MLL-50_PTLL-40to100_1J_TuneCP5_13p6TeV_amcatnloFXFX-pythia8/NANOAODSIM/130X_mcRun3_2023_realistic_v14-v1/80000/d378cc95-bb37-4419-9a6e-e08b9f3c1efc.root
/store/mc/Run3Summer23NanoAODv12/DYto2L-2Jets_MLL-50_PTLL-40to100_1J_TuneCP5_13p6TeV_amcatnloFXFX-pythia8/NANOAODSIM/130X_mcRun3_2023_realistic_v14-v1/2560000/f033ca5f-4707-4b1d-8d80-8e01548c2b2e.root
/store/mc/Run3Summer23NanoAODv12/DYto2L-2Jets_MLL-50_PTLL-40to100_1J_TuneCP5_13p6TeV_amcatnloFXFX-pythia8/NANOAODSIM/130X_mcRun3_2023_realistic_v14-v1/2560000/70998ccd-c5c9-4447-9b7a-ea3f0d8f277f.root
/store/mc/Run3Summer23NanoAODv12/DYto2L-2Jets_MLL-50_PTLL-40to100_1J_TuneCP5_13p6TeV_amcatnloFXFX-pythia8/NANOAODSIM/130X_mcRun3_2023_realistic_v14-v1/2560000/10e0e9a0-0241-43ad-930d-16b4f797f620.root
/store/mc/Run3Summer23NanoAODv12/DYto2L-2Jets_MLL-50_PTLL-40to100_1J_TuneCP5_13p6TeV_amcatnloFXFX-pythia8/NANOAODSIM/130X_mcRun3_2023_realistic_v14-v1/2560000/e2f3fb6f-f007-4ce7-814e-2f92bbc6c168.root
/store/mc/Run3Summer23NanoAODv12/DYto2L-2Jets_MLL-50_PTLL-40to100_1J_TuneCP5_13p6TeV_amcatnloFXFX-pythia8/NANOAODSIM/130X_mcRun3_2023_realistic_v14-v1/2560000/fa05ad1e-1aa0-4f16-93a9-918a634a4441.root
/store/mc/Run3Summer23NanoAODv12/DYto2L-2Jets_MLL-50_PTLL-40to100_1J_TuneCP5_13p6TeV_amcatnloFXFX-pythia8/NANOAODSIM/130X_mcRun3_2023_realistic_v14-v1/2560000/c3c07406-c236-40f1-acf0-215cd5624c5f.root
/store/mc/Run3Summer23NanoAODv12/DYto2L-2Jets_MLL-50_PTLL-40to100_1J_TuneCP5_13p6TeV_amcatnloFXFX-pythia8/NANOAODSIM/130X_mcRun3_2023_realistic_v14-v1/2560000/daade8a7-173c-4354-8018-d4419bc8e5ee.root
/store/mc/Run3Summer23NanoAODv12/DYto2L-2Jets_MLL-50_PTLL-40to100_1J_TuneCP5_13p6TeV_amcatnloFXFX-pythia8/NANOAODSIM/130X_mcRun3_2023_realistic_v14-v1/2560000/75af6d3e-7f2a-4f88-a2f8-95592a572b74.root
/store/mc/Run3Summer23NanoAODv12/DYto2L-2Jets_MLL-50_PTLL-40to100_1J_TuneCP5_13p6TeV_amcatnloFXFX-pythia8/NANOAODSIM/130X_mcRun3_2023_realistic_v14-v1/2560000/368582bb-e305-4410-b69a-0f2afcd342d6.root
/store/mc/Run3Summer23NanoAODv12/DYto2L-2Jets_MLL-50_PTLL-40to100_1J_TuneCP5_13p6TeV_amcatnloFXFX-pythia8/NANOAODSIM/130X_mcRun3_2023_realistic_v14-v1/2560000/25327b69-bdde-4bcd-bd5e-0412ce03a979.root
/store/mc/Run3Summer23NanoAODv12/DYto2L-2Jets_MLL-50_PTLL-40to100_1J_TuneCP5_13p6TeV_amcatnloFXFX-pythia8/NANOAODSIM/130X_mcRun3_2023_realistic_v14-v1/2560000/cdcce364-aa2c-45d6-8916-b93aed2cdd91.root
/store/mc/Run3Summer23NanoAODv12/DYto2L-2Jets_MLL-50_PTLL-40to100_1J_TuneCP5_13p6TeV_amcatnloFXFX-pythia8/NANOAODSIM/130X_mcRun3_2023_realistic_v14-v1/2560000/8bd2ddd4-8042-473f-870a-88aab55259e7.root
/store/mc/Run3Summer23NanoAODv12/DYto2L-2Jets_MLL-50_PTLL-40to100_1J_TuneCP5_13p6TeV_amcatnloFXFX-pythia8/NANOAODSIM/130X_mcRun3_2023_realistic_v14-v1/2560000/f0dd3316-4577-434c-82f2-7a6c53112337.root
/store/mc/Run3Summer23NanoAODv12/DYto2L-2Jets_MLL-50_PTLL-40to100_1J_TuneCP5_13p6TeV_amcatnloFXFX-pythia8/NANOAODSIM/130X_mcRun3_2023_realistic_v14-v1/2560000/7cfee4c1-2a65-42d9-b8f2-943a71166582.root
/store/mc/Run3Summer23NanoAODv12/DYto2L-2Jets_MLL-50_PTLL-40to100_1J_TuneCP5_13p6TeV_amcatnloFXFX-pythia8/NANOAODSIM/130X_mcRun3_2023_realistic_v14-v1/2560000/37b98775-fca2-4f42-b246-85c0642aaa56.root
/store/mc/Run3Summer23NanoAODv12/DYto2L-2Jets_MLL-50_PTLL-40to100_1J_TuneCP5_13p6TeV_amcatnloFXFX-pythia8/NANOAODSIM/130X_mcRun3_2023_realistic_v14-v1/2560000/93ad2bff-8dce-42b6-9a06-0ab7d58ea2b4.root