/store/data/Run2023C/EGamma1/NANOAOD/22Sep2023_v1-v1/2530000/977cea8c-ed95-4dc6-ab86-e3dee403d26e.root
/store/data/Run2023C/EGamma1/NANOAOD/22Sep2023_v1-v1/2530000/e3fa93ee-eb02-4384-95d3-1312cb71d256.root
/store/data/Run2023C/EGamma1/NANOAOD/22Sep2023_v1-v1/30000/b74e22a7-e350-406f-9169-dafa6ffc838f.root
/store/data/Run2023C/EGamma1/NANOAOD/22Sep2023_v1-v1/30000/d8275d85-6931-4ac5-996a-6b473c481468.root
/store/data/Run2023C/EGamma1/NANOAOD/22Sep2023_v1-v1/30000/63412fec-bdbb-4897-bff3-bdd54537e499.root
/store/data/Run2023C/EGamma1/NANOAOD/22Sep2023_v1-v1/30000/69c5aa86-b324-4c01-baac-837b151c2d08.root
/store/data/Run2023C/EGamma1/NANOAOD/22Sep2023_v1-v1/30000/431151b5-6ee9-4e66-a0d5-0956cd151aaa.root
/store/data/Run2023C/EGamma1/NANOAOD/22Sep2023_v1-v1/30000/a518e8e9-66c1-4a99-8090-1b764a2e5f91.root
/store/data/Run2023C/EGamma1/NANOAOD/22Sep2023_v1-v1/30000/4eb41ed1-44b8-4524-aa88-d173eea5db53.root
/store/data/Run2023C/EGamma1/NANOAOD/22Sep2023_v1-v1/2530000/63247837-595c-4658-b8a1-fb6fad31d7c4.root
/store/data/Run2023C/EGamma1/NANOAOD/22Sep2023_v1-v1/2530000/430a105c-59e7-4a04-a9e9-74fd711a7770.root
/store/data/Run2023C/EGamma1/NANOAOD/22Sep2023_v1-v1/2530000/157dfaa0-202b-418a-8923-802fb569aa00.root
/store/data/Run2023C/EGamma1/NANOAOD/22Sep2023_v1-v1/2530000/46374dfd-7455-4b26-a4a0-c46b1bc03e6c.root
/store/data/Run2023C/EGamma1/NANOAOD/22Sep2023_v1-v1/2530000/4ba3859a-8b64-48d0-ad9f-903e84b991a2.root
/store/data/Run2023C/EGamma1/NANOAOD/22Sep2023_v1-v1/30000/e7ecce11-e4b2-4846-a374-139139f51d5f.root
/store/data/Run2023C/EGamma1/NANOAOD/22Sep2023_v1-v1/2530000/08070e3a-6cfe-465d-b3a8-fd0be8870fc7.root
/store/data/Run2023C/EGamma1/NANOAOD/22Sep2023_v1-v1/30000/7d5ef857-0898-47b1-9694-c6980d0e7be1.root
/store/data/Run2023C/EGamma1/NANOAOD/22Sep2023_v1-v1/30000/e6e4f66b-59cc-43ef-83a8-1a327c90c797.root
/store/data/Run2023C/EGamma1/NANOAOD/22Sep2023_v1-v1/30000/1673c138-8269-445b-8b2a-8c1ec1d27c11.root
/store/data/Run2023C/EGamma1/NANOAOD/22Sep2023_v1-v1/30000/aae15f56-cef7-4654-94fb-067b10c10b06.root
/store/data/Run2023C/EGamma1/NANOAOD/22Sep2023_v1-v1/30000/9b94d6e6-9ca6-4fdc-85c6-710d5675688e.root
/store/data/Run2023C/EGamma1/NANOAOD/22Sep2023_v1-v1/40000/905b5471-068e-4022-81d5-e0ba8e72325f.root
/store/data/Run2023C/EGamma1/NANOAOD/22Sep2023_v1-v1/40000/e7ad8342-4f4e-4968-88da-05574ff3e456.root
/store/data/Run2023C/EGamma1/NANOAOD/22Sep2023_v1-v1/40000/09b32791-1729-4ab9-b670-f1c247a31068.root
/store/data/Run2023C/EGamma1/NANOAOD/22Sep2023_v1-v1/40000/269facf2-2849-4f9f-91c8-eacf38c7c4cd.root
/store/data/Run2023C/EGamma1/NANOAOD/22Sep2023_v1-v1/40000/2fb4ff13-ae24-4863-8198-c4fd714de83d.root
/store/data/Run2023C/EGamma1/NANOAOD/22Sep2023_v1-v1/40000/44a8ca3f-cb5e-485d-b7e0-c6bbbebcc8c0.root
/store/data/Run2023C/EGamma1/NANOAOD/22Sep2023_v1-v1/40000/5fb1f79d-9a31-487f-948f-e684aadbe682.root
/store/data/Run2023C/EGamma1/NANOAOD/22Sep2023_v1-v1/40000/b70e038e-cd30-4651-b4f0-f5c309a40f83.root
/store/data/Run2023C/EGamma1/NANOAOD/22Sep2023_v1-v1/40000/d4cbeca1-f712-433d-81df-3cd9b7071a05.root
/store/data/Run2023C/EGamma1/NANOAOD/22Sep2023_v1-v1/40000/5d60c953-6ca4-4526-8843-c7f960fd8322.root
/store/data/Run2023C/EGamma1/NANOAOD/22Sep2023_v1-v1/40000/130b4d9e-a3f4-4b0f-9bad-8e13dc93b69a.root
/store/data/Run2023C/EGamma1/NANOAOD/22Sep2023_v1-v1/40000/976ccb67-5466-497e-9edf-4b3aabf4f7aa.root
/store/data/Run2023C/EGamma1/NANOAOD/22Sep2023_v1-v1/40000/d70d3f88-05b9-452e-8c3f-13d59cbd1f2b.root
/store/data/Run2023C/EGamma1/NANOAOD/22Sep2023_v1-v1/40000/c7296a2e-a58b-44c1-a227-35f7c24783db.root
/store/data/Run2023C/EGamma1/NANOAOD/22Sep2023_v1-v1/40000/3646f496-955e-444c-b986-2903b781542f.root
/store/data/Run2023C/EGamma1/NANOAOD/22Sep2023_v1-v1/40000/b5599f5d-7c89-4147-83b4-16b65ce55a62.root
/store/data/Run2023C/EGamma1/NANOAOD/22Sep2023_v1-v1/40000/76b8ca79-99cc-4013-b085-d116dca3dc10.root
/store/data/Run2023C/EGamma1/NANOAOD/22Sep2023_v1-v1/40000/1ed84c01-0264-4099-9969-51104503b4f5.root
/store/data/Run2023C/EGamma1/NANOAOD/22Sep2023_v1-v1/40000/53d60c1a-c814-478d-ba4f-878a7d1d6c5c.root
/store/data/Run2023C/EGamma1/NANOAOD/22Sep2023_v1-v1/40000/78c8a8f7-4545-4772-bc35-265baf41237f.root
/store/data/Run2023C/EGamma1/NANOAOD/22Sep2023_v1-v1/40000/802e1dbc-9046-424c-9d9e-eb4d606466e0.root
/store/data/Run2023C/EGamma1/NANOAOD/22Sep2023_v1-v1/40000/db83e8d0-82be-4512-8b87-ede5923a2209.root
/store/data/Run2023C/EGamma1/NANOAOD/22Sep2023_v1-v1/40000/42b2f7db-2356-4dde-b6e0-2c81945b5e83.root
/store/data/Run2023C/EGamma1/NANOAOD/22Sep2023_v1-v1/40000/ce05c98c-6f0b-4306-ab91-9bf5a81bde3f.root
/store/data/Run2023C/EGamma1/NANOAOD/22Sep2023_v1-v1/40000/8dd0521b-b019-4409-950f-e546149edd75.root
/store/data/Run2023C/EGamma1/NANOAOD/22Sep2023_v1-v1/40000/2114fe1d-5282-4082-8c1f-469dfe4a8d3f.root
/store/data/Run2023C/EGamma1/NANOAOD/22Sep2023_v1-v1/40000/d0639959-a7c3-408d-9d10-42dae5e9adda.root
/store/data/Run2023C/EGamma1/NANOAOD/22Sep2023_v1-v1/40000/f207eba8-dfee-414d-9b3d-12a466de6500.root
/store/data/Run2023C/EGamma1/NANOAOD/22Sep2023_v1-v1/40000/b005fbb2-f874-46a3-ba50-f454d355a452.root
/store/data/Run2023C/EGamma1/NANOAOD/22Sep2023_v1-v1/40000/1b59e599-898c-4833-912b-9493fe3533ed.root
/store/data/Run2023C/EGamma1/NANOAOD/22Sep2023_v1-v1/40000/ed5a30c5-c6a0-4b70-be94-d2cc3e40c5b2.root
/store/data/Run2023C/EGamma1/NANOAOD/22Sep2023_v1-v1/40000/a4c37080-bfc8-4998-96e2-be54d98a5329.root
/store/data/Run2023C/EGamma1/NANOAOD/22Sep2023_v1-v1/40000/1df898be-85e6-4c62-949d-446a16058af2.root
/store/data/Run2023C/EGamma1/NANOAOD/22Sep2023_v1-v1/40000/bfe02bff-607a-4cc8-8486-054fb27bc1cf.root
/store/data/Run2023C/EGamma1/NANOAOD/22Sep2023_v1-v1/40000/cf9b10c6-d0c4-4c13-8ca6-62c686a6a8ec.root
/store/data/Run2023C/EGamma1/NANOAOD/22Sep2023_v1-v1/40000/5de39e7e-edd5-47f6-a7e5-596d795b8590.root
/store/data/Run2023C/EGamma1/NANOAOD/22Sep2023_v1-v1/40000/84ff596c-ce7b-4435-a489-7509ad995401.root
/store/data/Run2023C/EGamma1/NANOAOD/22Sep2023_v1-v1/40000/16fa98bb-76e5-4850-b9d7-23ea3ab3f52a.root
/store/data/Run2023C/EGamma1/NANOAOD/22Sep2023_v1-v1/40000/709c652c-2b32-4ed7-8c8a-f1c5f4e36a04.root
/store/data/Run2023C/EGamma1/NANOAOD/22Sep2023_v1-v1/40000/2fe1e707-b46c-40a1-8854-90287ecd47cc.root
/store/data/Run2023C/EGamma1/NANOAOD/22Sep2023_v1-v1/40000/e76042ef-8dcd-40e2-8861-82061e5c36b0.root
/store/data/Run2023C/EGamma1/NANOAOD/22Sep2023_v1-v1/40000/b8b29c36-e466-463e-8169-b9fcd2825f96.root
/store/data/Run2023C/EGamma1/NANOAOD/22Sep2023_v1-v1/40000/7c6d63a1-7e9b-4965-8cde-e2c319931d23.root
/store/data/Run2023C/EGamma1/NANOAOD/22Sep2023_v1-v1/40000/039a1d6d-67a1-4757-8d1c-ef75828c9e64.root
/store/data/Run2023C/EGamma1/NANOAOD/22Sep2023_v1-v1/40000/efadfe19-daf7-4e4a-9155-6653fe3f36d7.root
/store/data/Run2023C/EGamma1/NANOAOD/22Sep2023_v1-v1/40000/d7680634-23a4-444f-a95a-54bddfc5842d.root
/store/data/Run2023C/EGamma1/NANOAOD/22Sep2023_v1-v1/40000/bdb85587-50a5-4def-9826-93155c961759.root
/store/data/Run2023C/EGamma1/NANOAOD/22Sep2023_v1-v1/40000/82a9f652-45d0-4b2a-a56a-40e919414068.root
/store/data/Run2023C/EGamma1/NANOAOD/22Sep2023_v1-v1/40000/3cf30610-5799-4ffc-9c4d-bd003b15be4b.root
/store/data/Run2023C/EGamma1/NANOAOD/22Sep2023_v1-v1/50000/158e5481-cb26-4c47-9a52-28f6e53ec73f.root