/store/data/Run2023C/Muon1/NANOAOD/22Sep2023_v3-v1/30000/9f781db3-4c09-48e4-81ac-71d4141f46cc.root
/store/data/Run2023C/Muon1/NANOAOD/22Sep2023_v3-v1/40000/49397ba6-c1d8-492b-af98-d7865fd728e4.root
/store/data/Run2023C/Muon1/NANOAOD/22Sep2023_v3-v1/40000/6668767f-3185-444e-a7f1-e670a12add77.root
/store/data/Run2023C/Muon1/NANOAOD/22Sep2023_v3-v1/40000/9056d3bb-1691-498c-8cb6-66f2c2978f60.root
/store/data/Run2023C/Muon1/NANOAOD/22Sep2023_v3-v1/40000/e9ecbf46-d991-4372-a59a-1b8b962e0fa4.root
/store/data/Run2023C/Muon1/NANOAOD/22Sep2023_v3-v1/40000/41a1cd73-e2de-4c0f-a0f7-4a25c071617a.root
/store/data/Run2023C/Muon1/NANOAOD/22Sep2023_v3-v1/40000/68556273-67da-4175-a076-cc8e314d82fd.root
/store/data/Run2023C/Muon1/NANOAOD/22Sep2023_v3-v1/40000/0bfbb7ea-da17-49db-bb11-26e2e4a224f1.root
/store/data/Run2023C/Muon1/NANOAOD/22Sep2023_v3-v1/30000/33c4c7b8-2d46-4ce0-bd2d-926a67312be8.root
/store/data/Run2023C/Muon1/NANOAOD/22Sep2023_v3-v1/40000/68865041-40fc-41de-aee4-4de6b5482e60.root
/store/data/Run2023C/Muon1/NANOAOD/22Sep2023_v3-v1/40000/397593b7-186b-4851-9dc0-c0db6d40e1b4.root
/store/data/Run2023C/Muon1/NANOAOD/22Sep2023_v3-v1/30000/8d6ac874-db38-4a57-8f54-63d8f9c06181.root
/store/data/Run2023C/Muon1/NANOAOD/22Sep2023_v3-v1/30000/4b2b0436-4360-46e9-8707-1ff0ded3888d.root
/store/data/Run2023C/Muon1/NANOAOD/22Sep2023_v3-v1/30000/5095a8aa-1b3a-4ff0-8899-45fdee953156.root
/store/data/Run2023C/Muon1/NANOAOD/22Sep2023_v3-v1/40000/be183dad-7fd9-474a-9c94-afb96ce6ab2e.root
/store/data/Run2023C/Muon1/NANOAOD/22Sep2023_v3-v1/40000/a8f50f91-5134-4998-a7c9-869597718f29.root
/store/data/Run2023C/Muon1/NANOAOD/22Sep2023_v3-v1/40000/c989d95b-1ca2-41e9-a308-246dab6b03a1.root
/store/data/Run2023C/Muon1/NANOAOD/22Sep2023_v3-v1/30000/a26d4d0a-8aef-47fe-b312-b957b2d42e6c.root
/store/data/Run2023C/Muon1/NANOAOD/22Sep2023_v3-v1/30000/b9058687-2065-4b2c-af4b-d318bf71ded0.root
/store/data/Run2023C/Muon1/NANOAOD/22Sep2023_v3-v1/40000/e3b342ba-059f-4d93-b2ae-893f72816661.root
/store/data/Run2023C/Muon1/NANOAOD/22Sep2023_v3-v1/30000/6d7abc9d-439f-4d08-86ea-c9553723fd27.root
/store/data/Run2023C/Muon1/NANOAOD/22Sep2023_v3-v1/30000/39af906c-11da-4b59-8774-f3c206ad4105.root
/store/data/Run2023C/Muon1/NANOAOD/22Sep2023_v3-v1/30000/49de0adc-5709-4af0-a173-549118078b3a.root
/store/data/Run2023C/Muon1/NANOAOD/22Sep2023_v3-v1/40000/5cab519a-e1e9-4fce-bcf9-8a628dd456cf.root
/store/data/Run2023C/Muon1/NANOAOD/22Sep2023_v3-v1/40000/8862805a-0c02-4756-921c-e630999c7cb0.root
/store/data/Run2023C/Muon1/NANOAOD/22Sep2023_v3-v1/40000/46ef0baf-c090-4322-a99c-94d6cef1f238.root
/store/data/Run2023C/Muon1/NANOAOD/22Sep2023_v3-v1/40000/4773ae55-5a5f-48c9-8f60-436f19a7643c.root
/store/data/Run2023C/Muon1/NANOAOD/22Sep2023_v3-v1/40000/1398b2b6-9598-42d9-b323-b7c788a33383.root
/store/data/Run2023C/Muon1/NANOAOD/22Sep2023_v3-v1/40000/35d1a1c1-a4e9-4cbd-885e-d7194ca113aa.root
/store/data/Run2023C/Muon1/NANOAOD/22Sep2023_v3-v1/2520000/7113f7bb-3dce-4334-9575-788a181ac145.root