/store/data/Run2023C/Tau/NANOAOD/22Sep2023_v2-v1/2530000/d01cf62f-17f3-4e82-81ff-0907b829e648.root
/store/data/Run2023C/Tau/NANOAOD/22Sep2023_v2-v1/2530000/43b98970-d175-4521-a085-6b90824c0deb.root
/store/data/Run2023C/Tau/NANOAOD/22Sep2023_v2-v1/2530000/7b1a4944-8d9e-4f50-9421-602191cd4020.root
/store/data/Run2023C/Tau/NANOAOD/22Sep2023_v2-v1/2530000/9a6c42f8-6126-4fe5-939d-eeeb2b8ee10b.root
/store/data/Run2023C/Tau/NANOAOD/22Sep2023_v2-v1/2530000/cacc7e71-9c3b-4e4c-9364-41efccf1aab2.root
/store/data/Run2023C/Tau/NANOAOD/22Sep2023_v2-v1/2530000/85c81651-b0e6-42c9-8fa9-84fefc70241b.root
/store/data/Run2023C/Tau/NANOAOD/22Sep2023_v2-v1/2530000/dc08afd6-262f-4b98-a3a4-6a33e4e6783f.root
/store/data/Run2023C/Tau/NANOAOD/22Sep2023_v2-v1/2530000/7437728e-f3fd-4df2-9530-c01c5e03abca.root
/store/data/Run2023C/Tau/NANOAOD/22Sep2023_v2-v1/2530000/8390bb75-36e2-41aa-a293-7eee32834b91.root
/store/data/Run2023C/Tau/NANOAOD/22Sep2023_v2-v1/2530000/f24bac67-ccf5-4752-b98c-8c52403e0321.root
/store/data/Run2023C/Tau/NANOAOD/22Sep2023_v2-v1/50000/25937910-32b7-4cc7-8524-e6331a5aee1d.root
/store/data/Run2023C/Tau/NANOAOD/22Sep2023_v2-v1/50000/66ee24ed-30d8-4e0d-82f4-744467b507da.root