event,run,lumi,channel_id,is_os,jet1_pt,jet1_eta,jet1_phi,jet1_mass,jet2_pt,jet2_eta,jet2_phi,jet2_mass,lep1_pt,lep1_eta,lep1_phi,lep2_pt,lep2_eta,lep2_phi
260508,1,2369,5,1,179.50813,1.234375,0.79919434,23.268412,21.80768,1.512207,1.2260742,2.0604424,11.578661,-0.51610565,-2.517334,53.267563,0.3479004,-1.7648926
260511,1,2369,2,1,529.87286,1.5214844,-1.6645508,37.42983,33.175385,1.2849121,-2.4282227,8.718767,81.05073,0.8195801,1.5288086,157.25642,0.31939697,1.8464355
260520,1,2369,2,1,109.81002,-0.5432129,-1.6225586,13.346689,23.782207,-0.41192627,2.199707,2.6395388,52.758404,0.9859619,1.8737793,40.461838,0.47930908,0.13433838
260530,1,2369,2,0,120.35924,0.69421387,-2.4042969,13.044128,66.35603,1.4848633,-3.0297852,9.310768,45.492786,-0.22259521,0.99572754,35.989803,0.88061523,-0.85095215
260533,1,2369,0,1,216.63919,-1.5241699,0.5657959,23.906593,92.77438,-1.2770996,-0.046546936,9.067423,97.465904,0.0727644,-2.8746338,94.31338,-0.65856934,-2.9082031
